RC2023-G4A_Pathfinder_6_PLAY_00587497_BallAppearedFromLastToThisImage_U.png;1718181623672;tkalbitz;CenterCirclePoints;440;139;440;138;Left
RC2023-G4A_Pathfinder_6_PLAY_00617881_BallAppearedFromLastToThisImage_U.png;1718181627172;tkalbitz;CenterCirclePoints;597;175;597;175;Left
RC2023-G4A_Pathfinder_6_PLAY_00619376_BallAppearedFromLastToThisImage_U.png;1718181629362;tkalbitz;CenterCirclePoints;605;173;605;173;Left
RC2023-G4A_Pathfinder_6_PLAY_00625237_BallAppearedFromLastToThisImage_U.png;1718184998825;tkalbitz;CenterCirclePoints;121;272;121;272;Left
RC2023-G4B_Pathfinder_6_PLAY_00151832_BallAppearedFromLastToThisImage_U.png;1718181631690;tkalbitz;CenterCirclePoints;441;102;441;102;Left
RC2023-G4B_Pathfinder_6_PLAY_00157980_BallAppearedFromLastToThisImage_U.png;1718181633818;tkalbitz;CenterCirclePoints;438;109;438;109;Left
RC2023-G4B_Pathfinder_6_PLAY_00176750_BallAppearedFromLastToThisImage_U.png;1718181636390;tkalbitz;CenterCirclePoints;205;145;205;145;Right
RC2023-G4B_Pathfinder_6_PLAY_00183073_BallAppearedFromLastToThisImage_U.png;1718181641092;tkalbitz;CenterCirclePoints;492;113;492;113;Right
RC2023-G4B_Pathfinder_6_PLAY_00213348_BallAppearedFromLastToThisImage_U.png;1718181644239;tkalbitz;CenterCirclePoints;430;110;430;110;Left
RC2023-G4B_Pathfinder_6_PLAY_00295988_BallAppearedFromLastToThisImage_U.png;1718181646947;tkalbitz;CenterCirclePoints;473;144;473;144;Left
RC2023-G4B_Pathfinder_6_PLAY_00301486_BallAppearedFromLastToThisImage_U.png;1718181650755;tkalbitz;CenterCirclePoints;321;84;321;84;Left
RC2023-G4B_Pathfinder_6_PLAY_00306464_BallAppearedFromLastToThisImage_U.png;1718197450222;tkalbitz;CenterCirclePoints;116;76;116;76;Right
RC2023-G4B_Pathfinder_6_PLAY_00315103_BallAppearedFromLastToThisImage_U.png;1718181653075;tkalbitz;CenterCirclePoints;406;199;406;199;Right
RC2023-G4B_Pathfinder_6_PLAY_00361124_BallAppearedFromLastToThisImage_U.png;1718181657391;tkalbitz;CenterCirclePoints;357;193;357;193;Left
RC2023-G4B_Pathfinder_6_PLAY_00378905_BallAppearedFromLastToThisImage_U.png;1718181659347;tkalbitz;CenterCirclePoints;119;428;119;428;Right
RC2023-G4B_Pathfinder_6_PLAY_00381798_BallAppearedFromLastToThisImage_U.png;1718181661593;tkalbitz;CenterCirclePoints;3;316;3;316;Left
RC2023-G4B_Pathfinder_6_PLAY_00385393_BallAppearedFromLastToThisImage_U.png;1718181663521;tkalbitz;CenterCirclePoints;317;470;317;470;Right
RC2023-G4B_Pathfinder_6_PLAY_00387393_BallAppearedFromLastToThisImage_U.png;1718181665669;tkalbitz;CenterCirclePoints;323;325;323;325;Left
RC2023-G4B_Pathfinder_6_PLAY_00435289_BallAppearedFromLastToThisImage_U.png;1718181667899;tkalbitz;CenterCirclePoints;501;209;501;209;Right
RC2023-G4B_Pathfinder_6_PLAY_00437316_BallAppearedFromLastToThisImage_U.png;1718181670924;tkalbitz;CenterCirclePoints;32;92;32;92;Left
RC2023-G4B_Pathfinder_6_PLAY_00440488_BallAppearedFromLastToThisImage_U.png;1718181674316;tkalbitz;CenterCirclePoints;452;144;452;144;Right
RC2023-G4B_Pathfinder_6_PLAY_00541025_BallAppearedFromLastToThisImage_U.png;1718181678498;tkalbitz;CenterCirclePoints;560;154;560;154;Right
RC2023-G4B_Pathfinder_6_PLAY_00555636_BallAppearedFromLastToThisImage_U.png;1718181684584;tkalbitz;CenterCirclePoints;157;174;157;174;Left
RC2023-G4B_Pathfinder_6_PLAY_00567581_BallAppearedFromLastToThisImage_U.png;1718181687315;tkalbitz;CenterCirclePoints;366;285;366;285;Right
RC2023-G4B_Pathfinder_6_PLAY_00583028_BallAppearedFromLastToThisImage_U.png;1718181690388;tkalbitz;CenterCirclePoints;622;226;622;226;Right
RC2023-G4B_Pathfinder_6_PLAY_00596852_BallAppearedFromLastToThisImage_U.png;1718185002515;tkalbitz;CenterCirclePoints;158;339;158;339;Left
RC2023-G4B_Pathfinder_6_PLAY_00697145_BallAppearedFromLastToThisImage_U.png;1718181695925;tkalbitz;CenterCirclePoints;85;79;85;79;Right
RC2023-G4B_Pathfinder_6_PLAY_00708197_BallAppearedFromLastToThisImage_U.png;1718185009705;tkalbitz;CenterCirclePoints;111;129;111;129;Right
RC2023-G4B_Pathfinder_6_SET_00671843_BallAppearedFromLastToThisImage_U.png;1718181700111;tkalbitz;CenterCirclePoints;399;133;399;133;Left
RC2023-G4A_Pathfinder_6_PLAY_00341794_BallAppearedFromLastToThisImage_U.png;1715622663161;tkalbitz;GoalPost;45;192;47;3;Left
RC2023-G4A_Pathfinder_6_PLAY_00625237_BallAppearedFromLastToThisImage_U.png;1715622673761;tkalbitz;GoalPost;291;73;294;-1;Right
RC2023-G4A_Pathfinder_6_PLAY_00639567_BallAppearedFromLastToThisImage_U.png;1715622677201;tkalbitz;GoalPost;120;97;118;-1;Right
RC2023-G4B_Pathfinder_6_PLAY_00299559_BallAppearedFromLastToThisImage_U.png;1715678069306;tkalbitz;GoalPost;235;77;239;5;Left
RC2023-G4B_Pathfinder_6_PLAY_00315103_BallAppearedFromLastToThisImage_U.png;1715678073280;tkalbitz;GoalPost;16;93;6;0;Left
RC2023-G4B_Pathfinder_6_SET_00290798_BallAppearedFromLastToThisImage_U.png;1715622710136;tkalbitz;GoalPost;73;91;70;16;Left
RC2023-G4A_Pathfinder_6_READY_00378696_BallAppearedFromLastToThisImage_U.png;1715622682867;tkalbitz;Ignore
RC2023-G4A_Pathfinder_6_PLAY_00301314_BallAppearedFromLastToThisImage_U.png;1715678065526;tkalbitz;NoGoalPost
RC2023-G4A_Pathfinder_6_PLAY_00317303_BallAppearedFromLastToThisImage_U.png;1715622660347;tkalbitz;NoGoalPost
RC2023-G4A_Pathfinder_6_PLAY_00552652_BallAppearedFromLastToThisImage_U.png;1715622666699;tkalbitz;NoGoalPost
RC2023-G4A_Pathfinder_6_PLAY_00558672_BallAppearedFromLastToThisImage_U.png;1715622667835;tkalbitz;NoGoalPost
RC2023-G4B_Pathfinder_6_PLAY_00151832_BallAppearedFromLastToThisImage_U.png;1715622686259;tkalbitz;NoGoalPost
RC2023-G4B_Pathfinder_6_PLAY_00157980_BallAppearedFromLastToThisImage_U.png;1715622688495;tkalbitz;NoGoalPost
RC2023-G4B_Pathfinder_6_PLAY_00312231_BallAppearedFromLastToThisImage_U.png;1715622693645;tkalbitz;NoGoalPost
RC2023-G4B_Pathfinder_6_PLAY_00403718_BallAppearedFromLastToThisImage_U.png;1715678077929;tkalbitz;NoGoalPost
RC2023-G4B_Pathfinder_6_PLAY_00539560_BallAppearedFromLastToThisImage_U.png;1715622697682;tkalbitz;NoGoalPost
RC2023-G4B_Pathfinder_6_READY_00245027_BallAppearedFromLastToThisImage_U.png;1715622701656;tkalbitz;NoGoalPost
