RC2023-G2A_Pathfinder_6_PLAY_00366299_BallAppearedFromLastToThisImage_U.png;1718181027055;tkalbitz;CenterCirclePoints;130;227;130;227;Right
RC2023-G2A_Pathfinder_6_PLAY_00370665_BallAppearedFromLastToThisImage_U.png;1718184832325;tkalbitz;CenterCirclePoints;154;260;154;260;Left
RC2023-G2A_Pathfinder_6_PLAY_00812638_BallAppearedFromLastToThisImage_U.png;1718191831654;tkalbitz;CenterCirclePoints;282;230;282;230;Left
RC2023-G2A_Pathfinder_6_READY_00263499_BallAppearedFromLastToThisImage_U.png;1718181032569;tkalbitz;CenterCirclePoints;209;306;209;306;Right
RC2023-G2A_Pathfinder_6_READY_00266545_BallAppearedFromLastToThisImage_U.png;1718181033791;tkalbitz;CenterCirclePoints;206;306;206;306;Right
RC2023-G2A_Pathfinder_6_READY_00269536_BallAppearedFromLastToThisImage_U.png;1718181035013;tkalbitz;CenterCirclePoints;206;306;206;306;Right
RC2023-G2A_Pathfinder_6_READY_00272606_BallAppearedFromLastToThisImage_U.png;1718181036363;tkalbitz;CenterCirclePoints;202;305;202;305;Right
RC2023-G2A_Pathfinder_6_READY_00275602_BallAppearedFromLastToThisImage_U.png;1718181037594;tkalbitz;CenterCirclePoints;201;305;201;305;Right
RC2023-G2A_Pathfinder_6_READY_00278682_BallAppearedFromLastToThisImage_U.png;1718181039193;tkalbitz;CenterCirclePoints;208;304;208;304;Right
RC2023-G2A_Pathfinder_6_READY_00281734_BallAppearedFromLastToThisImage_U.png;1718181040349;tkalbitz;CenterCirclePoints;206;305;206;305;Right
RC2023-G2A_Pathfinder_6_READY_00284740_BallAppearedFromLastToThisImage_U.png;1718181041626;tkalbitz;CenterCirclePoints;205;301;205;301;Right
RC2023-G2A_Pathfinder_6_READY_00446857_BallAppearedFromLastToThisImage_U.png;1718181044290;tkalbitz;CenterCirclePoints;365;309;365;309;Left
RC2023-G2A_Pathfinder_6_SET_00309497_BallAppearedFromLastToThisImage_U.png;1718181048698;tkalbitz;CenterCirclePoints;249;320;249;320;Right
RC2023-G2A_Pathfinder_6_SET_00470984_BallAppearedFromLastToThisImage_U.png;1718181050464;tkalbitz;CenterCirclePoints;346;383;346;383;Right
RC2023-G2A_Pathfinder_6_SET_00484188_BallAppearedFromLastToThisImage_U.png;1718181052138;tkalbitz;CenterCirclePoints;350;369;350;369;Right
RC2023-G2B_Pathfinder_6_PLAY_00293748_BallAppearedFromLastToThisImage_U.png;1718181055384;tkalbitz;CenterCirclePoints;143;81;143;81;Right
RC2023-G2B_Pathfinder_6_PLAY_00316896_BallAppearedFromLastToThisImage_U.png;1718195100131;tkalbitz;CenterCirclePoints;34;36;34;36;Right
RC2023-G2B_Pathfinder_6_PLAY_00327728_BallAppearedFromLastToThisImage_U.png;1718181081647;tkalbitz;CenterCirclePoints;229;133;229;133;Right
RC2023-G2B_Pathfinder_6_PLAY_00354094_BallAppearedFromLastToThisImage_U.png;1718181084509;tkalbitz;CenterCirclePoints;166;131;166;131;Right
RC2023-G2B_Pathfinder_6_PLAY_00447014_BallAppearedFromLastToThisImage_U.png;1718181086927;tkalbitz;CenterCirclePoints;567;153;567;153;Right
RC2023-G2B_Pathfinder_6_PLAY_00455329_BallAppearedFromLastToThisImage_U.png;1718181123319;tkalbitz;CenterCirclePoints;497;132;497;132;Left
RC2023-G2B_Pathfinder_6_PLAY_00478770_BallAppearedFromLastToThisImage_U.png;1718181126001;tkalbitz;CenterCirclePoints;426;102;426;102;Left
RC2023-G2B_Pathfinder_6_PLAY_00493230_BallAppearedFromLastToThisImage_U.png;1718191834845;tkalbitz;CenterCirclePoints;177;129;177;129;Right
RC2023-G2B_Pathfinder_6_PLAY_00494848_BallAppearedFromLastToThisImage_U.png;1718181129751;tkalbitz;CenterCirclePoints;249;136;249;136;Right
RC2023-G2B_Pathfinder_6_PLAY_01018766_BallAppearedFromLastToThisImage_U.png;1718184839406;tkalbitz;CenterCirclePoints;99;172;99;172;Right
RC2023-G2B_Pathfinder_6_PLAY_01030683_BallAppearedFromLastToThisImage_U.png;1718181135123;tkalbitz;CenterCirclePoints;275;176;275;176;Right
RC2023-G2B_Pathfinder_6_PLAY_01046128_BallAppearedFromLastToThisImage_U.png;1718181146544;tkalbitz;CenterCirclePoints;76;184;76;184;Right
RC2023-G2B_Pathfinder_6_PLAY_01050296_BallAppearedFromLastToThisImage_U.png;1718181151766;tkalbitz;CenterCirclePoints;176;163;176;163;Right
RC2023-G2B_Pathfinder_6_PLAY_01051794_BallAppearedFromLastToThisImage_U.png;1718181154654;tkalbitz;CenterCirclePoints;304;119;304;119;Right
RC2023-G2B_Pathfinder_6_READY_00166682_BallAppearedFromLastToThisImage_U.png;1718181157218;tkalbitz;CenterCirclePoints;577;252;577;252;Left
RC2023-G2B_Pathfinder_6_SET_00204157_BallAppearedFromLastToThisImage_U.png;1718181159846;tkalbitz;CenterCirclePoints;408;249;408;249;Left
RC2023-G2B_Pathfinder_6_SET_00435380_BallAppearedFromLastToThisImage_U.png;1718181163375;tkalbitz;CenterCirclePoints;392;127;392;127;Right
RC2023-G2B_Pathfinder_6_SET_00905933_BallAppearedFromLastToThisImage_U.png;1718181171127;tkalbitz;CenterCirclePoints;333;135;333;135;Right
RC2023-G2A_Pathfinder_6_PLAY_00367893_BallAppearedFromLastToThisImage_U.png;1715677547035;tkalbitz;GoalPost;624;94;627;10;Left
RC2023-G2A_Pathfinder_6_PLAY_00413191_BallAppearedFromLastToThisImage_U.png;1715621000137;tkalbitz;GoalPost;116;42;115;0;Left
RC2023-G2A_Pathfinder_6_READY_00266545_BallAppearedFromLastToThisImage_U.png;1715621016670;tkalbitz;GoalPost;469;104;472;3;Right
RC2023-G2A_Pathfinder_6_READY_00269536_BallAppearedFromLastToThisImage_U.png;1715621021834;tkalbitz;GoalPost;467;102;470;3;Right
RC2023-G2A_Pathfinder_6_READY_00272606_BallAppearedFromLastToThisImage_U.png;1715621026224;tkalbitz;GoalPost;463;103;464;1;Right
RC2023-G2A_Pathfinder_6_READY_00275602_BallAppearedFromLastToThisImage_U.png;1715621030130;tkalbitz;GoalPost;460;102;460;1;Right
RC2023-G2A_Pathfinder_6_READY_00278682_BallAppearedFromLastToThisImage_U.png;1715621038113;tkalbitz;GoalPost;468;101;469;-1;Right
RC2023-G2A_Pathfinder_6_READY_00281734_BallAppearedFromLastToThisImage_U.png;1715621043245;tkalbitz;GoalPost;464;100;465;2;Right
RC2023-G2A_Pathfinder_6_READY_00284740_BallAppearedFromLastToThisImage_U.png;1715621047379;tkalbitz;GoalPost;460;98;462;1;Right
RC2023-G2A_Pathfinder_6_READY_00446857_BallAppearedFromLastToThisImage_U.png;1715621055407;tkalbitz;GoalPost;81;142;68;40;Left
RC2023-G2A_Pathfinder_6_SET_00470984_BallAppearedFromLastToThisImage_U.png;1715621065906;tkalbitz;GoalPost;476;130;474;25;Right
RC2023-G2A_Pathfinder_6_SET_00484188_BallAppearedFromLastToThisImage_U.png;1715677554636;tkalbitz;GoalPost;482;120;482;17;Right
RC2023-G2B_Pathfinder_6_PLAY_00284939_BallAppearedFromLastToThisImage_U.png;1715677557772;tkalbitz;GoalPost;532;277;605;2;Left
RC2023-G2B_Pathfinder_6_PLAY_00288199_BallAppearedFromLastToThisImage_U.png;1715621075582;tkalbitz;GoalPost;584;249;638;4;Left
RC2023-G2B_Pathfinder_6_PLAY_00556478_BallAppearedFromLastToThisImage_U.png;1715621083977;tkalbitz;GoalPost;546;180;564;1;Left
RC2023-G2B_Pathfinder_6_READY_00166682_BallAppearedFromLastToThisImage_U.png;1715677566498;tkalbitz;GoalPost;587;123;600;37;Left
RC2023-G2A_Pathfinder_6_PLAY_00403409_BallAppearedFromLastToThisImage_U.png;1718181029020;tkalbitz;NoCenterCirclePoints
RC2023-G2A_Pathfinder_6_PLAY_00411480_BallAppearedFromLastToThisImage_U.png;1718181031128;tkalbitz;NoCenterCirclePoints
RC2023-G2B_Pathfinder_6_PLAY_00284939_BallAppearedFromLastToThisImage_U.png;1718197426424;tkalbitz;NoCenterCirclePoints
RC2023-G2B_Pathfinder_6_PLAY_00318533_BallAppearedFromLastToThisImage_U.png;1718184835336;tkalbitz;NoCenterCirclePoints
RC2023-G2A_Pathfinder_6_PLAY_00426899_BallAppearedFromLastToThisImage_U.png;1715621004811;tkalbitz;NoGoalPost
RC2023-G2A_Pathfinder_6_SET_00327619_BallAppearedFromLastToThisImage_U.png;1715677551570;tkalbitz;NoGoalPost
RC2023-G2B_Pathfinder_6_PLAY_00270661_BallAppearedFromLastToThisImage_U.png;1715621072448;tkalbitz;NoGoalPost
