GO2024-G8A_Curiosity_4_SET_00080734_BallAppearedFromLastToThisImage_U.png;1718127887473;tkalbitz;CenterCirclePoints;23;114;23;114;Left
GO2024-G8A_Curiosity_4_SET_00080734_BallAppearedFromLastToThisImage_U.png;1718127891715;tkalbitz;CenterCirclePoints;302;92;302;92;Right
GO2024-G8A_Curiosity_4_SET_00072735_BallAppearedFromLastToThisImage_U.png;1715461882831;tkalbitz;GoalPost;270;151;269;79;Left
GO2024-G8A_Curiosity_4_SET_00072735_BallAppearedFromLastToThisImage_U.png;1715461886551;tkalbitz;GoalPost;269;79;395;76;Middle
GO2024-G8A_Curiosity_4_SET_00072735_BallAppearedFromLastToThisImage_U.png;1715461895330;tkalbitz;GoalPost;395;77;396;145;Right
GO2024-G8A_Curiosity_4_SET_00080734_BallAppearedFromLastToThisImage_U.png;1715461900322;tkalbitz;GoalPost;135;49;128;1;Right
GO2024-G8A_Curiosity_4_PLAY_00104412_BallAppearedFromLastToThisImage_U.png;1715669902776;tkalbitz;NoGoalPost
