RC2022_SemiFinals-vsNaoDevils-G1A_CometInterceptor_4_PLAY_00153766_BallAppearedFromLastToThisImage_U.png;1718196685162;tkalbitz;CenterCirclePoints;91;158;92;158;Right
RC2022_SemiFinals-vsNaoDevils-G1A_CometInterceptor_4_PLAY_00182896_BallAppearedFromLastToThisImage_U.png;1718196687194;tkalbitz;CenterCirclePoints;131;194;131;194;Right
RC2022_SemiFinals-vsNaoDevils-G1A_CometInterceptor_4_PLAY_00244259_BallAppearedFromLastToThisImage_U.png;1718196689366;tkalbitz;CenterCirclePoints;123;162;123;162;Right
RC2022_SemiFinals-vsNaoDevils-G1A_CometInterceptor_4_PLAY_00728426_BallAppearedFromLastToThisImage_U.png;1718196859478;tkalbitz;CenterCirclePoints;40;85;40;85;Right
RC2022_SemiFinals-vsNaoDevils-G1A_CometInterceptor_4_PLAY_00748680_BallAppearedFromLastToThisImage_U.png;1718196700897;tkalbitz;CenterCirclePoints;281;196;281;196;Left
RC2022_SemiFinals-vsNaoDevils-G1A_DeepImpact_1_PLAY_00148487_BallAppearedFromLastToThisImage_U.png;1718196711119;tkalbitz;CenterCirclePoints;124;77;124;77;Right
RC2022_SemiFinals-vsNaoDevils-G1A_DeepImpact_1_PLAY_00149913_BallAppearedFromLastToThisImage_U.png;1718196713349;tkalbitz;CenterCirclePoints;123;79;123;79;Right
RC2022_SemiFinals-vsNaoDevils-G1A_DeepImpact_1_PLAY_00156389_BallAppearedFromLastToThisImage_U.png;1718196714893;tkalbitz;CenterCirclePoints;139;77;139;77;Right
RC2022_SemiFinals-vsNaoDevils-G1A_DeepImpact_1_PLAY_00172248_BallAppearedFromLastToThisImage_U.png;1718196717870;tkalbitz;CenterCirclePoints;130;78;130;78;Right
RC2022_SemiFinals-vsNaoDevils-G1A_DeepImpact_1_PLAY_00175943_BallAppearedFromLastToThisImage_U.png;1718196720578;tkalbitz;CenterCirclePoints;132;77;132;77;Right
RC2022_SemiFinals-vsNaoDevils-G1A_DeepImpact_1_PLAY_00178096_BallAppearedFromLastToThisImage_U.png;1718196722568;tkalbitz;CenterCirclePoints;133;77;133;77;Right
RC2022_SemiFinals-vsNaoDevils-G1A_Helios_2_PLAY_00184937_BallAppearedFromLastToThisImage_U.png;1718196862346;tkalbitz;CenterCirclePoints;75;111;75;111;Right
RC2022_SemiFinals-vsNaoDevils-G1A_Helios_2_PLAY_00202277_BallAppearedFromLastToThisImage_U.png;1718196864318;tkalbitz;CenterCirclePoints;89;177;89;177;Right
RC2022_SemiFinals-vsNaoDevils-G1A_Helios_2_PLAY_00480707_BallAppearedFromLastToThisImage_U.png;1718197956877;tkalbitz;CenterCirclePoints;18;212;18;212;Right
RC2022_SemiFinals-vsNaoDevils-G1A_Pathfinder_3_PLAY_00125323_BallAppearedFromLastToThisImage_U.png;1718196866838;tkalbitz;CenterCirclePoints;497;334;497;334;Right
RC2022_SemiFinals-vsNaoDevils-G1A_Pathfinder_3_PLAY_00492782_BallAppearedFromLastToThisImage_U.png;1718196871958;tkalbitz;CenterCirclePoints;422;116;422;116;Left
RC2022_SemiFinals-vsNaoDevils-G1A_Pathfinder_3_PLAY_00493822_BallAppearedFromLastToThisImage_U.png;1718196881543;tkalbitz;CenterCirclePoints;422;116;422;116;Left
RC2022_SemiFinals-vsNaoDevils-G1A_Pathfinder_3_PLAY_00494993_BallAppearedFromLastToThisImage_U.png;1718196885797;tkalbitz;CenterCirclePoints;421;116;421;116;Left
RC2022_SemiFinals-vsNaoDevils-G1A_Pathfinder_3_PLAY_00499952_BallAppearedFromLastToThisImage_U.png;1718196888059;tkalbitz;CenterCirclePoints;411;108;411;108;Left
RC2022_SemiFinals-vsNaoDevils-G1A_Pathfinder_3_PLAY_00651111_BallAppearedFromLastToThisImage_U.png;1718196889609;tkalbitz;CenterCirclePoints;431;117;431;117;Left
RC2022_SemiFinals-vsNaoDevils-G1A_Pioneer_5_PLAY_00173860_BallAppearedFromLastToThisImage_U.png;1718196892831;tkalbitz;CenterCirclePoints;628;131;628;131;Left
RC2022_SemiFinals-vsNaoDevils-G1A_Pioneer_5_PLAY_00381008_BallAppearedFromLastToThisImage_U.png;1718196895557;tkalbitz;CenterCirclePoints;481;168;481;168;Left
RC2022_SemiFinals-vsNaoDevils-G1A_Pioneer_5_PLAY_00384482_BallAppearedFromLastToThisImage_U.png;1718196897481;tkalbitz;CenterCirclePoints;578;225;578;225;Left
RC2022_SemiFinals-vsNaoDevils-G1A_Pioneer_5_PLAY_00406016_BallAppearedFromLastToThisImage_U.png;1718196899563;tkalbitz;CenterCirclePoints;536;205;536;205;Left
RC2022_SemiFinals-vsNaoDevils-G1A_Pioneer_5_PLAY_00407059_BallAppearedFromLastToThisImage_U.png;1718197959814;tkalbitz;CenterCirclePoints;546;224;546;224;Left
RC2022_SemiFinals-vsNaoDevils-G1A_Pioneer_5_PLAY_00433508_BallAppearedFromLastToThisImage_U.png;1718196902610;tkalbitz;CenterCirclePoints;327;247;327;247;Left
RC2022_SemiFinals-vsNaoDevils-G1A_Pioneer_5_PLAY_00437865_BallAppearedFromLastToThisImage_U.png;1718196906552;tkalbitz;CenterCirclePoints;408;164;408;164;Left
RC2022_SemiFinals-vsNaoDevils-G1A_Pioneer_5_PLAY_00743457_BallAppearedFromLastToThisImage_U.png;1718196911110;tkalbitz;CenterCirclePoints;65;188;65;188;Right
RC2022_SemiFinals-vsNaoDevils-G1A_Pioneer_5_PLAY_00746335_BallAppearedFromLastToThisImage_U.png;1718196913454;tkalbitz;CenterCirclePoints;304;196;304;196;Right
RC2022_SemiFinals-vsNaoDevils-G1B_CometInterceptor_4_PLAY_00344541_BallAppearedFromLastToThisImage_U.png;1718196924301;tkalbitz;CenterCirclePoints;380;273;380;273;Left
RC2022_SemiFinals-vsNaoDevils-G1B_Helios_2_PLAY_00144727_BallAppearedFromLastToThisImage_U.png;1718196928981;tkalbitz;CenterCirclePoints;105;106;105;106;Right
RC2022_SemiFinals-vsNaoDevils-G1B_Helios_2_PLAY_00331335_BallAppearedFromLastToThisImage_U.png;1718196931203;tkalbitz;CenterCirclePoints;26;60;26;60;Right
RC2022_SemiFinals-vsNaoDevils-G1B_Helios_2_PLAY_00347228_BallAppearedFromLastToThisImage_U.png;1718196933465;tkalbitz;CenterCirclePoints;627;147;627;147;Left
RC2022_SemiFinals-vsNaoDevils-G1B_Helios_2_PLAY_00373255_BallAppearedFromLastToThisImage_U.png;1718196936373;tkalbitz;CenterCirclePoints;404;138;404;138;Left
RC2022_SemiFinals-vsNaoDevils-G1B_Helios_2_PLAY_00738810_BallAppearedFromLastToThisImage_U.png;1718196938927;tkalbitz;CenterCirclePoints;68;133;68;133;Right
RC2022_SemiFinals-vsNaoDevils-G1B_Helios_2_PLAY_00776256_BallAppearedFromLastToThisImage_U.png;1718196941079;tkalbitz;CenterCirclePoints;338;251;338;251;Left
RC2022_SemiFinals-vsNaoDevils-G1B_Helios_2_PLAY_00813545_BallAppearedFromLastToThisImage_U.png;1718196943199;tkalbitz;CenterCirclePoints;291;309;291;309;Left
RC2022_SemiFinals-vsNaoDevils-G1B_Helios_2_PLAY_00814666_BallAppearedFromLastToThisImage_U.png;1718196945163;tkalbitz;CenterCirclePoints;364;314;364;314;Left
RC2022_SemiFinals-vsNaoDevils-G1B_Pathfinder_3_PLAY_00270227_BallAppearedFromLastToThisImage_U.png;1718196950602;tkalbitz;CenterCirclePoints;338;255;338;255;Left
RC2022_SemiFinals-vsNaoDevils-G1B_Pathfinder_3_PLAY_00328668_BallAppearedFromLastToThisImage_U.png;1718196953632;tkalbitz;CenterCirclePoints;215;85;215;85;Right
RC2022_SemiFinals-vsNaoDevils-G1B_Pathfinder_3_PLAY_00372389_BallAppearedFromLastToThisImage_U.png;1718196957664;tkalbitz;CenterCirclePoints;446;212;446;212;Left
RC2022_SemiFinals-vsNaoDevils-G1B_Pathfinder_3_PLAY_00390452_BallAppearedFromLastToThisImage_U.png;1718196963254;tkalbitz;CenterCirclePoints;362;248;362;248;Right
RC2022_SemiFinals-vsNaoDevils-G1B_Pathfinder_3_PLAY_00720277_BallAppearedFromLastToThisImage_U.png;1718197969570;tkalbitz;CenterCirclePoints;27;194;27;194;Right
RC2022_SemiFinals-vsNaoDevils-G1B_Pioneer_5_PLAY_00333971_BallAppearedFromLastToThisImage_U.png;1718196971349;tkalbitz;CenterCirclePoints;159;223;159;223;Left
RC2022_SemiFinals-vsNaoDevils-G1A_CometInterceptor_4_PLAY_00394950_BallAppearedFromLastToThisImage_U.png;1718196692619;tkalbitz;NoCenterCirclePoints
RC2022_SemiFinals-vsNaoDevils-G1A_CometInterceptor_4_PLAY_00530361_BallAppearedFromLastToThisImage_U.png;1718196694211;tkalbitz;NoCenterCirclePoints
RC2022_SemiFinals-vsNaoDevils-G1A_Pathfinder_3_PLAY_00232109_BallAppearedFromLastToThisImage_U.png;1718196869312;tkalbitz;NoCenterCirclePoints
RC2022_SemiFinals-vsNaoDevils-G1A_Pioneer_5_PLAY_00246068_BallAppearedFromLastToThisImage_U.png;1718197958230;tkalbitz;NoCenterCirclePoints
RC2022_SemiFinals-vsNaoDevils-G1B_CometInterceptor_4_PLAY_00322347_BallAppearedFromLastToThisImage_U.png;1718196917844;tkalbitz;NoCenterCirclePoints
RC2022_SemiFinals-vsNaoDevils-G1B_Helios_2_PLAY_00109357_BallAppearedFromLastToThisImage_U.png;1718196927213;tkalbitz;NoCenterCirclePoints
RC2022_SemiFinals-vsNaoDevils-G1B_Helios_2_PLAY_00314784_BallAppearedFromLastToThisImage_U.png;1718197964052;tkalbitz;NoCenterCirclePoints
RC2022_SemiFinals-vsNaoDevils-G1B_Pathfinder_3_PLAY_00132439_BallAppearedFromLastToThisImage_U.png;1718196947684;tkalbitz;NoCenterCirclePoints
RC2022_SemiFinals-vsNaoDevils-G1B_Pathfinder_3_PLAY_00313256_BallAppearedFromLastToThisImage_U.png;1718196952064;tkalbitz;NoCenterCirclePoints
RC2022_SemiFinals-vsNaoDevils-G1B_Pathfinder_3_PLAY_00765061_BallAppearedFromLastToThisImage_U.png;1718196966797;tkalbitz;NoCenterCirclePoints
RC2022_SemiFinals-vsNaoDevils-G1B_Pioneer_5_PLAY_00311675_BallAppearedFromLastToThisImage_U.png;1718196969111;tkalbitz;NoCenterCirclePoints
