2016WMLeipzigG11A_Gargamel_00192389_L.png
2016WMLeipzigG11A_Gargamel_00204978_L.png
2016WMLeipzigG11A_Gargamel_00208949_L.png
2016WMLeipzigG11A_Gargamel_00210567_L.png
2016WMLeipzigG11A_Gargamel_00231360_L.png
2016WMLeipzigG11A_Gargamel_00234673_L.png
2016WMLeipzigG11A_Gargamel_00243030_L.png
2016WMLeipzigG11A_Gargamel_00245077_L.png
2016WMLeipzigG11A_Gargamel_00246728_L.png
2016WMLeipzigG11A_Gargamel_00276208_L.png
2016WMLeipzigG11A_Gargamel_00278038_L.png
2016WMLeipzigG11A_Gargamel_00282213_L.png
2016WMLeipzigG11A_Gargamel_00284345_L.png
2016WMLeipzigG11A_Gargamel_00299547_L.png
2016WMLeipzigG11A_Gargamel_00429056_L.png
2016WMLeipzigG11A_Gargamel_00596575_L.png
2016WMLeipzigG11A_Gargamel_00600951_L.png
2016WMLeipzigG11A_Gargamel_00602286_L.png
2016WMLeipzigG11A_Joker_00097308_L.png
2016WMLeipzigG11A_Joker_00209938_L.png
2016WMLeipzigG11A_Joker_00212195_L.png
2016WMLeipzigG11A_Joker_00217899_L.png
2016WMLeipzigG11A_Joker_00219745_L.png
2016WMLeipzigG11A_Joker_00234357_L.png
2016WMLeipzigG11A_Joker_00236313_L.png
2016WMLeipzigG11A_Joker_00243404_L.png
2016WMLeipzigG11A_Joker_00245946_L.png
2016WMLeipzigG11A_Joker_00248572_L.png
2016WMLeipzigG11A_Joker_00251095_L.png
2016WMLeipzigG11A_Joker_00252846_L.png
2016WMLeipzigG11A_Joker_00256569_L.png
2016WMLeipzigG11A_Joker_00258528_L.png
2016WMLeipzigG11A_Joker_00260659_L.png
2016WMLeipzigG11A_Joker_00363693_L.png
2016WMLeipzigG11A_Joker_00365307_L.png
2016WMLeipzigG11A_Joker_00397566_L.png
2016WMLeipzigG11A_Joker_00411313_L.png
2016WMLeipzigG11A_Joker_00413166_L.png
2016WMLeipzigG11A_Joker_00414757_L.png
2016WMLeipzigG11A_Joker_00419384_L.png
2016WMLeipzigG11A_Joker_00422496_L.png
2016WMLeipzigG11A_Joker_00432852_L.png
2016WMLeipzigG11A_Joker_00593317_L.png
2016WMLeipzigG11A_Megamind_00179021_L.png
2016WMLeipzigG11A_Megamind_00180815_L.png
2016WMLeipzigG11A_Megamind_00182495_L.png
2016WMLeipzigG11A_Megamind_00186094_L.png
2016WMLeipzigG11A_Megamind_00187841_L.png
2016WMLeipzigG11A_Megamind_00189459_L.png
2016WMLeipzigG11A_Megamind_00193074_L.png
2016WMLeipzigG11A_Megamind_00197487_L.png
2016WMLeipzigG11A_Megamind_00199521_L.png
2016WMLeipzigG11A_Megamind_00224509_L.png
2016WMLeipzigG11A_Megamind_00228874_L.png
2016WMLeipzigG11A_Megamind_00230779_L.png
2016WMLeipzigG11A_MisterBurns_00163117_L.png
2016WMLeipzigG11A_MisterBurns_00226062_L.png
2016WMLeipzigG11A_MisterBurns_00239659_L.png
2016WMLeipzigG11A_MisterBurns_00249843_L.png
2016WMLeipzigG11A_MisterBurns_00256169_L.png
2016WMLeipzigG11A_MisterBurns_00258516_L.png
2016WMLeipzigG11B_MisterBurns_00146129_L.png
2016WMLeipzigG11B_MisterBurns_00147913_L.png
2016WMLeipzigG11B_MisterBurns_00149769_L.png
2016WMLeipzigG11B_MisterBurns_00151797_L.png
2016WMLeipzigG11B_MisterBurns_00154871_L.png
2016WMLeipzigG11B_MisterBurns_00159846_L.png
2016WMLeipzigG11B_MisterBurns_00212636_L.png
2016WMLeipzigG11B_MisterBurns_00216080_L.png
2016WMLeipzigG11B_MisterBurns_00280165_L.png
2016WMLeipzigG11B_MisterBurns_00293466_L.png
2016WMLeipzigG11B_MisterBurns_00295665_L.png
2016WMLeipzigG11B_MisterBurns_00297836_L.png
2016WMLeipzigG11B_MisterBurns_00306454_L.png
2016WMLeipzigG11B_MisterBurns_00308273_L.png
2016WMLeipzigG11B_MisterBurns_00309885_L.png
2016WMLeipzigG11B_MisterBurns_00316073_L.png
2016WMLeipzigG11B_MisterBurns_00327857_L.png
2016WMLeipzigG11B_MisterBurns_00329812_L.png
2016WMLeipzigG11B_MisterBurns_00336210_L.png
2016WMLeipzigG11B_MisterBurns_00338036_L.png
2016WMLeipzigG11B_MisterBurns_00356656_L.png
2016WMLeipzigG11B_MisterBurns_00358496_L.png
2016WMLeipzigG11B_MisterBurns_00370173_L.png
2016WMLeipzigG11B_MisterBurns_00379394_L.png
2016WMLeipzigG11B_MisterBurns_00397656_L.png
2016WMLeipzigG11B_MisterBurns_00408076_L.png
2016WMLeipzigG11B_MisterBurns_00413846_L.png
2016WMLeipzigG11B_MisterBurns_00415584_L.png
2016WMLeipzigG11B_MisterBurns_00417571_L.png
2016WMLeipzigG11B_MisterBurns_00419264_L.png
2016WMLeipzigG11B_MisterBurns_00421340_L.png
2016WMLeipzigG11B_MisterBurns_00423410_L.png
2016WMLeipzigG11B_MisterBurns_00426378_L.png
2016WMLeipzigG11B_MisterBurns_00429761_L.png
2016WMLeipzigG11B_MisterBurns_00431669_L.png
2016WMLeipzigG11B_MisterBurns_00443102_L.png
2016WMLeipzigG11B_MisterBurns_00548281_L.png
2016WMLeipzigG11B_MisterBurns_00549910_L.png
2016WMLeipzigG11B_MisterBurns_00551709_L.png
2016WMLeipzigG11B_MisterBurns_00555940_L.png
2016WMLeipzigG11B_MisterBurns_00558510_L.png
2016WMLeipzigG11B_MisterBurns_00560549_L.png
2016WMLeipzigG11B_MisterBurns_00562351_L.png
2016WMLeipzigG11B_MisterBurns_00574497_L.png
2016WMLeipzigG11B_MisterBurns_00576577_L.png
2016WMLeipzigG11B_MisterBurns_00579000_L.png
2016WMLeipzigG11B_MisterBurns_00581534_L.png
2016WMLeipzigG11B_MisterBurns_00613571_L.png
2016WMLeipzigG11B_MisterBurns_00617158_L.png
2016WMLeipzigG11B_MisterBurns_00620804_L.png
2016WMLeipzigG11B_MisterBurns_00622417_L.png
2016WMLeipzigG11B_MisterBurns_00653850_L.png
2016WMLeipzigG11B_MisterBurns_00656375_L.png
2016WMLeipzigG11B_Shredder_00057922_L.png
2016WMLeipzigG11C_Gargamel_00094742_L.png
2016WMLeipzigG11C_Gargamel_00096503_L.png
2016WMLeipzigG11C_Gargamel_00107198_L.png
2016WMLeipzigG11C_Gargamel_00120495_L.png
2016WMLeipzigG11C_Gargamel_00207226_L.png
2016WMLeipzigG11C_Gargamel_00208410_L.png
2016WMLeipzigG11C_Gargamel_00211221_L.png
2016WMLeipzigG11C_Gargamel_00240688_L.png
2016WMLeipzigG11C_Gargamel_00246412_L.png
2016WMLeipzigG11C_Gargamel_00248259_L.png
2016WMLeipzigG11C_Gargamel_00255398_L.png
2016WMLeipzigG11C_Gargamel_00266181_L.png
2016WMLeipzigG11C_Gargamel_00269417_L.png
2016WMLeipzigG11C_Gargamel_00271349_L.png
2016WMLeipzigG11C_Gargamel_00345496_L.png
2016WMLeipzigG11C_Gargamel_00348149_L.png
2016WMLeipzigG11C_Gargamel_00350177_L.png
2016WMLeipzigG11C_Gargamel_00352859_L.png
2016WMLeipzigG11C_Gargamel_00353979_L.png
2016WMLeipzigG11C_Gargamel_00355841_L.png
2016WMLeipzigG11C_Gargamel_00358170_L.png
2016WMLeipzigG11C_Gargamel_00360325_L.png
2016WMLeipzigG11C_Gargamel_00362093_L.png
2016WMLeipzigG11C_Gargamel_00364084_L.png
2016WMLeipzigG11C_Gargamel_00365827_L.png
2016WMLeipzigG11C_Gargamel_00367506_L.png
2016WMLeipzigG11C_Gargamel_00371258_L.png
2016WMLeipzigG11C_Gargamel_00373135_L.png
2016WMLeipzigG11C_Gargamel_00376458_L.png
2016WMLeipzigG11C_Gargamel_00383797_L.png
2016WMLeipzigG11C_Gargamel_00393172_L.png
2016WMLeipzigG11C_Gargamel_00401876_L.png
2016WMLeipzigG11C_Gargamel_00408368_L.png
2016WMLeipzigG11C_Gargamel_00416133_L.png
2016WMLeipzigG11C_Gargamel_00468761_L.png
2016WMLeipzigG11C_Gargamel_00476016_L.png
2016WMLeipzigG11C_Gargamel_00477848_L.png
2016WMLeipzigG11C_Gargamel_00479703_L.png
2016WMLeipzigG11C_Gargamel_00481919_L.png
2016WMLeipzigG11C_Gargamel_00483925_L.png
2016WMLeipzigG11C_Gargamel_00494098_L.png
2016WMLeipzigG11C_Gargamel_00516345_L.png
2016WMLeipzigG11C_Gargamel_00518979_L.png
2016WMLeipzigG11C_Gargamel_00540994_L.png
2016WMLeipzigG11C_Gargamel_00542673_L.png
2016WMLeipzigG11C_Gargamel_00553073_L.png
2016WMLeipzigG11C_Gargamel_00684591_L.png
2016WMLeipzigG11C_Gargamel_00687343_L.png
2016WMLeipzigG11C_Gargamel_00689991_L.png
2016WMLeipzigG11C_Gargamel_00691328_L.png
2016WMLeipzigG11C_Joker_00192965_L.png
2016WMLeipzigG11C_Joker_00272017_L.png
2016WMLeipzigG11C_Joker_00274446_L.png
2016WMLeipzigG11C_Joker_00276907_L.png
2016WMLeipzigG11C_Joker_00328985_L.png
2016WMLeipzigG11C_Joker_00330732_L.png
2016WMLeipzigG11C_Joker_00344810_L.png
2016WMLeipzigG11C_Joker_00357370_L.png
2016WMLeipzigG11C_Joker_00412650_L.png
2016WMLeipzigG11C_Joker_00417562_L.png
2016WMLeipzigG11C_Joker_00419740_L.png
2016WMLeipzigG11C_Joker_00423690_L.png
2016WMLeipzigG11C_Joker_00427702_L.png
2016WMLeipzigG11C_Joker_00429851_L.png
2016WMLeipzigG11C_Joker_00440492_L.png
2016WMLeipzigG11C_Joker_00563465_L.png
2016WMLeipzigG11C_Joker_00565010_L.png
2016WMLeipzigG11C_Joker_00572409_L.png
2016WMLeipzigG11C_Megamind_00140820_L.png
2016WMLeipzigG11C_Megamind_00150017_L.png
2016WMLeipzigG11C_Megamind_00154318_L.png
2016WMLeipzigG11C_Megamind_00156921_L.png
2016WMLeipzigG11C_Megamind_00159303_L.png
2016WMLeipzigG11C_Megamind_00161525_L.png
2016WMLeipzigG11C_Megamind_00162737_L.png
2016WMLeipzigG11C_Megamind_00164324_L.png
2016WMLeipzigG11C_Megamind_00177832_L.png
2016WMLeipzigG11C_Megamind_00181421_L.png
2016WMLeipzigG11C_Megamind_00183413_L.png
2016WMLeipzigG11C_Megamind_00185486_L.png
2016WMLeipzigG11C_Megamind_00191528_L.png
2016WMLeipzigG11C_Megamind_00240459_L.png
2016WMLeipzigG11C_Megamind_00262961_L.png
2016WMLeipzigG11C_Megamind_00264756_L.png
2016WMLeipzigG11C_Megamind_00354720_L.png
2016WMLeipzigG11C_Megamind_00374651_L.png
2016WMLeipzigG11C_Megamind_00376367_L.png
2016WMLeipzigG11C_Megamind_00568291_L.png
2016WMLeipzigG11C_Megamind_00571960_L.png
2016WMLeipzigG11C_Megamind_00585921_L.png
2016WMLeipzigG11C_Megamind_00587021_L.png
2016WMLeipzigG11C_Megamind_00600124_L.png
2016WMLeipzigG11C_Megamind_00602209_L.png
2016WMLeipzigG11C_Megamind_00604153_L.png
2016WMLeipzigG11C_Megamind_00605988_L.png
2016WMLeipzigG11C_Megamind_00607759_L.png
2016WMLeipzigG11C_Megamind_00609479_L.png
2016WMLeipzigG11C_Megamind_00611110_L.png
2016WMLeipzigG11C_Megamind_00613060_L.png
2016WMLeipzigG11C_Megamind_00661702_L.png
2016WMLeipzigG11C_Megamind_00663316_L.png
2016WMLeipzigG11C_Megamind_00664977_L.png
2016WMLeipzigG11C_MisterBurns_00209338_L.png
2016WMLeipzigG11C_MisterBurns_00216462_L.png
2016WMLeipzigG11C_MisterBurns_00218517_L.png
2016WMLeipzigG11C_MisterBurns_00222421_L.png
2016WMLeipzigG11C_MisterBurns_00224179_L.png
2016WMLeipzigG11C_MisterBurns_00235537_L.png
2016WMLeipzigG11C_MisterBurns_00240349_L.png
2016WMLeipzigG11C_MisterBurns_00244394_L.png
2016WMLeipzigG11C_MisterBurns_00246157_L.png
2016WMLeipzigG11C_MisterBurns_00255729_L.png
2016WMLeipzigG11C_MisterBurns_00374149_L.png
2016WMLeipzigG11C_MisterBurns_00381683_L.png
2016WMLeipzigG11C_MisterBurns_00387685_L.png
2016WMLeipzigG11C_MisterBurns_00390329_L.png
2016WMLeipzigG11C_MisterBurns_00392681_L.png
2016WMLeipzigG11C_MisterBurns_00492640_L.png
2016WMLeipzigG11C_MisterBurns_00594165_L.png
2016WMLeipzigG11C_MisterBurns_00597673_L.png
2016WMLeipzigG11C_MisterBurns_00599554_L.png
2016WMLeipzigG11C_MisterBurns_00601225_L.png
2016WMLeipzigG11C_Shredder_00252400_L.png
2016WMLeipzigG11C_Shredder_00632412_L.png
2016WMLeipzigG11D_Joker_00225247_L.png
2016WMLeipzigG11D_Joker_00226884_L.png
2016WMLeipzigG11D_Joker_00228520_L.png
