GO2024-G4A_Genesis_7_PLAY_00551696_BallVanishedFromLastToThisImage_U.png;1718125858005;tkalbitz;CenterCirclePoints;343;222;343;222;Left
GO2024-G4A_Genesis_7_PLAY_00553274_BallVanishedFromLastToThisImage_U.png;1718125861633;tkalbitz;CenterCirclePoints;62;198;62;198;Left
GO2024-G4A_Genesis_7_PLAY_00621430_BallVanishedFromLastToThisImage_U.png;1718125866557;tkalbitz;CenterCirclePoints;66;359;66;359;Right
GO2024-G4A_Genesis_7_PLAY_00820221_BallVanishedFromLastToThisImage_U.png;1718130199831;tkalbitz;CenterCirclePoints;319;269;319;269;Left
GO2024-G4A_Genesis_7_PLAY_00820221_BallVanishedFromLastToThisImage_U.png;1718130201571;tkalbitz;CenterCirclePoints;467;130;467;130;Right
GO2024-G4A_Genesis_7_PLAY_00827392_BallVanishedFromLastToThisImage_U.png;1718125871827;tkalbitz;CenterCirclePoints;55;299;55;299;Left
GO2024-G4A_Genesis_7_SET_00259062_BallVanishedFromLastToThisImage_U.png;1718125874842;tkalbitz;CenterCirclePoints;422;278;422;278;Right
GO2024-G4B_Genesis_7_PLAY_00207536_BallVanishedFromLastToThisImage_U.png;1718132560584;tkalbitz;CenterCirclePoints;161;197;161;197;Right
GO2024-G4B_Genesis_7_PLAY_00476996_BallVanishedFromLastToThisImage_U.png;1718125881266;tkalbitz;CenterCirclePoints;183;259;183;259;Left
GO2024-G4B_Genesis_7_PLAY_00476996_BallVanishedFromLastToThisImage_U.png;1718125884790;tkalbitz;CenterCirclePoints;145;131;145;131;Right
GO2024-G4B_Genesis_7_PLAY_00478813_BallVanishedFromLastToThisImage_U.png;1718125887328;tkalbitz;CenterCirclePoints;123;257;123;257;Left
GO2024-G4B_Genesis_7_PLAY_00478813_BallVanishedFromLastToThisImage_U.png;1718125890115;tkalbitz;CenterCirclePoints;81;116;81;116;Right
GO2024-G4B_Genesis_7_PLAY_00589407_BallVanishedFromLastToThisImage_U.png;1718125894360;tkalbitz;CenterCirclePoints;377;250;377;250;Left
GO2024-G4B_Genesis_7_PLAY_00690617_BallVanishedFromLastToThisImage_U.png;1718125899045;tkalbitz;CenterCirclePoints;37;248;37;248;Left
GO2024-G4B_Genesis_7_PLAY_00692542_BallVanishedFromLastToThisImage_U.png;1718125902037;tkalbitz;CenterCirclePoints;13;290;13;290;Left
GO2024-G4B_Genesis_7_SET_00193063_BallVanishedFromLastToThisImage_U.png;1718125906447;tkalbitz;CenterCirclePoints;511;316;511;316;Left
GO2024-G4B_Genesis_7_SET_00196108_BallVanishedFromLastToThisImage_U.png;1718125909799;tkalbitz;CenterCirclePoints;522;317;522;317;Left
GO2024-G4B_Genesis_7_SET_00199137_BallVanishedFromLastToThisImage_U.png;1718125913077;tkalbitz;CenterCirclePoints;520;315;520;315;Left
GO2024-G4B_Genesis_7_SET_00204292_BallVanishedFromLastToThisImage_U.png;1718125916294;tkalbitz;CenterCirclePoints;102;346;102;346;Left
GO2024-G4B_Genesis_7_SET_00204292_BallVanishedFromLastToThisImage_U.png;1718125919477;tkalbitz;CenterCirclePoints;235;95;235;95;Right
GO2024-G4B_Genesis_7_SET_00423641_BallVanishedFromLastToThisImage_U.png;1718125922068;tkalbitz;CenterCirclePoints;136;193;136;193;Right
GO2024-G4B_Genesis_7_SET_00437235_BallVanishedFromLastToThisImage_U.png;1718125928668;tkalbitz;CenterCirclePoints;441;133;441;133;Right
GO2024-G4A_Genesis_7_PLAY_00299353_BallVanishedFromLastToThisImage_U.png;1715633569187;tkalbitz;GoalPost;599;177;639;1;Right
GO2024-G4A_Genesis_7_PLAY_00302606_BallVanishedFromLastToThisImage_U.png;1715633575453;tkalbitz;GoalPost;623;150;644;68;Right
GO2024-G4A_Genesis_7_PLAY_00621430_BallVanishedFromLastToThisImage_U.png;1715633582665;tkalbitz;GoalPost;460;100;449;0;Left
GO2024-G4A_Genesis_7_PLAY_00626393_BallVanishedFromLastToThisImage_U.png;1715470464534;tkalbitz;GoalPost;530;149;515;35;Left
GO2024-G4A_Genesis_7_PLAY_00626393_BallVanishedFromLastToThisImage_U.png;1715470466387;tkalbitz;GoalPost;515;35;638;21;Middle
GO2024-G4A_Genesis_7_PLAY_00660559_BallVanishedFromLastToThisImage_U.png;1715633587904;tkalbitz;GoalPost;141;52;136;1;Right
GO2024-G4A_Genesis_7_SET_00269809_BallVanishedFromLastToThisImage_U.png;1715633591961;tkalbitz;GoalPost;195;131;170;1;Right
GO2024-G4B_Genesis_7_PLAY_00235191_BallVanishedFromLastToThisImage_U.png;1715633596136;tkalbitz;GoalPost;138;93;115;0;Right
GO2024-G4B_Genesis_7_PLAY_00240101_BallVanishedFromLastToThisImage_U.png;1715470470370;tkalbitz;GoalPost;179;128;169;-2;Right
GO2024-G4B_Genesis_7_PLAY_00324534_BallVanishedFromLastToThisImage_U.png;1715470476404;tkalbitz;GoalPost;555;120;562;0;Left
GO2024-G4B_Genesis_7_PLAY_00332601_BallVanishedFromLastToThisImage_U.png;1715633600686;tkalbitz;GoalPost;588;240;610;2;Left
GO2024-G4B_Genesis_7_PLAY_00484396_BallVanishedFromLastToThisImage_U.png;1715470485892;tkalbitz;GoalPost;514;47;522;-1;Left
GO2024-G4B_Genesis_7_PLAY_00495662_BallVanishedFromLastToThisImage_U.png;1715633607800;tkalbitz;GoalPost;517;133;542;5;Left
GO2024-G4B_Genesis_7_PLAY_00611386_BallVanishedFromLastToThisImage_U.png;1715633613567;tkalbitz;GoalPost;517;45;518;-1;Left
GO2024-G4B_Genesis_7_PLAY_00612839_BallVanishedFromLastToThisImage_U.png;1715633617135;tkalbitz;GoalPost;543;38;542;5;Left
GO2024-G4B_Genesis_7_PLAY_00614650_BallVanishedFromLastToThisImage_U.png;1715633620515;tkalbitz;GoalPost;610;57;628;-1;Left
GO2024-G4B_Genesis_7_PLAY_00642978_BallVanishedFromLastToThisImage_U.png;1715633628473;tkalbitz;GoalPost;203;114;191;-1;Right
GO2024-G4B_Genesis_7_PLAY_00692542_BallVanishedFromLastToThisImage_U.png;1715633636322;tkalbitz;GoalPost;605;102;631;4;Right
GO2024-G4B_Genesis_7_PLAY_00706281_BallVanishedFromLastToThisImage_U.png;1715470504697;tkalbitz;GoalPost;616;78;630;-1;Right
GO2024-G4B_Genesis_7_PLAY_00718740_BallVanishedFromLastToThisImage_U.png;1715633643898;tkalbitz;GoalPost;591;114;611;1;Right
GO2024-G4B_Genesis_7_SET_00193063_BallVanishedFromLastToThisImage_U.png;1715470511260;tkalbitz;GoalPost;160;160;148;62;Right
GO2024-G4B_Genesis_7_SET_00193063_BallVanishedFromLastToThisImage_U.png;1715470513354;tkalbitz;GoalPost;148;62;0;61;Middle
GO2024-G4B_Genesis_7_SET_00196108_BallVanishedFromLastToThisImage_U.png;1715470517848;tkalbitz;GoalPost;168;159;157;62;Right
GO2024-G4B_Genesis_7_SET_00196108_BallVanishedFromLastToThisImage_U.png;1715470520460;tkalbitz;GoalPost;157;62;0;60;Middle
GO2024-G4B_Genesis_7_SET_00199137_BallVanishedFromLastToThisImage_U.png;1715470526556;tkalbitz;GoalPost;164;157;152;61;Right
GO2024-G4B_Genesis_7_SET_00199137_BallVanishedFromLastToThisImage_U.png;1715470529206;tkalbitz;GoalPost;152;61;0;60;Middle
GO2024-G4A_Genesis_7_PLAY_00570735_BallVanishedFromLastToThisImage_U.png;1718125863674;tkalbitz;NoCenterCirclePoints
GO2024-G4A_Genesis_7_PLAY_00575509_BallVanishedFromLastToThisImage_U.png;1718130195969;tkalbitz;NoCenterCirclePoints
GO2024-G4A_Genesis_7_PLAY_00626393_BallVanishedFromLastToThisImage_U.png;1718130197125;tkalbitz;NoCenterCirclePoints
GO2024-G4A_Genesis_7_PLAY_00629108_BallVanishedFromLastToThisImage_U.png;1718130197943;tkalbitz;NoCenterCirclePoints
GO2024-G4A_Genesis_7_PLAY_00631232_BallVanishedFromLastToThisImage_U.png;1718132554602;tkalbitz;NoCenterCirclePoints
GO2024-G4B_Genesis_7_PLAY_00319040_BallVanishedFromLastToThisImage_U.png;1718132562722;tkalbitz;NoCenterCirclePoints
GO2024-G4B_Genesis_7_PLAY_00540689_BallVanishedFromLastToThisImage_U.png;1718130203337;tkalbitz;NoCenterCirclePoints
GO2024-G4B_Genesis_7_PLAY_00582889_BallVanishedFromLastToThisImage_U.png;1718138399656;tkalbitz;NoCenterCirclePoints
GO2024-G4B_Genesis_7_PLAY_00611386_BallVanishedFromLastToThisImage_U.png;1718132564117;tkalbitz;NoCenterCirclePoints
GO2024-G4B_Genesis_7_PLAY_00630043_BallVanishedFromLastToThisImage_U.png;1718134309711;tkalbitz;NoCenterCirclePoints
GO2024-G4B_Genesis_7_PLAY_00642978_BallVanishedFromLastToThisImage_U.png;1718191288511;tkalbitz;NoCenterCirclePoints
GO2024-G4B_Genesis_7_PLAY_00655681_BallVanishedFromLastToThisImage_U.png;1718125896947;tkalbitz;NoCenterCirclePoints
GO2024-G4B_Genesis_7_PLAY_00676200_BallVanishedFromLastToThisImage_U.png;1718130204533;tkalbitz;NoCenterCirclePoints
GO2024-G4B_Genesis_7_PLAY_00703338_BallVanishedFromLastToThisImage_U.png;1718132565668;tkalbitz;NoCenterCirclePoints
GO2024-G4B_Genesis_7_PLAY_00718740_BallVanishedFromLastToThisImage_U.png;1718130205569;tkalbitz;NoCenterCirclePoints
GO2024-G4A_Genesis_7_PLAY_00288025_BallVanishedFromLastToThisImage_U.png;1715470453049;tkalbitz;NoGoalPost
GO2024-G4A_Genesis_7_PLAY_00553274_BallVanishedFromLastToThisImage_U.png;1715470457195;tkalbitz;NoGoalPost
GO2024-G4A_Genesis_7_PLAY_00570735_BallVanishedFromLastToThisImage_U.png;1715470458335;tkalbitz;NoGoalPost
GO2024-G4A_Genesis_7_PLAY_00577085_BallVanishedFromLastToThisImage_U.png;1715470461039;tkalbitz;NoGoalPost
GO2024-G4B_Genesis_7_PLAY_00294523_BallVanishedFromLastToThisImage_U.png;1715470473532;tkalbitz;NoGoalPost
GO2024-G4B_Genesis_7_PLAY_00537007_BallVanishedFromLastToThisImage_U.png;1715675839795;tkalbitz;NoGoalPost
GO2024-G4B_Genesis_7_PLAY_00589407_BallVanishedFromLastToThisImage_U.png;1715675840903;tkalbitz;NoGoalPost
GO2024-G4B_Genesis_7_PLAY_00592502_BallVanishedFromLastToThisImage_U.png;1715470489815;tkalbitz;NoGoalPost
GO2024-G4B_Genesis_7_PLAY_00599762_BallVanishedFromLastToThisImage_U.png;1715470491177;tkalbitz;NoGoalPost
GO2024-G4B_Genesis_7_PLAY_00601247_BallVanishedFromLastToThisImage_U.png;1715470492021;tkalbitz;NoGoalPost
GO2024-G4B_Genesis_7_PLAY_00602814_BallVanishedFromLastToThisImage_U.png;1715470493417;tkalbitz;NoGoalPost
GO2024-G4B_Genesis_7_SET_00437235_BallVanishedFromLastToThisImage_U.png;1715470533665;tkalbitz;NoGoalPost
