GO2024-G5A_Dragonfly_6_PLAY_00609063_BallVanishedFromLastToThisImage_U.png;1718135012891;tkalbitz;CenterCirclePoints;386;155;386;155;Left
GO2024-G5A_Dragonfly_6_PLAY_00712328_BallVanishedFromLastToThisImage_U.png;1718126447757;tkalbitz;CenterCirclePoints;115;146;115;146;Left
GO2024-G5A_Dragonfly_6_PLAY_00712328_BallVanishedFromLastToThisImage_U.png;1718126450967;tkalbitz;CenterCirclePoints;407;139;407;139;Right
GO2024-G5A_Dragonfly_6_PLAY_00741892_BallVanishedFromLastToThisImage_U.png;1718126454885;tkalbitz;CenterCirclePoints;521;149;521;149;Left
GO2024-G5A_Dragonfly_6_PLAY_00751607_BallVanishedFromLastToThisImage_U.png;1718138529811;tkalbitz;CenterCirclePoints;342;337;342;337;Left
GO2024-G5A_Dragonfly_6_PLAY_00755829_BallVanishedFromLastToThisImage_U.png;1718126457935;tkalbitz;CenterCirclePoints;551;232;551;232;Right
GO2024-G5A_Dragonfly_6_SET_00254291_BallVanishedFromLastToThisImage_U.png;1718138532399;tkalbitz;CenterCirclePoints;262;141;262;141;Left
GO2024-G5A_Dragonfly_6_SET_00254291_BallVanishedFromLastToThisImage_U.png;1718138534026;tkalbitz;CenterCirclePoints;569;238;569;238;Right
GO2024-G5A_Dragonfly_6_SET_00257018_BallVanishedFromLastToThisImage_U.png;1718135014753;tkalbitz;CenterCirclePoints;297;118;297;118;Left
GO2024-G5A_Dragonfly_6_SET_00257018_BallVanishedFromLastToThisImage_U.png;1718135015811;tkalbitz;CenterCirclePoints;540;314;540;314;Right
GO2024-G5A_Dragonfly_6_SET_00260461_BallVanishedFromLastToThisImage_U.png;1718135018167;tkalbitz;CenterCirclePoints;55;208;55;208;Left
GO2024-G5A_Dragonfly_6_SET_00260461_BallVanishedFromLastToThisImage_U.png;1718135019649;tkalbitz;CenterCirclePoints;148;385;148;385;Right
GO2024-G5A_Dragonfly_6_SET_00387365_BallVanishedFromLastToThisImage_U.png;1718135022838;tkalbitz;CenterCirclePoints;216;410;216;410;Left
GO2024-G5A_Dragonfly_6_SET_00389297_BallVanishedFromLastToThisImage_U.png;1718135025893;tkalbitz;CenterCirclePoints;164;205;164;205;Right
GO2024-G5A_Dragonfly_6_SET_00390750_BallVanishedFromLastToThisImage_U.png;1718135028976;tkalbitz;CenterCirclePoints;340;355;340;355;Left
GO2024-G5A_Dragonfly_6_SET_00674119_BallVanishedFromLastToThisImage_U.png;1718135038440;tkalbitz;CenterCirclePoints;160;190;160;190;Right
GO2024-G5A_Dragonfly_6_SET_00680104_BallVanishedFromLastToThisImage_U.png;1718135042158;tkalbitz;CenterCirclePoints;212;190;212;190;Right
GO2024-G5A_Dragonfly_6_SET_00681625_BallVanishedFromLastToThisImage_U.png;1718135047800;tkalbitz;CenterCirclePoints;600;195;600;195;Right
GO2024-G5A_Dragonfly_6_SET_00684554_BallVanishedFromLastToThisImage_U.png;1718135051465;tkalbitz;CenterCirclePoints;172;140;172;140;Left
GO2024-G5A_Dragonfly_6_SET_00684554_BallVanishedFromLastToThisImage_U.png;1718135053799;tkalbitz;CenterCirclePoints;454;139;454;139;Right
GO2024-G5B_Dragonfly_6_PLAY_00600248_BallVanishedFromLastToThisImage_U.png;1718126460840;tkalbitz;CenterCirclePoints;305;286;305;286;Right
GO2024-G5B_Dragonfly_6_PLAY_00822801_BallVanishedFromLastToThisImage_U.png;1718135056889;tkalbitz;CenterCirclePoints;606;75;606;75;Right
GO2024-G5B_Dragonfly_6_SET_00271637_BallVanishedFromLastToThisImage_U.png;1718126463294;tkalbitz;CenterCirclePoints;391;304;391;304;Left
GO2024-G5B_Dragonfly_6_SET_00274409_BallVanishedFromLastToThisImage_U.png;1718126467088;tkalbitz;CenterCirclePoints;223;186;223;186;Left
GO2024-G5A_Dragonfly_6_PLAY_00300283_BallVanishedFromLastToThisImage_U.png;1715671085769;tkalbitz;GoalPost;446;178;422;28;Left
GO2024-G5A_Dragonfly_6_PLAY_00305618_BallVanishedFromLastToThisImage_U.png;1715676197909;tkalbitz;GoalPost;374;88;377;4;Left
GO2024-G5A_Dragonfly_6_PLAY_00307922_BallVanishedFromLastToThisImage_U.png;1715671091188;tkalbitz;GoalPost;472;85;469;3;Right
GO2024-G5A_Dragonfly_6_PLAY_00316952_BallVanishedFromLastToThisImage_U.png;1715676201185;tkalbitz;GoalPost;148;105;149;3;Right
GO2024-G5A_Dragonfly_6_PLAY_00320857_BallVanishedFromLastToThisImage_U.png;1715471127375;tkalbitz;GoalPost;149;155;87;0;Right
GO2024-G5A_Dragonfly_6_PLAY_00322798_BallVanishedFromLastToThisImage_U.png;1715671096284;tkalbitz;GoalPost;270;235;229;1;Left
GO2024-G5A_Dragonfly_6_PLAY_00440312_BallVanishedFromLastToThisImage_U.png;1715671107832;tkalbitz;GoalPost;34;140;27;46;Left
GO2024-G5A_Dragonfly_6_PLAY_00751607_BallVanishedFromLastToThisImage_U.png;1715471137385;tkalbitz;GoalPost;345;47;350;0;Right
GO2024-G5A_Dragonfly_6_PLAY_00763902_BallVanishedFromLastToThisImage_U.png;1715471141139;tkalbitz;GoalPost;123;99;95;-1;Right
GO2024-G5A_Dragonfly_6_SET_00265621_BallVanishedFromLastToThisImage_U.png;1715471145893;tkalbitz;GoalPost;535;139;560;10;Left
GO2024-G5A_Dragonfly_6_SET_00265621_BallVanishedFromLastToThisImage_U.png;1715471148071;tkalbitz;GoalPost;560;10;637;14;Middle
GO2024-G5A_Dragonfly_6_SET_00387365_BallVanishedFromLastToThisImage_U.png;1715471153004;tkalbitz;GoalPost;205;179;195;83;Right
GO2024-G5A_Dragonfly_6_SET_00387365_BallVanishedFromLastToThisImage_U.png;1715471159304;tkalbitz;GoalPost;195;84;1;77;Middle
GO2024-G5A_Dragonfly_6_SET_00390750_BallVanishedFromLastToThisImage_U.png;1715671121037;tkalbitz;GoalPost;336;149;333;60;Right
GO2024-G5A_Dragonfly_6_SET_00674119_BallVanishedFromLastToThisImage_U.png;1715471164054;tkalbitz;GoalPost;27;133;23;55;Right
GO2024-G5A_Dragonfly_6_SET_00674119_BallVanishedFromLastToThisImage_U.png;1715471165816;tkalbitz;GoalPost;23;55;0;53;Left
GO2024-G5B_Dragonfly_6_PLAY_00290475_BallVanishedFromLastToThisImage_U.png;1715671127731;tkalbitz;GoalPost;296;96;298;-1;Right
GO2024-G5B_Dragonfly_6_PLAY_00293926_BallVanishedFromLastToThisImage_U.png;1715471174072;tkalbitz;GoalPost;409;140;419;-1;Left
GO2024-G5B_Dragonfly_6_PLAY_00310367_BallVanishedFromLastToThisImage_U.png;1715671132665;tkalbitz;GoalPost;559;193;556;0;Left
GO2024-G5B_Dragonfly_6_PLAY_00319220_BallVanishedFromLastToThisImage_U.png;1715471180044;tkalbitz;GoalPost;317;261;343;1;Left
GO2024-G5B_Dragonfly_6_PLAY_00338291_BallVanishedFromLastToThisImage_U.png;1715471183734;tkalbitz;GoalPost;437;230;440;0;Left
GO2024-G5B_Dragonfly_6_PLAY_00429690_BallVanishedFromLastToThisImage_U.png;1715671140074;tkalbitz;GoalPost;417;165;403;0;Right
GO2024-G5B_Dragonfly_6_PLAY_00435358_BallVanishedFromLastToThisImage_U.png;1715471187098;tkalbitz;GoalPost;446;265;469;-2;Right
GO2024-G5B_Dragonfly_6_PLAY_00436871_BallVanishedFromLastToThisImage_U.png;1715471192143;tkalbitz;GoalPost;357;337;266;3;Right
GO2024-G5B_Dragonfly_6_PLAY_00600248_BallVanishedFromLastToThisImage_U.png;1715471197873;tkalbitz;GoalPost;164;44;160;0;Right
GO2024-G5A_Dragonfly_6_PLAY_00307922_BallVanishedFromLastToThisImage_U.png;1718194714102;tkalbitz;NoCenterCirclePoints
GO2024-G5B_Dragonfly_6_PLAY_00316478_BallVanishedFromLastToThisImage_U.png;1718195632148;tkalbitz;NoCenterCirclePoints
GO2024-G5B_Dragonfly_6_SET_00281737_BallVanishedFromLastToThisImage_U.png;1718126470192;tkalbitz;NoCenterCirclePoints
GO2024-G5A_Dragonfly_6_PLAY_00404274_BallVanishedFromLastToThisImage_U.png;1715671101722;tkalbitz;NoGoalPost
GO2024-G5A_Dragonfly_6_PLAY_00460369_BallVanishedFromLastToThisImage_U.png;1715471131573;tkalbitz;NoGoalPost
GO2024-G5A_Dragonfly_6_PLAY_00755829_BallVanishedFromLastToThisImage_U.png;1715676204198;tkalbitz;NoGoalPost
GO2024-G5A_Dragonfly_6_PLAY_00766949_BallVanishedFromLastToThisImage_U.png;1715676206046;tkalbitz;NoGoalPost
GO2024-G5A_Dragonfly_6_SET_00254291_BallVanishedFromLastToThisImage_U.png;1715671114469;tkalbitz;NoGoalPost
GO2024-G5A_Dragonfly_6_SET_00258781_BallVanishedFromLastToThisImage_U.png;1715671116147;tkalbitz;NoGoalPost
GO2024-G5A_Dragonfly_6_SET_00263007_BallVanishedFromLastToThisImage_U.png;1715671117801;tkalbitz;NoGoalPost
GO2024-G5A_Dragonfly_6_SET_00385615_BallVanishedFromLastToThisImage_U.png;1715471150918;tkalbitz;NoGoalPost
GO2024-G5B_Dragonfly_6_PLAY_00314989_BallVanishedFromLastToThisImage_U.png;1715671136092;tkalbitz;NoGoalPost
GO2024-G5B_Dragonfly_6_PLAY_00316478_BallVanishedFromLastToThisImage_U.png;1715471176572;tkalbitz;NoGoalPost
