RC2023-G7A_Helios_7_PLAY_00361117_RobotDetectionToManyRobots_U.png;1718193832415;tkalbitz;CenterCirclePoints;350;388;350;388;Left
RC2023-G7A_Helios_7_PLAY_00411729_RobotDetectionToManyRobots_U.png;1718193835381;tkalbitz;CenterCirclePoints;370;422;370;422;Right
RC2023-G7A_Helios_7_PLAY_00585095_RobotDetectionToManyRobots_U.png;1718192260649;tkalbitz;CenterCirclePoints;286;106;286;106;Right
RC2023-G7A_Helios_7_PLAY_00636405_RobotDetectionToManyRobots_U.png;1718185417208;tkalbitz;CenterCirclePoints;162;298;162;298;Left
RC2023-G7A_Helios_7_PLAY_00746002_RobotDetectionToManyRobots_U.png;1718185420851;tkalbitz;CenterCirclePoints;131;113;131;113;Left
RC2023-G7B_Helios_7_PLAY_00209407_RobotDetectionToManyRobots_U.png;1718185423395;tkalbitz;CenterCirclePoints;173;351;173;351;Right
RC2023-G7B_Helios_7_PLAY_00291415_RobotDetectionToManyRobots_U.png;1718195336617;tkalbitz;CenterCirclePoints;272;93;272;93;Right
RC2023-G7B_Helios_7_PLAY_00716986_RobotDetectionToManyRobots_U.png;1718192263833;tkalbitz;CenterCirclePoints;12;247;12;247;Right
RC2023-G7A_Helios_7_PLAY_00164876_RobotDetectionToManyRobots_U.png;1715679487807;tkalbitz;GoalPost;156;51;153;-2;Right
RC2023-G7A_Helios_7_PLAY_00310951_RobotDetectionToManyRobots_U.png;1715628041826;tkalbitz;GoalPost;6;328;3;203;Right
RC2023-G7A_Helios_7_PLAY_00373797_RobotDetectionToManyRobots_U.png;1715628045061;tkalbitz;GoalPost;31;242;-2;56;Right
RC2023-G7A_Helios_7_PLAY_00402622_RobotDetectionToManyRobots_U.png;1715628049403;tkalbitz;GoalPost;425;44;418;-3;Left
RC2023-G7A_Helios_7_PLAY_00595217_RobotDetectionToManyRobots_U.png;1715679493111;tkalbitz;GoalPost;55;95;35;-1;Right
RC2023-G7A_Helios_7_PLAY_00713324_RobotDetectionToManyRobots_U.png;1715679497199;tkalbitz;GoalPost;613;429;602;285;Left
RC2023-G7A_Helios_7_PLAY_00717200_RobotDetectionToManyRobots_U.png;1715679500455;tkalbitz;GoalPost;569;352;563;210;Left
RC2023-G7A_Helios_7_PLAY_00721090_RobotDetectionToManyRobots_U.png;1715679505705;tkalbitz;GoalPost;565;350;565;212;Left
RC2023-G7A_Helios_7_PLAY_00724996_RobotDetectionToManyRobots_U.png;1715628058069;tkalbitz;GoalPost;567;350;564;209;Left
RC2023-G7A_Helios_7_READY_00093835_RobotDetectionToManyRobots_U.png;1715628066300;tkalbitz;GoalPost;622;253;608;150;Left
RC2023-G7A_Helios_7_READY_00223554_RobotDetectionToManyRobots_U.png;1715628074804;tkalbitz;GoalPost;379;181;376;109;Left
RC2023-G7A_Helios_7_READY_00232962_RobotDetectionToManyRobots_U.png;1715628078910;tkalbitz;GoalPost;267;214;250;94;Left
RC2023-G7A_Helios_7_READY_00242335_RobotDetectionToManyRobots_U.png;1715679511591;tkalbitz;GoalPost;517;252;522;165;Left
RC2023-G7B_Helios_7_PLAY_00261490_RobotDetectionToManyRobots_U.png;1715628087729;tkalbitz;GoalPost;597;76;613;1;Left
RC2023-G7B_Helios_7_PLAY_00428484_RobotDetectionToManyRobots_U.png;1715679516981;tkalbitz;GoalPost;125;85;113;1;Left
RC2023-G7B_Helios_7_PLAY_00483662_RobotDetectionToManyRobots_U.png;1715628096173;tkalbitz;GoalPost;336;80;343;2;Left
RC2023-G7B_Helios_7_PLAY_00516194_RobotDetectionToManyRobots_U.png;1715628099623;tkalbitz;GoalPost;587;133;578;36;Left
RC2023-G7B_Helios_7_PLAY_00752566_RobotDetectionToManyRobots_U.png;1715628103639;tkalbitz;GoalPost;393;191;382;1;Right
RC2023-G7B_Helios_7_READY_00663666_RobotDetectionToManyRobots_U.png;1715628109810;tkalbitz;GoalPost;425;193;438;83;Left
RC2023-G7B_Helios_7_SET_00392471_RobotDetectionToManyRobots_U.png;1715628127549;tkalbitz;GoalPost;135;188;130;75;Right
RC2023-G7B_Helios_7_SET_00841862_RobotDetectionToManyRobots_U.png;1715628131335;tkalbitz;GoalPost;78;188;69;86;Right
RC2023-G7A_Helios_7_PLAY_00287106_RobotDetectionToManyRobots_U.png;1718185409752;tkalbitz;NoCenterCirclePoints
RC2023-G7A_Helios_7_PLAY_00293335_RobotDetectionToManyRobots_U.png;1718185411338;tkalbitz;NoCenterCirclePoints
RC2023-G7A_Helios_7_PLAY_00310951_RobotDetectionToManyRobots_U.png;1718185412809;tkalbitz;NoCenterCirclePoints
RC2023-G7B_Helios_7_PLAY_00428484_RobotDetectionToManyRobots_U.png;1718197581385;tkalbitz;NoCenterCirclePoints
RC2023-G7B_Helios_7_PLAY_00722798_RobotDetectionToManyRobots_U.png;1718193839633;tkalbitz;NoCenterCirclePoints
RC2023-G7A_Helios_7_PLAY_00293335_RobotDetectionToManyRobots_U.png;1715628039399;tkalbitz;NoGoalPost
RC2023-G7A_Helios_7_PLAY_00304402_RobotDetectionToManyRobots_U.png;1715679491241;tkalbitz;NoGoalPost
RC2023-G7A_Helios_7_PLAY_00585095_RobotDetectionToManyRobots_U.png;1715628054029;tkalbitz;NoGoalPost
RC2023-G7A_Helios_7_PLAY_00739948_RobotDetectionToManyRobots_U.png;1715628061188;tkalbitz;NoGoalPost
RC2023-G7A_Helios_7_READY_00085654_RobotDetectionToManyRobots_U.png;1715628062075;tkalbitz;NoGoalPost
RC2023-G7A_Helios_7_READY_00089655_RobotDetectionToManyRobots_U.png;1715628063104;tkalbitz;NoGoalPost
RC2023-G7B_Helios_7_PLAY_00186624_RobotDetectionToManyRobots_U.png;1715628084019;tkalbitz;NoGoalPost
RC2023-G7B_Helios_7_PLAY_00291415_RobotDetectionToManyRobots_U.png;1715628090231;tkalbitz;NoGoalPost
RC2023-G7B_Helios_7_PLAY_00317349_RobotDetectionToManyRobots_U.png;1715628091931;tkalbitz;NoGoalPost
RC2023-G7B_Helios_7_PLAY_00435248_RobotDetectionToManyRobots_U.png;1715628094159;tkalbitz;NoGoalPost
RC2023-G7B_Helios_7_READY_00116036_RobotDetectionToManyRobots_U.png;1715628107362;tkalbitz;NoGoalPost
RC2023-G7B_Helios_7_READY_00836769_RobotDetectionToManyRobots_U.png;1715628112746;tkalbitz;NoGoalPost
