2016WMLeipzigG7A_Joker_00541204_U.png
2016WMLeipzigG8C_Joker_00003701_U.png
2016WMLeipzigG8C_Joker_00067443_U.png
2016WMLeipzigG8C_Joker_00069539_U.png
2016WMLeipzigG8C_Joker_00077259_U.png
2016WMLeipzigG8C_Joker_00083141_U.png
2016WMLeipzigG8C_Joker_00092182_U.png
2016WMLeipzigG8C_Joker_00095178_U.png
2016WMLeipzigG8C_Joker_00096876_U.png
2016WMLeipzigG8C_Joker_00099406_U.png
2016WMLeipzigG8C_Joker_00101129_U.png
2016WMLeipzigG8C_Joker_00103230_U.png
2016WMLeipzigG8C_Joker_00107550_U.png
2016WMLeipzigG8C_Joker_00110014_U.png
2016WMLeipzigG8C_Joker_00114264_U.png
2016WMLeipzigG8C_Joker_00117567_U.png
2016WMLeipzigG8C_Joker_00121529_U.png
2016WMLeipzigG8C_Joker_00126322_U.png
2016WMLeipzigG8C_Joker_00128241_U.png
2016WMLeipzigG8C_Joker_00134176_U.png
2016WMLeipzigG8C_Joker_00136523_U.png
2016WMLeipzigG8C_Joker_00139077_U.png
2016WMLeipzigG8C_Joker_00140920_U.png
2016WMLeipzigG8C_Joker_00143075_U.png
2016WMLeipzigG8C_Joker_00146716_U.png
2016WMLeipzigG8C_Joker_00148503_U.png
2016WMLeipzigG8C_Joker_00155701_U.png
2016WMLeipzigG8C_Joker_00157818_U.png
2016WMLeipzigG8C_Joker_00159680_U.png
2016WMLeipzigG8C_Joker_00163875_U.png
2016WMLeipzigG8C_Joker_00165719_U.png
2016WMLeipzigG8C_Joker_00167357_U.png
2016WMLeipzigG8C_Joker_00169161_U.png
2016WMLeipzigG8C_Joker_00170963_U.png
2016WMLeipzigG8C_Joker_00174562_U.png
2016WMLeipzigG8C_Joker_00178482_U.png
2016WMLeipzigG8C_Joker_00180618_U.png
2016WMLeipzigG8C_Joker_00184149_U.png
2016WMLeipzigG8C_Joker_00185894_U.png
2016WMLeipzigG8C_Joker_00187694_U.png
2016WMLeipzigG8C_Joker_00189745_U.png
2016WMLeipzigG8C_Joker_00191915_U.png
2016WMLeipzigG8C_Joker_00194274_U.png
2016WMLeipzigG8C_Joker_00196568_U.png
2016WMLeipzigG8C_Joker_00198355_U.png
2016WMLeipzigG8C_Joker_00204899_U.png
2016WMLeipzigG8C_Joker_00207093_U.png
2016WMLeipzigG8C_Joker_00212319_U.png
2016WMLeipzigG8C_Joker_00214831_U.png
2016WMLeipzigG8C_Joker_00216743_U.png
2016WMLeipzigG8C_Joker_00220237_U.png
2016WMLeipzigG8C_Joker_00223605_U.png
2016WMLeipzigG8C_Joker_00227163_U.png
2016WMLeipzigG8C_Joker_00228925_U.png
2016WMLeipzigG8C_Joker_00231150_U.png
2016WMLeipzigG8C_Joker_00237167_U.png
2016WMLeipzigG8C_Joker_00239161_U.png
2016WMLeipzigG8C_Joker_00241528_U.png
2016WMLeipzigG8C_Joker_00243128_U.png
2016WMLeipzigG8C_Joker_00247978_U.png
2016WMLeipzigG8C_Joker_00250347_U.png
2016WMLeipzigG8C_Joker_00256899_U.png
2016WMLeipzigG8C_Joker_00258621_U.png
2016WMLeipzigG8C_Joker_00260254_U.png
2016WMLeipzigG8C_Joker_00263641_U.png
2016WMLeipzigG8C_Joker_00266419_U.png
2016WMLeipzigG8C_Joker_00267345_U.png
2016WMLeipzigG8C_Joker_00269501_U.png
2016WMLeipzigG8C_Joker_00271150_U.png
2016WMLeipzigG8C_Joker_00276517_U.png
2016WMLeipzigG8C_Joker_00279818_U.png
2016WMLeipzigG8C_Joker_00282547_U.png
2016WMLeipzigG8C_Joker_00284355_U.png
2016WMLeipzigG8C_Joker_00289348_U.png
2016WMLeipzigG8C_Joker_00290796_U.png
2016WMLeipzigG8C_Joker_00292531_U.png
2016WMLeipzigG8C_Joker_00296481_U.png
2016WMLeipzigG8C_Joker_00298593_U.png
2016WMLeipzigG8C_Joker_00300515_U.png
2016WMLeipzigG8C_Joker_00304216_U.png
2016WMLeipzigG8C_Joker_00305940_U.png
2016WMLeipzigG8C_Joker_00313332_U.png
2016WMLeipzigG8C_Joker_00318114_U.png
2016WMLeipzigG8C_Joker_00325567_U.png
2016WMLeipzigG8C_Joker_00332015_U.png
2016WMLeipzigG8C_Joker_00335977_U.png
2016WMLeipzigG8C_Joker_00343459_U.png
2016WMLeipzigG8C_Joker_00345899_U.png
2016WMLeipzigG8C_Joker_00349976_U.png
2016WMLeipzigG8C_Joker_00354027_U.png
2016WMLeipzigG8C_Joker_00356111_U.png
2016WMLeipzigG8C_Joker_00358023_U.png
2016WMLeipzigG8C_Joker_00363930_U.png
2016WMLeipzigG8C_Joker_00365704_U.png
2016WMLeipzigG8C_Joker_00369479_U.png
2016WMLeipzigG8C_Joker_00371219_U.png
2016WMLeipzigG8C_Joker_00373451_U.png
2016WMLeipzigG8C_Joker_00375261_U.png
2016WMLeipzigG8C_Joker_00377178_U.png
2016WMLeipzigG8C_Joker_00383109_U.png
2016WMLeipzigG8C_Joker_00386153_U.png
2016WMLeipzigG8C_Joker_00388077_U.png
2016WMLeipzigG8C_Joker_00390008_U.png
2016WMLeipzigG8C_Joker_00392627_U.png
2016WMLeipzigG8C_Joker_00394698_U.png
2016WMLeipzigG8C_Joker_00397181_U.png
2016WMLeipzigG8C_Joker_00399252_U.png
2016WMLeipzigG8C_Joker_00403164_U.png
2016WMLeipzigG8C_Joker_00405276_U.png
2016WMLeipzigG8C_Joker_00408824_U.png
2016WMLeipzigG8C_Joker_00410937_U.png
2016WMLeipzigG8C_Joker_00418988_U.png
2016WMLeipzigG8C_Joker_00422879_U.png
2016WMLeipzigG8C_Joker_00424651_U.png
2016WMLeipzigG8C_Joker_00431195_U.png
2016WMLeipzigG8C_Joker_00443940_U.png
2016WMLeipzigG8C_Joker_00448471_U.png
2016WMLeipzigG8C_Joker_00452617_U.png
2016WMLeipzigG8C_Joker_00454599_U.png
2016WMLeipzigG8C_Joker_00456411_U.png
2016WMLeipzigG8C_Joker_00458144_U.png
2016WMLeipzigG8C_Joker_00459817_U.png
2016WMLeipzigG8C_Joker_00461459_U.png
2016WMLeipzigG8C_Joker_00463095_U.png
2016WMLeipzigG8C_Joker_00465075_U.png
2016WMLeipzigG8C_Joker_00467111_U.png
2016WMLeipzigG8C_Joker_00468934_U.png
2016WMLeipzigG8C_Joker_00470675_U.png
2016WMLeipzigG8C_Joker_00473248_U.png
2016WMLeipzigG8C_Joker_00475163_U.png
2016WMLeipzigG8C_Joker_00476791_U.png
2016WMLeipzigG8C_Joker_00478757_U.png
2016WMLeipzigG8C_Joker_00480749_U.png
2016WMLeipzigG8C_Joker_00490140_U.png
2016WMLeipzigG8C_Joker_00496228_U.png
2016WMLeipzigG8C_Joker_00507920_U.png
2016WMLeipzigG8C_Joker_00510410_U.png
2016WMLeipzigG8C_Joker_00512296_U.png
2016WMLeipzigG8C_Joker_00516121_U.png
2016WMLeipzigG8C_Joker_00519535_U.png
2016WMLeipzigG8C_Joker_00522203_U.png
2016WMLeipzigG8C_Joker_00529091_U.png
2016WMLeipzigG8C_Joker_00531818_U.png
2016WMLeipzigG8C_Joker_00533838_U.png
2016WMLeipzigG8C_Joker_00538389_U.png
2016WMLeipzigG8C_Joker_00540425_U.png
2016WMLeipzigG8C_Joker_00544727_U.png
2016WMLeipzigG8C_Joker_00546935_U.png
2016WMLeipzigG8C_Joker_00551213_U.png
2016WMLeipzigG8C_Joker_00553195_U.png
2016WMLeipzigG8C_Joker_00555457_U.png
2016WMLeipzigG8C_Joker_00557444_U.png
2016WMLeipzigG8C_Joker_00561195_U.png
2016WMLeipzigG8C_Joker_00563332_U.png
2016WMLeipzigG8C_Joker_00567709_U.png
2016WMLeipzigG8C_Joker_00569732_U.png
2016WMLeipzigG8C_Joker_00573388_U.png
2016WMLeipzigG8C_Joker_00578766_U.png
2016WMLeipzigG8C_Joker_00582768_U.png
2016WMLeipzigG8C_Joker_00586197_U.png
2016WMLeipzigG8C_Joker_00589088_U.png
2016WMLeipzigG8C_Joker_00591975_U.png
2016WMLeipzigG8C_Joker_00596082_U.png
2016WMLeipzigG8C_Joker_00598071_U.png
2016WMLeipzigG8C_Joker_00603594_U.png
2016WMLeipzigG8C_Joker_00605491_U.png
2016WMLeipzigG8C_Joker_00610032_U.png
2016WMLeipzigG8C_Joker_00614182_U.png
2016WMLeipzigG8C_Joker_00615969_U.png
2016WMLeipzigG8C_Joker_00620374_U.png
2016WMLeipzigG8C_Joker_00623100_U.png
2016WMLeipzigG8C_Joker_00673041_U.png
2016WMLeipzigG8C_Joker_00686644_U.png
2016WMLeipzigG8C_Joker_00698136_U.png
2016WMLeipzigG8C_Joker_00703777_U.png
2016WMLeipzigG8C_Joker_00705685_U.png
2016WMLeipzigG8C_Joker_00707847_U.png
2016WMLeipzigG8C_Joker_00709938_U.png
2016WMLeipzigG8C_Joker_00711667_U.png
2016WMLeipzigG8C_Joker_00713929_U.png
2016WMLeipzigG8C_Joker_00715639_U.png
2016WMLeipzigG8B_MisterBurns_00012554_U.png
2016WMLeipzigG8B_MisterBurns_00016454_U.png
2016WMLeipzigG8B_MisterBurns_00018002_U.png
2016WMLeipzigG8B_MisterBurns_00019643_U.png
2016WMLeipzigG8B_MisterBurns_00021465_U.png
2016WMLeipzigG8B_MisterBurns_00024938_U.png
2016WMLeipzigG8B_MisterBurns_00029635_U.png
2016WMLeipzigG8B_MisterBurns_00031780_U.png
2016WMLeipzigG8B_MisterBurns_00035101_U.png
2016WMLeipzigG8A_MisterBurns_00036718_U.png
2016WMLeipzigG8B_MisterBurns_00042210_U.png
2016WMLeipzigG8B_MisterBurns_00053588_U.png
2016WMLeipzigG8B_MisterBurns_00059251_U.png
2016WMLeipzigG8B_MisterBurns_00065656_U.png
2016WMLeipzigG8B_MisterBurns_00070508_U.png
2016WMLeipzigG8B_MisterBurns_00078151_U.png
2016WMLeipzigG8B_MisterBurns_00080047_U.png
2016WMLeipzigG8B_MisterBurns_00083812_U.png
2016WMLeipzigG8B_MisterBurns_00086250_U.png
2016WMLeipzigG8B_MisterBurns_00088159_U.png
2016WMLeipzigG8B_MisterBurns_00089818_U.png
2016WMLeipzigG8B_MisterBurns_00091481_U.png
2016WMLeipzigG8B_MisterBurns_00098227_U.png
2016WMLeipzigG8B_MisterBurns_00099525_U.png
2016WMLeipzigG8B_MisterBurns_00101712_U.png
2016WMLeipzigG8B_MisterBurns_00105740_U.png
2016WMLeipzigG8A_Shredder_00065549_U.png
2016WMLeipzigG8A_Shredder_00080512_U.png
2016WMLeipzigG8A_Shredder_00084390_U.png
2016WMLeipzigG8A_Shredder_00086143_U.png
2016WMLeipzigG8A_Shredder_00092001_U.png
2016WMLeipzigG8A_Shredder_00105892_U.png
2016WMLeipzigG8A_Shredder_00107776_U.png
2016WMLeipzigG8A_Shredder_00111956_U.png
2016WMLeipzigG8A_Shredder_00114573_U.png
2016WMLeipzigG8A_Shredder_00119701_U.png
2016WMLeipzigG8A_Shredder_00121515_U.png
2016WMLeipzigG8A_Shredder_00131167_U.png
2016WMLeipzigG8A_Shredder_00140010_U.png
2016WMLeipzigG8A_Shredder_00141657_U.png
2016WMLeipzigG8A_Shredder_00143683_U.png
2016WMLeipzigG8A_Shredder_00145559_U.png
2016WMLeipzigG8A_Shredder_00147326_U.png
2016WMLeipzigG8A_Shredder_00149104_U.png
2016WMLeipzigG8A_Shredder_00159538_U.png
2016WMLeipzigG8A_Shredder_00163140_U.png
2016WMLeipzigG8A_Shredder_00164807_U.png
2016WMLeipzigG8A_Shredder_00174416_U.png
2016WMLeipzigG8A_Shredder_00195083_U.png
2016WMLeipzigG8A_Shredder_00197007_U.png
2016WMLeipzigG8A_Shredder_00200925_U.png
2016WMLeipzigG8A_Shredder_00202858_U.png
2016WMLeipzigG8A_Shredder_00206942_U.png
2016WMLeipzigG8A_Shredder_00210210_U.png
2016WMLeipzigG8A_Shredder_00215162_U.png
2016WMLeipzigG8A_Shredder_00217714_U.png
2016WMLeipzigG8A_Shredder_00224921_U.png
2016WMLeipzigG8A_Shredder_00228920_U.png
2016WMLeipzigG8A_Shredder_00231178_U.png
2016WMLeipzigG8A_Shredder_00234918_U.png
2016WMLeipzigG8A_Shredder_00237395_U.png
2016WMLeipzigG8A_Shredder_00242347_U.png
2016WMLeipzigG8A_Shredder_00244865_U.png
2016WMLeipzigG8A_Shredder_00247163_U.png
2016WMLeipzigG8A_Shredder_00248899_U.png
2016WMLeipzigG8A_Shredder_00250988_U.png
2016WMLeipzigG8A_Shredder_00252866_U.png
2016WMLeipzigG8A_Shredder_00254808_U.png
2016WMLeipzigG8A_Shredder_00258671_U.png
2016WMLeipzigG8A_Shredder_00262781_U.png
2016WMLeipzigG8A_Shredder_00266855_U.png
2016WMLeipzigG8A_Shredder_00274641_U.png
2016WMLeipzigG8A_Shredder_00277820_U.png
2016WMLeipzigG8A_Shredder_00278284_U.png
2016WMLeipzigG8A_Shredder_00280915_U.png
2016WMLeipzigG8A_Shredder_00283236_U.png
2016WMLeipzigG8A_Shredder_00285389_U.png
2016WMLeipzigG8A_Shredder_00286929_U.png
2016WMLeipzigG8A_Shredder_00289581_U.png
2016WMLeipzigG8A_Shredder_00292279_U.png
2016WMLeipzigG8A_Shredder_00294008_U.png
2016WMLeipzigG8A_Shredder_00295988_U.png
2016WMLeipzigG8A_Shredder_00298009_U.png
2016WMLeipzigG8A_Shredder_00304486_U.png
2016WMLeipzigG8A_Shredder_00310887_U.png
2016WMLeipzigG8A_Shredder_00343109_U.png
2016WMLeipzigG8A_Shredder_00376765_U.png
2016WMLeipzigG8A_Shredder_00378610_U.png
2016WMLeipzigG8A_Shredder_00380538_U.png
2016WMLeipzigG8A_Shredder_00385190_U.png
2016WMLeipzigG8A_Shredder_00386675_U.png
2016WMLeipzigG8A_Shredder_00391357_U.png
2016WMLeipzigG8A_Shredder_00393411_U.png
2016WMLeipzigG8A_Shredder_00417899_U.png
2016WMLeipzigG8A_Shredder_00419750_U.png
2016WMLeipzigG8A_Shredder_00423832_U.png
2016WMLeipzigG8A_Shredder_00425755_U.png
2016WMLeipzigG8A_Shredder_00430802_U.png
2016WMLeipzigG8A_Shredder_00434391_U.png
2016WMLeipzigG8A_Shredder_00441353_U.png
2016WMLeipzigG8A_Shredder_00452327_U.png
2016WMLeipzigG8A_Shredder_00456713_U.png
2016WMLeipzigG8A_Shredder_00458423_U.png
2016WMLeipzigG8A_Shredder_00460146_U.png
2016WMLeipzigG8A_Shredder_00462425_U.png
2016WMLeipzigG8A_Shredder_00513624_U.png
2016WMLeipzigG8A_Shredder_00519439_U.png
2016WMLeipzigG8A_Shredder_00521437_U.png
2016WMLeipzigG8A_Shredder_00523457_U.png
2016WMLeipzigG8A_Shredder_00562392_U.png
2016WMLeipzigG8A_Shredder_00564128_U.png
2016WMLeipzigG8A_Shredder_00566571_U.png
2016WMLeipzigG8A_Shredder_00568573_U.png
2016WMLeipzigG8A_Shredder_00571207_U.png
2016WMLeipzigG8A_Shredder_00572531_U.png
2016WMLeipzigG8A_Shredder_00576272_U.png
2016WMLeipzigG8A_Shredder_00578491_U.png
2016WMLeipzigG8A_Shredder_00582398_U.png
2016WMLeipzigG8A_Shredder_00584963_U.png
2016WMLeipzigG8A_Shredder_00590587_U.png
2016WMLeipzigG8A_Shredder_00592271_U.png
2016WMLeipzigG8A_Shredder_00595989_U.png
2016WMLeipzigG8A_Shredder_00606686_U.png
2016WMLeipzigG8A_Shredder_00613582_U.png
2016WMLeipzigG8A_Shredder_00710312_U.png
2016WMLeipzigG8A_Shredder_00712015_U.png
2016WMLeipzigG8A_Shredder_00722081_U.png
2016WMLeipzigG8B_Gargamel_00064112_U.png
2016WMLeipzigG8B_Gargamel_00066394_U.png
2016WMLeipzigG8B_Gargamel_00074777_U.png
2016WMLeipzigG8B_Gargamel_00081940_U.png
2016WMLeipzigG8B_Gargamel_00087459_U.png
2016WMLeipzigG8B_Gargamel_00091163_U.png
2016WMLeipzigG8B_Gargamel_00104066_U.png
2016WMLeipzigG8B_Gargamel_00109916_U.png
2016WMLeipzigG8B_Gargamel_00126292_U.png
2016WMLeipzigG8B_Gargamel_00128965_U.png
2016WMLeipzigG8B_Gargamel_00132475_U.png
2016WMLeipzigG8B_Gargamel_00134134_U.png
2016WMLeipzigG8B_Gargamel_00144883_U.png
2016WMLeipzigG8B_Gargamel_00146951_U.png
2016WMLeipzigG8B_Gargamel_00150315_U.png
2016WMLeipzigG8B_Gargamel_00152117_U.png
2016WMLeipzigG8B_Gargamel_00154025_U.png
2016WMLeipzigG8B_Gargamel_00165771_U.png
2016WMLeipzigG8B_Gargamel_00165967_U.png
2016WMLeipzigG8B_Gargamel_00166174_U.png
2016WMLeipzigG8B_Gargamel_00166233_U.png
2016WMLeipzigG8B_Gargamel_00172436_U.png
2016WMLeipzigG8B_Gargamel_00174478_U.png
2016WMLeipzigG8B_Gargamel_00177198_U.png
2016WMLeipzigG8B_Gargamel_00179164_U.png
2016WMLeipzigG8B_Gargamel_00186448_U.png
2016WMLeipzigG8B_Gargamel_00198675_U.png
2016WMLeipzigG8B_Gargamel_00199929_U.png
2016WMLeipzigG8B_Gargamel_00203998_U.png
2016WMLeipzigG8B_Gargamel_00205663_U.png
2016WMLeipzigG8B_Gargamel_00210247_U.png
2016WMLeipzigG8B_Gargamel_00211965_U.png
2016WMLeipzigG8B_Gargamel_00215679_U.png
2016WMLeipzigG8B_Gargamel_00233720_U.png
2016WMLeipzigG8B_Gargamel_00235169_U.png
2016WMLeipzigG8B_Gargamel_00239320_U.png
2016WMLeipzigG8B_Gargamel_00240970_U.png
2016WMLeipzigG8B_Gargamel_00242647_U.png
2016WMLeipzigG8B_Gargamel_00246264_U.png
2016WMLeipzigG8B_Gargamel_00248742_U.png
2016WMLeipzigG8B_Gargamel_00252959_U.png
2016WMLeipzigG8B_Gargamel_00255106_U.png
2016WMLeipzigG8B_Gargamel_00260028_U.png
2016WMLeipzigG8B_Gargamel_00261779_U.png
2016WMLeipzigG8B_Gargamel_00268458_U.png
2016WMLeipzigG8B_Gargamel_00270306_U.png
2016WMLeipzigG8B_Gargamel_00273036_U.png
2016WMLeipzigG8B_Gargamel_00275034_U.png
2016WMLeipzigG8B_Gargamel_00276746_U.png
2016WMLeipzigG8B_Gargamel_00278904_U.png
2016WMLeipzigG8B_Gargamel_00283994_U.png
2016WMLeipzigG8B_Gargamel_00287798_U.png
2016WMLeipzigG8B_Gargamel_00290051_U.png
2016WMLeipzigG8B_Gargamel_00292209_U.png
2016WMLeipzigG8B_Gargamel_00295978_U.png
2016WMLeipzigG8B_Gargamel_00297802_U.png
2016WMLeipzigG8B_Gargamel_00303889_U.png
2016WMLeipzigG8B_Gargamel_00305878_U.png
2016WMLeipzigG8B_Gargamel_00310233_U.png
2016WMLeipzigG8B_Gargamel_00312289_U.png
2016WMLeipzigG8B_Gargamel_00322369_U.png
2016WMLeipzigG8B_Gargamel_00324449_U.png
2016WMLeipzigG8B_Gargamel_00331193_U.png
2016WMLeipzigG8B_Gargamel_00333321_U.png
2016WMLeipzigG8B_Gargamel_00336800_U.png
2016WMLeipzigG8B_Gargamel_00338450_U.png
2016WMLeipzigG8B_Gargamel_00342186_U.png
2016WMLeipzigG8B_Gargamel_00344189_U.png
2016WMLeipzigG8B_Gargamel_00351862_U.png
2016WMLeipzigG8B_Gargamel_00352502_U.png
2016WMLeipzigG8B_Gargamel_00359328_U.png
2016WMLeipzigG8B_Gargamel_00361120_U.png
2016WMLeipzigG8B_Gargamel_00363571_U.png
2016WMLeipzigG8B_Gargamel_00367143_U.png
2016WMLeipzigG8D_Joker_00069473_U.png
2016WMLeipzigG8D_Joker_00074895_U.png
2016WMLeipzigG8D_Joker_00089750_U.png
2016WMLeipzigG8D_Joker_00093657_U.png
2016WMLeipzigG8D_Joker_00095495_U.png
2016WMLeipzigG8D_Joker_00097591_U.png
2016WMLeipzigG8D_Joker_00099862_U.png
2016WMLeipzigG8D_Joker_00103891_U.png
2016WMLeipzigG8D_Joker_00106215_U.png
2016WMLeipzigG8D_Joker_00108448_U.png
2016WMLeipzigG8D_Joker_00112346_U.png
2016WMLeipzigG8D_Joker_00124801_U.png
2016WMLeipzigG8D_Joker_00127209_U.png
2016WMLeipzigG8D_Joker_00130612_U.png
2016WMLeipzigG8D_Joker_00135032_U.png
2016WMLeipzigG8D_Joker_00137057_U.png
2016WMLeipzigG8D_Joker_00139071_U.png
2016WMLeipzigG8D_Joker_00147480_U.png
2016WMLeipzigG8D_Joker_00149129_U.png
2016WMLeipzigG8D_Joker_00150950_U.png
2016WMLeipzigG8D_Joker_00152940_U.png
2016WMLeipzigG8D_Joker_00154860_U.png
2016WMLeipzigG8D_Joker_00169131_U.png
2016WMLeipzigG8D_Joker_00171029_U.png
2016WMLeipzigG8D_Joker_00175317_U.png
2016WMLeipzigG8D_Joker_00177487_U.png
2016WMLeipzigG8D_Joker_00181147_U.png
2016WMLeipzigG8D_Joker_00182874_U.png
2016WMLeipzigG8D_Joker_00186282_U.png
2016WMLeipzigG8D_Joker_00190139_U.png
2016WMLeipzigG8D_Joker_00192559_U.png
2016WMLeipzigG8D_Joker_00199389_U.png
2016WMLeipzigG8D_Joker_00206787_U.png
2016WMLeipzigG8D_Joker_00209281_U.png
2016WMLeipzigG8D_Joker_00211653_U.png
2016WMLeipzigG8D_Joker_00216276_U.png
2016WMLeipzigG8D_Joker_00218482_U.png
2016WMLeipzigG8D_Joker_00222343_U.png
2016WMLeipzigG8D_Joker_00224072_U.png
2016WMLeipzigG8D_Joker_00226075_U.png
2016WMLeipzigG8D_Joker_00227878_U.png
2016WMLeipzigG8D_Joker_00230142_U.png
2016WMLeipzigG8D_Joker_00234673_U.png
2016WMLeipzigG8D_Joker_00237175_U.png
2016WMLeipzigG8D_Joker_00243405_U.png
2016WMLeipzigG8D_Joker_00247917_U.png
2016WMLeipzigG8D_Joker_00249317_U.png
2016WMLeipzigG8D_Joker_00251730_U.png
2016WMLeipzigG8D_Joker_00253971_U.png
2016WMLeipzigG8D_Joker_00258912_U.png
2016WMLeipzigG8D_Joker_00263663_U.png
2016WMLeipzigG8D_Joker_00265298_U.png
2016WMLeipzigG8D_Joker_00280132_U.png
2016WMLeipzigG8D_Joker_00282041_U.png
2016WMLeipzigG8D_Joker_00283838_U.png
2016WMLeipzigG8D_Joker_00285566_U.png
2016WMLeipzigG8D_Joker_00288053_U.png
2016WMLeipzigG8D_Joker_00289897_U.png
2016WMLeipzigG8D_Joker_00292029_U.png
2016WMLeipzigG8D_Joker_00294430_U.png
2016WMLeipzigG8D_Joker_00296327_U.png
2016WMLeipzigG8D_Joker_00299176_U.png
2016WMLeipzigG8D_Joker_00301189_U.png
2016WMLeipzigG8D_Joker_00303242_U.png
2016WMLeipzigG8D_Joker_00305845_U.png
2016WMLeipzigG8D_Joker_00307911_U.png
2016WMLeipzigG8D_Joker_00309823_U.png
2016WMLeipzigG8D_Joker_00314661_U.png
2016WMLeipzigG8D_Joker_00317151_U.png
2016WMLeipzigG8D_Joker_00319119_U.png
2016WMLeipzigG8D_Joker_00320885_U.png
2016WMLeipzigG8D_Joker_00322529_U.png
2016WMLeipzigG8D_Joker_00326168_U.png
2016WMLeipzigG8D_Joker_00328106_U.png
2016WMLeipzigG8D_Joker_00332646_U.png
2016WMLeipzigG8D_Joker_00339204_U.png
2016WMLeipzigG8D_Joker_00340820_U.png
2016WMLeipzigG8D_Joker_00342982_U.png
2016WMLeipzigG8D_Joker_00351907_U.png
2016WMLeipzigG8D_Joker_00355563_U.png
2016WMLeipzigG8D_Joker_00360453_U.png
2016WMLeipzigG8D_Joker_00362259_U.png
2016WMLeipzigG8D_Joker_00389205_U.png
2016WMLeipzigG8D_Joker_00390927_U.png
2016WMLeipzigG8D_Joker_00395443_U.png
2016WMLeipzigG8D_Joker_00397768_U.png
2016WMLeipzigG8D_Joker_00402010_U.png
2016WMLeipzigG8D_Joker_00405208_U.png
2016WMLeipzigG8D_Joker_00407330_U.png
2016WMLeipzigG8D_Joker_00409565_U.png
2016WMLeipzigG8D_Joker_00413590_U.png
2016WMLeipzigG8D_Joker_00415920_U.png
2016WMLeipzigG8D_Joker_00423980_U.png
2016WMLeipzigG8D_Joker_00425881_U.png
2016WMLeipzigG8D_Joker_00427752_U.png
2016WMLeipzigG8D_Joker_00429440_U.png
2016WMLeipzigG8D_Joker_00431947_U.png
2016WMLeipzigG8D_Joker_00433728_U.png
2016WMLeipzigG8D_Joker_00436019_U.png
2016WMLeipzigG8D_Joker_00438026_U.png
2016WMLeipzigG8D_Joker_00439793_U.png
2016WMLeipzigG8D_Joker_00441758_U.png
2016WMLeipzigG8D_Joker_00444680_U.png
2016WMLeipzigG8D_Joker_00448557_U.png
2016WMLeipzigG8D_Joker_00450841_U.png
2016WMLeipzigG8D_Joker_00453063_U.png
2016WMLeipzigG8D_Joker_00456942_U.png
2016WMLeipzigG8D_Joker_00526663_U.png
2016WMLeipzigG8D_Joker_00530512_U.png
2016WMLeipzigG8D_Joker_00532578_U.png
2016WMLeipzigG8D_Joker_00548472_U.png
2016WMLeipzigG8D_Joker_00553098_U.png
2016WMLeipzigG8D_Joker_00557586_U.png
2016WMLeipzigG8D_Joker_00561112_U.png
2016WMLeipzigG8D_Joker_00563261_U.png
2016WMLeipzigG8D_Joker_00565931_U.png
2016WMLeipzigG8D_Joker_00568068_U.png
2016WMLeipzigG8D_Joker_00570604_U.png
2016WMLeipzigG8D_Joker_00572724_U.png
2016WMLeipzigG8D_Joker_00577891_U.png
2016WMLeipzigG8D_Joker_00582028_U.png
2016WMLeipzigG8D_Joker_00584365_U.png
2016WMLeipzigG8D_Joker_00586918_U.png
2016WMLeipzigG8D_Joker_00588756_U.png
2016WMLeipzigG8D_Joker_00593547_U.png
2016WMLeipzigG8D_Joker_00595380_U.png
2016WMLeipzigG8D_Joker_00599327_U.png
2016WMLeipzigG8D_Joker_00601110_U.png
2016WMLeipzigG8D_Joker_00605398_U.png
2016WMLeipzigG8D_Joker_00612168_U.png
2016WMLeipzigG8D_Joker_00617825_U.png
2016WMLeipzigG8D_Joker_00619817_U.png
2016WMLeipzigG8D_Joker_00623954_U.png
2016WMLeipzigG8D_Joker_00625897_U.png
2016WMLeipzigG8D_Joker_00628187_U.png
2016WMLeipzigG8D_Joker_00630056_U.png
2016WMLeipzigG8D_Joker_00635926_U.png
2016WMLeipzigG8D_Joker_00637866_U.png
2016WMLeipzigG8D_Joker_00640006_U.png
2016WMLeipzigG8D_Joker_00644582_U.png
2016WMLeipzigG8D_Joker_00646952_U.png
2016WMLeipzigG8D_Joker_00649039_U.png
2016WMLeipzigG8D_Joker_00650910_U.png
2016WMLeipzigG8D_Joker_00652650_U.png
2016WMLeipzigG8D_Joker_00658380_U.png
2016WMLeipzigG8D_Joker_00660914_U.png
2016WMLeipzigG8D_Joker_00664173_U.png
2016WMLeipzigG8D_Joker_00668264_U.png
2016WMLeipzigG8D_Joker_00682398_U.png
2016WMLeipzigG8D_Joker_00684458_U.png
2016WMLeipzigG8D_Joker_00686484_U.png
2016WMLeipzigG8D_Joker_00692024_U.png
2016WMLeipzigG8D_Joker_00693972_U.png
2016WMLeipzigG8D_Joker_00695933_U.png
2016WMLeipzigG8D_Joker_00699886_U.png
2016WMLeipzigG8D_Joker_00701664_U.png
2016WMLeipzigG8D_Joker_00703305_U.png
2016WMLeipzigG8D_Joker_00705112_U.png
2016WMLeipzigG8D_Joker_00707117_U.png
2016WMLeipzigG8D_Joker_00709069_U.png
2016WMLeipzigG8D_Joker_00711195_U.png
2016WMLeipzigG8D_Joker_00718766_U.png
2016WMLeipzigG8D_Joker_00720842_U.png
2016WMLeipzigG8D_Joker_00721763_U.png
2016WMLeipzigG8D_Joker_00723997_U.png
2016WMLeipzigG8D_Joker_00735657_U.png
2016WMLeipzigG8D_Joker_00737838_U.png
2016WMLeipzigG8D_Joker_00739893_U.png
2016WMLeipzigG8A_MisterBurns_00047964_U.png
2016WMLeipzigG8A_MisterBurns_00053130_U.png
2016WMLeipzigG8A_MisterBurns_00063510_U.png
2016WMLeipzigG8A_MisterBurns_00065833_U.png
2016WMLeipzigG8A_MisterBurns_00069950_U.png
2016WMLeipzigG8A_MisterBurns_00072302_U.png
2016WMLeipzigG8A_MisterBurns_00074247_U.png
2016WMLeipzigG8A_MisterBurns_00075976_U.png
2016WMLeipzigG8A_MisterBurns_00080740_U.png
2016WMLeipzigG8A_MisterBurns_00082354_U.png
2016WMLeipzigG8A_MisterBurns_00084315_U.png
2016WMLeipzigG8A_MisterBurns_00086611_U.png
2016WMLeipzigG8A_MisterBurns_00089030_U.png
2016WMLeipzigG8A_MisterBurns_00091462_U.png
2016WMLeipzigG8A_MisterBurns_00093405_U.png
2016WMLeipzigG8A_MisterBurns_00095457_U.png
2016WMLeipzigG8A_MisterBurns_00099418_U.png
2016WMLeipzigG8A_MisterBurns_00106778_U.png
2016WMLeipzigG8A_MisterBurns_00110465_U.png
2016WMLeipzigG8A_MisterBurns_00112817_U.png
2016WMLeipzigG8A_MisterBurns_00114967_U.png
2016WMLeipzigG8A_MisterBurns_00123593_U.png
2016WMLeipzigG8A_MisterBurns_00127886_U.png
2016WMLeipzigG8A_MisterBurns_00129963_U.png
2016WMLeipzigG8A_MisterBurns_00131699_U.png
2016WMLeipzigG8A_MisterBurns_00133703_U.png
2016WMLeipzigG8A_MisterBurns_00139027_U.png
2016WMLeipzigG8A_MisterBurns_00149539_U.png
2016WMLeipzigG8A_MisterBurns_00151224_U.png
2016WMLeipzigG8B_MisterBurns_00156715_U.png
2016WMLeipzigG8A_MisterBurns_00160417_U.png
2016WMLeipzigG8A_MisterBurns_00162130_U.png
2016WMLeipzigG8A_MisterBurns_00164229_U.png
2016WMLeipzigG8A_MisterBurns_00168217_U.png
2016WMLeipzigG8A_MisterBurns_00169813_U.png
2016WMLeipzigG8A_MisterBurns_00175869_U.png
2016WMLeipzigG8A_MisterBurns_00182281_U.png
2016WMLeipzigG8A_MisterBurns_00186117_U.png
2016WMLeipzigG8A_MisterBurns_00190005_U.png
2016WMLeipzigG8A_MisterBurns_00194648_U.png
2016WMLeipzigG8A_MisterBurns_00196695_U.png
2016WMLeipzigG8A_MisterBurns_00201307_U.png
2016WMLeipzigG8A_MisterBurns_00206149_U.png
2016WMLeipzigG8A_MisterBurns_00208015_U.png
2016WMLeipzigG8A_MisterBurns_00212009_U.png
2016WMLeipzigG8A_MisterBurns_00220393_U.png
2016WMLeipzigG8A_MisterBurns_00222602_U.png
2016WMLeipzigG8A_MisterBurns_00224560_U.png
2016WMLeipzigG8A_MisterBurns_00226205_U.png
2016WMLeipzigG8A_MisterBurns_00227885_U.png
2016WMLeipzigG8A_MisterBurns_00233851_U.png
2016WMLeipzigG8A_MisterBurns_00236073_U.png
2016WMLeipzigG8A_MisterBurns_00242102_U.png
2016WMLeipzigG8A_MisterBurns_00243777_U.png
2016WMLeipzigG8A_MisterBurns_00248698_U.png
2016WMLeipzigG8A_MisterBurns_00253324_U.png
2016WMLeipzigG8A_MisterBurns_00255545_U.png
2016WMLeipzigG8A_MisterBurns_00267608_U.png
2016WMLeipzigG8A_MisterBurns_00273735_U.png
2016WMLeipzigG8A_MisterBurns_00275568_U.png
2016WMLeipzigG8A_MisterBurns_00285685_U.png
2016WMLeipzigG8A_MisterBurns_00287527_U.png
2016WMLeipzigG8A_MisterBurns_00292062_U.png
2016WMLeipzigG8A_MisterBurns_00294487_U.png
2016WMLeipzigG8A_MisterBurns_00296497_U.png
2016WMLeipzigG8A_MisterBurns_00298375_U.png
2016WMLeipzigG8A_MisterBurns_00300059_U.png
2016WMLeipzigG8A_MisterBurns_00301866_U.png
2016WMLeipzigG8A_MisterBurns_00305350_U.png
2016WMLeipzigG8A_MisterBurns_00307381_U.png
2016WMLeipzigG8A_MisterBurns_00309235_U.png
2016WMLeipzigG8A_MisterBurns_00311281_U.png
2016WMLeipzigG8A_MisterBurns_00313167_U.png
2016WMLeipzigG8A_MisterBurns_00315417_U.png
2016WMLeipzigG8A_MisterBurns_00317026_U.png
2016WMLeipzigG8A_MisterBurns_00320853_U.png
2016WMLeipzigG8A_MisterBurns_00332746_U.png
2016WMLeipzigG8A_MisterBurns_00336202_U.png
2016WMLeipzigG8A_MisterBurns_00340878_U.png
2016WMLeipzigG8A_MisterBurns_00342968_U.png
2016WMLeipzigG8A_MisterBurns_00374927_U.png
2016WMLeipzigG8C_Gargamel_00043173_U.png
2016WMLeipzigG8C_Gargamel_00047564_U.png
2016WMLeipzigG8C_Gargamel_00051305_U.png
2016WMLeipzigG8C_Gargamel_00059125_U.png
2016WMLeipzigG8C_Gargamel_00061373_U.png
2016WMLeipzigG8C_Gargamel_00064845_U.png
2016WMLeipzigG8C_Gargamel_00072612_U.png
2016WMLeipzigG8C_Gargamel_00076622_U.png
2016WMLeipzigG8C_Gargamel_00078682_U.png
2016WMLeipzigG8A_Joker_00043433_U.png
2016WMLeipzigG8A_Joker_00049069_U.png
2016WMLeipzigG8A_Joker_00058875_U.png
2016WMLeipzigG8A_Joker_00061656_U.png
2016WMLeipzigG8A_Joker_00062885_U.png
2016WMLeipzigG8A_Joker_00064997_U.png
2016WMLeipzigG8A_Joker_00067443_U.png
2016WMLeipzigG8A_Joker_00069705_U.png
2016WMLeipzigG8A_Joker_00073903_U.png
2016WMLeipzigG8A_Joker_00075730_U.png
2016WMLeipzigG8D_Shredder_00041546_U.png
2016WMLeipzigG8D_Shredder_00062981_U.png
2016WMLeipzigG8D_Shredder_00065053_U.png
2016WMLeipzigG8D_Shredder_00068679_U.png
2016WMLeipzigG8D_Shredder_00070591_U.png
2016WMLeipzigG8D_Shredder_00074798_U.png
2016WMLeipzigG8D_Shredder_00076725_U.png
2016WMLeipzigG8E_Gargamel_00014049_U.png
2016WMLeipzigG8E_Gargamel_00019169_U.png
2016WMLeipzigG8E_Gargamel_00020842_U.png
2016WMLeipzigG8E_Gargamel_00024585_U.png
2016WMLeipzigG8E_Gargamel_00035836_U.png
2016WMLeipzigG8E_Gargamel_00037534_U.png
2016WMLeipzigG8E_Gargamel_00041105_U.png
2016WMLeipzigG8E_Gargamel_00044909_U.png
2016WMLeipzigG8E_Gargamel_00052402_U.png
2016WMLeipzigG8E_Gargamel_00054198_U.png
2016WMLeipzigG8E_Gargamel_00061524_U.png
2016WMLeipzigG8E_Gargamel_00065381_U.png
2016WMLeipzigG8E_Gargamel_00068103_U.png
2016WMLeipzigG8E_Gargamel_00069047_U.png
2016WMLeipzigG8E_Gargamel_00070741_U.png
2016WMLeipzigG8E_Gargamel_00072446_U.png
2016WMLeipzigG8E_Gargamel_00074878_U.png
2016WMLeipzigG8E_Gargamel_00078899_U.png
2016WMLeipzigG8E_Gargamel_00084605_U.png
2016WMLeipzigG8E_Gargamel_00090953_U.png
2016WMLeipzigG8E_Gargamel_00094332_U.png
2016WMLeipzigG8E_Gargamel_00096018_U.png
2016WMLeipzigG8E_Gargamel_00100479_U.png
2016WMLeipzigG8E_Gargamel_00102316_U.png
2016WMLeipzigG8E_Gargamel_00105419_U.png
2016WMLeipzigG8E_Gargamel_00106417_U.png
2016WMLeipzigG8E_Gargamel_00108413_U.png
2016WMLeipzigG8E_Gargamel_00110233_U.png
2016WMLeipzigG8E_Gargamel_00112033_U.png
2016WMLeipzigG8E_Gargamel_00116948_U.png
2016WMLeipzigG8E_Gargamel_00119358_U.png
2016WMLeipzigG8E_Gargamel_00123983_U.png
2016WMLeipzigG8E_Gargamel_00126816_U.png
2016WMLeipzigG8E_Gargamel_00130990_U.png
2016WMLeipzigG8E_Gargamel_00133051_U.png
2016WMLeipzigG8E_Gargamel_00134759_U.png
2016WMLeipzigG8E_Gargamel_00136804_U.png
2016WMLeipzigG8E_Gargamel_00142934_U.png
2016WMLeipzigG8E_Gargamel_00148337_U.png
2016WMLeipzigG8E_Gargamel_00150140_U.png
2016WMLeipzigG8E_Gargamel_00152082_U.png
2016WMLeipzigG8E_Gargamel_00159120_U.png
2016WMLeipzigG8E_Gargamel_00161582_U.png
2016WMLeipzigG8E_Gargamel_00163900_U.png
2016WMLeipzigG8E_Gargamel_00174387_U.png
2016WMLeipzigG8E_Gargamel_00176668_U.png
2016WMLeipzigG8E_Gargamel_00179547_U.png
2016WMLeipzigG8E_Gargamel_00181443_U.png
2016WMLeipzigG8E_Gargamel_00186550_U.png
2016WMLeipzigG8E_Gargamel_00188487_U.png
2016WMLeipzigG8E_Gargamel_00190315_U.png
2016WMLeipzigG8E_Gargamel_00192150_U.png
2016WMLeipzigG8E_Gargamel_00195753_U.png
2016WMLeipzigG8E_Gargamel_00197631_U.png
2016WMLeipzigG8E_Gargamel_00201476_U.png
2016WMLeipzigG8E_Gargamel_00203571_U.png
2016WMLeipzigG8E_Gargamel_00207419_U.png
2016WMLeipzigG8E_Gargamel_00214444_U.png
2016WMLeipzigG8E_Gargamel_00218536_U.png
2016WMLeipzigG8E_Gargamel_00223951_U.png
2016WMLeipzigG8E_Gargamel_00225936_U.png
2016WMLeipzigG8E_Gargamel_00227562_U.png
2016WMLeipzigG8E_Gargamel_00232242_U.png
2016WMLeipzigG8E_Gargamel_00235918_U.png
2016WMLeipzigG8E_Gargamel_00241646_U.png
2016WMLeipzigG8E_Gargamel_00243310_U.png
2016WMLeipzigG8E_Gargamel_00246849_U.png
2016WMLeipzigG8E_Gargamel_00248818_U.png
2016WMLeipzigG8E_Gargamel_00257279_U.png
2016WMLeipzigG8E_Gargamel_00261470_U.png
2016WMLeipzigG8E_Gargamel_00274976_U.png
2016WMLeipzigG8E_Gargamel_00277675_U.png
2016WMLeipzigG8E_Gargamel_00281698_U.png
2016WMLeipzigG8E_Gargamel_00291848_U.png
2016WMLeipzigG8E_Gargamel_00293897_U.png
2016WMLeipzigG8E_Gargamel_00295915_U.png
2016WMLeipzigG8E_Gargamel_00302182_U.png
2016WMLeipzigG8E_Gargamel_00308234_U.png
2016WMLeipzigG8E_Gargamel_00315119_U.png
2016WMLeipzigG8E_Gargamel_00316957_U.png
2016WMLeipzigG8E_Gargamel_00318798_U.png
2016WMLeipzigG8E_Gargamel_00324362_U.png
2016WMLeipzigG8E_Gargamel_00328659_U.png
2016WMLeipzigG8E_Gargamel_00330617_U.png
2016WMLeipzigG8E_Gargamel_00337666_U.png
2016WMLeipzigG8E_Gargamel_00339364_U.png
2016WMLeipzigG8E_Gargamel_00344992_U.png
2016WMLeipzigG8E_Gargamel_00347355_U.png
2016WMLeipzigG8E_Gargamel_00349431_U.png
2016WMLeipzigG8E_Gargamel_00358753_U.png
2016WMLeipzigG8E_Gargamel_00361000_U.png
2016WMLeipzigG8E_Gargamel_00368043_U.png
2016WMLeipzigG8E_Gargamel_00370126_U.png
2016WMLeipzigG8E_Gargamel_00372308_U.png
2016WMLeipzigG8E_Gargamel_00377586_U.png
2016WMLeipzigG8E_Gargamel_00385929_U.png
2016WMLeipzigG8E_Gargamel_00388296_U.png
2016WMLeipzigG8E_Gargamel_00390752_U.png
2016WMLeipzigG8E_Gargamel_00392406_U.png
2016WMLeipzigG8E_Gargamel_00394142_U.png
2016WMLeipzigG8E_Gargamel_00397750_U.png
2016WMLeipzigG8E_Gargamel_00401796_U.png
2016WMLeipzigG8E_Gargamel_00406175_U.png
2016WMLeipzigG8E_Gargamel_00408638_U.png
2016WMLeipzigG8E_Gargamel_00415093_U.png
2016WMLeipzigG8E_Gargamel_00417190_U.png
2016WMLeipzigG8E_MisterBurns_00067101_U.png
2016WMLeipzigG8E_MisterBurns_00068824_U.png
2016WMLeipzigG8E_MisterBurns_00071457_U.png
2016WMLeipzigG8E_MisterBurns_00072996_U.png
2016WMLeipzigG8D_MisterBurns_00074716_U.png
2016WMLeipzigG8E_MisterBurns_00078913_U.png
2016WMLeipzigG8E_MisterBurns_00080646_U.png
2016WMLeipzigG8E_MisterBurns_00082369_U.png
2016WMLeipzigG8E_MisterBurns_00084118_U.png
2016WMLeipzigG8E_MisterBurns_00087834_U.png
2016WMLeipzigG8E_MisterBurns_00089550_U.png
2016WMLeipzigG8E_MisterBurns_00106099_U.png
2016WMLeipzigG8E_MisterBurns_00110004_U.png
2016WMLeipzigG8E_MisterBurns_00111827_U.png
2016WMLeipzigG8E_MisterBurns_00115758_U.png
2016WMLeipzigG8E_MisterBurns_00117767_U.png
2016WMLeipzigG8E_MisterBurns_00133186_U.png
2016WMLeipzigG8E_MisterBurns_00136538_U.png
2016WMLeipzigG8E_MisterBurns_00138227_U.png
2016WMLeipzigG8E_MisterBurns_00141921_U.png
2016WMLeipzigG8E_MisterBurns_00143540_U.png
2016WMLeipzigG8E_MisterBurns_00145573_U.png
2016WMLeipzigG8E_MisterBurns_00150049_U.png
2016WMLeipzigG8E_MisterBurns_00152421_U.png
2016WMLeipzigG8E_MisterBurns_00154729_U.png
2016WMLeipzigG8E_MisterBurns_00156301_U.png
2016WMLeipzigG8E_MisterBurns_00157486_U.png
2016WMLeipzigG8E_MisterBurns_00159193_U.png
2016WMLeipzigG8E_MisterBurns_00160951_U.png
2016WMLeipzigG8E_MisterBurns_00170473_U.png
2016WMLeipzigG8E_MisterBurns_00176881_U.png
2016WMLeipzigG8E_MisterBurns_00180220_U.png
2016WMLeipzigG8E_MisterBurns_00196420_U.png
2016WMLeipzigG8E_MisterBurns_00198108_U.png
2016WMLeipzigG8E_MisterBurns_00201171_U.png
2016WMLeipzigG8E_MisterBurns_00204212_U.png
2016WMLeipzigG8E_MisterBurns_00206472_U.png
2016WMLeipzigG8E_MisterBurns_00207447_U.png
2016WMLeipzigG8E_MisterBurns_00211465_U.png
2016WMLeipzigG8E_MisterBurns_00213311_U.png
2016WMLeipzigG8E_MisterBurns_00221732_U.png
2016WMLeipzigG8E_MisterBurns_00227290_U.png
2016WMLeipzigG8E_MisterBurns_00231048_U.png
2016WMLeipzigG8E_MisterBurns_00232675_U.png
2016WMLeipzigG8E_MisterBurns_00234550_U.png
2016WMLeipzigG8E_MisterBurns_00236547_U.png
2016WMLeipzigG8E_MisterBurns_00240982_U.png
2016WMLeipzigG8E_MisterBurns_00243302_U.png
2016WMLeipzigG8E_MisterBurns_00247608_U.png
2016WMLeipzigG8E_MisterBurns_00254207_U.png
2016WMLeipzigG8E_MisterBurns_00256579_U.png
2016WMLeipzigG8E_MisterBurns_00259110_U.png
2016WMLeipzigG8D_MisterBurns_00267564_U.png
2016WMLeipzigG8E_MisterBurns_00317785_U.png
2016WMLeipzigG8E_MisterBurns_00321854_U.png
2016WMLeipzigG8E_MisterBurns_00325600_U.png
2016WMLeipzigG8E_MisterBurns_00329006_U.png
2016WMLeipzigG8E_MisterBurns_00339094_U.png
2016WMLeipzigG8E_MisterBurns_00341172_U.png
2016WMLeipzigG8E_MisterBurns_00344393_U.png
2016WMLeipzigG8E_MisterBurns_00350269_U.png
2016WMLeipzigG8E_MisterBurns_00354120_U.png
2016WMLeipzigG8E_MisterBurns_00356421_U.png
2016WMLeipzigG8E_MisterBurns_00361279_U.png
2016WMLeipzigG8E_MisterBurns_00363339_U.png
2016WMLeipzigG8E_MisterBurns_00365559_U.png
2016WMLeipzigG8E_MisterBurns_00367545_U.png
2016WMLeipzigG8E_MisterBurns_00369049_U.png
2016WMLeipzigG8E_MisterBurns_00384755_U.png
2016WMLeipzigG8E_MisterBurns_00390173_U.png
2016WMLeipzigG8E_MisterBurns_00392731_U.png
2016WMLeipzigG8E_MisterBurns_00399037_U.png
2016WMLeipzigG8E_MisterBurns_00401401_U.png
2016WMLeipzigG8E_MisterBurns_00403511_U.png
2016WMLeipzigG8E_MisterBurns_00410100_U.png
2016WMLeipzigG8E_MisterBurns_00416331_U.png
2016WMLeipzigG8E_MisterBurns_00420653_U.png
2016WMLeipzigG8E_MisterBurns_00422958_U.png
2016WMLeipzigG8E_MisterBurns_00426569_U.png
2016WMLeipzigG8E_MisterBurns_00428485_U.png
2016WMLeipzigG8E_MisterBurns_00432108_U.png
2016WMLeipzigG8E_MisterBurns_00434186_U.png
2016WMLeipzigG8E_MisterBurns_00436276_U.png
2016WMLeipzigG8E_MisterBurns_00438112_U.png
2016WMLeipzigG8E_MisterBurns_00440197_U.png
2016WMLeipzigG8E_MisterBurns_00443810_U.png
2016WMLeipzigG8E_MisterBurns_00445524_U.png
2016WMLeipzigG8E_MisterBurns_00455380_U.png
2016WMLeipzigG8E_MisterBurns_00459111_U.png
2016WMLeipzigG8E_MisterBurns_00461322_U.png
2016WMLeipzigG8E_MisterBurns_00464943_U.png
2016WMLeipzigG8E_MisterBurns_00469061_U.png
2016WMLeipzigG8E_MisterBurns_00473620_U.png
2016WMLeipzigG8E_MisterBurns_00478932_U.png
2016WMLeipzigG8E_MisterBurns_00486816_U.png
2016WMLeipzigG8E_MisterBurns_00493095_U.png
2016WMLeipzigG8E_MisterBurns_00496906_U.png
2016WMLeipzigG8E_MisterBurns_00500391_U.png
2016WMLeipzigG8E_MisterBurns_00502547_U.png
2016WMLeipzigG8E_MisterBurns_00504897_U.png
2016WMLeipzigG8E_MisterBurns_00523868_U.png
2016WMLeipzigG8E_MisterBurns_00528101_U.png
2016WMLeipzigG8E_MisterBurns_00532227_U.png
2016WMLeipzigG8E_MisterBurns_00536655_U.png
2016WMLeipzigG8E_MisterBurns_00538606_U.png
2016WMLeipzigG8E_MisterBurns_00540862_U.png
2016WMLeipzigG8E_MisterBurns_00545560_U.png
2016WMLeipzigG8E_MisterBurns_00548278_U.png
2016WMLeipzigG8E_MisterBurns_00554017_U.png
2016WMLeipzigG8E_MisterBurns_00556012_U.png
2016WMLeipzigG8E_MisterBurns_00557731_U.png
2016WMLeipzigG8E_MisterBurns_00560000_U.png
2016WMLeipzigG8E_MisterBurns_00563548_U.png
2016WMLeipzigG8E_MisterBurns_00565727_U.png
2016WMLeipzigG8E_MisterBurns_00570065_U.png
2016WMLeipzigG8E_MisterBurns_00572731_U.png
2016WMLeipzigG8E_MisterBurns_00577674_U.png
2016WMLeipzigG8E_MisterBurns_00578435_U.png
2016WMLeipzigG8E_MisterBurns_00583448_U.png
2016WMLeipzigG8E_MisterBurns_00585439_U.png
2016WMLeipzigG8E_MisterBurns_00589802_U.png
2016WMLeipzigG8E_MisterBurns_00595417_U.png
2016WMLeipzigG8E_MisterBurns_00599674_U.png
2016WMLeipzigG8E_MisterBurns_00601396_U.png
2016WMLeipzigG8E_MisterBurns_00603739_U.png
2016WMLeipzigG8E_MisterBurns_00608399_U.png
2016WMLeipzigG8E_MisterBurns_00611235_U.png
2016WMLeipzigG8E_MisterBurns_00613093_U.png
2016WMLeipzigG8E_MisterBurns_00615026_U.png
2016WMLeipzigG8E_MisterBurns_00692726_U.png
2016WMLeipzigG8E_MisterBurns_00696785_U.png
2016WMLeipzigG8E_MisterBurns_00701357_U.png
2016WMLeipzigG8E_MisterBurns_00703081_U.png
2016WMLeipzigG8E_MisterBurns_00708411_U.png
2016WMLeipzigG8E_MisterBurns_00710329_U.png
2016WMLeipzigG8E_MisterBurns_00713016_U.png
2016WMLeipzigG8E_MisterBurns_00715142_U.png
2016WMLeipzigG8E_MisterBurns_00717052_U.png
2016WMLeipzigG8E_MisterBurns_00718835_U.png
2016WMLeipzigG8E_MisterBurns_00720914_U.png
2016WMLeipzigG8B_Shredder_00048623_U.png
2016WMLeipzigG8B_Shredder_00050373_U.png
2016WMLeipzigG8B_Shredder_00064927_U.png
2016WMLeipzigG8B_Shredder_00066472_U.png
2016WMLeipzigG8B_Shredder_00070751_U.png
2016WMLeipzigG8B_Shredder_00074891_U.png
2016WMLeipzigG8B_Shredder_00077684_U.png
2016WMLeipzigG8B_Shredder_00086286_U.png
2016WMLeipzigG8B_Shredder_00088527_U.png
2016WMLeipzigG8B_Shredder_00092090_U.png
2016WMLeipzigG8B_Shredder_00093745_U.png
2016WMLeipzigG8B_Shredder_00097350_U.png
2016WMLeipzigG8B_Shredder_00099462_U.png
2016WMLeipzigG8B_Shredder_00103288_U.png
2016WMLeipzigG8B_Shredder_00113543_U.png
2016WMLeipzigG8B_Shredder_00114993_U.png
2016WMLeipzigG8B_Shredder_00178746_U.png
2016WMLeipzigG8B_Shredder_00180486_U.png
2016WMLeipzigG8B_Shredder_00182779_U.png
2016WMLeipzigG8B_Shredder_00184502_U.png
2016WMLeipzigG8B_Shredder_00186488_U.png
2016WMLeipzigG8B_Shredder_00188194_U.png
2016WMLeipzigG8B_Shredder_00191089_U.png
2016WMLeipzigG8B_Shredder_00193753_U.png
2016WMLeipzigG8B_Shredder_00195542_U.png
2016WMLeipzigG8B_Shredder_00198544_U.png
2016WMLeipzigG8B_Shredder_00200287_U.png
2016WMLeipzigG8B_Shredder_00245088_U.png
2016WMLeipzigG8B_Shredder_00247288_U.png
2016WMLeipzigG8B_Shredder_00249437_U.png
2016WMLeipzigG8B_Shredder_00251442_U.png
2016WMLeipzigG8B_Shredder_00259508_U.png
2016WMLeipzigG8B_Shredder_00261527_U.png
2016WMLeipzigG8B_Shredder_00298977_U.png
2016WMLeipzigG8D_Shredder_00307217_U.png
2016WMLeipzigG8B_Shredder_00309160_U.png
2016WMLeipzigG8B_Shredder_00314530_U.png
2016WMLeipzigG8B_Shredder_00316854_U.png
2016WMLeipzigG8B_Shredder_00319232_U.png
2016WMLeipzigG8B_Shredder_00320710_U.png
2016WMLeipzigG8D_Shredder_00363019_U.png
2016WMLeipzigG8B_Shredder_00367329_U.png
2016WMLeipzigG8B_Shredder_00371004_U.png
2016WMLeipzigG8B_Shredder_00373053_U.png
2016WMLeipzigG8B_Shredder_00377609_U.png
2016WMLeipzigG8B_Shredder_00389441_U.png
2016WMLeipzigG8B_Shredder_00391922_U.png
2016WMLeipzigG8B_Shredder_00395655_U.png
2016WMLeipzigG8B_Shredder_00397838_U.png
2016WMLeipzigG8B_Shredder_00402099_U.png
2016WMLeipzigG8B_Shredder_00404440_U.png
2016WMLeipzigG8B_Shredder_00408476_U.png
2016WMLeipzigG8B_Shredder_00410319_U.png
2016WMLeipzigG8B_Shredder_00416108_U.png
2016WMLeipzigG8B_Shredder_00418370_U.png
2016WMLeipzigG8B_Shredder_00421103_U.png
2016WMLeipzigG8B_Shredder_00425739_U.png
2016WMLeipzigG8B_Shredder_00427324_U.png
2016WMLeipzigG8B_Shredder_00431706_U.png
2016WMLeipzigG8B_Shredder_00433127_U.png
2016WMLeipzigG8B_Shredder_00435089_U.png
2016WMLeipzigG8B_Shredder_00437272_U.png
2016WMLeipzigG8B_Shredder_00439773_U.png
2016WMLeipzigG8B_Shredder_00441771_U.png
2016WMLeipzigG8B_Shredder_00443824_U.png
2016WMLeipzigG8B_Shredder_00446199_U.png
2016WMLeipzigG8B_Shredder_00449980_U.png
2016WMLeipzigG8B_Shredder_00463712_U.png
2016WMLeipzigG8B_Shredder_00465757_U.png
2016WMLeipzigG8D_Shredder_00495850_U.png
2016WMLeipzigG8B_Shredder_00588545_U.png
2016WMLeipzigG8B_Shredder_00595768_U.png
2016WMLeipzigG8B_Shredder_00603415_U.png
2016WMLeipzigG8B_Shredder_00610211_U.png
2016WMLeipzigG8B_Shredder_00616451_U.png
2016WMLeipzigG8B_Shredder_00623767_U.png
2016WMLeipzigG8B_Shredder_00631114_U.png
2016WMLeipzigG8B_Shredder_00632880_U.png
2016WMLeipzigG8B_Shredder_00636449_U.png
2016WMLeipzigG8B_Shredder_00638341_U.png
2016WMLeipzigG8B_Shredder_00651818_U.png
2016WMLeipzigG8B_Shredder_00681647_U.png
2016WMLeipzigG8B_Shredder_00685594_U.png
2016WMLeipzigG8B_Shredder_00692824_U.png
2016WMLeipzigG8B_Shredder_00710283_U.png
2016WMLeipzigG8B_Shredder_00712195_U.png
2016WMLeipzigG8G_Gargamel_00012410_U.png
2016WMLeipzigG8G_Gargamel_00014103_U.png
2016WMLeipzigG8G_Gargamel_00015985_U.png
2016WMLeipzigG8G_Gargamel_00018027_U.png
2016WMLeipzigG8G_Gargamel_00022093_U.png
2016WMLeipzigG8G_Gargamel_00027134_U.png
2016WMLeipzigG8G_Gargamel_00031046_U.png
2016WMLeipzigG8G_Gargamel_00043701_U.png
2016WMLeipzigG8G_Gargamel_00046639_U.png
2016WMLeipzigG8G_Gargamel_00050244_U.png
2016WMLeipzigG8G_Gargamel_00051968_U.png
2016WMLeipzigG8G_Gargamel_00057418_U.png
2016WMLeipzigG8G_Gargamel_00059917_U.png
2016WMLeipzigG8G_Gargamel_00063682_U.png
2016WMLeipzigG8G_Gargamel_00066690_U.png
2016WMLeipzigG8G_Gargamel_00072214_U.png
2016WMLeipzigG8G_Gargamel_00074113_U.png
2016WMLeipzigG8G_Gargamel_00077395_U.png
2016WMLeipzigG8G_Gargamel_00084223_U.png
2016WMLeipzigG8G_Gargamel_00086229_U.png
2016WMLeipzigG8G_Gargamel_00097623_U.png
2016WMLeipzigG8G_Gargamel_00099588_U.png
2016WMLeipzigG8G_Gargamel_00101571_U.png
2016WMLeipzigG8G_Gargamel_00124042_U.png
2016WMLeipzigG8G_Gargamel_00126082_U.png
2016WMLeipzigG8G_Gargamel_00131850_U.png
2016WMLeipzigG8G_Gargamel_00136092_U.png
2016WMLeipzigG8G_Gargamel_00137972_U.png
2016WMLeipzigG8G_Gargamel_00144402_U.png
2016WMLeipzigG8G_Gargamel_00150956_U.png
2016WMLeipzigG8G_Gargamel_00152764_U.png
2016WMLeipzigG8G_Gargamel_00156560_U.png
2016WMLeipzigG8G_Gargamel_00165637_U.png
2016WMLeipzigG8D_MisterBurns_00051783_U.png
2016WMLeipzigG8D_MisterBurns_00053510_U.png
2016WMLeipzigG8D_MisterBurns_00055357_U.png
2016WMLeipzigG8D_MisterBurns_00057076_U.png
2016WMLeipzigG8D_MisterBurns_00058982_U.png
2016WMLeipzigG8D_MisterBurns_00063320_U.png
2016WMLeipzigG8D_MisterBurns_00067831_U.png
2016WMLeipzigG8D_MisterBurns_00070013_U.png
2016WMLeipzigG8D_MisterBurns_00074804_U.png
2016WMLeipzigG8D_MisterBurns_00076639_U.png
2016WMLeipzigG8D_MisterBurns_00080534_U.png
2016WMLeipzigG8D_MisterBurns_00082692_U.png
2016WMLeipzigG8D_MisterBurns_00086579_U.png
2016WMLeipzigG8F_Gargamel_00050077_U.png
2016WMLeipzigG8F_Gargamel_00059910_U.png
2016WMLeipzigG8F_Gargamel_00061344_U.png
2016WMLeipzigG8F_Gargamel_00064130_U.png
2016WMLeipzigG8F_Gargamel_00066081_U.png
2016WMLeipzigG8F_Gargamel_00069681_U.png
2016WMLeipzigG8F_Gargamel_00073898_U.png
2016WMLeipzigG8F_Gargamel_00076363_U.png
2016WMLeipzigG8F_Gargamel_00080664_U.png
2016WMLeipzigG8F_Gargamel_00083466_U.png
2016WMLeipzigG8F_Gargamel_00085700_U.png
2016WMLeipzigG8F_Gargamel_00087829_U.png
2016WMLeipzigG8F_Gargamel_00091857_U.png
2016WMLeipzigG8F_Gargamel_00093799_U.png
2016WMLeipzigG8F_Gargamel_00098877_U.png
2016WMLeipzigG8F_Gargamel_00100614_U.png
2016WMLeipzigG8F_Gargamel_00104272_U.png
2016WMLeipzigG8F_Gargamel_00106476_U.png
2016WMLeipzigG8F_Gargamel_00108231_U.png
2016WMLeipzigG8F_Gargamel_00110889_U.png
2016WMLeipzigG8F_Gargamel_00118405_U.png
2016WMLeipzigG8F_Gargamel_00118750_U.png
2016WMLeipzigG8F_Gargamel_00120393_U.png
2016WMLeipzigG8F_Gargamel_00123300_U.png
2016WMLeipzigG8F_Gargamel_00124792_U.png
2016WMLeipzigG8F_Gargamel_00134470_U.png
2016WMLeipzigG8F_Gargamel_00136266_U.png
2016WMLeipzigG8F_Gargamel_00143508_U.png
2016WMLeipzigG8F_Gargamel_00146663_U.png
2016WMLeipzigG8F_Gargamel_00149656_U.png
2016WMLeipzigG8F_Gargamel_00151716_U.png
2016WMLeipzigG8F_Gargamel_00176406_U.png
2016WMLeipzigG8F_Gargamel_00178198_U.png
2016WMLeipzigG8F_Gargamel_00179928_U.png
2016WMLeipzigG8F_Gargamel_00186400_U.png
2016WMLeipzigG8F_Gargamel_00188275_U.png
2016WMLeipzigG8F_Gargamel_00190289_U.png
2016WMLeipzigG8F_Gargamel_00195816_U.png
2016WMLeipzigG8F_Gargamel_00203636_U.png
2016WMLeipzigG8F_Gargamel_00206543_U.png
2016WMLeipzigG8F_Gargamel_00208318_U.png
2016WMLeipzigG8F_Gargamel_00210322_U.png
2016WMLeipzigG8F_Gargamel_00212122_U.png
2016WMLeipzigG8F_Gargamel_00213788_U.png
2016WMLeipzigG8F_Gargamel_00215516_U.png
2016WMLeipzigG8F_Gargamel_00217128_U.png
2016WMLeipzigG8F_Gargamel_00219467_U.png
2016WMLeipzigG8F_Gargamel_00221214_U.png
2016WMLeipzigG8F_Gargamel_00223453_U.png
2016WMLeipzigG8F_Gargamel_00238185_U.png
2016WMLeipzigG8F_Gargamel_00241915_U.png
2016WMLeipzigG8F_Gargamel_00244063_U.png
