RC2022_5th-Game-vsBembelbots_G1B_CometInterceptor_4_PLAY_00651362_RobotDetectionToManyRobots_U.png;1718198941488;tkalbitz;CenterCirclePoints;318;209;318;209;Left
RC2022_5th-Game-vsBembelbots_G1B_Pioneer_5_PLAY_00248638_RobotDetectionToManyRobots_U.png;1718198948628;tkalbitz;CenterCirclePoints;131;168;131;168;Right
RC2022_5th-Game-vsBembelbots_G1B_Pioneer_5_PLAY_00414862_RobotDetectionToManyRobots_U.png;1718198951945;tkalbitz;CenterCirclePoints;478;132;478;132;Left
RC2022_5th-Game-vsBembelbots_G1B_Pioneer_5_PLAY_00543514_RobotDetectionToManyRobots_U.png;1718198953951;tkalbitz;CenterCirclePoints;58;471;58;471;Left
RC2022_5th-Game-vsBembelbots_G1C_CometInterceptor_4_PLAY_00424335_RobotDetectionToManyRobots_U.png;1718198956525;tkalbitz;CenterCirclePoints;361;119;361;119;Left
RC2022_5th-Game-vsBembelbots_G1C_CometInterceptor_4_PLAY_00873777_RobotDetectionToManyRobots_U.png;1718198958333;tkalbitz;NoCenterCirclePoints
