RC2023-G2A_Sputnik_4_PLAY_00914027_RobotDetectionToManyRobots_U.png;1718181506770;tkalbitz;CenterCirclePoints;424;423;424;423;Left
RC2023-G2A_Sputnik_4_READY_00309724_RobotDetectionToManyRobots_U.png;1718181513151;tkalbitz;CenterCirclePoints;499;183;499;183;Left
RC2023-G2A_Sputnik_4_READY_00481825_RobotDetectionToManyRobots_U.png;1718181515253;tkalbitz;CenterCirclePoints;436;267;436;267;Left
RC2023-G2A_Sputnik_4_READY_00580897_RobotDetectionToManyRobots_U.png;1718181517821;tkalbitz;CenterCirclePoints;297;467;297;467;Left
RC2023-G2A_Sputnik_4_READY_00586006_RobotDetectionToManyRobots_U.png;1718181521141;tkalbitz;CenterCirclePoints;2;314;2;314;Left
RC2023-G2A_Sputnik_4_READY_00592334_RobotDetectionToManyRobots_U.png;1718181523655;tkalbitz;CenterCirclePoints;131;307;131;307;Left
RC2023-G2A_Sputnik_4_READY_00598608_RobotDetectionToManyRobots_U.png;1718181526955;tkalbitz;CenterCirclePoints;209;317;209;317;Left
RC2023-G2A_Sputnik_4_SET_00348126_RobotDetectionToManyRobots_U.png;1718181536454;tkalbitz;CenterCirclePoints;223;221;223;221;Left
RC2023-G2A_Sputnik_4_SET_00603772_RobotDetectionToManyRobots_U.png;1718181538482;tkalbitz;CenterCirclePoints;284;317;284;317;Left
RC2023-G2B_Sputnik_4_READY_00158107_RobotDetectionToManyRobots_U.png;1718181544794;tkalbitz;CenterCirclePoints;577;156;577;156;Left
RC2023-G2B_Sputnik_4_READY_00190139_RobotDetectionToManyRobots_U.png;1718181547292;tkalbitz;CenterCirclePoints;356;189;356;189;Right
RC2023-G2B_Sputnik_4_READY_00401423_RobotDetectionToManyRobots_U.png;1718181550502;tkalbitz;CenterCirclePoints;303;340;303;340;Left
RC2023-G2B_Sputnik_4_READY_00406273_RobotDetectionToManyRobots_U.png;1718181552207;tkalbitz;CenterCirclePoints;347;311;347;311;Left
RC2023-G2B_Sputnik_4_READY_00410465_RobotDetectionToManyRobots_U.png;1718181556044;tkalbitz;CenterCirclePoints;292;251;293;251;Left
RC2023-G2B_Sputnik_4_READY_00415244_RobotDetectionToManyRobots_U.png;1718181561357;tkalbitz;CenterCirclePoints;255;247;255;247;Left
RC2023-G2B_Sputnik_4_READY_00654439_RobotDetectionToManyRobots_U.png;1718181573267;tkalbitz;CenterCirclePoints;519;339;519;339;Right
RC2023-G2B_Sputnik_4_READY_00658658_RobotDetectionToManyRobots_U.png;1718181576317;tkalbitz;CenterCirclePoints;132;325;132;325;Left
RC2023-G2B_Sputnik_4_READY_00664266_RobotDetectionToManyRobots_U.png;1718181578792;tkalbitz;CenterCirclePoints;66;338;66;338;Left
RC2023-G2B_Sputnik_4_READY_00879852_RobotDetectionToManyRobots_U.png;1718181584606;tkalbitz;CenterCirclePoints;185;177;185;177;Right
RC2023-G2B_Sputnik_4_READY_00887892_RobotDetectionToManyRobots_U.png;1718181588570;tkalbitz;CenterCirclePoints;467;132;467;132;Left
RC2023-G2B_Sputnik_4_SET_00668412_RobotDetectionToManyRobots_U.png;1718181593558;tkalbitz;CenterCirclePoints;6;351;6;351;Left
RC2023-G2A_Sputnik_4_PLAY_00914027_RobotDetectionToManyRobots_U.png;1715622568635;tkalbitz;GoalPost;518;118;515;21;Right
RC2023-G2A_Sputnik_4_READY_00592334_RobotDetectionToManyRobots_U.png;1715677636799;tkalbitz;GoalPost;597;98;607;1;Right
RC2023-G2B_Sputnik_4_PLAY_00376079_RobotDetectionToManyRobots_U.png;1715622597211;tkalbitz;GoalPost;498;131;504;1;Left
RC2023-G2B_Sputnik_4_READY_00389849_RobotDetectionToManyRobots_U.png;1715622606567;tkalbitz;GoalPost;118;135;108;32;Left
RC2023-G2B_Sputnik_4_SET_00674482_RobotDetectionToManyRobots_U.png;1715622617737;tkalbitz;GoalPost;402;126;403;26;Right
RC2023-G2A_Sputnik_4_PLAY_00826222_RobotDetectionToManyRobots_U.png;1715622563581;tkalbitz;NoGoalPost
RC2023-G2A_Sputnik_4_READY_00481825_RobotDetectionToManyRobots_U.png;1715622578608;tkalbitz;NoGoalPost
RC2023-G2A_Sputnik_4_SET_00603772_RobotDetectionToManyRobots_U.png;1715622589412;tkalbitz;NoGoalPost
RC2023-G2A_Sputnik_4_SET_00784945_RobotDetectionToManyRobots_U.png;1715622594005;tkalbitz;NoGoalPost
