2017GO_vsBHumanG1A_GlaDOS_00121462_U.png;1494445782136;tkalbitz;Ball;355;231;335;284;Ball
2017GO_vsBHumanG1A_GlaDOS_00147582_U.png;1494445786693;tkalbitz;Ball;324;177;299;187;Ball
2017GO_vsBHumanG1A_GlaDOS_00150763_U.png;1494445791687;tkalbitz;Ball;561;133;530;146;Ball
2017GO_vsBHumanG1A_GlaDOS_00153376_U.png;1494445797218;tkalbitz;Ball;417;179;392;202;Ball
2017GO_vsBHumanG1A_GlaDOS_00155400_U.png;1494445801517;tkalbitz;Ball;385;144;365;176;Ball
2017GO_vsBHumanG1A_GlaDOS_00157153_U.png;1494445806471;tkalbitz;Ball;402;191;415;235;Ball
2017GO_vsBHumanG1A_GlaDOS_00159021_U.png;1494445811146;tkalbitz;Ball;370;230;332;279;Ball
2017GO_vsBHumanG1A_GlaDOS_00160935_U.png;1494445815377;tkalbitz;Ball;330;248;274;308;Ball
2017GO_vsBHumanG1A_GlaDOS_00168562_U.png;1494445822397;tkalbitz;Ball;514;181;508;196;Ball
2017GO_vsBHumanG1A_GlaDOS_00169653_U.png;1494445827383;tkalbitz;Ball;378;92;362;98;Ball
2017GO_vsBHumanG1A_GlaDOS_00172019_U.png;1494445834188;tkalbitz;Ball;396;92;375;102;Ball
2017GO_vsBHumanG1A_GlaDOS_00174493_U.png;1494445838383;tkalbitz;Ball;628;132;629;151;Ball
2017GO_vsBHumanG1A_GlaDOS_00179950_U.png;1494445845586;tkalbitz;Ball;616;145;615;165;Ball
2017GO_vsBHumanG1A_GlaDOS_00196511_U.png;1494445851430;tkalbitz;Ball;373;140;373;156;Ball
2017GO_vsBHumanG1A_GlaDOS_00198503_U.png;1494445856642;tkalbitz;Ball;351;65;362;76;Ball
2017GO_vsBHumanG1A_GlaDOS_00200244_U.png;1494445859850;tkalbitz;Ball;313;34;302;46;Ball
2017GO_vsBHumanG1A_GlaDOS_00201993_U.png;1494445868517;tkalbitz;Ball;387;153;394;164;Ball
2017GO_vsBHumanG1A_GlaDOS_00205856_U.png;1494445876219;tkalbitz;Ball;379;27;388;40;Ball
2017GO_vsBHumanG1A_GlaDOS_00208246_U.png;1494445880613;tkalbitz;Ball;399;62;411;75;Ball
2017GO_vsBHumanG1A_GlaDOS_00218924_U.png;1494445885823;tkalbitz;Ball;354;137;335;164;Ball
2017GO_vsBHumanG1A_GlaDOS_00221012_U.png;1494445892024;tkalbitz;Ball;229;158;205;188;Ball
2017GO_vsBHumanG1A_GlaDOS_00223837_U.png;1494445897123;tkalbitz;Ball;211;149;200;200;Ball
2017GO_vsBHumanG1A_GlaDOS_00226216_U.png;1494445903071;tkalbitz;Ball;379;255;360;334;Ball
2017GO_vsBHumanG1A_GlaDOS_00232308_U.png;1494445908437;tkalbitz;Ball;418;227;393;312;Ball
2017GO_vsBHumanG1A_GlaDOS_00236849_U.png;1494445911703;tkalbitz;Ball;340;246;303;321;Ball
2017GO_vsBHumanG1A_GlaDOS_00239447_U.png;1494445918547;tkalbitz;Ball;348;368;318;477;Ball
2017GO_vsBHumanG1A_GlaDOS_00263373_U.png;1494445925638;tkalbitz;Ball;21;290;-13;299;Ball
2017GO_vsBHumanG1A_GlaDOS_00272646_U.png;1494445932096;tkalbitz;Ball;241;163;231;185;Ball
2017GO_vsBHumanG1A_GlaDOS_00285841_U.png;1494445937714;tkalbitz;Ball;276;145;254;171;Ball
2017GO_vsBHumanG1A_GlaDOS_00295945_U.png;1494445945857;tkalbitz;Ball;168;262;149;289;Ball
2017GO_vsBHumanG1A_GlaDOS_00298935_U.png;1494445951979;tkalbitz;Ball;114;280;110;314;Ball
2017GO_vsBHumanG1A_GlaDOS_00305010_U.png;1494445956750;tkalbitz;Ball;490;314;472;365;Ball
2017GO_vsBHumanG1A_GlaDOS_00371032_U.png;1494445963270;tkalbitz;Ball;287;252;285;281;Ball
2017GO_vsBHumanG1A_GlaDOS_00377925_U.png;1494445968192;tkalbitz;Ball;370;188;330;202;Ball
2017GO_vsBHumanG1A_GlaDOS_00380571_U.png;1494445973187;tkalbitz;Ball;314;279;286;323;Ball
2017GO_vsBHumanG1A_GlaDOS_00399556_U.png;1494445989237;tkalbitz;Ball;47;364;72;370;Ball
2017GO_vsBHumanG1A_GlaDOS_00413340_U.png;1494445995289;tkalbitz;Ball;603;61;598;77;Ball
2017GO_vsBHumanG1A_GlaDOS_00415949_U.png;1494445999404;tkalbitz;Ball;382;19;372;31;Ball
2017GO_vsBHumanG1A_GlaDOS_00425491_U.png;1494446008251;tkalbitz;Ball;102;139;83;148;Ball
2017GO_vsBHumanG1A_GlaDOS_00444874_U.png;1494446017180;tkalbitz;Ball;396;74;391;96;Ball
2017GO_vsBHumanG1A_GlaDOS_00447584_U.png;1494446021910;tkalbitz;Ball;348;38;348;17;Ball
2017GO_vsBHumanG1A_GlaDOS_00450702_U.png;1494446028753;tkalbitz;Ball;444;50;439;69;Ball
2017GO_vsBHumanG1A_GlaDOS_00453467_U.png;1494446032386;tkalbitz;Ball;270;23;268;43;Ball
2017GO_vsBHumanG1A_GlaDOS_00455436_U.png;1494446035059;tkalbitz;Ball;336;51;338;71;Ball
2017GO_vsBHumanG1A_GlaDOS_00457587_U.png;1494446051613;tkalbitz;Ball;346;57;329;70;Ball
2017GO_vsBHumanG1A_GlaDOS_00460379_U.png;1494446067204;tkalbitz;Ball;330;133;349;142;Ball
2017GO_vsBHumanG1A_GlaDOS_00493453_U.png;1494446070905;tkalbitz;Ball;346;142;333;157;Ball
2017GO_vsBHumanG1A_GlaDOS_00510788_U.png;1494446077688;tkalbitz;Ball;207;160;181;169;Ball
2017GO_vsBHumanG1A_GlaDOS_00511876_U.png;1494446083605;tkalbitz;Ball;238;118;217;137;Ball
2017GO_vsBHumanG1A_GlaDOS_00514506_U.png;1494446088303;tkalbitz;Ball;428;125;420;158;Ball
2017GO_vsBHumanG1A_GlaDOS_00518315_U.png;1494446093731;tkalbitz;Ball;409;251;396;303;Ball
2017GO_vsBHumanG1A_GlaDOS_00606481_U.png;1494446100495;tkalbitz;Ball;338;244;318;259;Ball
2017GO_vsBHumanG1A_GlaDOS_00620508_U.png;1494446112796;tkalbitz;Ball;52;336;86;401;Ball
2017GO_vsBHumanG1A_GlaDOS_00622550_U.png;1494446119641;tkalbitz;Ball;346;371;314;450;Ball
2017GO_vsBHumanG1A_GlaDOS_00624955_U.png;1494446132189;tkalbitz;Ball;69;371;51;495;Ball
2017GO_vsBHumanG1A_GlaDOS_00629374_U.png;1494446138934;tkalbitz;Ball;246;456;251;572;Ball
2017GO_vsBHumanG1A_GlaDOS_00643826_U.png;1494446144443;tkalbitz;Ball;535;233;535;269;Ball
2017GO_vsBHumanG1A_GlaDOS_00661070_U.png;1494446148231;tkalbitz;Ball;68;164;59;198;Ball
2017GO_vsBHumanG1A_GlaDOS_00662984_U.png;1494446153755;tkalbitz;Ball;314;127;317;159;Ball
2017GO_vsBHumanG1A_GlaDOS_00664883_U.png;1494446157268;tkalbitz;Ball;381;140;394;180;Ball
2017GO_vsBHumanG1A_GlaDOS_00666636_U.png;1494446162016;tkalbitz;Ball;367;218;382;274;Ball
2017GO_vsBHumanG1A_GlaDOS_00669224_U.png;1494446169116;tkalbitz;Ball;503;299;416;352;Ball
2017GO_vsBHumanG1A_GlaDOS_00674224_U.png;1494446174019;tkalbitz;Ball;59;370;-35;436;Ball
2017GO_vsBHumanG1A_GlaDOS_00677040_U.png;1494446179951;tkalbitz;Ball;182;429;208;563;Ball
2017GO_vsBHumanG1A_GlaDOS_00685932_U.png;1494446187418;tkalbitz;Ball;205;438;188;573;Ball
2017GO_vsBHumanG1A_GlaDOS_00691723_U.png;1494446199244;tkalbitz;Ball;415;446;306;438;Ball
2017GO_vsBHumanG1A_GlaDOS_00702670_U.png;1494446211009;tkalbitz;Ball;32;368;41;426;Ball
2017GO_vsBHumanG1A_GlaDOS_00721983_U.png;1494446218053;tkalbitz;Ball;289;154;260;171;Ball
2017GO_vsBHumanG1A_GlaDOS_00724485_U.png;1494446222062;tkalbitz;Ball;376;157;365;202;Ball
2017GO_vsBHumanG1A_GlaDOS_00726737_U.png;1494446232493;tkalbitz;Ball;377;236;332;282;Ball
2017GO_vsBHumanG1A_GlaDOS_00747821_U.png;1494446239423;tkalbitz;Ball;75;260;66;282;Ball
2017GO_vsBHumanG1A_GlaDOS_00775671_U.png;1494446243674;tkalbitz;Ball;393;201;388;224;Ball
2017GO_vsBHumanG1A_GlaDOS_00777555_U.png;1494446248371;tkalbitz;Ball;365;134;343;139;Ball
2017GO_vsBHumanG1A_GlaDOS_00196511_U.png;1573858128403;tkalbitz;FieldBorder;629;152;484;125;FieldBorder
2017GO_vsBHumanG1A_GlaDOS_00196511_U.png;1573858130438;tkalbitz;FieldBorder;416;112;11;124;FieldBorder
2017GO_vsBHumanG1A_GlaDOS_00295945_U.png;1573858136285;tkalbitz;FieldBorder;554;126;152;165;FieldBorder
2017GO_vsBHumanG1A_GlaDOS_00295945_U.png;1573858140355;tkalbitz;FieldBorder;77;177;3;195;FieldBorder
2017GO_vsBHumanG1A_GlaDOS_00298935_U.png;1573858144267;tkalbitz;FieldBorder;5;218;92;200;FieldBorder
2017GO_vsBHumanG1A_GlaDOS_00298935_U.png;1573858157610;tkalbitz;FieldBorder;616;146;200;187;FieldBorder
2017GO_vsBHumanG1A_GlaDOS_00415949_U.png;1573858163506;tkalbitz;FieldBorder;635;22;512;5;FieldBorder
2017GO_vsBHumanG1A_GlaDOS_00460379_U.png;1573858167600;tkalbitz;FieldBorder;11;97;599;94;FieldBorder
2017GO_vsBHumanG1A_GlaDOS_00657079_U.png;1622658164614;tkalbitz;FieldBorder;12;249;398;223;FieldBorder
2017GO_vsBHumanG1A_GlaDOS_00657079_U.png;1622658168928;tkalbitz;FieldBorder;452;222;594;240;FieldBorder
2017GO_vsBHumanG1A_GlaDOS_00747821_U.png;1573858171863;tkalbitz;FieldBorder;627;249;380;201;FieldBorder
2017GO_vsBHumanG1A_GlaDOS_00747821_U.png;1573858174425;tkalbitz;FieldBorder;322;197;44;214;FieldBorder
2017GO_vsBHumanG1A_GlaDOS_00777555_U.png;1573858178399;tkalbitz;FieldBorder;12;86;354;71;FieldBorder
2017GO_vsBHumanG1A_GlaDOS_00777555_U.png;1573858181715;tkalbitz;FieldBorder;455;71;634;101;FieldBorder
2017GO_vsBHumanG1A_GlaDOS_00070637_U.png;1494619435981;FalseGenerator;NoBall
2017GO_vsBHumanG1A_GlaDOS_00071673_U.png;1494619435997;FalseGenerator;NoBall
2017GO_vsBHumanG1A_GlaDOS_00073855_U.png;1494619435836;FalseGenerator;NoBall
2017GO_vsBHumanG1A_GlaDOS_00075687_U.png;1494619435983;FalseGenerator;NoBall
2017GO_vsBHumanG1A_GlaDOS_00077883_U.png;1494619435849;FalseGenerator;NoBall
2017GO_vsBHumanG1A_GlaDOS_00079570_U.png;1494619435964;FalseGenerator;NoBall
2017GO_vsBHumanG1A_GlaDOS_00081985_U.png;1494619435990;FalseGenerator;NoBall
2017GO_vsBHumanG1A_GlaDOS_00083864_U.png;1494619435793;FalseGenerator;NoBall
2017GO_vsBHumanG1A_GlaDOS_00086316_U.png;1494619435950;FalseGenerator;NoBall
2017GO_vsBHumanG1A_GlaDOS_00088321_U.png;1494619436052;FalseGenerator;NoBall
2017GO_vsBHumanG1A_GlaDOS_00090078_U.png;1494619435932;FalseGenerator;NoBall
2017GO_vsBHumanG1A_GlaDOS_00092962_U.png;1494619435792;FalseGenerator;NoBall
2017GO_vsBHumanG1A_GlaDOS_00095033_U.png;1494619435781;FalseGenerator;NoBall
2017GO_vsBHumanG1A_GlaDOS_00097180_U.png;1494619436048;FalseGenerator;NoBall
2017GO_vsBHumanG1A_GlaDOS_00098976_U.png;1494619436000;FalseGenerator;NoBall
2017GO_vsBHumanG1A_GlaDOS_00100731_U.png;1494619436026;FalseGenerator;NoBall
2017GO_vsBHumanG1A_GlaDOS_00103246_U.png;1494619435979;FalseGenerator;NoBall
2017GO_vsBHumanG1A_GlaDOS_00105093_U.png;1494619435847;FalseGenerator;NoBall
2017GO_vsBHumanG1A_GlaDOS_00106993_U.png;1494619435959;FalseGenerator;NoBall
2017GO_vsBHumanG1A_GlaDOS_00109246_U.png;1494619435974;FalseGenerator;NoBall
2017GO_vsBHumanG1A_GlaDOS_00111406_U.png;1494619435893;FalseGenerator;NoBall
2017GO_vsBHumanG1A_GlaDOS_00114039_U.png;1494619435961;FalseGenerator;NoBall
2017GO_vsBHumanG1A_GlaDOS_00116191_U.png;1494619435796;FalseGenerator;NoBall
2017GO_vsBHumanG1A_GlaDOS_00118471_U.png;1494619435958;FalseGenerator;NoBall
2017GO_vsBHumanG1A_GlaDOS_00124007_U.png;1494619435884;FalseGenerator;NoBall
2017GO_vsBHumanG1A_GlaDOS_00125677_U.png;1494619435804;FalseGenerator;NoBall
2017GO_vsBHumanG1A_GlaDOS_00127729_U.png;1494619435877;FalseGenerator;NoBall
2017GO_vsBHumanG1A_GlaDOS_00129610_U.png;1494619435840;FalseGenerator;NoBall
2017GO_vsBHumanG1A_GlaDOS_00131392_U.png;1494619435945;FalseGenerator;NoBall
2017GO_vsBHumanG1A_GlaDOS_00133392_U.png;1494619435815;FalseGenerator;NoBall
2017GO_vsBHumanG1A_GlaDOS_00138994_U.png;1494619435901;FalseGenerator;NoBall
2017GO_vsBHumanG1A_GlaDOS_00141178_U.png;1494619435955;FalseGenerator;NoBall
2017GO_vsBHumanG1A_GlaDOS_00143423_U.png;1494619435943;FalseGenerator;NoBall
2017GO_vsBHumanG1A_GlaDOS_00145449_U.png;1494619435899;FalseGenerator;NoBall
2017GO_vsBHumanG1A_GlaDOS_00163346_U.png;1494619435971;FalseGenerator;NoBall
2017GO_vsBHumanG1A_GlaDOS_00165699_U.png;1494619435881;FalseGenerator;NoBall
2017GO_vsBHumanG1A_GlaDOS_00176753_U.png;1494619435831;FalseGenerator;NoBall
2017GO_vsBHumanG1A_GlaDOS_00178100_U.png;1494619435827;FalseGenerator;NoBall
2017GO_vsBHumanG1A_GlaDOS_00182476_U.png;1494619435859;FalseGenerator;NoBall
2017GO_vsBHumanG1A_GlaDOS_00184391_U.png;1494619435994;FalseGenerator;NoBall
2017GO_vsBHumanG1A_GlaDOS_00186375_U.png;1494619435957;FalseGenerator;NoBall
2017GO_vsBHumanG1A_GlaDOS_00188752_U.png;1494619435949;FalseGenerator;NoBall
2017GO_vsBHumanG1A_GlaDOS_00190538_U.png;1494619435858;FalseGenerator;NoBall
2017GO_vsBHumanG1A_GlaDOS_00192633_U.png;1494619436032;FalseGenerator;NoBall
2017GO_vsBHumanG1A_GlaDOS_00194505_U.png;1494619435883;FalseGenerator;NoBall
2017GO_vsBHumanG1A_GlaDOS_00210665_U.png;1494619435930;FalseGenerator;NoBall
2017GO_vsBHumanG1A_GlaDOS_00212340_U.png;1494619435905;FalseGenerator;NoBall
2017GO_vsBHumanG1A_GlaDOS_00215341_U.png;1494619435995;FalseGenerator;NoBall
2017GO_vsBHumanG1A_GlaDOS_00217573_U.png;1494619435960;FalseGenerator;NoBall
2017GO_vsBHumanG1A_GlaDOS_00228832_U.png;1494619435964;FalseGenerator;NoBall
2017GO_vsBHumanG1A_GlaDOS_00230566_U.png;1494619435833;FalseGenerator;NoBall
2017GO_vsBHumanG1A_GlaDOS_00234512_U.png;1494619435861;FalseGenerator;NoBall
2017GO_vsBHumanG1A_GlaDOS_00240575_U.png;1494619435873;FalseGenerator;NoBall
2017GO_vsBHumanG1A_GlaDOS_00246486_U.png;1494619436064;FalseGenerator;NoBall
2017GO_vsBHumanG1A_GlaDOS_00248740_U.png;1494619435799;FalseGenerator;NoBall
2017GO_vsBHumanG1A_GlaDOS_00251060_U.png;1494619436038;FalseGenerator;NoBall
2017GO_vsBHumanG1A_GlaDOS_00253181_U.png;1494619435818;FalseGenerator;NoBall
2017GO_vsBHumanG1A_GlaDOS_00255247_U.png;1494619435851;FalseGenerator;NoBall
2017GO_vsBHumanG1A_GlaDOS_00257202_U.png;1494619435925;FalseGenerator;NoBall
2017GO_vsBHumanG1A_GlaDOS_00259059_U.png;1494619436040;FalseGenerator;NoBall
2017GO_vsBHumanG1A_GlaDOS_00261539_U.png;1494619435794;FalseGenerator;NoBall
2017GO_vsBHumanG1A_GlaDOS_00265681_U.png;1494619436004;FalseGenerator;NoBall
2017GO_vsBHumanG1A_GlaDOS_00268145_U.png;1494619436028;FalseGenerator;NoBall
2017GO_vsBHumanG1A_GlaDOS_00270296_U.png;1494619435985;FalseGenerator;NoBall
2017GO_vsBHumanG1A_GlaDOS_00275349_U.png;1494619435832;FalseGenerator;NoBall
2017GO_vsBHumanG1A_GlaDOS_00277389_U.png;1494619435931;FalseGenerator;NoBall
2017GO_vsBHumanG1A_GlaDOS_00279810_U.png;1494619436058;FalseGenerator;NoBall
2017GO_vsBHumanG1A_GlaDOS_00282027_U.png;1494619435915;FalseGenerator;NoBall
2017GO_vsBHumanG1A_GlaDOS_00283997_U.png;1494619435939;FalseGenerator;NoBall
2017GO_vsBHumanG1A_GlaDOS_00288410_U.png;1494619435800;FalseGenerator;NoBall
2017GO_vsBHumanG1A_GlaDOS_00290672_U.png;1494619435953;FalseGenerator;NoBall
2017GO_vsBHumanG1A_GlaDOS_00292966_U.png;1494619435897;FalseGenerator;NoBall
2017GO_vsBHumanG1A_GlaDOS_00301156_U.png;1494619435879;FalseGenerator;NoBall
2017GO_vsBHumanG1A_GlaDOS_00303176_U.png;1494619436039;FalseGenerator;NoBall
2017GO_vsBHumanG1A_GlaDOS_00307217_U.png;1494619436022;FalseGenerator;NoBall
2017GO_vsBHumanG1A_GlaDOS_00309262_U.png;1494619435844;FalseGenerator;NoBall
2017GO_vsBHumanG1A_GlaDOS_00311479_U.png;1494619435963;FalseGenerator;NoBall
2017GO_vsBHumanG1A_GlaDOS_00313742_U.png;1494619436046;FalseGenerator;NoBall
2017GO_vsBHumanG1A_GlaDOS_00316103_U.png;1494619435898;FalseGenerator;NoBall
2017GO_vsBHumanG1A_GlaDOS_00318641_U.png;1494619435838;FalseGenerator;NoBall
2017GO_vsBHumanG1A_GlaDOS_00321420_U.png;1494619435855;FalseGenerator;NoBall
2017GO_vsBHumanG1A_GlaDOS_00323864_U.png;1494619436014;FalseGenerator;NoBall
2017GO_vsBHumanG1A_GlaDOS_00325807_U.png;1494619435791;FalseGenerator;NoBall
2017GO_vsBHumanG1A_GlaDOS_00327800_U.png;1494619435982;FalseGenerator;NoBall
2017GO_vsBHumanG1A_GlaDOS_00330823_U.png;1494619435785;FalseGenerator;NoBall
2017GO_vsBHumanG1A_GlaDOS_00333160_U.png;1494619435993;FalseGenerator;NoBall
2017GO_vsBHumanG1A_GlaDOS_00335432_U.png;1494619435817;FalseGenerator;NoBall
2017GO_vsBHumanG1A_GlaDOS_00338734_U.png;1494619435988;FalseGenerator;NoBall
2017GO_vsBHumanG1A_GlaDOS_00341096_U.png;1494619435914;FalseGenerator;NoBall
2017GO_vsBHumanG1A_GlaDOS_00343584_U.png;1494619435996;FalseGenerator;NoBall
2017GO_vsBHumanG1A_GlaDOS_00345807_U.png;1494619435895;FalseGenerator;NoBall
2017GO_vsBHumanG1A_GlaDOS_00347995_U.png;1494619435896;FalseGenerator;NoBall
2017GO_vsBHumanG1A_GlaDOS_00350893_U.png;1494619435770;FalseGenerator;NoBall
2017GO_vsBHumanG1A_GlaDOS_00353258_U.png;1494619435805;FalseGenerator;NoBall
2017GO_vsBHumanG1A_GlaDOS_00355722_U.png;1494619435780;FalseGenerator;NoBall
2017GO_vsBHumanG1A_GlaDOS_00358032_U.png;1494619435825;FalseGenerator;NoBall
2017GO_vsBHumanG1A_GlaDOS_00359966_U.png;1494619435871;FalseGenerator;NoBall
2017GO_vsBHumanG1A_GlaDOS_00364195_U.png;1494619435864;FalseGenerator;NoBall
2017GO_vsBHumanG1A_GlaDOS_00366795_U.png;1494619435803;FalseGenerator;NoBall
2017GO_vsBHumanG1A_GlaDOS_00368587_U.png;1494619435795;FalseGenerator;NoBall
2017GO_vsBHumanG1A_GlaDOS_00373592_U.png;1494619435848;FalseGenerator;NoBall
2017GO_vsBHumanG1A_GlaDOS_00375664_U.png;1494619435919;FalseGenerator;NoBall
2017GO_vsBHumanG1A_GlaDOS_00381975_U.png;1494619435894;FalseGenerator;NoBall
2017GO_vsBHumanG1A_GlaDOS_00384307_U.png;1494619435828;FalseGenerator;NoBall
2017GO_vsBHumanG1A_GlaDOS_00386380_U.png;1494619435906;FalseGenerator;NoBall
2017GO_vsBHumanG1A_GlaDOS_00389209_U.png;1494619435872;FalseGenerator;NoBall
2017GO_vsBHumanG1A_GlaDOS_00392155_U.png;1494619436008;FalseGenerator;NoBall
2017GO_vsBHumanG1A_GlaDOS_00394714_U.png;1494619435862;FalseGenerator;NoBall
2017GO_vsBHumanG1A_GlaDOS_00397740_U.png;1494619435968;FalseGenerator;NoBall
2017GO_vsBHumanG1A_GlaDOS_00401887_U.png;1494619436012;FalseGenerator;NoBall
2017GO_vsBHumanG1A_GlaDOS_00403905_U.png;1494619436057;FalseGenerator;NoBall
2017GO_vsBHumanG1A_GlaDOS_00406572_U.png;1494619435924;FalseGenerator;NoBall
2017GO_vsBHumanG1A_GlaDOS_00408653_U.png;1494619436037;FalseGenerator;NoBall
2017GO_vsBHumanG1A_GlaDOS_00410675_U.png;1494619435826;FalseGenerator;NoBall
2017GO_vsBHumanG1A_GlaDOS_00420596_U.png;1494619435786;FalseGenerator;NoBall
2017GO_vsBHumanG1A_GlaDOS_00423025_U.png;1494619435790;FalseGenerator;NoBall
2017GO_vsBHumanG1A_GlaDOS_00429100_U.png;1494619435882;FalseGenerator;NoBall
2017GO_vsBHumanG1A_GlaDOS_00432607_U.png;1494619435852;FalseGenerator;NoBall
2017GO_vsBHumanG1A_GlaDOS_00435363_U.png;1494619435797;FalseGenerator;NoBall
2017GO_vsBHumanG1A_GlaDOS_00438373_U.png;1494619435764;FalseGenerator;NoBall
2017GO_vsBHumanG1A_GlaDOS_00441080_U.png;1494619436010;FalseGenerator;NoBall
2017GO_vsBHumanG1A_GlaDOS_00445599_U.png;1494619435966;FalseGenerator;NoBall
2017GO_vsBHumanG1A_GlaDOS_00463015_U.png;1494619435952;FalseGenerator;NoBall
2017GO_vsBHumanG1A_GlaDOS_00465589_U.png;1494619435911;FalseGenerator;NoBall
2017GO_vsBHumanG1A_GlaDOS_00467654_U.png;1494619435779;FalseGenerator;NoBall
2017GO_vsBHumanG1A_GlaDOS_00469860_U.png;1494619435793;FalseGenerator;NoBall
2017GO_vsBHumanG1A_GlaDOS_00473024_U.png;1494619436025;FalseGenerator;NoBall
2017GO_vsBHumanG1A_GlaDOS_00475394_U.png;1494619436049;FalseGenerator;NoBall
2017GO_vsBHumanG1A_GlaDOS_00477518_U.png;1494619435829;FalseGenerator;NoBall
2017GO_vsBHumanG1A_GlaDOS_00479267_U.png;1494619435769;FalseGenerator;NoBall
2017GO_vsBHumanG1A_GlaDOS_00481315_U.png;1494619435765;FalseGenerator;NoBall
2017GO_vsBHumanG1A_GlaDOS_00484115_U.png;1494619436005;FalseGenerator;NoBall
2017GO_vsBHumanG1A_GlaDOS_00486278_U.png;1494619435838;FalseGenerator;NoBall
2017GO_vsBHumanG1A_GlaDOS_00488257_U.png;1494619436031;FalseGenerator;NoBall
2017GO_vsBHumanG1A_GlaDOS_00490946_U.png;1494619435789;FalseGenerator;NoBall
2017GO_vsBHumanG1A_GlaDOS_00498278_U.png;1494619435774;FalseGenerator;NoBall
2017GO_vsBHumanG1A_GlaDOS_00500193_U.png;1494619435813;FalseGenerator;NoBall
2017GO_vsBHumanG1A_GlaDOS_00502952_U.png;1494619435992;FalseGenerator;NoBall
2017GO_vsBHumanG1A_GlaDOS_00506058_U.png;1494619436029;FalseGenerator;NoBall
2017GO_vsBHumanG1A_GlaDOS_00508656_U.png;1494619435845;FalseGenerator;NoBall
2017GO_vsBHumanG1A_GlaDOS_00516505_U.png;1494619435972;FalseGenerator;NoBall
2017GO_vsBHumanG1A_GlaDOS_00520854_U.png;1494619435934;FalseGenerator;NoBall
2017GO_vsBHumanG1A_GlaDOS_00523012_U.png;1494619435976;FalseGenerator;NoBall
2017GO_vsBHumanG1A_GlaDOS_00525374_U.png;1494619435973;FalseGenerator;NoBall
2017GO_vsBHumanG1A_GlaDOS_00528138_U.png;1494619436030;FalseGenerator;NoBall
2017GO_vsBHumanG1A_GlaDOS_00530098_U.png;1494619435916;FalseGenerator;NoBall
2017GO_vsBHumanG1A_GlaDOS_00532118_U.png;1494619435841;FalseGenerator;NoBall
2017GO_vsBHumanG1A_GlaDOS_00534194_U.png;1494619436060;FalseGenerator;NoBall
2017GO_vsBHumanG1A_GlaDOS_00536539_U.png;1494619435918;FalseGenerator;NoBall
2017GO_vsBHumanG1A_GlaDOS_00538756_U.png;1494619436051;FalseGenerator;NoBall
2017GO_vsBHumanG1A_GlaDOS_00540917_U.png;1494619435812;FalseGenerator;NoBall
2017GO_vsBHumanG1A_GlaDOS_00543182_U.png;1494619435886;FalseGenerator;NoBall
2017GO_vsBHumanG1A_GlaDOS_00545310_U.png;1494619435907;FalseGenerator;NoBall
2017GO_vsBHumanG1A_GlaDOS_00547890_U.png;1494619436043;FalseGenerator;NoBall
2017GO_vsBHumanG1A_GlaDOS_00550518_U.png;1494619435865;FalseGenerator;NoBall
2017GO_vsBHumanG1A_GlaDOS_00553275_U.png;1494619435784;FalseGenerator;NoBall
2017GO_vsBHumanG1A_GlaDOS_00554780_U.png;1494619436027;FalseGenerator;NoBall
2017GO_vsBHumanG1A_GlaDOS_00556986_U.png;1494619435946;FalseGenerator;NoBall
2017GO_vsBHumanG1A_GlaDOS_00559478_U.png;1494619435980;FalseGenerator;NoBall
2017GO_vsBHumanG1A_GlaDOS_00561775_U.png;1494619436016;FalseGenerator;NoBall
2017GO_vsBHumanG1A_GlaDOS_00564121_U.png;1494619436047;FalseGenerator;NoBall
2017GO_vsBHumanG1A_GlaDOS_00565924_U.png;1494619435807;FalseGenerator;NoBall
2017GO_vsBHumanG1A_GlaDOS_00568478_U.png;1494619435846;FalseGenerator;NoBall
2017GO_vsBHumanG1A_GlaDOS_00571746_U.png;1494619435890;FalseGenerator;NoBall
2017GO_vsBHumanG1A_GlaDOS_00574544_U.png;1494619435857;FalseGenerator;NoBall
2017GO_vsBHumanG1A_GlaDOS_00575475_U.png;1494619435782;FalseGenerator;NoBall
2017GO_vsBHumanG1A_GlaDOS_00577621_U.png;1494619435798;FalseGenerator;NoBall
2017GO_vsBHumanG1A_GlaDOS_00580211_U.png;1494619435938;FalseGenerator;NoBall
2017GO_vsBHumanG1A_GlaDOS_00583335_U.png;1494619435823;FalseGenerator;NoBall
2017GO_vsBHumanG1A_GlaDOS_00584795_U.png;1494619435878;FalseGenerator;NoBall
2017GO_vsBHumanG1A_GlaDOS_00588141_U.png;1494619435773;FalseGenerator;NoBall
2017GO_vsBHumanG1A_GlaDOS_00589040_U.png;1494619436019;FalseGenerator;NoBall
2017GO_vsBHumanG1A_GlaDOS_00591009_U.png;1494619435781;FalseGenerator;NoBall
2017GO_vsBHumanG1A_GlaDOS_00592923_U.png;1494619435991;FalseGenerator;NoBall
2017GO_vsBHumanG1A_GlaDOS_00595106_U.png;1494619436050;FalseGenerator;NoBall
2017GO_vsBHumanG1A_GlaDOS_00597482_U.png;1494619435806;FalseGenerator;NoBall
2017GO_vsBHumanG1A_GlaDOS_00599506_U.png;1494619435814;FalseGenerator;NoBall
2017GO_vsBHumanG1A_GlaDOS_00602041_U.png;1494619436055;FalseGenerator;NoBall
2017GO_vsBHumanG1A_GlaDOS_00603909_U.png;1494619435850;FalseGenerator;NoBall
2017GO_vsBHumanG1A_GlaDOS_00608957_U.png;1494619435771;FalseGenerator;NoBall
2017GO_vsBHumanG1A_GlaDOS_00611226_U.png;1494619436018;FalseGenerator;NoBall
2017GO_vsBHumanG1A_GlaDOS_00613837_U.png;1494619435830;FalseGenerator;NoBall
2017GO_vsBHumanG1A_GlaDOS_00616213_U.png;1494619435772;FalseGenerator;NoBall
2017GO_vsBHumanG1A_GlaDOS_00618987_U.png;1494619435880;FalseGenerator;NoBall
2017GO_vsBHumanG1A_GlaDOS_00627026_U.png;1494619436033;FalseGenerator;NoBall
2017GO_vsBHumanG1A_GlaDOS_00631959_U.png;1494619436006;FalseGenerator;NoBall
2017GO_vsBHumanG1A_GlaDOS_00634377_U.png;1494619435809;FalseGenerator;NoBall
2017GO_vsBHumanG1A_GlaDOS_00637206_U.png;1494619435941;FalseGenerator;NoBall
2017GO_vsBHumanG1A_GlaDOS_00638948_U.png;1494619435947;FalseGenerator;NoBall
2017GO_vsBHumanG1A_GlaDOS_00640837_U.png;1494619435866;FalseGenerator;NoBall
2017GO_vsBHumanG1A_GlaDOS_00645602_U.png;1494619436059;FalseGenerator;NoBall
2017GO_vsBHumanG1A_GlaDOS_00647345_U.png;1494619435948;FalseGenerator;NoBall
2017GO_vsBHumanG1A_GlaDOS_00649932_U.png;1494619436063;FalseGenerator;NoBall
2017GO_vsBHumanG1A_GlaDOS_00651115_U.png;1494619435783;FalseGenerator;NoBall
2017GO_vsBHumanG1A_GlaDOS_00653102_U.png;1494619435874;FalseGenerator;NoBall
2017GO_vsBHumanG1A_GlaDOS_00654947_U.png;1494619435863;FalseGenerator;NoBall
2017GO_vsBHumanG1A_GlaDOS_00657079_U.png;1494619435917;FalseGenerator;NoBall
2017GO_vsBHumanG1A_GlaDOS_00659085_U.png;1494619435819;FalseGenerator;NoBall
2017GO_vsBHumanG1A_GlaDOS_00671609_U.png;1494619436041;FalseGenerator;NoBall
2017GO_vsBHumanG1A_GlaDOS_00679452_U.png;1494619435999;FalseGenerator;NoBall
2017GO_vsBHumanG1A_GlaDOS_00681736_U.png;1494619435828;FalseGenerator;NoBall
2017GO_vsBHumanG1A_GlaDOS_00683634_U.png;1494619435891;FalseGenerator;NoBall
2017GO_vsBHumanG1A_GlaDOS_00687714_U.png;1494619435811;FalseGenerator;NoBall
2017GO_vsBHumanG1A_GlaDOS_00690330_U.png;1494619436013;FalseGenerator;NoBall
2017GO_vsBHumanG1A_GlaDOS_00693988_U.png;1494619436024;FalseGenerator;NoBall
2017GO_vsBHumanG1A_GlaDOS_00696304_U.png;1494619435984;FalseGenerator;NoBall
2017GO_vsBHumanG1A_GlaDOS_00698323_U.png;1494619436017;FalseGenerator;NoBall
2017GO_vsBHumanG1A_GlaDOS_00700403_U.png;1494619435986;FalseGenerator;NoBall
2017GO_vsBHumanG1A_GlaDOS_00704554_U.png;1494619435998;FalseGenerator;NoBall
2017GO_vsBHumanG1A_GlaDOS_00706931_U.png;1494619435962;FalseGenerator;NoBall
2017GO_vsBHumanG1A_GlaDOS_00709026_U.png;1494619435824;FalseGenerator;NoBall
2017GO_vsBHumanG1A_GlaDOS_00711132_U.png;1494619435950;FalseGenerator;NoBall
2017GO_vsBHumanG1A_GlaDOS_00713373_U.png;1494619435892;FalseGenerator;NoBall
2017GO_vsBHumanG1A_GlaDOS_00715198_U.png;1494619435888;FalseGenerator;NoBall
2017GO_vsBHumanG1A_GlaDOS_00717502_U.png;1494619435978;FalseGenerator;NoBall
2017GO_vsBHumanG1A_GlaDOS_00719771_U.png;1494619435861;FalseGenerator;NoBall
2017GO_vsBHumanG1A_GlaDOS_00728678_U.png;1494619435937;FalseGenerator;NoBall
2017GO_vsBHumanG1A_GlaDOS_00736444_U.png;1494619435965;FalseGenerator;NoBall
2017GO_vsBHumanG1A_GlaDOS_00738220_U.png;1494619435778;FalseGenerator;NoBall
2017GO_vsBHumanG1A_GlaDOS_00740029_U.png;1494619435940;FalseGenerator;NoBall
2017GO_vsBHumanG1A_GlaDOS_00742710_U.png;1494619435904;FalseGenerator;NoBall
2017GO_vsBHumanG1A_GlaDOS_00745472_U.png;1494619436062;FalseGenerator;NoBall
2017GO_vsBHumanG1A_GlaDOS_00749884_U.png;1494619435932;FalseGenerator;NoBall
2017GO_vsBHumanG1A_GlaDOS_00751805_U.png;1494619435821;FalseGenerator;NoBall
2017GO_vsBHumanG1A_GlaDOS_00753934_U.png;1494619436003;FalseGenerator;NoBall
2017GO_vsBHumanG1A_GlaDOS_00756166_U.png;1494619435913;FalseGenerator;NoBall
2017GO_vsBHumanG1A_GlaDOS_00758902_U.png;1494619435816;FalseGenerator;NoBall
2017GO_vsBHumanG1A_GlaDOS_00761577_U.png;1494619436045;FalseGenerator;NoBall
2017GO_vsBHumanG1A_GlaDOS_00763690_U.png;1494619435777;FalseGenerator;NoBall
2017GO_vsBHumanG1A_GlaDOS_00766430_U.png;1494619436015;FalseGenerator;NoBall
2017GO_vsBHumanG1A_GlaDOS_00767920_U.png;1494619435870;FalseGenerator;NoBall
2017GO_vsBHumanG1A_GlaDOS_00770297_U.png;1494619435922;FalseGenerator;NoBall
2017GO_vsBHumanG1A_GlaDOS_00773339_U.png;1494619435909;FalseGenerator;NoBall
2017GO_vsBHumanG1A_GlaDOS_00779743_U.png;1494619435860;FalseGenerator;NoBall
2017GO_vsBHumanG1A_GlaDOS_00075687_U.png;1494619420457;FalseGenerator;NoFeet
2017GO_vsBHumanG1A_GlaDOS_00090078_U.png;1494619420440;FalseGenerator;NoFeet
2017GO_vsBHumanG1A_GlaDOS_00125677_U.png;1494619420395;FalseGenerator;NoFeet
2017GO_vsBHumanG1A_GlaDOS_00127729_U.png;1494619420425;FalseGenerator;NoFeet
2017GO_vsBHumanG1A_GlaDOS_00129610_U.png;1494619420411;FalseGenerator;NoFeet
2017GO_vsBHumanG1A_GlaDOS_00131392_U.png;1494619420446;FalseGenerator;NoFeet
2017GO_vsBHumanG1A_GlaDOS_00133392_U.png;1494619420399;FalseGenerator;NoFeet
2017GO_vsBHumanG1A_GlaDOS_00176753_U.png;1494619420405;FalseGenerator;NoFeet
2017GO_vsBHumanG1A_GlaDOS_00178100_U.png;1494619420403;FalseGenerator;NoFeet
2017GO_vsBHumanG1A_GlaDOS_00184391_U.png;1494619420465;FalseGenerator;NoFeet
2017GO_vsBHumanG1A_GlaDOS_00188752_U.png;1494619420449;FalseGenerator;NoFeet
2017GO_vsBHumanG1A_GlaDOS_00190538_U.png;1494619420419;FalseGenerator;NoFeet
2017GO_vsBHumanG1A_GlaDOS_00194505_U.png;1494619420431;FalseGenerator;NoFeet
2017GO_vsBHumanG1A_GlaDOS_00230566_U.png;1494619420406;FalseGenerator;NoFeet
2017GO_vsBHumanG1A_GlaDOS_00232308_U.png;1494619420391;FalseGenerator;NoFeet
2017GO_vsBHumanG1A_GlaDOS_00240575_U.png;1494619420424;FalseGenerator;NoFeet
2017GO_vsBHumanG1A_GlaDOS_00253181_U.png;1494619420401;FalseGenerator;NoFeet
2017GO_vsBHumanG1A_GlaDOS_00255247_U.png;1494619420414;FalseGenerator;NoFeet
2017GO_vsBHumanG1A_GlaDOS_00275349_U.png;1494619420405;FalseGenerator;NoFeet
2017GO_vsBHumanG1A_GlaDOS_00288410_U.png;1494619420392;FalseGenerator;NoFeet
2017GO_vsBHumanG1A_GlaDOS_00290672_U.png;1494619420452;FalseGenerator;NoFeet
2017GO_vsBHumanG1A_GlaDOS_00301156_U.png;1494619420428;FalseGenerator;NoFeet
2017GO_vsBHumanG1A_GlaDOS_00309262_U.png;1494619420411;FalseGenerator;NoFeet
2017GO_vsBHumanG1A_GlaDOS_00316103_U.png;1494619420434;FalseGenerator;NoFeet
2017GO_vsBHumanG1A_GlaDOS_00318641_U.png;1494619420410;FalseGenerator;NoFeet
2017GO_vsBHumanG1A_GlaDOS_00321420_U.png;1494619420417;FalseGenerator;NoFeet
2017GO_vsBHumanG1A_GlaDOS_00325807_U.png;1494619420390;FalseGenerator;NoFeet
2017GO_vsBHumanG1A_GlaDOS_00327800_U.png;1494619420456;FalseGenerator;NoFeet
2017GO_vsBHumanG1A_GlaDOS_00333160_U.png;1494619420464;FalseGenerator;NoFeet
2017GO_vsBHumanG1A_GlaDOS_00335432_U.png;1494619420400;FalseGenerator;NoFeet
2017GO_vsBHumanG1A_GlaDOS_00338734_U.png;1494619420458;FalseGenerator;NoFeet
2017GO_vsBHumanG1A_GlaDOS_00345807_U.png;1494619420433;FalseGenerator;NoFeet
2017GO_vsBHumanG1A_GlaDOS_00350893_U.png;1494619420386;FalseGenerator;NoFeet
2017GO_vsBHumanG1A_GlaDOS_00355722_U.png;1494619420388;FalseGenerator;NoFeet
2017GO_vsBHumanG1A_GlaDOS_00359966_U.png;1494619420422;FalseGenerator;NoFeet
2017GO_vsBHumanG1A_GlaDOS_00364195_U.png;1494619420421;FalseGenerator;NoFeet
2017GO_vsBHumanG1A_GlaDOS_00366795_U.png;1494619420393;FalseGenerator;NoFeet
2017GO_vsBHumanG1A_GlaDOS_00373592_U.png;1494619420413;FalseGenerator;NoFeet
2017GO_vsBHumanG1A_GlaDOS_00375664_U.png;1494619420438;FalseGenerator;NoFeet
2017GO_vsBHumanG1A_GlaDOS_00381975_U.png;1494619420433;FalseGenerator;NoFeet
2017GO_vsBHumanG1A_GlaDOS_00389209_U.png;1494619420423;FalseGenerator;NoFeet
2017GO_vsBHumanG1A_GlaDOS_00394714_U.png;1494619420420;FalseGenerator;NoFeet
2017GO_vsBHumanG1A_GlaDOS_00397740_U.png;1494619420453;FalseGenerator;NoFeet
2017GO_vsBHumanG1A_GlaDOS_00401887_U.png;1494619420469;FalseGenerator;NoFeet
2017GO_vsBHumanG1A_GlaDOS_00420596_U.png;1494619420390;FalseGenerator;NoFeet
2017GO_vsBHumanG1A_GlaDOS_00432607_U.png;1494619420414;FalseGenerator;NoFeet
2017GO_vsBHumanG1A_GlaDOS_00441080_U.png;1494619420468;FalseGenerator;NoFeet
2017GO_vsBHumanG1A_GlaDOS_00450702_U.png;1494619420437;FalseGenerator;NoFeet
2017GO_vsBHumanG1A_GlaDOS_00463015_U.png;1494619420451;FalseGenerator;NoFeet
2017GO_vsBHumanG1A_GlaDOS_00467654_U.png;1494619420387;FalseGenerator;NoFeet
2017GO_vsBHumanG1A_GlaDOS_00473024_U.png;1494619420474;FalseGenerator;NoFeet
2017GO_vsBHumanG1A_GlaDOS_00481315_U.png;1494619420385;FalseGenerator;NoFeet
2017GO_vsBHumanG1A_GlaDOS_00484115_U.png;1494619420467;FalseGenerator;NoFeet
2017GO_vsBHumanG1A_GlaDOS_00486278_U.png;1494619420407;FalseGenerator;NoFeet
2017GO_vsBHumanG1A_GlaDOS_00498278_U.png;1494619420387;FalseGenerator;NoFeet
2017GO_vsBHumanG1A_GlaDOS_00502952_U.png;1494619420461;FalseGenerator;NoFeet
2017GO_vsBHumanG1A_GlaDOS_00516505_U.png;1494619420454;FalseGenerator;NoFeet
2017GO_vsBHumanG1A_GlaDOS_00520854_U.png;1494619420442;FalseGenerator;NoFeet
2017GO_vsBHumanG1A_GlaDOS_00528138_U.png;1494619420477;FalseGenerator;NoFeet
2017GO_vsBHumanG1A_GlaDOS_00530098_U.png;1494619420436;FalseGenerator;NoFeet
2017GO_vsBHumanG1A_GlaDOS_00536539_U.png;1494619420438;FalseGenerator;NoFeet
2017GO_vsBHumanG1A_GlaDOS_00538756_U.png;1494619420479;FalseGenerator;NoFeet
2017GO_vsBHumanG1A_GlaDOS_00540917_U.png;1494619420399;FalseGenerator;NoFeet
2017GO_vsBHumanG1A_GlaDOS_00556986_U.png;1494619420447;FalseGenerator;NoFeet
2017GO_vsBHumanG1A_GlaDOS_00559478_U.png;1494619420455;FalseGenerator;NoFeet
2017GO_vsBHumanG1A_GlaDOS_00561775_U.png;1494619420470;FalseGenerator;NoFeet
2017GO_vsBHumanG1A_GlaDOS_00565924_U.png;1494619420398;FalseGenerator;NoFeet
2017GO_vsBHumanG1A_GlaDOS_00568478_U.png;1494619420412;FalseGenerator;NoFeet
2017GO_vsBHumanG1A_GlaDOS_00571746_U.png;1494619420432;FalseGenerator;NoFeet
2017GO_vsBHumanG1A_GlaDOS_00575475_U.png;1494619420389;FalseGenerator;NoFeet
2017GO_vsBHumanG1A_GlaDOS_00580211_U.png;1494619420445;FalseGenerator;NoFeet
2017GO_vsBHumanG1A_GlaDOS_00583335_U.png;1494619420402;FalseGenerator;NoFeet
2017GO_vsBHumanG1A_GlaDOS_00584795_U.png;1494619420426;FalseGenerator;NoFeet
2017GO_vsBHumanG1A_GlaDOS_00589040_U.png;1494619420472;FalseGenerator;NoFeet
2017GO_vsBHumanG1A_GlaDOS_00591009_U.png;1494619420388;FalseGenerator;NoFeet
2017GO_vsBHumanG1A_GlaDOS_00592923_U.png;1494619420459;FalseGenerator;NoFeet
2017GO_vsBHumanG1A_GlaDOS_00597482_U.png;1494619420397;FalseGenerator;NoFeet
2017GO_vsBHumanG1A_GlaDOS_00602041_U.png;1494619420480;FalseGenerator;NoFeet
2017GO_vsBHumanG1A_GlaDOS_00611226_U.png;1494619420471;FalseGenerator;NoFeet
2017GO_vsBHumanG1A_GlaDOS_00618987_U.png;1494619420430;FalseGenerator;NoFeet
2017GO_vsBHumanG1A_GlaDOS_00638948_U.png;1494619420447;FalseGenerator;NoFeet
2017GO_vsBHumanG1A_GlaDOS_00653102_U.png;1494619420424;FalseGenerator;NoFeet
2017GO_vsBHumanG1A_GlaDOS_00654947_U.png;1494619420420;FalseGenerator;NoFeet
2017GO_vsBHumanG1A_GlaDOS_00659085_U.png;1494619420401;FalseGenerator;NoFeet
2017GO_vsBHumanG1A_GlaDOS_00669224_U.png;1494619420418;FalseGenerator;NoFeet
2017GO_vsBHumanG1A_GlaDOS_00677040_U.png;1494619420478;FalseGenerator;NoFeet
2017GO_vsBHumanG1A_GlaDOS_00679452_U.png;1494619420466;FalseGenerator;NoFeet
2017GO_vsBHumanG1A_GlaDOS_00681736_U.png;1494619420404;FalseGenerator;NoFeet
2017GO_vsBHumanG1A_GlaDOS_00693988_U.png;1494619420473;FalseGenerator;NoFeet
2017GO_vsBHumanG1A_GlaDOS_00696304_U.png;1494619420457;FalseGenerator;NoFeet
2017GO_vsBHumanG1A_GlaDOS_00698323_U.png;1494619420470;FalseGenerator;NoFeet
2017GO_vsBHumanG1A_GlaDOS_00704554_U.png;1494619420465;FalseGenerator;NoFeet
2017GO_vsBHumanG1A_GlaDOS_00709026_U.png;1494619420403;FalseGenerator;NoFeet
2017GO_vsBHumanG1A_GlaDOS_00717502_U.png;1494619420454;FalseGenerator;NoFeet
2017GO_vsBHumanG1A_GlaDOS_00728678_U.png;1494619420444;FalseGenerator;NoFeet
2017GO_vsBHumanG1A_GlaDOS_00740029_U.png;1494619420445;FalseGenerator;NoFeet
2017GO_vsBHumanG1A_GlaDOS_00753934_U.png;1494619420467;FalseGenerator;NoFeet
2017GO_vsBHumanG1A_GlaDOS_00756166_U.png;1494619420436;FalseGenerator;NoFeet
2017GO_vsBHumanG1A_GlaDOS_00761577_U.png;1494619420478;FalseGenerator;NoFeet
2017GO_vsBHumanG1A_GlaDOS_00767920_U.png;1494619420422;FalseGenerator;NoFeet
2017GO_vsBHumanG1A_GlaDOS_00770297_U.png;1494619420439;FalseGenerator;NoFeet
2017GO_vsBHumanG1A_GlaDOS_00773339_U.png;1494619420435;FalseGenerator;NoFeet
2017GO_vsBHumanG1A_GlaDOS_00071673_U.png;1494619399037;FalseGenerator;NoPenaltySpot
2017GO_vsBHumanG1A_GlaDOS_00073855_U.png;1494619398962;FalseGenerator;NoPenaltySpot
2017GO_vsBHumanG1A_GlaDOS_00079570_U.png;1494619399021;FalseGenerator;NoPenaltySpot
2017GO_vsBHumanG1A_GlaDOS_00081985_U.png;1494619399031;FalseGenerator;NoPenaltySpot
2017GO_vsBHumanG1A_GlaDOS_00090078_U.png;1494619399003;FalseGenerator;NoPenaltySpot
2017GO_vsBHumanG1A_GlaDOS_00092962_U.png;1494619398943;FalseGenerator;NoPenaltySpot
2017GO_vsBHumanG1A_GlaDOS_00095033_U.png;1494619398937;FalseGenerator;NoPenaltySpot
2017GO_vsBHumanG1A_GlaDOS_00097180_U.png;1494619399059;FalseGenerator;NoPenaltySpot
2017GO_vsBHumanG1A_GlaDOS_00098976_U.png;1494619399040;FalseGenerator;NoPenaltySpot
2017GO_vsBHumanG1A_GlaDOS_00100731_U.png;1494619399053;FalseGenerator;NoPenaltySpot
2017GO_vsBHumanG1A_GlaDOS_00103246_U.png;1494619399026;FalseGenerator;NoPenaltySpot
2017GO_vsBHumanG1A_GlaDOS_00105093_U.png;1494619398969;FalseGenerator;NoPenaltySpot
2017GO_vsBHumanG1A_GlaDOS_00106993_U.png;1494619399015;FalseGenerator;NoPenaltySpot
2017GO_vsBHumanG1A_GlaDOS_00109246_U.png;1494619399024;FalseGenerator;NoPenaltySpot
2017GO_vsBHumanG1A_GlaDOS_00111406_U.png;1494619398989;FalseGenerator;NoPenaltySpot
2017GO_vsBHumanG1A_GlaDOS_00114039_U.png;1494619399018;FalseGenerator;NoPenaltySpot
2017GO_vsBHumanG1A_GlaDOS_00116191_U.png;1494619398944;FalseGenerator;NoPenaltySpot
2017GO_vsBHumanG1A_GlaDOS_00118471_U.png;1494619399014;FalseGenerator;NoPenaltySpot
2017GO_vsBHumanG1A_GlaDOS_00121462_U.png;1494619399025;FalseGenerator;NoPenaltySpot
2017GO_vsBHumanG1A_GlaDOS_00124007_U.png;1494619398986;FalseGenerator;NoPenaltySpot
2017GO_vsBHumanG1A_GlaDOS_00125677_U.png;1494619398947;FalseGenerator;NoPenaltySpot
2017GO_vsBHumanG1A_GlaDOS_00127729_U.png;1494619398980;FalseGenerator;NoPenaltySpot
2017GO_vsBHumanG1A_GlaDOS_00129610_U.png;1494619398967;FalseGenerator;NoPenaltySpot
2017GO_vsBHumanG1A_GlaDOS_00131392_U.png;1494619399009;FalseGenerator;NoPenaltySpot
2017GO_vsBHumanG1A_GlaDOS_00133392_U.png;1494619398952;FalseGenerator;NoPenaltySpot
2017GO_vsBHumanG1A_GlaDOS_00147582_U.png;1494619399016;FalseGenerator;NoPenaltySpot
2017GO_vsBHumanG1A_GlaDOS_00150763_U.png;1494619398955;FalseGenerator;NoPenaltySpot
2017GO_vsBHumanG1A_GlaDOS_00153376_U.png;1494619398954;FalseGenerator;NoPenaltySpot
2017GO_vsBHumanG1A_GlaDOS_00155400_U.png;1494619399012;FalseGenerator;NoPenaltySpot
2017GO_vsBHumanG1A_GlaDOS_00157153_U.png;1494619399055;FalseGenerator;NoPenaltySpot
2017GO_vsBHumanG1A_GlaDOS_00159021_U.png;1494619399045;FalseGenerator;NoPenaltySpot
2017GO_vsBHumanG1A_GlaDOS_00160935_U.png;1494619399009;FalseGenerator;NoPenaltySpot
2017GO_vsBHumanG1A_GlaDOS_00163346_U.png;1494619399023;FalseGenerator;NoPenaltySpot
2017GO_vsBHumanG1A_GlaDOS_00165699_U.png;1494619398983;FalseGenerator;NoPenaltySpot
2017GO_vsBHumanG1A_GlaDOS_00172019_U.png;1494619398977;FalseGenerator;NoPenaltySpot
2017GO_vsBHumanG1A_GlaDOS_00176753_U.png;1494619398961;FalseGenerator;NoPenaltySpot
2017GO_vsBHumanG1A_GlaDOS_00178100_U.png;1494619398959;FalseGenerator;NoPenaltySpot
2017GO_vsBHumanG1A_GlaDOS_00184391_U.png;1494619399035;FalseGenerator;NoPenaltySpot
2017GO_vsBHumanG1A_GlaDOS_00188752_U.png;1494619399011;FalseGenerator;NoPenaltySpot
2017GO_vsBHumanG1A_GlaDOS_00190538_U.png;1494619398974;FalseGenerator;NoPenaltySpot
2017GO_vsBHumanG1A_GlaDOS_00194505_U.png;1494619398985;FalseGenerator;NoPenaltySpot
2017GO_vsBHumanG1A_GlaDOS_00210665_U.png;1494619399002;FalseGenerator;NoPenaltySpot
2017GO_vsBHumanG1A_GlaDOS_00212340_U.png;1494619398995;FalseGenerator;NoPenaltySpot
2017GO_vsBHumanG1A_GlaDOS_00215341_U.png;1494619399037;FalseGenerator;NoPenaltySpot
2017GO_vsBHumanG1A_GlaDOS_00221012_U.png;1494619398944;FalseGenerator;NoPenaltySpot
2017GO_vsBHumanG1A_GlaDOS_00223837_U.png;1494619399033;FalseGenerator;NoPenaltySpot
2017GO_vsBHumanG1A_GlaDOS_00226216_U.png;1494619399030;FalseGenerator;NoPenaltySpot
2017GO_vsBHumanG1A_GlaDOS_00228832_U.png;1494619399021;FalseGenerator;NoPenaltySpot
2017GO_vsBHumanG1A_GlaDOS_00230566_U.png;1494619398962;FalseGenerator;NoPenaltySpot
2017GO_vsBHumanG1A_GlaDOS_00232308_U.png;1494619398943;FalseGenerator;NoPenaltySpot
2017GO_vsBHumanG1A_GlaDOS_00240575_U.png;1494619398979;FalseGenerator;NoPenaltySpot
2017GO_vsBHumanG1A_GlaDOS_00248740_U.png;1494619398946;FalseGenerator;NoPenaltySpot
2017GO_vsBHumanG1A_GlaDOS_00251060_U.png;1494619399056;FalseGenerator;NoPenaltySpot
2017GO_vsBHumanG1A_GlaDOS_00253181_U.png;1494619398957;FalseGenerator;NoPenaltySpot
2017GO_vsBHumanG1A_GlaDOS_00255247_U.png;1494619398970;FalseGenerator;NoPenaltySpot
2017GO_vsBHumanG1A_GlaDOS_00263373_U.png;1494619399058;FalseGenerator;NoPenaltySpot
2017GO_vsBHumanG1A_GlaDOS_00265681_U.png;1494619399042;FalseGenerator;NoPenaltySpot
2017GO_vsBHumanG1A_GlaDOS_00270296_U.png;1494619399028;FalseGenerator;NoPenaltySpot
2017GO_vsBHumanG1A_GlaDOS_00272646_U.png;1494619398955;FalseGenerator;NoPenaltySpot
2017GO_vsBHumanG1A_GlaDOS_00275349_U.png;1494619398961;FalseGenerator;NoPenaltySpot
2017GO_vsBHumanG1A_GlaDOS_00279810_U.png;1494619399063;FalseGenerator;NoPenaltySpot
2017GO_vsBHumanG1A_GlaDOS_00288410_U.png;1494619398946;FalseGenerator;NoPenaltySpot
2017GO_vsBHumanG1A_GlaDOS_00290672_U.png;1494619399013;FalseGenerator;NoPenaltySpot
2017GO_vsBHumanG1A_GlaDOS_00292966_U.png;1494619398994;FalseGenerator;NoPenaltySpot
2017GO_vsBHumanG1A_GlaDOS_00295945_U.png;1494619398964;FalseGenerator;NoPenaltySpot
2017GO_vsBHumanG1A_GlaDOS_00298935_U.png;1494619399022;FalseGenerator;NoPenaltySpot
2017GO_vsBHumanG1A_GlaDOS_00301156_U.png;1494619398981;FalseGenerator;NoPenaltySpot
2017GO_vsBHumanG1A_GlaDOS_00305010_U.png;1494619398948;FalseGenerator;NoPenaltySpot
2017GO_vsBHumanG1A_GlaDOS_00309262_U.png;1494619398968;FalseGenerator;NoPenaltySpot
2017GO_vsBHumanG1A_GlaDOS_00311479_U.png;1494619399020;FalseGenerator;NoPenaltySpot
2017GO_vsBHumanG1A_GlaDOS_00313742_U.png;1494619399059;FalseGenerator;NoPenaltySpot
2017GO_vsBHumanG1A_GlaDOS_00316103_U.png;1494619398994;FalseGenerator;NoPenaltySpot
2017GO_vsBHumanG1A_GlaDOS_00318641_U.png;1494619398965;FalseGenerator;NoPenaltySpot
2017GO_vsBHumanG1A_GlaDOS_00321420_U.png;1494619398971;FalseGenerator;NoPenaltySpot
2017GO_vsBHumanG1A_GlaDOS_00323864_U.png;1494619399045;FalseGenerator;NoPenaltySpot
2017GO_vsBHumanG1A_GlaDOS_00325807_U.png;1494619398942;FalseGenerator;NoPenaltySpot
2017GO_vsBHumanG1A_GlaDOS_00327800_U.png;1494619399027;FalseGenerator;NoPenaltySpot
2017GO_vsBHumanG1A_GlaDOS_00330823_U.png;1494619398938;FalseGenerator;NoPenaltySpot
2017GO_vsBHumanG1A_GlaDOS_00333160_U.png;1494619399035;FalseGenerator;NoPenaltySpot
2017GO_vsBHumanG1A_GlaDOS_00335432_U.png;1494619398956;FalseGenerator;NoPenaltySpot
2017GO_vsBHumanG1A_GlaDOS_00338734_U.png;1494619399029;FalseGenerator;NoPenaltySpot
2017GO_vsBHumanG1A_GlaDOS_00345807_U.png;1494619398993;FalseGenerator;NoPenaltySpot
2017GO_vsBHumanG1A_GlaDOS_00350893_U.png;1494619398934;FalseGenerator;NoPenaltySpot
2017GO_vsBHumanG1A_GlaDOS_00355722_U.png;1494619398937;FalseGenerator;NoPenaltySpot
2017GO_vsBHumanG1A_GlaDOS_00358032_U.png;1494619398959;FalseGenerator;NoPenaltySpot
2017GO_vsBHumanG1A_GlaDOS_00359966_U.png;1494619398978;FalseGenerator;NoPenaltySpot
2017GO_vsBHumanG1A_GlaDOS_00362177_U.png;1494619399064;FalseGenerator;NoPenaltySpot
2017GO_vsBHumanG1A_GlaDOS_00364195_U.png;1494619398976;FalseGenerator;NoPenaltySpot
2017GO_vsBHumanG1A_GlaDOS_00366795_U.png;1494619398946;FalseGenerator;NoPenaltySpot
2017GO_vsBHumanG1A_GlaDOS_00368587_U.png;1494619398944;FalseGenerator;NoPenaltySpot
2017GO_vsBHumanG1A_GlaDOS_00371032_U.png;1494619399016;FalseGenerator;NoPenaltySpot
2017GO_vsBHumanG1A_GlaDOS_00373592_U.png;1494619398970;FalseGenerator;NoPenaltySpot
2017GO_vsBHumanG1A_GlaDOS_00375664_U.png;1494619399001;FalseGenerator;NoPenaltySpot
2017GO_vsBHumanG1A_GlaDOS_00377925_U.png;1494619398996;FalseGenerator;NoPenaltySpot
2017GO_vsBHumanG1A_GlaDOS_00380571_U.png;1494619398960;FalseGenerator;NoPenaltySpot
2017GO_vsBHumanG1A_GlaDOS_00381975_U.png;1494619398990;FalseGenerator;NoPenaltySpot
2017GO_vsBHumanG1A_GlaDOS_00384307_U.png;1494619398960;FalseGenerator;NoPenaltySpot
2017GO_vsBHumanG1A_GlaDOS_00389209_U.png;1494619398979;FalseGenerator;NoPenaltySpot
2017GO_vsBHumanG1A_GlaDOS_00394714_U.png;1494619398975;FalseGenerator;NoPenaltySpot
2017GO_vsBHumanG1A_GlaDOS_00397740_U.png;1494619399023;FalseGenerator;NoPenaltySpot
2017GO_vsBHumanG1A_GlaDOS_00401887_U.png;1494619399044;FalseGenerator;NoPenaltySpot
2017GO_vsBHumanG1A_GlaDOS_00403905_U.png;1494619399062;FalseGenerator;NoPenaltySpot
2017GO_vsBHumanG1A_GlaDOS_00406572_U.png;1494619399002;FalseGenerator;NoPenaltySpot
2017GO_vsBHumanG1A_GlaDOS_00408653_U.png;1494619399056;FalseGenerator;NoPenaltySpot
2017GO_vsBHumanG1A_GlaDOS_00415949_U.png;1494619399058;FalseGenerator;NoPenaltySpot
2017GO_vsBHumanG1A_GlaDOS_00418441_U.png;1494619398978;FalseGenerator;NoPenaltySpot
2017GO_vsBHumanG1A_GlaDOS_00420596_U.png;1494619398939;FalseGenerator;NoPenaltySpot
2017GO_vsBHumanG1A_GlaDOS_00423025_U.png;1494619398941;FalseGenerator;NoPenaltySpot
2017GO_vsBHumanG1A_GlaDOS_00425491_U.png;1494619398943;FalseGenerator;NoPenaltySpot
2017GO_vsBHumanG1A_GlaDOS_00429100_U.png;1494619398983;FalseGenerator;NoPenaltySpot
2017GO_vsBHumanG1A_GlaDOS_00430919_U.png;1494619398945;FalseGenerator;NoPenaltySpot
2017GO_vsBHumanG1A_GlaDOS_00432607_U.png;1494619398970;FalseGenerator;NoPenaltySpot
2017GO_vsBHumanG1A_GlaDOS_00435363_U.png;1494619398945;FalseGenerator;NoPenaltySpot
2017GO_vsBHumanG1A_GlaDOS_00441080_U.png;1494619399043;FalseGenerator;NoPenaltySpot
2017GO_vsBHumanG1A_GlaDOS_00463015_U.png;1494619399013;FalseGenerator;NoPenaltySpot
2017GO_vsBHumanG1A_GlaDOS_00467654_U.png;1494619398936;FalseGenerator;NoPenaltySpot
2017GO_vsBHumanG1A_GlaDOS_00473024_U.png;1494619399052;FalseGenerator;NoPenaltySpot
2017GO_vsBHumanG1A_GlaDOS_00481315_U.png;1494619398933;FalseGenerator;NoPenaltySpot
2017GO_vsBHumanG1A_GlaDOS_00484115_U.png;1494619399042;FalseGenerator;NoPenaltySpot
2017GO_vsBHumanG1A_GlaDOS_00486278_U.png;1494619398963;FalseGenerator;NoPenaltySpot
2017GO_vsBHumanG1A_GlaDOS_00490946_U.png;1494619398940;FalseGenerator;NoPenaltySpot
2017GO_vsBHumanG1A_GlaDOS_00495399_U.png;1494619398939;FalseGenerator;NoPenaltySpot
2017GO_vsBHumanG1A_GlaDOS_00498278_U.png;1494619398935;FalseGenerator;NoPenaltySpot
2017GO_vsBHumanG1A_GlaDOS_00500193_U.png;1494619398950;FalseGenerator;NoPenaltySpot
2017GO_vsBHumanG1A_GlaDOS_00502952_U.png;1494619399034;FalseGenerator;NoPenaltySpot
2017GO_vsBHumanG1A_GlaDOS_00506058_U.png;1494619399054;FalseGenerator;NoPenaltySpot
2017GO_vsBHumanG1A_GlaDOS_00510788_U.png;1494619398967;FalseGenerator;NoPenaltySpot
2017GO_vsBHumanG1A_GlaDOS_00511876_U.png;1494619399061;FalseGenerator;NoPenaltySpot
2017GO_vsBHumanG1A_GlaDOS_00516505_U.png;1494619399024;FalseGenerator;NoPenaltySpot
2017GO_vsBHumanG1A_GlaDOS_00520854_U.png;1494619399004;FalseGenerator;NoPenaltySpot
2017GO_vsBHumanG1A_GlaDOS_00523012_U.png;1494619399025;FalseGenerator;NoPenaltySpot
2017GO_vsBHumanG1A_GlaDOS_00528138_U.png;1494619399054;FalseGenerator;NoPenaltySpot
2017GO_vsBHumanG1A_GlaDOS_00530098_U.png;1494619398998;FalseGenerator;NoPenaltySpot
2017GO_vsBHumanG1A_GlaDOS_00532118_U.png;1494619398968;FalseGenerator;NoPenaltySpot
2017GO_vsBHumanG1A_GlaDOS_00536539_U.png;1494619399000;FalseGenerator;NoPenaltySpot
2017GO_vsBHumanG1A_GlaDOS_00538756_U.png;1494619399061;FalseGenerator;NoPenaltySpot
2017GO_vsBHumanG1A_GlaDOS_00540917_U.png;1494619398949;FalseGenerator;NoPenaltySpot
2017GO_vsBHumanG1A_GlaDOS_00550518_U.png;1494619398976;FalseGenerator;NoPenaltySpot
2017GO_vsBHumanG1A_GlaDOS_00556986_U.png;1494619399010;FalseGenerator;NoPenaltySpot
2017GO_vsBHumanG1A_GlaDOS_00559478_U.png;1494619399027;FalseGenerator;NoPenaltySpot
2017GO_vsBHumanG1A_GlaDOS_00561775_U.png;1494619399047;FalseGenerator;NoPenaltySpot
2017GO_vsBHumanG1A_GlaDOS_00565924_U.png;1494619398948;FalseGenerator;NoPenaltySpot
2017GO_vsBHumanG1A_GlaDOS_00568478_U.png;1494619398969;FalseGenerator;NoPenaltySpot
2017GO_vsBHumanG1A_GlaDOS_00571746_U.png;1494619398988;FalseGenerator;NoPenaltySpot
2017GO_vsBHumanG1A_GlaDOS_00574544_U.png;1494619398971;FalseGenerator;NoPenaltySpot
2017GO_vsBHumanG1A_GlaDOS_00575475_U.png;1494619398938;FalseGenerator;NoPenaltySpot
2017GO_vsBHumanG1A_GlaDOS_00580211_U.png;1494619399005;FalseGenerator;NoPenaltySpot
2017GO_vsBHumanG1A_GlaDOS_00583335_U.png;1494619398958;FalseGenerator;NoPenaltySpot
2017GO_vsBHumanG1A_GlaDOS_00584795_U.png;1494619398981;FalseGenerator;NoPenaltySpot
2017GO_vsBHumanG1A_GlaDOS_00588141_U.png;1494619398935;FalseGenerator;NoPenaltySpot
2017GO_vsBHumanG1A_GlaDOS_00589040_U.png;1494619399049;FalseGenerator;NoPenaltySpot
2017GO_vsBHumanG1A_GlaDOS_00591009_U.png;1494619398937;FalseGenerator;NoPenaltySpot
2017GO_vsBHumanG1A_GlaDOS_00592923_U.png;1494619399034;FalseGenerator;NoPenaltySpot
2017GO_vsBHumanG1A_GlaDOS_00597482_U.png;1494619398948;FalseGenerator;NoPenaltySpot
2017GO_vsBHumanG1A_GlaDOS_00599506_U.png;1494619398951;FalseGenerator;NoPenaltySpot
2017GO_vsBHumanG1A_GlaDOS_00602041_U.png;1494619399062;FalseGenerator;NoPenaltySpot
2017GO_vsBHumanG1A_GlaDOS_00606481_U.png;1494619398954;FalseGenerator;NoPenaltySpot
2017GO_vsBHumanG1A_GlaDOS_00611226_U.png;1494619399048;FalseGenerator;NoPenaltySpot
2017GO_vsBHumanG1A_GlaDOS_00618987_U.png;1494619398982;FalseGenerator;NoPenaltySpot
2017GO_vsBHumanG1A_GlaDOS_00622550_U.png;1494619399014;FalseGenerator;NoPenaltySpot
2017GO_vsBHumanG1A_GlaDOS_00638948_U.png;1494619399011;FalseGenerator;NoPenaltySpot
2017GO_vsBHumanG1A_GlaDOS_00645602_U.png;1494619399063;FalseGenerator;NoPenaltySpot
2017GO_vsBHumanG1A_GlaDOS_00653102_U.png;1494619398980;FalseGenerator;NoPenaltySpot
2017GO_vsBHumanG1A_GlaDOS_00654947_U.png;1494619398976;FalseGenerator;NoPenaltySpot
2017GO_vsBHumanG1A_GlaDOS_00659085_U.png;1494619398957;FalseGenerator;NoPenaltySpot
2017GO_vsBHumanG1A_GlaDOS_00662984_U.png;1494619398963;FalseGenerator;NoPenaltySpot
2017GO_vsBHumanG1A_GlaDOS_00664883_U.png;1494619399006;FalseGenerator;NoPenaltySpot
2017GO_vsBHumanG1A_GlaDOS_00666636_U.png;1494619399010;FalseGenerator;NoPenaltySpot
2017GO_vsBHumanG1A_GlaDOS_00669224_U.png;1494619398973;FalseGenerator;NoPenaltySpot
2017GO_vsBHumanG1A_GlaDOS_00671609_U.png;1494619399057;FalseGenerator;NoPenaltySpot
2017GO_vsBHumanG1A_GlaDOS_00674224_U.png;1494619399036;FalseGenerator;NoPenaltySpot
2017GO_vsBHumanG1A_GlaDOS_00677040_U.png;1494619399060;FalseGenerator;NoPenaltySpot
2017GO_vsBHumanG1A_GlaDOS_00679452_U.png;1494619399039;FalseGenerator;NoPenaltySpot
2017GO_vsBHumanG1A_GlaDOS_00681736_U.png;1494619398961;FalseGenerator;NoPenaltySpot
2017GO_vsBHumanG1A_GlaDOS_00683634_U.png;1494619398988;FalseGenerator;NoPenaltySpot
2017GO_vsBHumanG1A_GlaDOS_00685932_U.png;1494619399043;FalseGenerator;NoPenaltySpot
2017GO_vsBHumanG1A_GlaDOS_00687714_U.png;1494619398949;FalseGenerator;NoPenaltySpot
2017GO_vsBHumanG1A_GlaDOS_00690330_U.png;1494619399044;FalseGenerator;NoPenaltySpot
2017GO_vsBHumanG1A_GlaDOS_00691723_U.png;1494619398947;FalseGenerator;NoPenaltySpot
2017GO_vsBHumanG1A_GlaDOS_00693988_U.png;1494619399049;FalseGenerator;NoPenaltySpot
2017GO_vsBHumanG1A_GlaDOS_00696304_U.png;1494619399028;FalseGenerator;NoPenaltySpot
2017GO_vsBHumanG1A_GlaDOS_00698323_U.png;1494619399047;FalseGenerator;NoPenaltySpot
2017GO_vsBHumanG1A_GlaDOS_00700403_U.png;1494619399029;FalseGenerator;NoPenaltySpot
2017GO_vsBHumanG1A_GlaDOS_00704554_U.png;1494619399038;FalseGenerator;NoPenaltySpot
2017GO_vsBHumanG1A_GlaDOS_00706931_U.png;1494619399019;FalseGenerator;NoPenaltySpot
2017GO_vsBHumanG1A_GlaDOS_00709026_U.png;1494619398958;FalseGenerator;NoPenaltySpot
2017GO_vsBHumanG1A_GlaDOS_00711132_U.png;1494619399012;FalseGenerator;NoPenaltySpot
2017GO_vsBHumanG1A_GlaDOS_00713373_U.png;1494619398989;FalseGenerator;NoPenaltySpot
2017GO_vsBHumanG1A_GlaDOS_00715198_U.png;1494619398987;FalseGenerator;NoPenaltySpot
2017GO_vsBHumanG1A_GlaDOS_00717502_U.png;1494619399026;FalseGenerator;NoPenaltySpot
2017GO_vsBHumanG1A_GlaDOS_00726737_U.png;1494619399050;FalseGenerator;NoPenaltySpot
2017GO_vsBHumanG1A_GlaDOS_00728678_U.png;1494619399004;FalseGenerator;NoPenaltySpot
2017GO_vsBHumanG1A_GlaDOS_00736444_U.png;1494619399022;FalseGenerator;NoPenaltySpot
2017GO_vsBHumanG1A_GlaDOS_00740029_U.png;1494619399007;FalseGenerator;NoPenaltySpot
2017GO_vsBHumanG1A_GlaDOS_00742710_U.png;1494619398995;FalseGenerator;NoPenaltySpot
2017GO_vsBHumanG1A_GlaDOS_00747821_U.png;1494619398956;FalseGenerator;NoPenaltySpot
2017GO_vsBHumanG1A_GlaDOS_00749884_U.png;1494619399003;FalseGenerator;NoPenaltySpot
2017GO_vsBHumanG1A_GlaDOS_00751805_U.png;1494619398958;FalseGenerator;NoPenaltySpot
2017GO_vsBHumanG1A_GlaDOS_00753934_U.png;1494619399041;FalseGenerator;NoPenaltySpot
2017GO_vsBHumanG1A_GlaDOS_00756166_U.png;1494619398997;FalseGenerator;NoPenaltySpot
2017GO_vsBHumanG1A_GlaDOS_00758902_U.png;1494619398953;FalseGenerator;NoPenaltySpot
2017GO_vsBHumanG1A_GlaDOS_00761577_U.png;1494619399057;FalseGenerator;NoPenaltySpot
2017GO_vsBHumanG1A_GlaDOS_00763690_U.png;1494619398936;FalseGenerator;NoPenaltySpot
2017GO_vsBHumanG1A_GlaDOS_00766430_U.png;1494619399046;FalseGenerator;NoPenaltySpot
2017GO_vsBHumanG1A_GlaDOS_00767920_U.png;1494619398977;FalseGenerator;NoPenaltySpot
2017GO_vsBHumanG1A_GlaDOS_00770297_U.png;1494619399001;FalseGenerator;NoPenaltySpot
2017GO_vsBHumanG1A_GlaDOS_00773339_U.png;1494619398996;FalseGenerator;NoPenaltySpot
2017GO_vsBHumanG1A_GlaDOS_00070637_U.png;1494443817303;tkalbitz;PenaltySpot;196;138;209;143;PenaltySpot
2017GO_vsBHumanG1A_GlaDOS_00075687_U.png;1494443819230;tkalbitz;PenaltySpot;73;172;94;177;PenaltySpot
2017GO_vsBHumanG1A_GlaDOS_00077883_U.png;1494443822721;tkalbitz;PenaltySpot;547;143;569;148;PenaltySpot
2017GO_vsBHumanG1A_GlaDOS_00083864_U.png;1494443824174;tkalbitz;PenaltySpot;536;215;576;230;PenaltySpot
2017GO_vsBHumanG1A_GlaDOS_00088321_U.png;1494443828778;tkalbitz;PenaltySpot;24;332;89;358;PenaltySpot
2017GO_vsBHumanG1A_GlaDOS_00141178_U.png;1494443836966;tkalbitz;PenaltySpot;135;296;148;301;PenaltySpot
2017GO_vsBHumanG1A_GlaDOS_00145449_U.png;1494443843630;tkalbitz;PenaltySpot;541;130;555;135;PenaltySpot
2017GO_vsBHumanG1A_GlaDOS_00179950_U.png;1494443854791;tkalbitz;PenaltySpot;263;128;276;133;PenaltySpot
2017GO_vsBHumanG1A_GlaDOS_00182476_U.png;1494443857051;tkalbitz;PenaltySpot;197;77;210;82;PenaltySpot
2017GO_vsBHumanG1A_GlaDOS_00186375_U.png;1494443859448;tkalbitz;PenaltySpot;503;147;524;152;PenaltySpot
2017GO_vsBHumanG1A_GlaDOS_00192633_U.png;1494443864257;tkalbitz;PenaltySpot;555;177;568;182;PenaltySpot
2017GO_vsBHumanG1A_GlaDOS_00196511_U.png;1494443866810;tkalbitz;PenaltySpot;24;141;38;146;PenaltySpot
2017GO_vsBHumanG1A_GlaDOS_00198503_U.png;1494443869874;tkalbitz;PenaltySpot;0;85;13;92;PenaltySpot
2017GO_vsBHumanG1A_GlaDOS_00200244_U.png;1494443871753;tkalbitz;PenaltySpot;25;44;42;49;PenaltySpot
2017GO_vsBHumanG1A_GlaDOS_00201993_U.png;1494443873674;tkalbitz;PenaltySpot;154;155;167;161;PenaltySpot
2017GO_vsBHumanG1A_GlaDOS_00203993_U.png;1494443876346;tkalbitz;PenaltySpot;274;96;290;104;PenaltySpot
2017GO_vsBHumanG1A_GlaDOS_00205856_U.png;1494443878428;tkalbitz;PenaltySpot;242;22;257;27;PenaltySpot
2017GO_vsBHumanG1A_GlaDOS_00208246_U.png;1494443880866;tkalbitz;PenaltySpot;269;63;282;68;PenaltySpot
2017GO_vsBHumanG1A_GlaDOS_00217573_U.png;1494443883884;tkalbitz;PenaltySpot;588;137;602;142;PenaltySpot
2017GO_vsBHumanG1A_GlaDOS_00218924_U.png;1494443886604;tkalbitz;PenaltySpot;61;86;78;95;PenaltySpot
2017GO_vsBHumanG1A_GlaDOS_00234512_U.png;1494443888390;tkalbitz;PenaltySpot;353;54;379;64;PenaltySpot
2017GO_vsBHumanG1A_GlaDOS_00236849_U.png;1494443890237;tkalbitz;PenaltySpot;210;40;240;48;PenaltySpot
2017GO_vsBHumanG1A_GlaDOS_00239447_U.png;1494443891918;tkalbitz;PenaltySpot;358;76;391;87;PenaltySpot
2017GO_vsBHumanG1A_GlaDOS_00246486_U.png;1494443894261;tkalbitz;PenaltySpot;0;115;28;131;PenaltySpot
2017GO_vsBHumanG1A_GlaDOS_00257202_U.png;1494443896368;tkalbitz;PenaltySpot;146;124;161;130;PenaltySpot
2017GO_vsBHumanG1A_GlaDOS_00259059_U.png;1494443897849;tkalbitz;PenaltySpot;76;262;114;271;PenaltySpot
2017GO_vsBHumanG1A_GlaDOS_00261539_U.png;1494443900118;tkalbitz;PenaltySpot;452;229;490;241;PenaltySpot
2017GO_vsBHumanG1A_GlaDOS_00268145_U.png;1494443902179;tkalbitz;PenaltySpot;342;66;355;71;PenaltySpot
2017GO_vsBHumanG1A_GlaDOS_00277389_U.png;1494443905118;tkalbitz;PenaltySpot;140;282;158;289;PenaltySpot
2017GO_vsBHumanG1A_GlaDOS_00282027_U.png;1494443907526;tkalbitz;PenaltySpot;395;268;408;273;PenaltySpot
2017GO_vsBHumanG1A_GlaDOS_00283997_U.png;1494443910768;tkalbitz;PenaltySpot;509;145;533;150;PenaltySpot
2017GO_vsBHumanG1A_GlaDOS_00285841_U.png;1494443912727;tkalbitz;PenaltySpot;106;59;121;64;PenaltySpot
2017GO_vsBHumanG1A_GlaDOS_00303176_U.png;1494443914799;tkalbitz;PenaltySpot;606;254;639;269;PenaltySpot
2017GO_vsBHumanG1A_GlaDOS_00307217_U.png;1494443917167;tkalbitz;PenaltySpot;418;78;431;84;PenaltySpot
2017GO_vsBHumanG1A_GlaDOS_00343584_U.png;1494443922414;tkalbitz;PenaltySpot;166;79;179;84;PenaltySpot
2017GO_vsBHumanG1A_GlaDOS_00353258_U.png;1494443927655;tkalbitz;PenaltySpot;379;121;393;126;PenaltySpot
2017GO_vsBHumanG1A_GlaDOS_00386380_U.png;1494443929329;tkalbitz;PenaltySpot;47;185;85;195;PenaltySpot
2017GO_vsBHumanG1A_GlaDOS_00392155_U.png;1494443931464;tkalbitz;PenaltySpot;437;349;469;359;PenaltySpot
2017GO_vsBHumanG1A_GlaDOS_00399556_U.png;1494443936216;tkalbitz;PenaltySpot;133;289;146;294;PenaltySpot
2017GO_vsBHumanG1A_GlaDOS_00410675_U.png;1494443937690;tkalbitz;PenaltySpot;26;321;83;343;PenaltySpot
2017GO_vsBHumanG1A_GlaDOS_00413340_U.png;1494443941161;tkalbitz;PenaltySpot;465;56;478;61;PenaltySpot
2017GO_vsBHumanG1A_GlaDOS_00444874_U.png;1494443952976;tkalbitz;PenaltySpot;159;65;173;70;PenaltySpot
2017GO_vsBHumanG1A_GlaDOS_00447584_U.png;1494443956979;tkalbitz;PenaltySpot;319;13;332;18;PenaltySpot
2017GO_vsBHumanG1A_GlaDOS_00450702_U.png;1494443959559;tkalbitz;PenaltySpot;509;49;523;54;PenaltySpot
2017GO_vsBHumanG1A_GlaDOS_00453467_U.png;1494443961860;tkalbitz;PenaltySpot;347;21;366;26;PenaltySpot
2017GO_vsBHumanG1A_GlaDOS_00455436_U.png;1494443964070;tkalbitz;PenaltySpot;419;43;433;48;PenaltySpot
2017GO_vsBHumanG1A_GlaDOS_00457587_U.png;1494446058321;tkalbitz;PenaltySpot;415;51;424;55;PenaltySpot
2017GO_vsBHumanG1A_GlaDOS_00460379_U.png;1494443969670;tkalbitz;PenaltySpot;417;121;431;126;PenaltySpot
2017GO_vsBHumanG1A_GlaDOS_00465589_U.png;1494443972471;tkalbitz;PenaltySpot;130;214;147;223;PenaltySpot
2017GO_vsBHumanG1A_GlaDOS_00469860_U.png;1494443974287;tkalbitz;PenaltySpot;374;188;400;198;PenaltySpot
2017GO_vsBHumanG1A_GlaDOS_00475394_U.png;1494443977006;tkalbitz;PenaltySpot;594;108;622;115;PenaltySpot
2017GO_vsBHumanG1A_GlaDOS_00477518_U.png;1494443978895;tkalbitz;PenaltySpot;605;114;627;120;PenaltySpot
2017GO_vsBHumanG1A_GlaDOS_00479267_U.png;1494443982359;tkalbitz;PenaltySpot;183;143;196;148;PenaltySpot
2017GO_vsBHumanG1A_GlaDOS_00488257_U.png;1494443984146;tkalbitz;PenaltySpot;59;128;84;134;PenaltySpot
2017GO_vsBHumanG1A_GlaDOS_00493453_U.png;1494443988279;tkalbitz;PenaltySpot;375;137;386;141;PenaltySpot
2017GO_vsBHumanG1A_GlaDOS_00508656_U.png;1494443991372;tkalbitz;PenaltySpot;131;196;148;206;PenaltySpot
2017GO_vsBHumanG1A_GlaDOS_00518315_U.png;1494444000096;tkalbitz;PenaltySpot;379;131;397;137;PenaltySpot
2017GO_vsBHumanG1A_GlaDOS_00525374_U.png;1494444002639;tkalbitz;PenaltySpot;210;56;226;63;PenaltySpot
2017GO_vsBHumanG1A_GlaDOS_00534194_U.png;1494444006929;tkalbitz;PenaltySpot;557;309;575;315;PenaltySpot
2017GO_vsBHumanG1A_GlaDOS_00543182_U.png;1494444008715;tkalbitz;PenaltySpot;481;127;500;137;PenaltySpot
2017GO_vsBHumanG1A_GlaDOS_00545310_U.png;1494444011858;tkalbitz;PenaltySpot;412;66;429;72;PenaltySpot
2017GO_vsBHumanG1A_GlaDOS_00547890_U.png;1494444014891;tkalbitz;PenaltySpot;195;215;219;220;PenaltySpot
2017GO_vsBHumanG1A_GlaDOS_00553275_U.png;1494444017571;tkalbitz;PenaltySpot;575;124;597;129;PenaltySpot
2017GO_vsBHumanG1A_GlaDOS_00554780_U.png;1494444020376;tkalbitz;PenaltySpot;61;201;82;209;PenaltySpot
2017GO_vsBHumanG1A_GlaDOS_00564121_U.png;1494444023251;tkalbitz;PenaltySpot;262;68;280;73;PenaltySpot
2017GO_vsBHumanG1A_GlaDOS_00577621_U.png;1494444026272;tkalbitz;PenaltySpot;512;101;534;106;PenaltySpot
2017GO_vsBHumanG1A_GlaDOS_00595106_U.png;1494444029885;tkalbitz;PenaltySpot;548;142;562;147;PenaltySpot
2017GO_vsBHumanG1A_GlaDOS_00603909_U.png;1494444033604;tkalbitz;PenaltySpot;287;143;301;149;PenaltySpot
2017GO_vsBHumanG1A_GlaDOS_00613837_U.png;1494444039450;tkalbitz;PenaltySpot;594;92;617;99;PenaltySpot
2017GO_vsBHumanG1A_GlaDOS_00616213_U.png;1494444041388;tkalbitz;PenaltySpot;342;106;359;112;PenaltySpot
2017GO_vsBHumanG1A_GlaDOS_00620508_U.png;1494444044009;tkalbitz;PenaltySpot;606;150;632;155;PenaltySpot
2017GO_vsBHumanG1A_GlaDOS_00624955_U.png;1494444046363;tkalbitz;PenaltySpot;375;26;393;33;PenaltySpot
2017GO_vsBHumanG1A_GlaDOS_00627026_U.png;1494444049705;tkalbitz;PenaltySpot;431;77;462;86;PenaltySpot
2017GO_vsBHumanG1A_GlaDOS_00629374_U.png;1494444053011;tkalbitz;PenaltySpot;457;113;489;122;PenaltySpot
2017GO_vsBHumanG1A_GlaDOS_00631959_U.png;1494444054479;tkalbitz;PenaltySpot;488;131;527;144;PenaltySpot
2017GO_vsBHumanG1A_GlaDOS_00634377_U.png;1494444057258;tkalbitz;PenaltySpot;443;110;478;131;PenaltySpot
2017GO_vsBHumanG1A_GlaDOS_00637206_U.png;1494444060730;tkalbitz;PenaltySpot;266;171;302;184;PenaltySpot
2017GO_vsBHumanG1A_GlaDOS_00640837_U.png;1494444062323;tkalbitz;PenaltySpot;90;299;138;321;PenaltySpot
2017GO_vsBHumanG1A_GlaDOS_00643826_U.png;1494444064728;tkalbitz;PenaltySpot;227;194;240;199;PenaltySpot
2017GO_vsBHumanG1A_GlaDOS_00647345_U.png;1494444069647;tkalbitz;PenaltySpot;531;116;544;121;PenaltySpot
2017GO_vsBHumanG1A_GlaDOS_00649932_U.png;1494444071396;tkalbitz;PenaltySpot;315;341;353;355;PenaltySpot
2017GO_vsBHumanG1A_GlaDOS_00651115_U.png;1494444073014;tkalbitz;PenaltySpot;126;397;163;413;PenaltySpot
2017GO_vsBHumanG1A_GlaDOS_00657079_U.png;1494444074537;tkalbitz;PenaltySpot;471;328;499;340;PenaltySpot
2017GO_vsBHumanG1A_GlaDOS_00661070_U.png;1494444076255;tkalbitz;PenaltySpot;625;198;640;206;PenaltySpot
2017GO_vsBHumanG1A_GlaDOS_00702670_U.png;1494444080899;tkalbitz;PenaltySpot;393;174;407;179;PenaltySpot
2017GO_vsBHumanG1A_GlaDOS_00721983_U.png;1494444086239;tkalbitz;PenaltySpot;73;61;87;66;PenaltySpot
2017GO_vsBHumanG1A_GlaDOS_00724485_U.png;1494444088715;tkalbitz;PenaltySpot;121;46;134;51;PenaltySpot
2017GO_vsBHumanG1A_GlaDOS_00738220_U.png;1494444090395;tkalbitz;PenaltySpot;107;215;127;226;PenaltySpot
2017GO_vsBHumanG1A_GlaDOS_00745472_U.png;1494444092097;tkalbitz;PenaltySpot;488;285;520;293;PenaltySpot
2017GO_vsBHumanG1A_GlaDOS_00777555_U.png;1494444100811;tkalbitz;PenaltySpot;128;92;141;97;PenaltySpot
2017GO_vsBHumanG1A_GlaDOS_00779743_U.png;1494444102577;tkalbitz;PenaltySpot;163;342;201;358;PenaltySpot
2017GO_vsBHumanG1A_GlaDOS_00174493_U.png;1494445842221;tkalbitz;SkipBall
2017GO_vsBHumanG1A_GlaDOS_00203993_U.png;1494445872852;tkalbitz;SkipBall
2017GO_vsBHumanG1A_GlaDOS_00362177_U.png;1494445960729;tkalbitz;SkipBall
2017GO_vsBHumanG1A_GlaDOS_00418441_U.png;1494446004944;tkalbitz;SkipBall
2017GO_vsBHumanG1A_GlaDOS_00427356_U.png;1494446011984;tkalbitz;SkipBall
2017GO_vsBHumanG1A_GlaDOS_00430919_U.png;1494446013864;tkalbitz;SkipBall
2017GO_vsBHumanG1A_GlaDOS_00495399_U.png;1494446075694;tkalbitz;SkipBall
2017GO_vsBHumanG1A_GlaDOS_00086316_U.png;1494443827122;tkalbitz;SkipPenaltySpot
2017GO_vsBHumanG1A_GlaDOS_00138994_U.png;1494443833866;tkalbitz;SkipPenaltySpot
2017GO_vsBHumanG1A_GlaDOS_00143423_U.png;1494443838713;tkalbitz;SkipPenaltySpot
2017GO_vsBHumanG1A_GlaDOS_00168562_U.png;1494443848825;tkalbitz;SkipPenaltySpot
2017GO_vsBHumanG1A_GlaDOS_00169653_U.png;1494443850865;tkalbitz;SkipPenaltySpot
2017GO_vsBHumanG1A_GlaDOS_00174493_U.png;1494443851985;tkalbitz;SkipPenaltySpot
2017GO_vsBHumanG1A_GlaDOS_00341096_U.png;1494443920063;tkalbitz;SkipPenaltySpot
2017GO_vsBHumanG1A_GlaDOS_00347995_U.png;1494443924103;tkalbitz;SkipPenaltySpot
2017GO_vsBHumanG1A_GlaDOS_00427356_U.png;1494443943103;tkalbitz;SkipPenaltySpot
2017GO_vsBHumanG1A_GlaDOS_00438373_U.png;1494443950238;tkalbitz;SkipPenaltySpot
2017GO_vsBHumanG1A_GlaDOS_00445599_U.png;1494443954518;tkalbitz;SkipPenaltySpot
2017GO_vsBHumanG1A_GlaDOS_00514506_U.png;1494443997965;tkalbitz;SkipPenaltySpot
2017GO_vsBHumanG1A_GlaDOS_00608957_U.png;1494444036971;tkalbitz;SkipPenaltySpot
2017GO_vsBHumanG1A_GlaDOS_00719771_U.png;1494444082683;tkalbitz;SkipPenaltySpot
2017GO_vsBHumanG1A_GlaDOS_00775671_U.png;1494444094506;tkalbitz;SkipPenaltySpot
