GO2024-G2A_Dragonfly_2_PLAY_00224481_RobotDetectionToManyRobots_U.png;1718131876406;tkalbitz;CenterCirclePoints;375;294;375;294;Left
GO2024-G2A_Dragonfly_2_PLAY_00234065_RobotDetectionToManyRobots_U.png;1718131878892;tkalbitz;CenterCirclePoints;104;323;104;323;Left
GO2024-G2A_Dragonfly_2_PLAY_00234065_RobotDetectionToManyRobots_U.png;1718131881002;tkalbitz;CenterCirclePoints;396;311;396;311;Right
GO2024-G2A_Dragonfly_2_PLAY_00239882_RobotDetectionToManyRobots_U.png;1718191186479;tkalbitz;CenterCirclePoints;172;285;172;285;Right
GO2024-G2A_Dragonfly_2_PLAY_00246274_RobotDetectionToManyRobots_U.png;1718131883574;tkalbitz;CenterCirclePoints;85;290;85;290;Left
GO2024-G2A_Dragonfly_2_PLAY_00246274_RobotDetectionToManyRobots_U.png;1718131885572;tkalbitz;CenterCirclePoints;379;289;379;289;Right
GO2024-G2A_Dragonfly_2_PLAY_00258627_RobotDetectionToManyRobots_U.png;1718131888652;tkalbitz;CenterCirclePoints;302;291;302;291;Right
GO2024-G2A_Dragonfly_2_PLAY_00323783_RobotDetectionToManyRobots_U.png;1718131891518;tkalbitz;CenterCirclePoints;117;169;117;169;Right
GO2024-G2A_Dragonfly_2_PLAY_00329213_RobotDetectionToManyRobots_U.png;1718131893975;tkalbitz;CenterCirclePoints;127;176;127;176;Right
GO2024-G2A_Dragonfly_2_PLAY_00357064_RobotDetectionToManyRobots_U.png;1718133774398;tkalbitz;CenterCirclePoints;356;165;356;165;Right
GO2024-G2A_Dragonfly_2_PLAY_00384197_RobotDetectionToManyRobots_U.png;1718131897956;tkalbitz;CenterCirclePoints;259;163;259;163;Right
GO2024-G2A_Dragonfly_2_PLAY_00405688_RobotDetectionToManyRobots_U.png;1718138208068;tkalbitz;CenterCirclePoints;102;266;102;266;Right
GO2024-G2A_Dragonfly_2_SET_00218537_RobotDetectionToManyRobots_U.png;1718138213322;tkalbitz;CenterCirclePoints;279;277;279;277;Left
GO2024-G2A_Dragonfly_2_SET_00218537_RobotDetectionToManyRobots_U.png;1718138215566;tkalbitz;CenterCirclePoints;569;282;569;282;Right
GO2024-G2B_Dragonfly_2_PLAY_00809211_RobotDetectionToManyRobots_U.png;1718133778720;tkalbitz;CenterCirclePoints;318;165;318;165;Right
GO2024-G2B_Dragonfly_2_PLAY_00989883_RobotDetectionToManyRobots_U.png;1718131908837;tkalbitz;CenterCirclePoints;443;186;443;186;Left
GO2024-G2A_Dragonfly_2_PLAY_00228385_RobotDetectionToManyRobots_U.png;1715463155864;tkalbitz;GoalPost;395;249;387;184;Left
GO2024-G2A_Dragonfly_2_PLAY_00228385_RobotDetectionToManyRobots_U.png;1715463158387;tkalbitz;GoalPost;387;184;519;168;Middle
GO2024-G2A_Dragonfly_2_PLAY_00228385_RobotDetectionToManyRobots_U.png;1715463160547;tkalbitz;GoalPost;519;168;531;239;Right
GO2024-G2A_Dragonfly_2_PLAY_00239882_RobotDetectionToManyRobots_U.png;1715675296052;tkalbitz;GoalPost;146;218;143;146;Right
GO2024-G2A_Dragonfly_2_PLAY_00323783_RobotDetectionToManyRobots_U.png;1715463168941;tkalbitz;GoalPost;125;106;114;28;Right
GO2024-G2A_Dragonfly_2_PLAY_00323783_RobotDetectionToManyRobots_U.png;1715463170895;tkalbitz;GoalPost;114;28;-1;30;Middle
GO2024-G2A_Dragonfly_2_PLAY_00329213_RobotDetectionToManyRobots_U.png;1715463175272;tkalbitz;GoalPost;111;116;100;38;Right
GO2024-G2A_Dragonfly_2_PLAY_00329213_RobotDetectionToManyRobots_U.png;1715463178696;tkalbitz;GoalPost;100;38;-1;36;Middle
GO2024-G2A_Dragonfly_2_PLAY_00333102_RobotDetectionToManyRobots_U.png;1715463184924;tkalbitz;GoalPost;40;104;36;22;Left
GO2024-G2A_Dragonfly_2_PLAY_00333102_RobotDetectionToManyRobots_U.png;1715463187248;tkalbitz;GoalPost;36;22;183;30;Middle
GO2024-G2A_Dragonfly_2_PLAY_00338975_RobotDetectionToManyRobots_U.png;1715463192067;tkalbitz;GoalPost;207;108;208;34;Left
GO2024-G2A_Dragonfly_2_PLAY_00338975_RobotDetectionToManyRobots_U.png;1715463194091;tkalbitz;GoalPost;208;34;343;36;Middle
GO2024-G2A_Dragonfly_2_PLAY_00357064_RobotDetectionToManyRobots_U.png;1715463203650;tkalbitz;GoalPost;207;107;206;33;Left
GO2024-G2A_Dragonfly_2_PLAY_00357064_RobotDetectionToManyRobots_U.png;1715463205834;tkalbitz;GoalPost;206;33;339;33;Middle
GO2024-G2A_Dragonfly_2_PLAY_00552463_RobotDetectionToManyRobots_U.png;1715668596774;tkalbitz;GoalPost;48;352;56;145;Left
GO2024-G2A_Dragonfly_2_SET_00201083_RobotDetectionToManyRobots_U.png;1715463214124;tkalbitz;GoalPost;491;65;637;61;Middle
GO2024-G2A_Dragonfly_2_SET_00213276_RobotDetectionToManyRobots_U.png;1715463221275;tkalbitz;GoalPost;337;227;346;159;Left
GO2024-G2A_Dragonfly_2_SET_00213276_RobotDetectionToManyRobots_U.png;1715463222789;tkalbitz;GoalPost;346;159;473;168;Middle
GO2024-G2A_Dragonfly_2_SET_00213276_RobotDetectionToManyRobots_U.png;1715463225127;tkalbitz;GoalPost;473;168;466;236;Right
GO2024-G2A_Dragonfly_2_SET_00218537_RobotDetectionToManyRobots_U.png;1715463231143;tkalbitz;GoalPost;377;220;380;153;Left
GO2024-G2A_Dragonfly_2_SET_00218537_RobotDetectionToManyRobots_U.png;1715463233707;tkalbitz;GoalPost;380;153;513;149;Middle
GO2024-G2B_Dragonfly_2_PLAY_00809211_RobotDetectionToManyRobots_U.png;1715463238163;tkalbitz;GoalPost;140;81;139;1;Left
GO2024-G2B_Dragonfly_2_PLAY_00809211_RobotDetectionToManyRobots_U.png;1715463239420;tkalbitz;GoalPost;139;1;284;14;Middle
GO2024-G2B_Dragonfly_2_PLAY_00809211_RobotDetectionToManyRobots_U.png;1715463242240;tkalbitz;GoalPost;284;14;285;91;Right
GO2024-G2B_Dragonfly_2_READY_00861562_RobotDetectionToManyRobots_U.png;1715675305410;tkalbitz;NoGoalPost
