2021.03_RODEO_1_BHuman_Part1_G1A_145_00270999_L.png;1652574103868;tkalbitz;Ball;341;54;335;-53;Ball
2021.03_RODEO_1_BHuman_Part1_G1A_145_00272287_L.png;1652574111652;tkalbitz;Ball;259;249;333;156;Ball
2021.03_RODEO_1_BHuman_Part1_G1A_51_00309853_L.png;1652574121566;tkalbitz;Ball;437;137;556;216;Ball
2021.03_RODEO_1_BHuman_Part1_G1A_145_00270999_L.png;1652363665450;tkalbitz;CenterCirclePoints;381;32;381;32;Center
2021.03_RODEO_1_BHuman_Part1_G1A_145_00272287_L.png;1652363666666;tkalbitz;CenterCirclePoints;342;230;342;230;Center
2021.03_RODEO_1_BHuman_Part1_G1A_145_00590338_L.png;1652363667687;tkalbitz;CenterCirclePoints;42;111;42;111;Center
2021.03_RODEO_1_BHuman_Part1_G1A_145_00596154_L.png;1652363668970;tkalbitz;CenterCirclePoints;23;26;23;26;Right
2021.03_RODEO_1_BHuman_Part1_G1A_145_00613614_L.png;1652363670349;tkalbitz;CenterCirclePoints;498;264;498;264;Right
2021.03_RODEO_1_BHuman_Part1_G1A_145_00619446_L.png;1652363671548;tkalbitz;CenterCirclePoints;117;264;117;264;Center
2021.03_RODEO_1_BHuman_Part1_G1A_145_00625270_L.png;1652363672469;tkalbitz;CenterCirclePoints;174;286;174;286;Center
2021.03_RODEO_1_BHuman_Part1_G1A_22_00563371_L.png;1652363675659;tkalbitz;CenterCirclePoints;103;307;103;307;Right
2021.03_RODEO_1_BHuman_Part1_G1A_51_00309853_L.png;1652363680749;tkalbitz;CenterCirclePoints;70;259;70;259;Center
2021.03_RODEO_1_BHuman_Part1_G1A_51_00311232_L.png;1652477611308;tkalbitz;CenterCirclePoints;14;322;14;322;Center
2021.03_RODEO_1_BHuman_Part1_G1A_51_00415896_L.png;1652363682955;tkalbitz;CenterCirclePoints;208;99;207;99;Right
2021.03_RODEO_1_BHuman_Part1_G1A_22_00876462_L.png;1652363678396;tkalbitz;Ignore
2021.03_RODEO_1_BHuman_Part1_G1A_51_00556013_L.png;1652363684792;tkalbitz;Ignore
2021.03_RODEO_1_BHuman_Part1_G1A_145_00590338_L.png;1652574115760;tkalbitz;NoBall
2021.03_RODEO_1_BHuman_Part1_G1A_145_00596154_L.png;1652574116517;tkalbitz;NoBall
2021.03_RODEO_1_BHuman_Part1_G1A_145_00613614_L.png;1652574117225;tkalbitz;NoBall
2021.03_RODEO_1_BHuman_Part1_G1A_145_00619446_L.png;1652574117829;tkalbitz;NoBall
2021.03_RODEO_1_BHuman_Part1_G1A_145_00625270_L.png;1652574118422;tkalbitz;NoBall
2021.03_RODEO_1_BHuman_Part1_G1A_22_00563371_L.png;1652574119055;tkalbitz;NoBall
2021.03_RODEO_1_BHuman_Part1_G1A_51_00311232_L.png;1652574126361;tkalbitz;NoBall
2021.03_RODEO_1_BHuman_Part1_G1A_51_00415896_L.png;1652574127147;tkalbitz;NoBall
2021.03_RODEO_1_BHuman_Part1_G1A_51_00713911_L.png;1652808682925;tkalbitz;NoBall
2021.03_RODEO_1_BHuman_Part1_G1A_145_00285523_L.png;1652808667633;tkalbitz;NoCenterCirclePoints
2021.03_RODEO_1_BHuman_Part1_G1A_145_00520028_L.png;1652772528428;FalseGenerator;NoCenterCirclePoints
2021.03_RODEO_1_BHuman_Part1_G1A_145_00541849_L.png;1652903656431;tkalbitz;NoCenterCirclePoints
2021.03_RODEO_1_BHuman_Part1_G1A_145_00556083_L.png;1652477606457;tkalbitz;NoCenterCirclePoints
2021.03_RODEO_1_BHuman_Part1_G1A_145_00578714_L.png;1652818020855;tkalbitz;NoCenterCirclePoints
2021.03_RODEO_1_BHuman_Part1_G1A_145_00745694_L.png;1652480253470;tkalbitz;NoCenterCirclePoints
2021.03_RODEO_1_BHuman_Part1_G1A_145_00751616_L.png;1652367675739;tkalbitz;NoCenterCirclePoints
2021.03_RODEO_1_BHuman_Part1_G1A_145_00763652_L.png;1652527186499;tkalbitz;NoCenterCirclePoints
2021.03_RODEO_1_BHuman_Part1_G1A_145_00764799_L.png;1652363674348;tkalbitz;NoCenterCirclePoints
2021.03_RODEO_1_BHuman_Part1_G1A_145_00811134_L.png;1652903657175;tkalbitz;NoCenterCirclePoints
2021.03_RODEO_1_BHuman_Part1_G1A_145_00820275_L.png;1652477608077;tkalbitz;NoCenterCirclePoints
2021.03_RODEO_1_BHuman_Part1_G1A_145_00844930_L.png;1652735962323;tkalbitz;NoCenterCirclePoints
2021.03_RODEO_1_BHuman_Part1_G1A_145_00850768_L.png;1652735963175;tkalbitz;NoCenterCirclePoints
2021.03_RODEO_1_BHuman_Part1_G1A_22_00296428_L.png;1652808668541;tkalbitz;NoCenterCirclePoints
2021.03_RODEO_1_BHuman_Part1_G1A_22_00302261_L.png;1652374716538;tkalbitz;NoCenterCirclePoints
2021.03_RODEO_1_BHuman_Part1_G1A_22_00356690_L.png;1652903657857;tkalbitz;NoCenterCirclePoints
2021.03_RODEO_1_BHuman_Part1_G1A_22_00362515_L.png;1652477608921;tkalbitz;NoCenterCirclePoints
2021.03_RODEO_1_BHuman_Part1_G1A_22_00392633_L.png;1652556977839;tkalbitz;NoCenterCirclePoints
2021.03_RODEO_1_BHuman_Part1_G1A_22_00413540_L.png;1652903658769;tkalbitz;NoCenterCirclePoints
2021.03_RODEO_1_BHuman_Part1_G1A_22_00509932_L.png;1652891505204;tkalbitz;NoCenterCirclePoints
2021.03_RODEO_1_BHuman_Part1_G1A_22_00536491_L.png;1652903659696;tkalbitz;NoCenterCirclePoints
2021.03_RODEO_1_BHuman_Part1_G1A_22_00538704_L.png;1652808669348;tkalbitz;NoCenterCirclePoints
2021.03_RODEO_1_BHuman_Part1_G1A_22_00540066_L.png;1652556979057;tkalbitz;NoCenterCirclePoints
2021.03_RODEO_1_BHuman_Part1_G1A_22_00551700_L.png;1652556982905;tkalbitz;NoCenterCirclePoints
2021.03_RODEO_1_BHuman_Part1_G1A_22_00631239_L.png;1652517932664;tkalbitz;NoCenterCirclePoints
2021.03_RODEO_1_BHuman_Part1_G1A_22_00763698_L.png;1652903660561;tkalbitz;NoCenterCirclePoints
2021.03_RODEO_1_BHuman_Part1_G1A_51_00348901_L.png;1652735964598;tkalbitz;NoCenterCirclePoints
2021.03_RODEO_1_BHuman_Part1_G1A_51_00371630_L.png;1652363681765;tkalbitz;NoCenterCirclePoints
2021.03_RODEO_1_BHuman_Part1_G1A_51_00474127_L.png;1652517933487;tkalbitz;NoCenterCirclePoints
2021.03_RODEO_1_BHuman_Part1_G1A_51_00554666_L.png;1652477612968;tkalbitz;NoCenterCirclePoints
2021.03_RODEO_1_BHuman_Part1_G1A_51_00614317_L.png;1652363686689;tkalbitz;NoCenterCirclePoints
2021.03_RODEO_1_BHuman_Part1_G1A_51_00713911_L.png;1652808671354;tkalbitz;NoCenterCirclePoints
2021.03_RODEO_1_BHuman_Part1_G1A_51_00731404_L.png;1652818023837;tkalbitz;NoCenterCirclePoints
2021.03_RODEO_1_BHuman_Part1_G1A_51_00795501_L.png;1652903661173;tkalbitz;NoCenterCirclePoints
2021.03_RODEO_1_BHuman_Part1_G1A_51_00842119_L.png;1652363687636;tkalbitz;NoCenterCirclePoints
2021.03_RODEO_1_BHuman_Part1_G1A_51_00847952_L.png;1652903661791;tkalbitz;NoCenterCirclePoints
2021.03_RODEO_1_BHuman_Part1_G1A_145_00270999_L.png;1652573910232;tkalbitz;NoPenaltySpot
2021.03_RODEO_1_BHuman_Part1_G1A_145_00272287_L.png;1652573910712;tkalbitz;NoPenaltySpot
2021.03_RODEO_1_BHuman_Part1_G1A_145_00590338_L.png;1652573911194;tkalbitz;NoPenaltySpot
2021.03_RODEO_1_BHuman_Part1_G1A_145_00596154_L.png;1652573911659;tkalbitz;NoPenaltySpot
2021.03_RODEO_1_BHuman_Part1_G1A_145_00613614_L.png;1652573912128;tkalbitz;NoPenaltySpot
2021.03_RODEO_1_BHuman_Part1_G1A_145_00619446_L.png;1652573912666;tkalbitz;NoPenaltySpot
2021.03_RODEO_1_BHuman_Part1_G1A_145_00625270_L.png;1652573913169;tkalbitz;NoPenaltySpot
2021.03_RODEO_1_BHuman_Part1_G1A_22_00563371_L.png;1652573913678;tkalbitz;NoPenaltySpot
2021.03_RODEO_1_BHuman_Part1_G1A_51_00309853_L.png;1652573914194;tkalbitz;NoPenaltySpot
2021.03_RODEO_1_BHuman_Part1_G1A_51_00311232_L.png;1652573914648;tkalbitz;NoPenaltySpot
2021.03_RODEO_1_BHuman_Part1_G1A_51_00415896_L.png;1652573915124;tkalbitz;NoPenaltySpot
2021.03_RODEO_1_BHuman_Part1_G1A_145_00520028_L.png;1652571449259;tkalbitz;PenaltySpot;314;134;388;178;PenaltySpot
2021.03_RODEO_1_BHuman_Part1_G1A_51_00713911_L.png;1652808679668;tkalbitz;PenaltySpot;0;0;101;91;PenaltySpot
2021.03_RODEO_1_BHuman_Part1_G1A_145_00786424_L.png;1652818022858;tkalbitz;SkipCenterCirclePoints
