RC2019_first_testgame_G1B_Pathfinder_00027473_U.png;1562152318836;nao;Ball;392;71;409;82;Ball
RC2019_first_testgame_G1B_Pathfinder_00033335_U.png;1562152327503;nao;Ball;403;118;415;129;Ball
RC2019_first_testgame_G1B_Pathfinder_00070457_U.png;1562152339905;nao;Ball;67;191;79;185;Ball
RC2019_first_testgame_G1B_Pathfinder_00078286_U.png;1562152344441;nao;Ball;225;165;215;168;Ball
RC2019_first_testgame_G1B_Pathfinder_00148721_U.png;1562152349191;nao;Ball;291;120;305;119;Ball
RC2019_first_testgame_G1B_Pathfinder_00152636_U.png;1562152352272;nao;Ball;441;107;458;104;Ball
RC2019_first_testgame_G1B_Pathfinder_00178073_U.png;1562152356681;nao;Ball;371;164;392;164;Ball
RC2019_first_testgame_G1B_Pathfinder_00183941_U.png;1562152359689;nao;Ball;378;160;380;146;Ball
RC2019_first_testgame_G1B_Pathfinder_00199620_U.png;1562152363329;nao;Ball;368;115;384;106;Ball
RC2019_first_testgame_G1B_Pathfinder_00225121_U.png;1562152368338;nao;Ball;372;141;368;122;Ball
RC2019_first_testgame_G1B_Pathfinder_00229055_U.png;1562152374168;nao;Ball;447;185;446;157;Ball
RC2019_first_testgame_G1B_Pathfinder_00231015_U.png;1562152381523;nao;Ball;516;182;516;151;Ball
RC2019_first_testgame_G1B_Pathfinder_00232980_U.png;1562152385344;nao;Ball;332;153;323;122;Ball
RC2019_first_testgame_G1B_Pathfinder_00234925_U.png;1562152388457;nao;Ball;407;216;400;194;Ball
RC2019_first_testgame_G1B_Pathfinder_00242720_U.png;1562152391681;nao;Ball;223;124;212;106;Ball
RC2019_first_testgame_G1B_Pathfinder_00244677_U.png;1562152400121;nao;Ball;214;125;221;106;Ball
RC2019_first_testgame_G1B_Pathfinder_00248587_U.png;1562152405040;nao;Ball;209;122;219;105;Ball
RC2019_first_testgame_G1B_Pathfinder_00258377_U.png;1562152411882;nao;Ball;306;102;293;91;Ball
RC2019_first_testgame_G1B_Pathfinder_00260338_U.png;1562152415258;nao;Ball;324;97;327;81;Ball
RC2019_first_testgame_G1B_Pathfinder_00275982_U.png;1562152421050;nao;Ball;411;144;427;137;Ball
RC2019_first_testgame_G1B_Pathfinder_00326809_U.png;1562152428456;nao;Ball;475;418;535;337;Ball
RC2019_first_testgame_G1B_Pathfinder_00352265_U.png;1562152435625;nao;Ball;299;36;303;12;Ball
RC2019_first_testgame_G1B_Pathfinder_00377666_U.png;1562152441890;nao;Ball;267;68;259;44;Ball
RC2019_first_testgame_G1B_Pathfinder_00383547_U.png;1562152445650;nao;Ball;309;115;312;92;Ball
RC2019_first_testgame_G1B_Pathfinder_00399199_U.png;1562152449049;nao;Ball;289;149;271;140;Ball
RC2019_first_testgame_G1B_Pathfinder_00401156_U.png;1562152452270;nao;Ball;168;110;160;90;Ball
RC2019_first_testgame_G1B_Pathfinder_00416776_U.png;1562152455856;nao;Ball;318;147;331;123;Ball
RC2019_first_testgame_G1B_Pathfinder_00432431_U.png;1562152459242;nao;Ball;327;366;351;263;Ball
RC2019_first_testgame_G1B_Pathfinder_00438310_U.png;1562152463561;nao;Ball;240;175;215;143;Ball
RC2019_first_testgame_G1B_Pathfinder_00444198_U.png;1562152466616;nao;Ball;361;198;381;169;Ball
RC2019_first_testgame_G1B_Pathfinder_00461769_U.png;1562152471314;nao;Ball;357;201;326;167;Ball
RC2019_first_testgame_G1B_Pathfinder_00469597_U.png;1562152474474;nao;Ball;334;232;319;191;Ball
RC2019_first_testgame_G1B_Pathfinder_00491167_U.png;1562152478466;nao;Ball;339;93;336;72;Ball
RC2019_first_testgame_G1B_Pathfinder_00551753_U.png;1562152483175;nao;Ball;186;214;160;196;Ball
RC2019_first_testgame_G1B_Pathfinder_00555681_U.png;1562152486042;nao;Ball;224;174;236;120;Ball
RC2019_first_testgame_G1B_Pathfinder_00628090_U.png;1562152492522;nao;Ball;162;176;151;155;Ball
RC2019_first_testgame_G1B_Pathfinder_00630055_U.png;1562152495874;nao;Ball;535;157;536;132;Ball
RC2019_first_testgame_G1B_Pathfinder_00686646_U.png;1562152505432;nao;Ball;468;144;478;84;Ball
RC2019_first_testgame_G1B_Pathfinder_00694474_U.png;1562152508994;nao;Ball;351;157;319;102;Ball
RC2019_first_testgame_G1B_Pathfinder_00702311_U.png;1562152511961;nao;Ball;213;132;200;114;Ball
RC2019_first_testgame_G1B_Pathfinder_00721887_U.png;1562152517426;nao;Ball;464;127;471;107;Ball
RC2019_first_testgame_G1B_Pathfinder_00780534_U.png;1562152527968;nao;Ball;282;180;268;159;Ball
RC2019_first_testgame_G1B_Pathfinder_00798140_U.png;1562152531281;nao;Ball;520;95;535;81;Ball
RC2019_first_testgame_G1B_Pathfinder_00800099_U.png;1562152534370;nao;Ball;480;87;492;68;Ball
RC2019_first_testgame_G1B_Pathfinder_00858727_U.png;1562152547074;nao;Ball;441;192;447;161;Ball
RC2019_first_testgame_G1B_Pathfinder_00864582_U.png;1562152550027;nao;Ball;330;146;330;121;Ball
RC2019_first_testgame_G1B_Pathfinder_00880225_U.png;1562152554500;nao;Ball;334;194;345;157;Ball
RC2019_first_testgame_G1B_Pathfinder_00889993_U.png;1562152558202;nao;Ball;248;147;214;112;Ball
RC2019_first_testgame_G1B_Pathfinder_00915421_U.png;1562152562227;nao;Ball;336;244;353;173;Ball
RC2019_first_testgame_G1B_Pathfinder_00931072_U.png;1562152567780;nao;Ball;332;372;242;452;Ball
RC2019_first_testgame_G1B_Pathfinder_00948638_U.png;1562152571698;nao;Ball;357;165;354;144;Ball
RC2019_first_testgame_G1B_Pathfinder_00952566_U.png;1562152576508;nao;Ball;327;184;312;163;Ball
RC2019_first_testgame_G1B_Pathfinder_00962371_U.png;1562152583672;nao;Ball;422;216;439;173;Ball
RC2019_first_testgame_G1B_Pathfinder_01107003_U.png;1562152591657;nao;Ball;245;201;229;150;Ball
RC2019_first_testgame_G1B_Pathfinder_01112867_U.png;1562152595499;nao;Ball;392;261;426;228;Ball
RC2019_first_testgame_G1B_Pathfinder_01116767_U.png;1562152599836;nao;Ball;100;263;68;226;Ball
RC2019_first_testgame_G1B_Phoenix_00044317_U.png;1562152608180;nao;Ball;397;190;392;164;Ball
RC2019_first_testgame_G1B_Phoenix_00054116_U.png;1562152611915;nao;Ball;270;192;257;170;Ball
RC2019_first_testgame_G1B_Phoenix_00061910_U.png;1562152615419;nao;Ball;239;168;229;144;Ball
RC2019_first_testgame_G1B_Phoenix_00069737_U.png;1562152619172;nao;Ball;321;87;328;78;Ball
RC2019_first_testgame_G1B_Phoenix_00112736_U.png;1562152628270;nao;Ball;436;178;464;152;Ball
RC2019_first_testgame_G1B_Phoenix_00142133_U.png;1562152636099;nao;Ball;306;158;323;144;Ball
RC2019_first_testgame_G1B_Phoenix_00175319_U.png;1562152645675;nao;Ball;247;92;242;79;Ball
RC2019_first_testgame_G1B_Phoenix_00198789_U.png;1562152655539;nao;Ball;574;193;579;180;Ball
RC2019_first_testgame_G1B_Phoenix_00216403_U.png;1562152662107;nao;Ball;288;56;293;44;Ball
RC2019_first_testgame_G1B_Phoenix_00339652_U.png;1562152678883;nao;Ball;600;124;591;106;Ball
RC2019_first_testgame_G1B_Phoenix_00361128_U.png;1562152687124;nao;Ball;424;132;412;115;Ball
RC2019_first_testgame_G1B_Phoenix_00402207_U.png;1562152694605;nao;Ball;354;152;327;118;Ball
RC2019_first_testgame_G1B_Phoenix_00406133_U.png;1562152697994;nao;Ball;280;308;222;347;Ball
RC2019_first_testgame_G1B_Phoenix_00408068_U.png;1562152702628;nao;Ball;309;243;358;182;Ball
RC2019_first_testgame_G1B_Phoenix_00412014_U.png;1562152707332;nao;Ball;380;435;355;547;Ball
RC2019_first_testgame_G1B_Phoenix_00451082_U.png;1562152712571;nao;Ball;576;129;578;113;Ball
RC2019_first_testgame_G1B_Phoenix_00470675_U.png;1562152715869;nao;Ball;294;242;250;181;Ball
RC2019_first_testgame_G1B_Phoenix_00482373_U.png;1562152720818;nao;Ball;423;158;454;126;Ball
RC2019_first_testgame_G1B_Phoenix_00507789_U.png;1562152725580;nao;Ball;329;126;330;107;Ball
RC2019_first_testgame_G1B_Phoenix_00533147_U.png;1562152729373;nao;Ball;371;388;393;500;Ball
RC2019_first_testgame_G1B_Phoenix_00538986_U.png;1562152734628;nao;Ball;411;175;429;132;Ball
RC2019_first_testgame_G1B_Phoenix_00550732_U.png;1562152738427;nao;Ball;356;264;300;256;Ball
RC2019_first_testgame_G1B_Phoenix_00554611_U.png;1562152741883;nao;Ball;222;248;173;186;Ball
RC2019_first_testgame_G1B_Phoenix_00556568_U.png;1562152745706;nao;Ball;285;342;321;412;Ball
RC2019_first_testgame_G1B_Phoenix_00587876_U.png;1562152751987;nao;Ball;308;215;318;149;Ball
RC2019_first_testgame_G1B_Phoenix_00589840_U.png;1562152756140;nao;Ball;293;333;304;450;Ball
RC2019_first_testgame_G1B_Phoenix_00609436_U.png;1562152762011;nao;Ball;265;134;249;83;Ball
RC2019_first_testgame_G1B_Phoenix_00630925_U.png;1562152767115;nao;Ball;344;154;369;137;Ball
RC2019_first_testgame_G1B_Phoenix_00634837_U.png;1562152770562;nao;Ball;426;113;443;100;Ball
RC2019_first_testgame_G1B_Phoenix_00636773_U.png;1562152774675;nao;Ball;501;130;518;120;Ball
RC2019_first_testgame_G1B_Phoenix_00652449_U.png;1562152779756;nao;Ball;290;166;277;148;Ball
RC2019_first_testgame_G1B_Phoenix_00658308_U.png;1562152784283;nao;Ball;386;235;398;208;Ball
RC2019_first_testgame_G1B_Phoenix_00689560_U.png;1562152790074;nao;Ball;416;185;443;152;Ball
RC2019_first_testgame_G1B_Phoenix_00691497_U.png;1562152793587;nao;Ball;257;284;254;245;Ball
RC2019_first_testgame_G1B_Phoenix_00695430_U.png;1562152797365;nao;Ball;296;234;325;197;Ball
RC2019_first_testgame_G1B_Phoenix_00709126_U.png;1562152807181;nao;Ball;538;228;518;198;Ball
RC2019_first_testgame_G1B_Phoenix_00746377_U.png;1562152814788;nao;Ball;385;255;290;300;Ball
RC2019_first_testgame_G1B_Phoenix_00763921_U.png;1562152821253;nao;Ball;339;184;335;129;Ball
RC2019_first_testgame_G1B_Phoenix_00767852_U.png;1562152825300;nao;Ball;355;319;348;385;Ball
RC2019_first_testgame_G1B_Phoenix_00775680_U.png;1562152833876;nao;Ball;450;205;469;201;Ball
RC2019_first_testgame_G1B_Phoenix_00785461_U.png;1562152841221;nao;Ball;276;179;253;159;Ball
RC2019_first_testgame_G1B_Phoenix_00787395_U.png;1562152843580;nao;Ball;302;150;286;128;Ball
RC2019_first_testgame_G1B_Phoenix_00840186_U.png;1562152847900;nao;Ball;154;177;139;160;Ball
RC2019_first_testgame_G1B_Phoenix_00875328_U.png;1562152854477;nao;Ball;576;186;605;186;Ball
RC2019_first_testgame_G1B_Phoenix_00890995_U.png;1562152858354;nao;Ball;292;158;277;112;Ball
RC2019_first_testgame_G1B_Phoenix_00916379_U.png;1562152861428;nao;Ball;305;138;293;89;Ball
RC2019_first_testgame_G1B_Phoenix_00984847_U.png;1562152913294;nao;Ball;382;121;385;105;Ball
RC2019_first_testgame_G1B_Phoenix_01025963_U.png;1562152923438;nao;Ball;292;117;290;94;Ball
RC2019_first_testgame_G1B_Phoenix_01029871_U.png;1562152926725;nao;Ball;435;144;443;126;Ball
RC2019_first_testgame_G1B_Phoenix_01031832_U.png;1562152929805;nao;Ball;271;134;261;114;Ball
RC2019_first_testgame_G1B_Phoenix_01078827_U.png;1562152936206;nao;Ball;344;271;388;207;Ball
RC2019_first_testgame_G1B_Phoenix_01094476_U.png;1562152940333;nao;Ball;386;208;413;187;Ball
RC2019_first_testgame_G1B_Phoenix_01096441_U.png;1562152944157;nao;Ball;350;206;329;171;Ball
RC2019_first_testgame_G1B_Phoenix_01100337_U.png;1562152947421;nao;Ball;343;188;335;116;Ball
RC2019_first_testgame_G1B_Phoenix_01161002_U.png;1562152954917;nao;Ball;428;188;483;144;Ball
RC2019_first_testgame_G1B_Phoenix_01176655_U.png;1562152960492;nao;Ball;134;149;120;112;Ball
RC2019_first_testgame_G1B_Phoenix_01180551_U.png;1562152963563;nao;Ball;157;182;127;132;Ball
RC2019_first_testgame_G1B_Phoenix_01184453_U.png;1562152966685;nao;Ball;170;353;142;284;Ball
RC2019_first_testgame_G1B_Phoenix_01336831_U.png;1562152988766;nao;Ball;389;428;501;399;Ball
RC2019_first_testgame_G1B_Phoenix_01346615_U.png;1562152993540;nao;Ball;223;149;216;91;Ball
RC2019_first_testgame_G1B_Phoenix_01348550_U.png;1562152996661;nao;Ball;440;176;463;126;Ball
RC2019_first_testgame_G1C_DeepImpact_00078110_U.png;1562153019950;nao;Ball;388;187;391;163;Ball
RC2019_first_testgame_G1C_DeepImpact_00109392_U.png;1562153024102;nao;Ball;267;101;271;86;Ball
RC2019_first_testgame_G1C_DeepImpact_00115276_U.png;1562153027326;nao;Ball;393;101;403;86;Ball
RC2019_first_testgame_G1C_DeepImpact_00119198_U.png;1562153030125;nao;Ball;463;189;470;164;Ball
RC2019_first_testgame_G1C_DeepImpact_00121163_U.png;1562153032747;nao;Ball;435;228;432;199;Ball
RC2019_first_testgame_G1C_DeepImpact_00127000_U.png;1562153035750;nao;Ball;264;146;274;121;Ball
RC2019_first_testgame_G1C_DeepImpact_00128935_U.png;1562153038789;nao;Ball;276;164;269;138;Ball
RC2019_first_testgame_G1C_DeepImpact_00132859_U.png;1562153041949;nao;Ball;294;146;291;122;Ball
RC2019_first_testgame_G1C_DeepImpact_00162163_U.png;1562153046573;nao;Ball;304;159;308;139;Ball
RC2019_first_testgame_G1C_DeepImpact_00171961_U.png;1562153050487;nao;Ball;261;136;242;75;Ball
RC2019_first_testgame_G1C_DeepImpact_00175888_U.png;1562153053861;nao;Ball;262;200;219;142;Ball
RC2019_first_testgame_G1C_DeepImpact_00248232_U.png;1562153079077;nao;Ball;184;175;170;147;Ball
RC2019_first_testgame_G1C_DeepImpact_00281449_U.png;1562153082408;nao;Ball;248;248;221;213;Ball
RC2019_first_testgame_G1C_DeepImpact_00289247_U.png;1562153085550;nao;Ball;217;139;198;94;Ball
RC2019_first_testgame_G1C_DeepImpact_00293171_U.png;1562153089326;nao;Ball;303;314;329;271;Ball
RC2019_first_testgame_G1C_DeepImpact_00301007_U.png;1562153092798;nao;Ball;351;381;363;500;Ball
RC2019_first_testgame_G1C_DeepImpact_00334282_U.png;1562154326340;tkalbitz;Ball;492;168;496;197;Ball
RC2019_first_testgame_G1C_DeepImpact_00336247_U.png;1562154338523;tkalbitz;Ball;333;171;313;199;Ball
RC2019_first_testgame_G1C_DeepImpact_00338206_U.png;1562154341435;tkalbitz;Ball;268;119;239;151;Ball
RC2019_first_testgame_G1C_DeepImpact_00349966_U.png;1562154346019;tkalbitz;Ball;429;377;373;495;Ball
RC2019_first_testgame_G1C_DeepImpact_00355825_U.png;1562154351395;tkalbitz;Ball;471;156;485;185;Ball
RC2019_first_testgame_G1C_DeepImpact_00369520_U.png;1562154358450;tkalbitz;Ball;392;164;387;202;Ball
RC2019_first_testgame_G1C_DeepImpact_00383180_U.png;1562154362827;tkalbitz;Ball;525;129;494;193;Ball
RC2019_first_testgame_G1C_DeepImpact_00385135_U.png;1562154368795;tkalbitz;Ball;363;84;369;142;Ball
RC2019_first_testgame_G1C_DeepImpact_00394902_U.png;1562154373716;tkalbitz;Ball;325;113;297;151;Ball
RC2019_first_testgame_G1C_DeepImpact_00396863_U.png;1562154377611;tkalbitz;Ball;518;208;523;251;Ball
RC2019_first_testgame_G1C_DeepImpact_00398809_U.png;1562154381395;tkalbitz;Ball;353;135;332;200;Ball
RC2019_first_testgame_G1C_DeepImpact_00400774_U.png;1562154385796;tkalbitz;Ball;326;322;406;404;Ball
RC2019_first_testgame_G1C_DeepImpact_00428204_U.png;1562154399963;tkalbitz;Ball;38;358;95;461;Ball
RC2019_first_testgame_G1C_DeepImpact_00432109_U.png;1562154405348;tkalbitz;Ball;113;132;65;178;Ball
RC2019_first_testgame_G1C_DeepImpact_00463455_U.png;1562154415844;tkalbitz;Ball;491;154;504;175;Ball
RC2019_first_testgame_G1C_DeepImpact_00467359_U.png;1562154418412;tkalbitz;Ball;351;124;369;153;Ball
RC2019_first_testgame_G1C_DeepImpact_00469324_U.png;1562154421323;tkalbitz;Ball;343;139;346;183;Ball
RC2019_first_testgame_G1C_DeepImpact_00471284_U.png;1562154426276;tkalbitz;Ball;353;214;363;264;Ball
RC2019_first_testgame_G1C_DeepImpact_00473247_U.png;1562154431812;tkalbitz;Ball;357;98;363;151;Ball
RC2019_first_testgame_G1C_DeepImpact_00481082_U.png;1562154434972;tkalbitz;Ball;228;95;188;126;Ball
RC2019_first_testgame_G1C_DeepImpact_00526024_U.png;1562154439500;tkalbitz;Ball;283;98;255;152;Ball
RC2019_first_testgame_G1C_DeepImpact_00531910_U.png;1562154447171;tkalbitz;Ball;446;388;484;514;Ball
RC2019_first_testgame_G1C_DeepImpact_00539701_U.png;1562154453133;tkalbitz;Ball;378;122;385;155;Ball
RC2019_first_testgame_G1C_DeepImpact_00561189_U.png;1562154463212;tkalbitz;Ball;349;158;312;172;Ball
RC2019_first_testgame_G1C_DeepImpact_00563125_U.png;1562154466322;tkalbitz;Ball;267;254;210;340;Ball
RC2019_first_testgame_G1C_DeepImpact_00576807_U.png;1562154471355;tkalbitz;Ball;307;191;294;220;Ball
RC2019_first_testgame_G1C_DeepImpact_00590491_U.png;1562154476987;tkalbitz;Ball;205;161;216;184;Ball
RC2019_first_testgame_G1C_DeepImpact_00602214_U.png;1562154480610;tkalbitz;Ball;261;71;258;86;Ball
RC2019_first_testgame_G1C_DeepImpact_00606111_U.png;1562154484276;tkalbitz;Ball;393;74;399;88;Ball
RC2019_first_testgame_G1C_DeepImpact_00623721_U.png;1562154489572;tkalbitz;Ball;432;199;413;230;Ball
RC2019_first_testgame_G1C_DeepImpact_00629558_U.png;1562154494108;tkalbitz;Ball;388;100;364;161;Ball
RC2019_first_testgame_G1C_DeepImpact_00635433_U.png;1562154497829;tkalbitz;Ball;349;78;341;102;Ball
RC2019_first_testgame_G1C_DeepImpact_00639349_U.png;1562154501332;tkalbitz;Ball;288;106;283;129;Ball
RC2019_first_testgame_G1C_DeepImpact_00645219_U.png;1562154504116;tkalbitz;Ball;374;119;395;135;Ball
RC2019_first_testgame_G1C_DeepImpact_00656961_U.png;1562154510108;tkalbitz;Ball;431;259;418;318;Ball
RC2019_first_testgame_G1C_DeepImpact_00662805_U.png;1562154513372;tkalbitz;Ball;374;176;390;202;Ball
RC2019_first_testgame_G1C_DeepImpact_00666701_U.png;1562154516821;tkalbitz;Ball;243;124;225;153;Ball
RC2019_first_testgame_G1C_DeepImpact_00684308_U.png;1562154520388;tkalbitz;Ball;503;248;500;318;Ball
RC2019_first_testgame_G1C_DeepImpact_00703891_U.png;1562154524853;tkalbitz;Ball;417;156;460;211;Ball
RC2019_first_testgame_G1C_DeepImpact_00748849_U.png;1562154529588;tkalbitz;Ball;455;84;442;131;Ball
RC2019_first_testgame_G1C_DeepImpact_00758634_U.png;1562154533885;tkalbitz;Ball;20;103;18;123;Ball
RC2019_first_testgame_G1C_DeepImpact_00789922_U.png;1562154537701;tkalbitz;Ball;331;119;328;159;Ball
RC2019_first_testgame_G1C_DeepImpact_00874072_U.png;1562154542045;tkalbitz;Ball;347;152;355;171;Ball
RC2019_first_testgame_G1C_DeepImpact_00921036_U.png;1562154550468;tkalbitz;Ball;449;85;452;140;Ball
RC2019_first_testgame_G1C_DeepImpact_00926897_U.png;1562154553917;tkalbitz;Ball;186;126;205;155;Ball
RC2019_first_testgame_G1C_DeepImpact_00932759_U.png;1562154561484;tkalbitz;Ball;400;277;353;365;Ball
RC2019_first_testgame_G1C_DeepImpact_00956257_U.png;1562154567988;tkalbitz;Ball;341;343;298;417;Ball
RC2019_first_testgame_G1C_DeepImpact_01007142_U.png;1562154575612;tkalbitz;Ball;288;160;286;200;Ball
RC2019_first_testgame_G1C_DeepImpact_01014922_U.png;1562154579561;tkalbitz;Ball;228;142;207;194;Ball
RC2019_first_testgame_G1C_DeepImpact_01022735_U.png;1562154583948;tkalbitz;Ball;295;105;295;141;Ball
RC2019_first_testgame_G1C_DeepImpact_01024698_U.png;1562154588300;tkalbitz;Ball;261;188;276;223;Ball
RC2019_first_testgame_G1C_DeepImpact_01079358_U.png;1562154595525;tkalbitz;Ball;376;152;390;187;Ball
RC2019_first_testgame_G1C_DeepImpact_01081302_U.png;1562154598805;tkalbitz;Ball;320;167;316;204;Ball
RC2019_first_testgame_G1C_DeepImpact_01083273_U.png;1562154603358;tkalbitz;Ball;368;200;389;227;Ball
RC2019_first_testgame_G1C_DeepImpact_01112597_U.png;1562154606613;tkalbitz;Ball;374;157;369;193;Ball
RC2019_first_testgame_G1C_DeepImpact_01116508_U.png;1562154616245;tkalbitz;Ball;355;29;375;50;Ball
RC2019_first_testgame_G1C_DeepImpact_01134122_U.png;1562154624085;tkalbitz;Ball;335;148;350;190;Ball
RC2019_first_testgame_G1C_DeepImpact_01138054_U.png;1562154627974;tkalbitz;Ball;308;141;310;168;Ball
RC2019_first_testgame_G1C_DeepImpact_01140017_U.png;1562154633757;tkalbitz;Ball;334;144;347;168;Ball
RC2019_first_testgame_G1C_DeepImpact_01143913_U.png;1562154638470;tkalbitz;Ball;344;109;356;134;Ball
RC2019_first_testgame_G1C_DeepImpact_01151733_U.png;1562154648637;tkalbitz;Ball;184;98;184;119;Ball
RC2019_first_testgame_G1C_DeepImpact_01153691_U.png;1562154652757;tkalbitz;Ball;242;105;241;124;Ball
RC2019_first_testgame_G1C_DeepImpact_01161526_U.png;1562154658205;tkalbitz;Ball;290;97;280;108;Ball
RC2019_first_testgame_G1C_DeepImpact_01194817_U.png;1562154663126;tkalbitz;Ball;569;209;585;248;Ball
RC2019_first_testgame_G1C_DeepImpact_01200714_U.png;1562154666453;tkalbitz;Ball;382;160;351;170;Ball
RC2019_first_testgame_G1C_DeepImpact_01222201_U.png;1562154672606;tkalbitz;Ball;273;114;225;151;Ball
RC2019_first_testgame_G1C_DeepImpact_01318111_U.png;1562154684646;tkalbitz;Ball;299;337;316;451;Ball
RC2019_first_testgame_G1C_DeepImpact_01351354_U.png;1562154690710;tkalbitz;Ball;148;402;69;443;Ball
RC2019_first_testgame_G1C_DeepImpact_01353307_U.png;1562154695126;tkalbitz;Ball;342;170;341;251;Ball
RC2019_first_testgame_G1C_DeepImpact_01357239_U.png;1562154699222;tkalbitz;Ball;373;102;348;151;Ball
RC2019_first_testgame_G1C_DeepImpact_01394456_U.png;1562154704054;tkalbitz;Ball;335;280;384;352;Ball
RC2019_first_testgame_G1C_Sputnik_00064584_U.png;1562154712198;tkalbitz;Ball;370;93;376;103;Ball
RC2019_first_testgame_G1C_Sputnik_00105643_U.png;1562154719550;tkalbitz;Ball;229;117;233;132;Ball
RC2019_first_testgame_G1C_Sputnik_00107609_U.png;1562154725486;tkalbitz;Ball;236;155;238;177;Ball
RC2019_first_testgame_G1C_Sputnik_00109578_U.png;1562154728958;tkalbitz;Ball;300;173;317;194;Ball
RC2019_first_testgame_G1C_Sputnik_00111524_U.png;1562154733845;tkalbitz;Ball;105;145;123;167;Ball
RC2019_first_testgame_G1C_Sputnik_00115447_U.png;1562154739934;tkalbitz;Ball;363;150;338;165;Ball
RC2019_first_testgame_G1C_Sputnik_00117411_U.png;1562154744190;tkalbitz;Ball;339;167;331;190;Ball
RC2019_first_testgame_G1C_Sputnik_00119352_U.png;1562154747719;tkalbitz;Ball;311;146;297;161;Ball
RC2019_first_testgame_G1C_Sputnik_00125247_U.png;1562154753102;tkalbitz;Ball;248;103;246;116;Ball
RC2019_first_testgame_G1C_Sputnik_00170166_U.png;1562154762758;tkalbitz;Ball;336;92;334;101;Ball
RC2019_first_testgame_G1C_Sputnik_00193668_U.png;1562154771518;tkalbitz;Ball;462;55;455;62;Ball
RC2019_first_testgame_G1C_Sputnik_00226923_U.png;1562154778846;tkalbitz;Ball;313;87;313;96;Ball
RC2019_first_testgame_G1C_Sputnik_00248387_U.png;1562154789703;tkalbitz;Ball;343;89;343;100;Ball
RC2019_first_testgame_G1C_Sputnik_00277727_U.png;1562154799407;tkalbitz;Ball;318;95;326;102;Ball
RC2019_first_testgame_G1C_Sputnik_00283599_U.png;1562154813663;tkalbitz;Ball;357;95;361;102;Ball
RC2019_first_testgame_G1C_Sputnik_00287486_U.png;1562154837822;tkalbitz;Ball;344;94;348;102;Ball
RC2019_first_testgame_G1C_Sputnik_00289437_U.png;1562154840854;tkalbitz;Ball;322;94;321;103;Ball
RC2019_first_testgame_G1C_Sputnik_00312929_U.png;1562154851374;tkalbitz;Ball;397;89;396;98;Ball
RC2019_first_testgame_G1C_Sputnik_00344218_U.png;1562154862087;tkalbitz;Ball;320;106;310;114;Ball
RC2019_first_testgame_G1C_Sputnik_00352053_U.png;1562154866184;tkalbitz;Ball;332;97;333;107;Ball
RC2019_first_testgame_G1C_Sputnik_00353989_U.png;1562154869463;tkalbitz;Ball;259;94;263;104;Ball
RC2019_first_testgame_G1C_Sputnik_00361786_U.png;1562154871760;tkalbitz;Ball;262;100;260;112;Ball
RC2019_first_testgame_G1C_Sputnik_00443888_U.png;1562154874639;tkalbitz;Ball;269;187;276;222;Ball
RC2019_first_testgame_G1C_Sputnik_00449780_U.png;1562154878048;tkalbitz;Ball;270;187;274;222;Ball
RC2019_first_testgame_G1C_Sputnik_00451748_U.png;1562154881527;tkalbitz;Ball;304;196;330;220;Ball
RC2019_first_testgame_G1C_Sputnik_00465433_U.png;1562154887343;tkalbitz;Ball;332;123;324;133;Ball
RC2019_first_testgame_G1C_Sputnik_00481054_U.png;1562154891703;tkalbitz;Ball;222;105;215;115;Ball
RC2019_first_testgame_G1C_Sputnik_00483023_U.png;1562154896447;tkalbitz;Ball;222;105;216;114;Ball
RC2019_first_testgame_G1C_Sputnik_00484984_U.png;1562154901727;tkalbitz;Ball;218;103;219;115;Ball
RC2019_first_testgame_G1C_Sputnik_00492800_U.png;1562154905728;tkalbitz;Ball;345;98;336;97;Ball
RC2019_first_testgame_G1C_Sputnik_00504485_U.png;1562154909791;tkalbitz;Ball;307;157;322;184;Ball
RC2019_first_testgame_G1C_Sputnik_00514238_U.png;1562154913423;tkalbitz;Ball;330;148;338;167;Ball
RC2019_first_testgame_G1C_Sputnik_00516197_U.png;1562154916151;tkalbitz;Ball;348;144;344;166;Ball
RC2019_first_testgame_G1C_Sputnik_00547501_U.png;1562154923984;tkalbitz;Ball;413;130;421;148;Ball
RC2019_first_testgame_G1C_Sputnik_00549458_U.png;1562154927688;tkalbitz;Ball;435;130;441;149;Ball
RC2019_first_testgame_G1C_Sputnik_00551418_U.png;1562154931048;tkalbitz;Ball;431;131;439;148;Ball
RC2019_first_testgame_G1C_Sputnik_00584661_U.png;1562154938816;tkalbitz;Ball;227;121;245;130;Ball
RC2019_first_testgame_G1C_Sputnik_00602305_U.png;1562154947776;tkalbitz;Ball;203;125;211;128;Ball
RC2019_first_testgame_G1C_Sputnik_00604238_U.png;1562154950967;tkalbitz;Ball;196;103;204;101;Ball
RC2019_first_testgame_G1C_Sputnik_00631623_U.png;1562154958856;tkalbitz;Ball;435;125;434;165;Ball
RC2019_first_testgame_G1C_Sputnik_00660950_U.png;1562154967544;tkalbitz;Ball;355;214;343;241;Ball
RC2019_first_testgame_G1C_Sputnik_00662919_U.png;1562154971744;tkalbitz;Ball;382;171;406;184;Ball
RC2019_first_testgame_G1C_Sputnik_00678553_U.png;1562154979287;tkalbitz;Ball;104;239;129;280;Ball
RC2019_first_testgame_G1C_Sputnik_00711690_U.png;1562154988256;tkalbitz;Ball;473;105;468;117;Ball
RC2019_first_testgame_G1C_Sputnik_00731247_U.png;1562154990840;tkalbitz;Ball;432;129;435;167;Ball
RC2019_first_testgame_G1C_Sputnik_00739100_U.png;1562154995016;tkalbitz;Ball;311;157;338;129;Ball
RC2019_first_testgame_G1C_Sputnik_00746885_U.png;1562155008016;tkalbitz;Ball;304;125;313;140;Ball
RC2019_first_testgame_G1C_Sputnik_00748847_U.png;1562155012448;tkalbitz;Ball;321;114;322;127;Ball
RC2019_first_testgame_G1C_Sputnik_00799669_U.png;1562155024048;tkalbitz;Ball;346;83;346;91;Ball
RC2019_first_testgame_G1C_Sputnik_00936534_U.png;1562155037192;tkalbitz;Ball;333;134;327;145;Ball
RC2019_first_testgame_G1C_Sputnik_00942433_U.png;1562155045872;tkalbitz;Ball;213;178;221;186;Ball
RC2019_first_testgame_G1C_Sputnik_00958096_U.png;1562155051154;tkalbitz;Ball;279;84;278;93;Ball
RC2019_first_testgame_G1C_Sputnik_00979653_U.png;1562155066728;tkalbitz;Ball;219;123;216;131;Ball
RC2019_first_testgame_G1C_Sputnik_01024637_U.png;1562155075400;tkalbitz;Ball;332;121;331;136;Ball
RC2019_first_testgame_G1C_Sputnik_01028561_U.png;1562155078201;tkalbitz;Ball;330;120;331;135;Ball
RC2019_first_testgame_G1C_Sputnik_01036393_U.png;1562155083225;tkalbitz;Ball;248;95;248;105;Ball
RC2019_first_testgame_G1C_Sputnik_01079422_U.png;1562155090728;tkalbitz;Ball;329;137;334;155;Ball
RC2019_first_testgame_G1C_Sputnik_01098948_U.png;1562155095561;tkalbitz;Ball;331;111;336;124;Ball
RC2019_first_testgame_G1C_Sputnik_01112649_U.png;1562155100753;tkalbitz;Ball;288;107;291;119;Ball
RC2019_first_testgame_G1C_Sputnik_01208531_U.png;1562155110431;tkalbitz;Ball;350;89;350;97;Ball
RC2019_first_testgame_G1C_Sputnik_01216379_U.png;1562155114985;tkalbitz;Ball;321;97;319;107;Ball
RC2019_first_testgame_G1C_Sputnik_01235942_U.png;1562155124265;tkalbitz;Ball;357;110;359;122;Ball
RC2019_first_testgame_G1C_Sputnik_01327903_U.png;1562155133873;tkalbitz;Ball;264;102;266;114;Ball
RC2019_first_testgame_G1C_Sputnik_01335730_U.png;1562155140921;tkalbitz;Ball;242;11;237;-10;Ball
RC2019_first_testgame_G1C_Sputnik_01341613_U.png;1562155144674;tkalbitz;Ball;336;143;341;162;Ball
RC2019_first_testgame_G1C_Sputnik_01390550_U.png;1562155158825;tkalbitz;Ball;313;85;315;93;Ball
RC2019_first_testgame_G1C_Stardust_00052799_U.png;1562155165121;tkalbitz;Ball;604;161;622;183;Ball
RC2019_first_testgame_G1C_Stardust_00111503_U.png;1562155169698;tkalbitz;Ball;435;129;460;199;Ball
RC2019_first_testgame_G1C_Stardust_00140819_U.png;1562155175234;tkalbitz;Ball;456;95;455;118;Ball
RC2019_first_testgame_G1C_Stardust_00160364_U.png;1562155183394;tkalbitz;Ball;374;179;353;216;Ball
RC2019_first_testgame_G1C_Stardust_00283511_U.png;1562155194298;tkalbitz;Ball;375;172;378;184;Ball
RC2019_first_testgame_G1C_Stardust_00371455_U.png;1562155204434;tkalbitz;Ball;419;30;413;45;Ball
RC2019_first_testgame_G1C_Stardust_00404707_U.png;1562155212411;tkalbitz;Ball;422;37;422;51;Ball
RC2019_first_testgame_G1C_Stardust_00447696_U.png;1562155222314;tkalbitz;Ball;459;267;436;366;Ball
RC2019_first_testgame_G1C_Stardust_00449662_U.png;1562155226538;tkalbitz;Ball;443;383;487;503;Ball
RC2019_first_testgame_G1C_Stardust_00461349_U.png;1562155233499;tkalbitz;Ball;280;169;271;199;Ball
RC2019_first_testgame_G1C_Stardust_00484821_U.png;1562155236320;tkalbitz;Ball;366;188;342;207;Ball
RC2019_first_testgame_G1C_Stardust_00504339_U.png;1562155241058;tkalbitz;Ball;472;157;463;188;Ball
RC2019_first_testgame_G1C_Stardust_00514102_U.png;1562155244874;tkalbitz;Ball;473;218;470;266;Ball
RC2019_first_testgame_G1C_Stardust_00517997_U.png;1562155247747;tkalbitz;Ball;172;186;165;228;Ball
RC2019_first_testgame_G1C_Stardust_00527782_U.png;1562155251187;tkalbitz;Ball;149;166;138;206;Ball
RC2019_first_testgame_G1C_Stardust_00531682_U.png;1562155254523;tkalbitz;Ball;350;145;345;187;Ball
RC2019_first_testgame_G1C_Stardust_00535604_U.png;1562155257987;tkalbitz;Ball;159;114;139;140;Ball
RC2019_first_testgame_G1C_Stardust_00547331_U.png;1562155280330;tkalbitz;Ball;422;130;425;160;Ball
RC2019_first_testgame_G1C_Stardust_00609908_U.png;1562155301914;tkalbitz;Ball;335;95;344;99;Ball
RC2019_first_testgame_G1C_Stardust_00615772_U.png;1562155306123;tkalbitz;Ball;392;277;441;369;Ball
RC2019_first_testgame_G1C_Stardust_00633377_U.png;1562155311771;tkalbitz;Ball;268;186;257;214;Ball
RC2019_first_testgame_G1C_Stardust_00650973_U.png;1562155316507;tkalbitz;Ball;316;209;346;286;Ball
RC2019_first_testgame_G1C_Stardust_00670501_U.png;1562155320563;tkalbitz;Ball;317;128;261;116;Ball
RC2019_first_testgame_G1C_Stardust_00684221_U.png;1562155324395;tkalbitz;Ball;253;183;258;215;Ball
RC2019_first_testgame_G1C_Stardust_00699847_U.png;1562155327723;tkalbitz;Ball;285;200;282;183;Ball
RC2019_first_testgame_G1C_Stardust_00703752_U.png;1562155332211;tkalbitz;Ball;359;124;373;144;Ball
RC2019_first_testgame_G1C_Stardust_00711556_U.png;1562155336340;tkalbitz;Ball;80;85;73;101;Ball
RC2019_first_testgame_G1C_Stardust_00713492_U.png;1562155409780;tkalbitz;Ball;355;119;343;136;Ball
RC2019_first_testgame_G1C_Stardust_00744788_U.png;1562155431643;tkalbitz;Ball;60;135;108;169;Ball
RC2019_first_testgame_G1C_Stardust_00758472_U.png;1562155438308;tkalbitz;Ball;295;125;291;190;Ball
RC2019_first_testgame_G1C_Stardust_00774119_U.png;1562155457948;tkalbitz;Ball;188;126;195;144;Ball
RC2019_first_testgame_G1C_Stardust_00799494_U.png;1562155464516;tkalbitz;Ball;498;53;501;63;Ball
RC2019_first_testgame_G1C_Stardust_00856137_U.png;1562155471916;tkalbitz;Ball;174;213;184;251;Ball
RC2019_first_testgame_G1C_Stardust_00860034_U.png;1562155475804;tkalbitz;Ball;120;222;89;255;Ball
RC2019_first_testgame_G1C_Stardust_00861968_U.png;1562155479876;tkalbitz;Ball;271;219;296;248;Ball
RC2019_first_testgame_G1C_Stardust_00863929_U.png;1562155482948;tkalbitz;Ball;473;215;478;256;Ball
RC2019_first_testgame_G1C_Stardust_00867833_U.png;1562155486284;tkalbitz;Ball;370;214;375;252;Ball
RC2019_first_testgame_G1C_Stardust_00885423_U.png;1562155491708;tkalbitz;Ball;405;152;386;180;Ball
RC2019_first_testgame_G1C_Stardust_00889316_U.png;1562155495148;tkalbitz;Ball;403;76;383;90;Ball
RC2019_first_testgame_G1C_Stardust_00926436_U.png;1562155498724;tkalbitz;Ball;242;130;231;157;Ball
RC2019_first_testgame_G1C_Stardust_00934229_U.png;1562155504380;tkalbitz;Ball;376;160;401;205;Ball
RC2019_first_testgame_G1C_Stardust_00953763_U.png;1562155523172;tkalbitz;Ball;354;110;351;134;Ball
RC2019_first_testgame_G1C_Stardust_01010479_U.png;1562155555796;tkalbitz;Ball;410;152;429;189;Ball
RC2019_first_testgame_G1C_Stardust_01022211_U.png;1562155568764;tkalbitz;Ball;340;140;340;172;Ball
RC2019_first_testgame_G1C_Stardust_01024171_U.png;1562155572030;tkalbitz;Ball;367;179;379;206;Ball
RC2019_first_testgame_G1C_Stardust_01033936_U.png;1562155574485;tkalbitz;Ball;301;111;269;166;Ball
RC2019_first_testgame_G1C_Stardust_01067160_U.png;1562155583284;tkalbitz;Ball;459;259;444;330;Ball
RC2019_first_testgame_G1C_Stardust_01069126_U.png;1562155586598;tkalbitz;Ball;215;234;232;274;Ball
RC2019_first_testgame_G1C_Stardust_01071083_U.png;1562155589485;tkalbitz;Ball;213;232;216;275;Ball
RC2019_first_testgame_G1C_Stardust_01073022_U.png;1562155592444;tkalbitz;Ball;392;168;390;206;Ball
RC2019_first_testgame_G1C_Stardust_01110214_U.png;1562155602677;tkalbitz;Ball;395;84;401;101;Ball
RC2019_first_testgame_G1C_Stardust_01239127_U.png;1562155618589;tkalbitz;Ball;524;217;498;255;Ball
RC2019_first_testgame_G1C_Stardust_01313410_U.png;1562155633045;tkalbitz;Ball;304;89;316;110;Ball
RC2019_first_testgame_G1C_Stardust_01327096_U.png;1562155637317;tkalbitz;Ball;395;47;401;62;Ball
RC2019_first_testgame_G1C_Stardust_01340810_U.png;1562155644022;tkalbitz;Ball;452;135;473;155;Ball
RC2019_first_testgame_G1C_Stardust_01387716_U.png;1562155656501;tkalbitz;Ball;250;53;243;61;Ball
RC2019_first_testgame_G1B_Pathfinder_00275982_U.png;1652272910318;tkalbitz;CenterCirclePoints;340;158;340;158;Left
RC2019_first_testgame_G1B_Pathfinder_00275982_U.png;1652272913280;tkalbitz;CenterCirclePoints;509;146;509;146;Center
RC2019_first_testgame_G1B_Pathfinder_00491167_U.png;1652272920705;tkalbitz;CenterCirclePoints;182;123;182;123;Right
RC2019_first_testgame_G1B_Pathfinder_00628090_U.png;1652272924954;tkalbitz;CenterCirclePoints;160;179;160;179;Center
RC2019_first_testgame_G1B_Pathfinder_00628090_U.png;1652272926502;tkalbitz;CenterCirclePoints;288;160;288;160;Right
RC2019_first_testgame_G1B_Pathfinder_00630055_U.png;1652272929626;tkalbitz;CenterCirclePoints;353;157;353;157;Left
RC2019_first_testgame_G1B_Pathfinder_00630055_U.png;1652272931100;tkalbitz;CenterCirclePoints;539;161;539;161;Center
RC2019_first_testgame_G1B_Pathfinder_00653401_U.png;1652272938103;tkalbitz;CenterCirclePoints;148;158;148;158;Right
RC2019_first_testgame_G1B_Pathfinder_00702311_U.png;1652272941517;tkalbitz;CenterCirclePoints;88;130;88;130;Right
RC2019_first_testgame_G1B_Pathfinder_00719924_U.png;1652272945200;tkalbitz;CenterCirclePoints;213;217;213;217;Left
RC2019_first_testgame_G1B_Pathfinder_00719924_U.png;1652272946379;tkalbitz;CenterCirclePoints;409;223;409;223;Center
RC2019_first_testgame_G1B_Phoenix_00982889_U.png;1652283405092;tkalbitz;CenterCirclePoints;289;183;289;183;Left
RC2019_first_testgame_G1B_Phoenix_00982889_U.png;1652283406531;tkalbitz;CenterCirclePoints;482;192;482;192;Center
RC2019_first_testgame_G1B_Phoenix_01202071_U.png;1652283410654;tkalbitz;CenterCirclePoints;625;378;625;378;Right
RC2019_first_testgame_G1B_Phoenix_01235263_U.png;1652283414763;tkalbitz;CenterCirclePoints;628;408;629;408;Right
RC2019_first_testgame_G1B_Phoenix_01321227_U.png;1652283419386;tkalbitz;CenterCirclePoints;625;179;625;179;Left
RC2019_first_testgame_G1B_Phoenix_01346615_U.png;1652283421390;tkalbitz;CenterCirclePoints;273;410;273;410;Left
RC2019_first_testgame_G1C_DeepImpact_00189586_U.png;1652283425065;tkalbitz;CenterCirclePoints;146;96;146;96;Center
RC2019_first_testgame_G1C_DeepImpact_00189586_U.png;1652283427520;tkalbitz;CenterCirclePoints;298;82;298;82;Right
RC2019_first_testgame_G1C_DeepImpact_00551419_U.png;1652272955275;tkalbitz;CenterCirclePoints;257;390;257;390;Right
RC2019_first_testgame_G1C_DeepImpact_00590491_U.png;1652283436325;tkalbitz;CenterCirclePoints;50;226;50;226;Right
RC2019_first_testgame_G1C_DeepImpact_00850575_U.png;1652272970277;tkalbitz;CenterCirclePoints;38;190;38;190;Right
RC2019_first_testgame_G1C_DeepImpact_01143913_U.png;1652272977427;tkalbitz;CenterCirclePoints;156;352;156;352;Center
RC2019_first_testgame_G1C_DeepImpact_01143913_U.png;1652272979325;tkalbitz;CenterCirclePoints;571;297;574;302;Right
RC2019_first_testgame_G1C_Sputnik_00795771_U.png;1622661888615;tkalbitz;FieldBorder;4;123;209;90;FieldBorder
RC2019_first_testgame_G1C_Sputnik_00795771_U.png;1622661891311;tkalbitz;FieldBorder;227;88;636;83;FieldBorder
RC2019_first_testgame_G1B_Pathfinder_00178073_U.png;1623189392226;tkalbitz;GoalPost;526;159;536;39;Left
RC2019_first_testgame_G1B_Pathfinder_00178073_U.png;1623189396844;tkalbitz;GoalPost;536;38;635;41;Middle
RC2019_first_testgame_G1B_Pathfinder_00205486_U.png;1623189402697;tkalbitz;GoalPost;19;97;12;2;Right
RC2019_first_testgame_G1B_Pathfinder_00225121_U.png;1623189405901;tkalbitz;GoalPost;118;129;97;-3;Right
RC2019_first_testgame_G1B_Pathfinder_00229055_U.png;1623189408764;tkalbitz;GoalPost;126;156;137;-2;Right
RC2019_first_testgame_G1B_Pathfinder_00244677_U.png;1623189416930;tkalbitz;GoalPost;587;65;596;0;Left
RC2019_first_testgame_G1B_Pathfinder_00248587_U.png;1623189420561;tkalbitz;GoalPost;587;60;593;-1;Left
RC2019_first_testgame_G1B_Pathfinder_00491167_U.png;1623189432633;tkalbitz;GoalPost;41;52;39;-1;Right
RC2019_first_testgame_G1B_Pathfinder_00551753_U.png;1623189437211;tkalbitz;GoalPost;479;125;487;34;Left
RC2019_first_testgame_G1B_Pathfinder_00551753_U.png;1623189439744;tkalbitz;GoalPost;488;34;638;32;Middle
RC2019_first_testgame_G1B_Pathfinder_00626132_U.png;1623189442926;tkalbitz;GoalPost;470;143;474;1;Left
RC2019_first_testgame_G1B_Pathfinder_00628090_U.png;1623189447474;tkalbitz;GoalPost;17;116;6;37;Right
RC2019_first_testgame_G1B_Pathfinder_00653401_U.png;1623189456010;tkalbitz;GoalPost;87;102;83;31;Right
RC2019_first_testgame_G1B_Pathfinder_00653401_U.png;1623189458356;tkalbitz;GoalPost;83;31;-3;29;Middle
RC2019_first_testgame_G1B_Pathfinder_00702311_U.png;1623189465927;tkalbitz;GoalPost;56;70;51;-3;Right
RC2019_first_testgame_G1B_Pathfinder_00719924_U.png;1623189469529;tkalbitz;GoalPost;468;95;460;6;Left
RC2019_first_testgame_G1B_Pathfinder_00719924_U.png;1623189471957;tkalbitz;GoalPost;460;8;512;0;Middle
RC2019_first_testgame_G1B_Pathfinder_00747327_U.png;1623189477669;tkalbitz;GoalPost;234;195;217;37;Right
RC2019_first_testgame_G1B_Pathfinder_00747327_U.png;1623189479629;tkalbitz;GoalPost;217;37;0;41;Middle
RC2019_first_testgame_G1B_Pathfinder_00766885_U.png;1623189483710;tkalbitz;GoalPost;466;90;472;7;Left
RC2019_first_testgame_G1B_Pathfinder_00766885_U.png;1623189485405;tkalbitz;GoalPost;472;7;607;1;Middle
RC2019_first_testgame_G1B_Pathfinder_00880225_U.png;1623189492752;tkalbitz;GoalPost;61;84;39;0;Right
RC2019_first_testgame_G1B_Phoenix_00202699_U.png;1623189506804;tkalbitz;GoalPost;273;215;280;1;Right
RC2019_first_testgame_G1B_Phoenix_00490196_U.png;1623189524369;tkalbitz;GoalPost;553;160;584;63;Left
RC2019_first_testgame_G1B_Phoenix_00490196_U.png;1623189526056;tkalbitz;GoalPost;584;63;638;67;Middle
RC2019_first_testgame_G1B_Phoenix_00658308_U.png;1623189533520;tkalbitz;GoalPost;416;197;408;14;Left
RC2019_first_testgame_G1B_Phoenix_00658308_U.png;1623189535432;tkalbitz;GoalPost;408;14;597;0;Middle
RC2019_first_testgame_G1B_Phoenix_00701296_U.png;1623189539388;tkalbitz;GoalPost;597;139;619;0;Left
RC2019_first_testgame_G1B_Phoenix_00763921_U.png;1623189544266;tkalbitz;GoalPost;70;78;48;-3;Left
RC2019_first_testgame_G1B_Phoenix_01004420_U.png;1623189558445;tkalbitz;GoalPost;25;108;13;20;Right
RC2019_first_testgame_G1B_Phoenix_01004420_U.png;1623189560165;tkalbitz;GoalPost;13;20;3;18;Middle
RC2019_first_testgame_G1B_Phoenix_01012255_U.png;1623189563723;tkalbitz;GoalPost;400;75;401;1;Right
RC2019_first_testgame_G1B_Phoenix_01029871_U.png;1623189568329;tkalbitz;GoalPost;66;61;63;0;Right
RC2019_first_testgame_G1B_Phoenix_01121893_U.png;1623189572316;tkalbitz;GoalPost;321;88;316;-1;Left
RC2019_first_testgame_G1B_Phoenix_01129732_U.png;1623189575266;tkalbitz;GoalPost;316;98;330;-1;Right
RC2019_first_testgame_G1B_Phoenix_01278255_U.png;1623189583978;tkalbitz;GoalPost;43;109;32;22;Right
RC2019_first_testgame_G1B_Phoenix_01278255_U.png;1623189585395;tkalbitz;GoalPost;32;22;0;20;Middle
RC2019_first_testgame_G1B_Phoenix_01366161_U.png;1623189592050;tkalbitz;GoalPost;397;49;410;-2;Left
RC2019_first_testgame_G1C_DeepImpact_00128935_U.png;1623189599769;tkalbitz;GoalPost;438;139;465;22;Left
RC2019_first_testgame_G1C_DeepImpact_00128935_U.png;1623189601935;tkalbitz;GoalPost;465;22;637;42;Middle
RC2019_first_testgame_G1C_DeepImpact_00132859_U.png;1623189606393;tkalbitz;GoalPost;447;94;453;0;Left
RC2019_first_testgame_G1C_DeepImpact_00248232_U.png;1623189616720;tkalbitz;GoalPost;76;131;52;-2;Right
RC2019_first_testgame_G1C_DeepImpact_00281449_U.png;1623189621003;tkalbitz;GoalPost;350;171;370;-2;Left
RC2019_first_testgame_G1C_DeepImpact_00293171_U.png;1623189625560;tkalbitz;GoalPost;399;195;369;-2;Left
RC2019_first_testgame_G1C_DeepImpact_00336247_U.png;1623189629780;tkalbitz;GoalPost;444;108;433;1;Left
RC2019_first_testgame_G1C_DeepImpact_00445815_U.png;1623189639597;tkalbitz;GoalPost;608;90;619;9;Left
RC2019_first_testgame_G1C_DeepImpact_00445815_U.png;1623189641437;tkalbitz;GoalPost;619;10;639;8;Middle
RC2019_first_testgame_G1C_DeepImpact_00551419_U.png;1623189647933;tkalbitz;GoalPost;96;181;88;81;Left
RC2019_first_testgame_G1C_DeepImpact_00551419_U.png;1623189650774;tkalbitz;GoalPost;88;81;0;77;Middle
RC2019_first_testgame_G1C_DeepImpact_00576807_U.png;1623189656621;tkalbitz;GoalPost;133;181;100;-2;Left
RC2019_first_testgame_G1C_DeepImpact_00635433_U.png;1623189663572;tkalbitz;GoalPost;184;90;170;-1;Right
RC2019_first_testgame_G1C_DeepImpact_00956257_U.png;1623189676152;tkalbitz;GoalPost;551;170;566;-5;Right
RC2019_first_testgame_G1C_DeepImpact_01134122_U.png;1623189683111;tkalbitz;GoalPost;90;41;85;0;Right
RC2019_first_testgame_G1C_DeepImpact_01216364_U.png;1623189692017;tkalbitz;GoalPost;410;226;413;0;Left
RC2019_first_testgame_G1C_DeepImpact_01235897_U.png;1623189697846;tkalbitz;GoalPost;247;204;245;-1;Right
RC2019_first_testgame_G1C_DeepImpact_01237869_U.png;1623189700910;tkalbitz;GoalPost;305;60;311;-2;Right
RC2019_first_testgame_G1C_Sputnik_00117411_U.png;1623189710604;tkalbitz;GoalPost;600;85;607;13;Left
RC2019_first_testgame_G1C_Sputnik_00117411_U.png;1623189713184;tkalbitz;GoalPost;608;13;635;10;Middle
RC2019_first_testgame_G1C_Sputnik_00258191_U.png;1623189722353;tkalbitz;GoalPost;191;94;189;26;Left
RC2019_first_testgame_G1C_Sputnik_00258191_U.png;1623189724254;tkalbitz;GoalPost;189;26;307;28;Middle
RC2019_first_testgame_G1C_Sputnik_00283599_U.png;1623189729325;tkalbitz;GoalPost;395;95;397;28;Left
RC2019_first_testgame_G1C_Sputnik_00283599_U.png;1623189731603;tkalbitz;GoalPost;397;28;438;28;Middle
RC2019_first_testgame_G1C_Sputnik_00310973_U.png;1623189737827;tkalbitz;GoalPost;566;95;570;25;Right
RC2019_first_testgame_G1C_Sputnik_00310973_U.png;1623189739773;tkalbitz;GoalPost;567;25;475;26;Middle
RC2019_first_testgame_G1C_Sputnik_00672688_U.png;1623189747662;tkalbitz;GoalPost;232;94;228;26;Right
RC2019_first_testgame_G1C_Sputnik_00672688_U.png;1623189749533;tkalbitz;GoalPost;228;26;120;24;Middle
RC2019_first_testgame_G1C_Sputnik_00711690_U.png;1623189754842;tkalbitz;GoalPost;525;95;530;28;Left
RC2019_first_testgame_G1C_Sputnik_00711690_U.png;1623189757814;tkalbitz;GoalPost;530;28;636;21;Middle
RC2019_first_testgame_G1C_Sputnik_00731247_U.png;1623189763239;tkalbitz;GoalPost;343;17;342;0;Right
RC2019_first_testgame_G1C_Sputnik_00748847_U.png;1623189768923;tkalbitz;GoalPost;45;93;36;17;Right
RC2019_first_testgame_G1C_Sputnik_00748847_U.png;1623189770875;tkalbitz;GoalPost;36;17;-4;16;Middle
RC2019_first_testgame_G1C_Sputnik_00795771_U.png;1623189778903;tkalbitz;GoalPost;516;88;521;18;Left
RC2019_first_testgame_G1C_Sputnik_00795771_U.png;1623189782749;tkalbitz;GoalPost;521;18;403;22;Middle
RC2019_first_testgame_G1C_Sputnik_00936534_U.png;1623189789286;tkalbitz;GoalPost;37;129;34;55;Right
RC2019_first_testgame_G1C_Sputnik_00936534_U.png;1623189792682;tkalbitz;GoalPost;35;58;1;56;Middle
RC2019_first_testgame_G1C_Sputnik_01032471_U.png;1623189805807;tkalbitz;GoalPost;21;93;14;19;Right
RC2019_first_testgame_G1C_Sputnik_01032471_U.png;1623189807997;tkalbitz;GoalPost;14;19;0;19;Middle
RC2019_first_testgame_G1C_Sputnik_01116569_U.png;1623189813133;tkalbitz;GoalPost;336;89;338;19;Right
RC2019_first_testgame_G1C_Sputnik_01116569_U.png;1623189815283;tkalbitz;GoalPost;337;21;242;20;Middle
RC2019_first_testgame_G1C_Sputnik_01196795_U.png;1623189824571;tkalbitz;GoalPost;438;30;335;33;Middle
RC2019_first_testgame_G1C_Sputnik_01196795_U.png;1623189830060;tkalbitz;GoalPost;435;99;437;31;Right
RC2019_first_testgame_G1C_Sputnik_01230076_U.png;1623189840712;tkalbitz;GoalPost;385;98;386;31;Right
RC2019_first_testgame_G1C_Sputnik_01230076_U.png;1623189843018;tkalbitz;GoalPost;386;31;293;32;Middle
RC2019_first_testgame_G1C_DeepImpact_01257438_U.png;1622581469592;tkalbitz;Ignore
RC2019_first_testgame_G1C_Sputnik_00177995_U.png;1562154768077;tkalbitz;Ignore
RC2019_first_testgame_G1C_Sputnik_00242527_U.png;1562154787025;tkalbitz;Ignore
RC2019_first_testgame_G1C_Sputnik_00264072_U.png;1562154795151;tkalbitz;Ignore
RC2019_first_testgame_G1C_Sputnik_00266031_U.png;1562154796829;tkalbitz;Ignore
RC2019_first_testgame_G1C_Sputnik_00985515_U.png;1562155072859;tkalbitz;Ignore
RC2019_first_testgame_G1C_Sputnik_01052002_U.png;1562155086720;tkalbitz;Ignore
RC2019_first_testgame_G1C_Stardust_00570771_U.png;1562155287984;tkalbitz;Ignore
RC2019_first_testgame_G1C_Stardust_00594240_U.png;1562155292710;tkalbitz;Ignore
RC2019_first_testgame_G1C_Stardust_01217635_U.png;1562155614230;tkalbitz;Ignore
RC2019_first_testgame_G1B_Pathfinder_00050877_U.png;1562152333203;nao;NoBall
RC2019_first_testgame_G1B_Pathfinder_00052837_U.png;1562152334788;nao;NoBall
RC2019_first_testgame_G1B_Pathfinder_00164359_U.png;1562152355076;nao;NoBall
RC2019_first_testgame_G1B_Pathfinder_00193745_U.png;1562152362045;nao;NoBall
RC2019_first_testgame_G1B_Pathfinder_00205486_U.png;1562152366094;nao;NoBall
RC2019_first_testgame_G1B_Pathfinder_00223173_U.png;1562152366760;nao;NoBall
RC2019_first_testgame_G1B_Pathfinder_00266205_U.png;1562152418214;nao;NoBall
RC2019_first_testgame_G1B_Pathfinder_00274040_U.png;1562152419021;nao;NoBall
RC2019_first_testgame_G1B_Pathfinder_00287757_U.png;1562152424277;nao;NoBall
RC2019_first_testgame_G1B_Pathfinder_00299491_U.png;1562152425084;nao;NoBall
RC2019_first_testgame_G1B_Pathfinder_00315070_U.png;1562152425940;nao;NoBall
RC2019_first_testgame_G1B_Pathfinder_00324840_U.png;1562152426592;nao;NoBall
RC2019_first_testgame_G1B_Pathfinder_00350303_U.png;1562152431653;nao;NoBall
RC2019_first_testgame_G1B_Pathfinder_00354221_U.png;1562152438886;nao;NoBall
RC2019_first_testgame_G1B_Pathfinder_00360084_U.png;1562152440303;nao;NoBall
RC2019_first_testgame_G1B_Pathfinder_00436358_U.png;1562152462283;nao;NoBall
RC2019_first_testgame_G1B_Pathfinder_00453941_U.png;1562152469490;nao;NoBall
RC2019_first_testgame_G1B_Pathfinder_00520468_U.png;1562152481552;nao;NoBall
RC2019_first_testgame_G1B_Pathfinder_00618295_U.png;1562152489776;nao;NoBall
RC2019_first_testgame_G1B_Pathfinder_00626132_U.png;1562152490816;nao;NoBall
RC2019_first_testgame_G1B_Pathfinder_00639793_U.png;1562152498213;nao;NoBall
RC2019_first_testgame_G1B_Pathfinder_00645617_U.png;1562152499012;nao;NoBall
RC2019_first_testgame_G1B_Pathfinder_00647549_U.png;1562152499827;nao;NoBall
RC2019_first_testgame_G1B_Pathfinder_00649504_U.png;1562152501503;nao;NoBall
RC2019_first_testgame_G1B_Pathfinder_00653401_U.png;1562152503609;nao;NoBall
RC2019_first_testgame_G1B_Pathfinder_00717957_U.png;1562152514846;nao;NoBall
RC2019_first_testgame_G1B_Pathfinder_00719924_U.png;1562152515773;nao;NoBall
RC2019_first_testgame_G1B_Pathfinder_00747327_U.png;1562152521505;nao;NoBall
RC2019_first_testgame_G1B_Pathfinder_00749265_U.png;1562152522378;nao;NoBall
RC2019_first_testgame_G1B_Pathfinder_00757115_U.png;1562152523256;nao;NoBall
RC2019_first_testgame_G1B_Pathfinder_00766885_U.png;1562152525051;nao;NoBall
RC2019_first_testgame_G1B_Pathfinder_00768836_U.png;1562152526378;nao;NoBall
RC2019_first_testgame_G1B_Pathfinder_00807932_U.png;1562152538191;nao;NoBall
RC2019_first_testgame_G1B_Pathfinder_00819643_U.png;1562152541749;nao;NoBall
RC2019_first_testgame_G1B_Pathfinder_00821584_U.png;1562152542640;nao;NoBall
RC2019_first_testgame_G1B_Pathfinder_00835282_U.png;1562152543304;nao;NoBall
RC2019_first_testgame_G1B_Pathfinder_00843099_U.png;1562152544214;nao;NoBall
RC2019_first_testgame_G1B_Pathfinder_00845039_U.png;1562152545426;nao;NoBall
RC2019_first_testgame_G1B_Pathfinder_00874384_U.png;1562152552685;nao;NoBall
RC2019_first_testgame_G1B_Pathfinder_00895881_U.png;1562152560976;nao;NoBall
RC2019_first_testgame_G1B_Pathfinder_00923235_U.png;1562152564860;nao;NoBall
RC2019_first_testgame_G1B_Pathfinder_00925188_U.png;1562152565573;nao;NoBall
RC2019_first_testgame_G1B_Pathfinder_00958433_U.png;1562152581970;nao;NoBall
RC2019_first_testgame_G1B_Pathfinder_00964330_U.png;1562152586775;nao;NoBall
RC2019_first_testgame_G1B_Pathfinder_00966266_U.png;1562152587654;nao;NoBall
RC2019_first_testgame_G1B_Pathfinder_00977980_U.png;1562152588459;nao;NoBall
RC2019_first_testgame_G1B_Pathfinder_01007241_U.png;1562152589131;nao;NoBall
RC2019_first_testgame_G1B_Pathfinder_01097233_U.png;1562152590031;nao;NoBall
RC2019_first_testgame_G1B_Pathfinder_01148051_U.png;1562152602894;nao;NoBall
RC2019_first_testgame_G1B_Pathfinder_01149991_U.png;1562152603619;nao;NoBall
RC2019_first_testgame_G1B_Pathfinder_01153920_U.png;1562152604338;nao;NoBall
RC2019_first_testgame_G1B_Pathfinder_01171475_U.png;1562152605004;nao;NoBall
RC2019_first_testgame_G1B_Pathfinder_01173435_U.png;1562152605781;nao;NoBall
RC2019_first_testgame_G1B_Pathfinder_01175392_U.png;1562152606428;nao;NoBall
RC2019_first_testgame_G1B_Phoenix_00075603_U.png;1562152622720;nao;NoBall
RC2019_first_testgame_G1B_Phoenix_00077563_U.png;1562152623521;nao;NoBall
RC2019_first_testgame_G1B_Phoenix_00083423_U.png;1562152624194;nao;NoBall
RC2019_first_testgame_G1B_Phoenix_00085387_U.png;1562152624880;nao;NoBall
RC2019_first_testgame_G1B_Phoenix_00093209_U.png;1562152625623;nao;NoBall
RC2019_first_testgame_G1B_Phoenix_00101035_U.png;1562152626676;nao;NoBall
RC2019_first_testgame_G1B_Phoenix_00138200_U.png;1562152631827;nao;NoBall
RC2019_first_testgame_G1B_Phoenix_00155779_U.png;1562152641894;nao;NoBall
RC2019_first_testgame_G1B_Phoenix_00163599_U.png;1562152642959;nao;NoBall
RC2019_first_testgame_G1B_Phoenix_00169488_U.png;1562152643729;nao;NoBall
RC2019_first_testgame_G1B_Phoenix_00179249_U.png;1562152648860;nao;NoBall
RC2019_first_testgame_G1B_Phoenix_00181189_U.png;1562152650417;nao;NoBall
RC2019_first_testgame_G1B_Phoenix_00190987_U.png;1562152651553;nao;NoBall
RC2019_first_testgame_G1B_Phoenix_00192950_U.png;1562152653640;nao;NoBall
RC2019_first_testgame_G1B_Phoenix_00202699_U.png;1562152659095;nao;NoBall
RC2019_first_testgame_G1B_Phoenix_00204661_U.png;1562152659957;nao;NoBall
RC2019_first_testgame_G1B_Phoenix_00245787_U.png;1562152665925;nao;NoBall
RC2019_first_testgame_G1B_Phoenix_00251647_U.png;1562152667088;nao;NoBall
RC2019_first_testgame_G1B_Phoenix_00257547_U.png;1562152667958;nao;NoBall
RC2019_first_testgame_G1B_Phoenix_00261463_U.png;1562152668848;nao;NoBall
RC2019_first_testgame_G1B_Phoenix_00277084_U.png;1562152669775;nao;NoBall
RC2019_first_testgame_G1B_Phoenix_00279046_U.png;1562152670811;nao;NoBall
RC2019_first_testgame_G1B_Phoenix_00281006_U.png;1562152671749;nao;NoBall
RC2019_first_testgame_G1B_Phoenix_00282968_U.png;1562152672839;nao;NoBall
RC2019_first_testgame_G1B_Phoenix_00288831_U.png;1562152673987;nao;NoBall
RC2019_first_testgame_G1B_Phoenix_00302497_U.png;1562152675220;nao;NoBall
RC2019_first_testgame_G1B_Phoenix_00318125_U.png;1562152676469;nao;NoBall
RC2019_first_testgame_G1B_Phoenix_00347454_U.png;1562152682370;nao;NoBall
RC2019_first_testgame_G1B_Phoenix_00349428_U.png;1562152683376;nao;NoBall
RC2019_first_testgame_G1B_Phoenix_00353300_U.png;1562152684356;nao;NoBall
RC2019_first_testgame_G1B_Phoenix_00355265_U.png;1562152685326;nao;NoBall
RC2019_first_testgame_G1B_Phoenix_00384649_U.png;1562152691456;nao;NoBall
RC2019_first_testgame_G1B_Phoenix_00449124_U.png;1562152710635;nao;NoBall
RC2019_first_testgame_G1B_Phoenix_00474545_U.png;1562152719097;nao;NoBall
RC2019_first_testgame_G1B_Phoenix_00490196_U.png;1562152723998;nao;NoBall
RC2019_first_testgame_G1B_Phoenix_00535087_U.png;1562152733033;nao;NoBall
RC2019_first_testgame_G1B_Phoenix_00562431_U.png;1562152748856;nao;NoBall
RC2019_first_testgame_G1B_Phoenix_00564396_U.png;1562152749561;nao;NoBall
RC2019_first_testgame_G1B_Phoenix_00566351_U.png;1562152750386;nao;NoBall
RC2019_first_testgame_G1B_Phoenix_00593767_U.png;1562152759536;nao;NoBall
RC2019_first_testgame_G1B_Phoenix_00613353_U.png;1562152765355;nao;NoBall
RC2019_first_testgame_G1B_Phoenix_00664169_U.png;1562152788463;nao;NoBall
RC2019_first_testgame_G1B_Phoenix_00701296_U.png;1562154312253;tkalbitz;NoBall
RC2019_first_testgame_G1B_Phoenix_00711087_U.png;1562152810328;nao;NoBall
RC2019_first_testgame_G1B_Phoenix_00740491_U.png;1562152812123;nao;NoBall
RC2019_first_testgame_G1B_Phoenix_00758065_U.png;1562152819226;nao;NoBall
RC2019_first_testgame_G1B_Phoenix_00771760_U.png;1562152831821;nao;NoBall
RC2019_first_testgame_G1B_Phoenix_00795221_U.png;1562152845881;nao;NoBall
RC2019_first_testgame_G1B_Phoenix_00847975_U.png;1562152852055;nao;NoBall
RC2019_first_testgame_G1B_Phoenix_00849919_U.png;1562152852728;nao;NoBall
RC2019_first_testgame_G1B_Phoenix_00924203_U.png;1562152863919;nao;NoBall
RC2019_first_testgame_G1B_Phoenix_00930070_U.png;1562152864742;nao;NoBall
RC2019_first_testgame_G1B_Phoenix_00965270_U.png;1562152865395;nao;NoBall
RC2019_first_testgame_G1B_Phoenix_00967236_U.png;1562152867058;nao;NoBall
RC2019_first_testgame_G1B_Phoenix_00973097_U.png;1562152868337;nao;NoBall
RC2019_first_testgame_G1B_Phoenix_00976990_U.png;1562152869370;nao;NoBall
RC2019_first_testgame_G1B_Phoenix_00982889_U.png;1562152870302;nao;NoBall
RC2019_first_testgame_G1B_Phoenix_00988753_U.png;1562152918700;nao;NoBall
RC2019_first_testgame_G1B_Phoenix_01004420_U.png;1562152920085;nao;NoBall
RC2019_first_testgame_G1B_Phoenix_01012255_U.png;1562152921987;nao;NoBall
RC2019_first_testgame_G1B_Phoenix_01047489_U.png;1562152933048;nao;NoBall
RC2019_first_testgame_G1B_Phoenix_01053382_U.png;1562152933936;nao;NoBall
RC2019_first_testgame_G1B_Phoenix_01057277_U.png;1562152934652;nao;NoBall
RC2019_first_testgame_G1B_Phoenix_01092509_U.png;1562152938972;nao;NoBall
RC2019_first_testgame_G1B_Phoenix_01121893_U.png;1562152950064;nao;NoBall
RC2019_first_testgame_G1B_Phoenix_01129732_U.png;1562152950703;nao;NoBall
RC2019_first_testgame_G1B_Phoenix_01135627_U.png;1562152951348;nao;NoBall
RC2019_first_testgame_G1B_Phoenix_01139529_U.png;1562152952161;nao;NoBall
RC2019_first_testgame_G1B_Phoenix_01202071_U.png;1562152972689;nao;NoBall
RC2019_first_testgame_G1B_Phoenix_01207936_U.png;1562152973786;nao;NoBall
RC2019_first_testgame_G1B_Phoenix_01223529_U.png;1562152975789;nao;NoBall
RC2019_first_testgame_G1B_Phoenix_01229377_U.png;1562152976504;nao;NoBall
RC2019_first_testgame_G1B_Phoenix_01235263_U.png;1562152978370;nao;NoBall
RC2019_first_testgame_G1B_Phoenix_01256740_U.png;1562152979081;nao;NoBall
RC2019_first_testgame_G1B_Phoenix_01262590_U.png;1562152979750;nao;NoBall
RC2019_first_testgame_G1B_Phoenix_01264554_U.png;1562152981129;nao;NoBall
RC2019_first_testgame_G1B_Phoenix_01274331_U.png;1562152981911;nao;NoBall
RC2019_first_testgame_G1B_Phoenix_01278255_U.png;1562152982748;nao;NoBall
RC2019_first_testgame_G1B_Phoenix_01280225_U.png;1562152983441;nao;NoBall
RC2019_first_testgame_G1B_Phoenix_01282186_U.png;1562152984859;nao;NoBall
RC2019_first_testgame_G1B_Phoenix_01319293_U.png;1562152986223;nao;NoBall
RC2019_first_testgame_G1B_Phoenix_01321227_U.png;1562152986908;nao;NoBall
RC2019_first_testgame_G1B_Phoenix_01338794_U.png;1562152991857;nao;NoBall
RC2019_first_testgame_G1B_Phoenix_01358336_U.png;1562153000210;nao;NoBall
RC2019_first_testgame_G1B_Phoenix_01360286_U.png;1562153001477;nao;NoBall
RC2019_first_testgame_G1B_Phoenix_01366161_U.png;1562153002812;nao;NoBall
RC2019_first_testgame_G1B_Sputnik_00000984_U.png;1562153004844;nao;NoBall
RC2019_first_testgame_G1B_Sputnik_00022478_U.png;1562153005949;nao;NoBall
RC2019_first_testgame_G1B_Sputnik_00026390_U.png;1562153007294;nao;NoBall
RC2019_first_testgame_G1B_Sputnik_00028351_U.png;1562153008336;nao;NoBall
RC2019_first_testgame_G1B_Sputnik_00030311_U.png;1562153009365;nao;NoBall
RC2019_first_testgame_G1B_Sputnik_00036180_U.png;1562153010097;nao;NoBall
RC2019_first_testgame_G1C_DeepImpact_00021481_U.png;1562153010902;nao;NoBall
RC2019_first_testgame_G1C_DeepImpact_00023418_U.png;1562153012004;nao;NoBall
RC2019_first_testgame_G1C_DeepImpact_00025381_U.png;1562153012958;nao;NoBall
RC2019_first_testgame_G1C_DeepImpact_00029283_U.png;1562153013687;nao;NoBall
RC2019_first_testgame_G1C_DeepImpact_00068339_U.png;1562153014086;nao;NoBall
RC2019_first_testgame_G1C_DeepImpact_00097651_U.png;1562153022438;nao;NoBall
RC2019_first_testgame_G1C_DeepImpact_00142674_U.png;1562153045384;nao;NoBall
RC2019_first_testgame_G1C_DeepImpact_00179792_U.png;1562153056640;nao;NoBall
RC2019_first_testgame_G1C_DeepImpact_00181755_U.png;1562153057625;nao;NoBall
RC2019_first_testgame_G1C_DeepImpact_00189586_U.png;1562153059687;nao;NoBall
RC2019_first_testgame_G1C_DeepImpact_00191548_U.png;1562153060690;nao;NoBall
RC2019_first_testgame_G1C_DeepImpact_00193490_U.png;1562153061612;nao;NoBall
RC2019_first_testgame_G1C_DeepImpact_00203245_U.png;1562153065668;nao;NoBall
RC2019_first_testgame_G1C_DeepImpact_00205209_U.png;1562153068866;nao;NoBall
RC2019_first_testgame_G1C_DeepImpact_00213038_U.png;1562153075078;nao;NoBall
RC2019_first_testgame_G1C_DeepImpact_00224799_U.png;1562153076016;nao;NoBall
RC2019_first_testgame_G1C_DeepImpact_00228696_U.png;1562153076909;nao;NoBall
RC2019_first_testgame_G1C_DeepImpact_00304901_U.png;1562153096912;nao;NoBall
RC2019_first_testgame_G1C_DeepImpact_00312745_U.png;1562153097863;nao;NoBall
RC2019_first_testgame_G1C_DeepImpact_00328411_U.png;1562153098911;nao;NoBall
RC2019_first_testgame_G1C_DeepImpact_00332327_U.png;1562153099653;nao;NoBall
RC2019_first_testgame_G1C_DeepImpact_00359732_U.png;1562154355626;tkalbitz;NoBall
RC2019_first_testgame_G1C_DeepImpact_00387095_U.png;1562154372481;tkalbitz;NoBall
RC2019_first_testgame_G1C_DeepImpact_00416434_U.png;1562154389394;tkalbitz;NoBall
RC2019_first_testgame_G1C_DeepImpact_00439951_U.png;1562154409709;tkalbitz;NoBall
RC2019_first_testgame_G1C_DeepImpact_00445815_U.png;1562154410513;tkalbitz;NoBall
RC2019_first_testgame_G1C_DeepImpact_00449717_U.png;1562154411114;tkalbitz;NoBall
RC2019_first_testgame_G1C_DeepImpact_00457571_U.png;1562154413239;tkalbitz;NoBall
RC2019_first_testgame_G1C_DeepImpact_00490838_U.png;1562154437759;tkalbitz;NoBall
RC2019_first_testgame_G1C_DeepImpact_00551419_U.png;1562154456345;tkalbitz;NoBall
RC2019_first_testgame_G1C_DeepImpact_00553351_U.png;1562154457683;tkalbitz;NoBall
RC2019_first_testgame_G1C_DeepImpact_00557251_U.png;1562154458977;tkalbitz;NoBall
RC2019_first_testgame_G1C_DeepImpact_00584624_U.png;1562154473653;tkalbitz;NoBall
RC2019_first_testgame_G1C_DeepImpact_00613941_U.png;1562154487565;tkalbitz;NoBall
RC2019_first_testgame_G1C_DeepImpact_00647182_U.png;1562154507364;tkalbitz;NoBall
RC2019_first_testgame_G1C_DeepImpact_00692134_U.png;1562154522797;tkalbitz;NoBall
RC2019_first_testgame_G1C_DeepImpact_00707802_U.png;1562154527978;tkalbitz;NoBall
RC2019_first_testgame_G1C_DeepImpact_00752766_U.png;1562154531448;tkalbitz;NoBall
RC2019_first_testgame_G1C_DeepImpact_00850575_U.png;1562154540636;tkalbitz;NoBall
RC2019_first_testgame_G1C_DeepImpact_00893662_U.png;1562154547536;tkalbitz;NoBall
RC2019_first_testgame_G1C_DeepImpact_00897559_U.png;1562154548321;tkalbitz;NoBall
RC2019_first_testgame_G1C_DeepImpact_00913236_U.png;1562154548997;tkalbitz;NoBall
RC2019_first_testgame_G1C_DeepImpact_00938625_U.png;1562154565112;tkalbitz;NoBall
RC2019_first_testgame_G1C_DeepImpact_00946479_U.png;1562154566074;tkalbitz;NoBall
RC2019_first_testgame_G1C_DeepImpact_01046148_U.png;1562154592574;tkalbitz;NoBall
RC2019_first_testgame_G1C_DeepImpact_01067619_U.png;1562154593860;tkalbitz;NoBall
RC2019_first_testgame_G1C_DeepImpact_01126288_U.png;1562154620094;tkalbitz;NoBall
RC2019_first_testgame_G1C_DeepImpact_01128251_U.png;1562154621137;tkalbitz;NoBall
RC2019_first_testgame_G1C_DeepImpact_01149774_U.png;1562154645314;tkalbitz;NoBall
RC2019_first_testgame_G1C_DeepImpact_01157615_U.png;1562154655680;tkalbitz;NoBall
RC2019_first_testgame_G1C_DeepImpact_01167392_U.png;1562154660998;tkalbitz;NoBall
RC2019_first_testgame_G1C_DeepImpact_01185031_U.png;1562154661641;tkalbitz;NoBall
RC2019_first_testgame_G1C_DeepImpact_01204623_U.png;1562154670167;tkalbitz;NoBall
RC2019_first_testgame_G1C_DeepImpact_01216364_U.png;1562154671049;tkalbitz;NoBall
RC2019_first_testgame_G1C_DeepImpact_01235897_U.png;1562154676740;tkalbitz;NoBall
RC2019_first_testgame_G1C_DeepImpact_01237869_U.png;1562154677432;tkalbitz;NoBall
RC2019_first_testgame_G1C_DeepImpact_01247654_U.png;1562154678122;tkalbitz;NoBall
RC2019_first_testgame_G1C_DeepImpact_01259402_U.png;1562154679866;tkalbitz;NoBall
RC2019_first_testgame_G1C_Sputnik_00019585_U.png;1562154706815;tkalbitz;NoBall
RC2019_first_testgame_G1C_Sputnik_00033302_U.png;1562154707473;tkalbitz;NoBall
RC2019_first_testgame_G1C_Sputnik_00080197_U.png;1562154715621;tkalbitz;NoBall
RC2019_first_testgame_G1C_Sputnik_00089993_U.png;1562154716559;tkalbitz;NoBall
RC2019_first_testgame_G1C_Sputnik_00091946_U.png;1562154717163;tkalbitz;NoBall
RC2019_first_testgame_G1C_Sputnik_00093896_U.png;1562154717793;tkalbitz;NoBall
RC2019_first_testgame_G1C_Sputnik_00127202_U.png;1562154757386;tkalbitz;NoBall
RC2019_first_testgame_G1C_Sputnik_00131117_U.png;1562154758573;tkalbitz;NoBall
RC2019_first_testgame_G1C_Sputnik_00136994_U.png;1562154759508;tkalbitz;NoBall
RC2019_first_testgame_G1C_Sputnik_00138967_U.png;1562154760541;tkalbitz;NoBall
RC2019_first_testgame_G1C_Sputnik_00181927_U.png;1562154769343;tkalbitz;NoBall
RC2019_first_testgame_G1C_Sputnik_00207386_U.png;1562154776206;tkalbitz;NoBall
RC2019_first_testgame_G1C_Sputnik_00240585_U.png;1562154782257;tkalbitz;NoBall
RC2019_first_testgame_G1C_Sputnik_00252316_U.png;1562154792313;tkalbitz;NoBall
RC2019_first_testgame_G1C_Sputnik_00258191_U.png;1562154793116;tkalbitz;NoBall
RC2019_first_testgame_G1C_Sputnik_00281635_U.png;1562154810972;tkalbitz;NoBall
RC2019_first_testgame_G1C_Sputnik_00299231_U.png;1562154845930;tkalbitz;NoBall
RC2019_first_testgame_G1C_Sputnik_00310973_U.png;1562154847196;tkalbitz;NoBall
RC2019_first_testgame_G1C_Sputnik_00314897_U.png;1562154855082;tkalbitz;NoBall
RC2019_first_testgame_G1C_Sputnik_00578789_U.png;1562154935647;tkalbitz;NoBall
RC2019_first_testgame_G1C_Sputnik_00594442_U.png;1562154943148;tkalbitz;NoBall
RC2019_first_testgame_G1C_Sputnik_00655089_U.png;1562154964189;tkalbitz;NoBall
RC2019_first_testgame_G1C_Sputnik_00694128_U.png;1562154983652;tkalbitz;NoBall
RC2019_first_testgame_G1C_Sputnik_00741054_U.png;1562155000293;tkalbitz;NoBall
RC2019_first_testgame_G1C_Sputnik_00744945_U.png;1562155004639;tkalbitz;NoBall
RC2019_first_testgame_G1C_Sputnik_00795771_U.png;1562155017631;tkalbitz;NoBall
RC2019_first_testgame_G1C_Sputnik_00840714_U.png;1562155031617;tkalbitz;NoBall
RC2019_first_testgame_G1C_Sputnik_00844638_U.png;1562155032901;tkalbitz;NoBall
RC2019_first_testgame_G1C_Sputnik_00960071_U.png;1562155056570;tkalbitz;NoBall
RC2019_first_testgame_G1C_Sputnik_00963956_U.png;1562155059178;tkalbitz;NoBall
RC2019_first_testgame_G1C_Sputnik_00965920_U.png;1562155060867;tkalbitz;NoBall
RC2019_first_testgame_G1C_Sputnik_00983558_U.png;1562155069691;tkalbitz;NoBall
RC2019_first_testgame_G1C_Sputnik_01032471_U.png;1562155081492;tkalbitz;NoBall
RC2019_first_testgame_G1C_Sputnik_01065705_U.png;1562155087590;tkalbitz;NoBall
RC2019_first_testgame_G1C_Sputnik_01073537_U.png;1562155088487;tkalbitz;NoBall
RC2019_first_testgame_G1C_Sputnik_01116569_U.png;1562155103671;tkalbitz;NoBall
RC2019_first_testgame_G1C_Sputnik_01149827_U.png;1562155104608;tkalbitz;NoBall
RC2019_first_testgame_G1C_Sputnik_01196795_U.png;1562155105689;tkalbitz;NoBall
RC2019_first_testgame_G1C_Sputnik_01204625_U.png;1562155106367;tkalbitz;NoBall
RC2019_first_testgame_G1C_Sputnik_01230076_U.png;1562155120633;tkalbitz;NoBall
RC2019_first_testgame_G1C_Sputnik_01232023_U.png;1562155122118;tkalbitz;NoBall
RC2019_first_testgame_G1C_Sputnik_01247690_U.png;1562155127173;tkalbitz;NoBall
RC2019_first_testgame_G1C_Sputnik_01249645_U.png;1562155129039;tkalbitz;NoBall
RC2019_first_testgame_G1C_Sputnik_01314208_U.png;1562155131079;tkalbitz;NoBall
RC2019_first_testgame_G1C_Sputnik_01361176_U.png;1562155148166;tkalbitz;NoBall
RC2019_first_testgame_G1C_Sputnik_01365102_U.png;1562155148984;tkalbitz;NoBall
RC2019_first_testgame_G1C_Sputnik_01367061_U.png;1562155149534;tkalbitz;NoBall
RC2019_first_testgame_G1C_Sputnik_01369026_U.png;1562155150077;tkalbitz;NoBall
RC2019_first_testgame_G1C_Sputnik_01372932_U.png;1562155151840;tkalbitz;NoBall
RC2019_first_testgame_G1C_Sputnik_01374902_U.png;1562155152606;tkalbitz;NoBall
RC2019_first_testgame_G1C_Sputnik_01378804_U.png;1562155154813;tkalbitz;NoBall
RC2019_first_testgame_G1C_Sputnik_01380760_U.png;1562155155935;tkalbitz;NoBall
RC2019_first_testgame_G1C_Sputnik_01396452_U.png;1562155160817;tkalbitz;NoBall
RC2019_first_testgame_G1C_Stardust_00019564_U.png;1562155161851;tkalbitz;NoBall
RC2019_first_testgame_G1C_Stardust_00025425_U.png;1562155162450;tkalbitz;NoBall
RC2019_first_testgame_G1C_Stardust_00039096_U.png;1562155162948;tkalbitz;NoBall
RC2019_first_testgame_G1C_Stardust_00084097_U.png;1562155167979;tkalbitz;NoBall
RC2019_first_testgame_G1C_Stardust_00136907_U.png;1562155172420;tkalbitz;NoBall
RC2019_first_testgame_G1C_Stardust_00150586_U.png;1562155179905;tkalbitz;NoBall
RC2019_first_testgame_G1C_Stardust_00152548_U.png;1562155180525;tkalbitz;NoBall
RC2019_first_testgame_G1C_Stardust_00154510_U.png;1562155181062;tkalbitz;NoBall
RC2019_first_testgame_G1C_Stardust_00156442_U.png;1562155181594;tkalbitz;NoBall
RC2019_first_testgame_G1C_Stardust_00179894_U.png;1562155186189;tkalbitz;NoBall
RC2019_first_testgame_G1C_Stardust_00181858_U.png;1562155187589;tkalbitz;NoBall
RC2019_first_testgame_G1C_Stardust_00236608_U.png;1562155188446;tkalbitz;NoBall
RC2019_first_testgame_G1C_Stardust_00244432_U.png;1562155189122;tkalbitz;NoBall
RC2019_first_testgame_G1C_Stardust_00248353_U.png;1562155189740;tkalbitz;NoBall
RC2019_first_testgame_G1C_Stardust_00250308_U.png;1562155190395;tkalbitz;NoBall
RC2019_first_testgame_G1C_Stardust_00258086_U.png;1562155190916;tkalbitz;NoBall
RC2019_first_testgame_G1C_Stardust_00265911_U.png;1562155191462;tkalbitz;NoBall
RC2019_first_testgame_G1C_Stardust_00271800_U.png;1562155191988;tkalbitz;NoBall
RC2019_first_testgame_G1C_Stardust_00281570_U.png;1562155192709;tkalbitz;NoBall
RC2019_first_testgame_G1C_Stardust_00349964_U.png;1562155197673;tkalbitz;NoBall
RC2019_first_testgame_G1C_Stardust_00359695_U.png;1562155200830;tkalbitz;NoBall
RC2019_first_testgame_G1C_Stardust_00361654_U.png;1562155201524;tkalbitz;NoBall
RC2019_first_testgame_G1C_Stardust_00369487_U.png;1562155202662;tkalbitz;NoBall
RC2019_first_testgame_G1C_Stardust_00383188_U.png;1562155206518;tkalbitz;NoBall
RC2019_first_testgame_G1C_Stardust_00385122_U.png;1562155207426;tkalbitz;NoBall
RC2019_first_testgame_G1C_Stardust_00391009_U.png;1562155208304;tkalbitz;NoBall
RC2019_first_testgame_G1C_Stardust_00400820_U.png;1562155209537;tkalbitz;NoBall
RC2019_first_testgame_G1C_Stardust_00402769_U.png;1562155210231;tkalbitz;NoBall
RC2019_first_testgame_G1C_Stardust_00412475_U.png;1562155215182;tkalbitz;NoBall
RC2019_first_testgame_G1C_Stardust_00416364_U.png;1562155215732;tkalbitz;NoBall
RC2019_first_testgame_G1C_Stardust_00420295_U.png;1562155216280;tkalbitz;NoBall
RC2019_first_testgame_G1C_Stardust_00424190_U.png;1562155217088;tkalbitz;NoBall
RC2019_first_testgame_G1C_Stardust_00428123_U.png;1562155219650;tkalbitz;NoBall
RC2019_first_testgame_G1C_Stardust_00435948_U.png;1562155220166;tkalbitz;NoBall
RC2019_first_testgame_G1C_Stardust_00451602_U.png;1562155231662;tkalbitz;NoBall
RC2019_first_testgame_G1C_Stardust_00492608_U.png;1562155238494;tkalbitz;NoBall
RC2019_first_testgame_G1C_Stardust_00494549_U.png;1562155239113;tkalbitz;NoBall
RC2019_first_testgame_G1C_Stardust_00557110_U.png;1562155283289;tkalbitz;NoBall
RC2019_first_testgame_G1C_Stardust_00568817_U.png;1562155284110;tkalbitz;NoBall
RC2019_first_testgame_G1C_Stardust_00590316_U.png;1562155289161;tkalbitz;NoBall
RC2019_first_testgame_G1C_Stardust_00592275_U.png;1562155290096;tkalbitz;NoBall
RC2019_first_testgame_G1C_Stardust_00604030_U.png;1562155297990;tkalbitz;NoBall
RC2019_first_testgame_G1C_Stardust_00766266_U.png;1562155444044;tkalbitz;NoBall
RC2019_first_testgame_G1C_Stardust_00785862_U.png;1562155461103;tkalbitz;NoBall
RC2019_first_testgame_G1C_Stardust_00793638_U.png;1562155461740;tkalbitz;NoBall
RC2019_first_testgame_G1C_Stardust_00801466_U.png;1562155466812;tkalbitz;NoBall
RC2019_first_testgame_G1C_Stardust_00803420_U.png;1562155468506;tkalbitz;NoBall
RC2019_first_testgame_G1C_Stardust_00848310_U.png;1562155469718;tkalbitz;NoBall
RC2019_first_testgame_G1C_Stardust_00871749_U.png;1562155488764;tkalbitz;NoBall
RC2019_first_testgame_G1C_Stardust_00938120_U.png;1562155509456;tkalbitz;NoBall
RC2019_first_testgame_G1C_Stardust_00940079_U.png;1562155510270;tkalbitz;NoBall
RC2019_first_testgame_G1C_Stardust_00967427_U.png;1562155526590;tkalbitz;NoBall
RC2019_first_testgame_G1C_Stardust_00973320_U.png;1562155527590;tkalbitz;NoBall
RC2019_first_testgame_G1C_Stardust_00981149_U.png;1562155528476;tkalbitz;NoBall
RC2019_first_testgame_G1C_Stardust_00992867_U.png;1562155554074;tkalbitz;NoBall
RC2019_first_testgame_G1C_Stardust_01020266_U.png;1562155567002;tkalbitz;NoBall
RC2019_first_testgame_G1C_Stardust_01053494_U.png;1562155578727;tkalbitz;NoBall
RC2019_first_testgame_G1C_Stardust_01059363_U.png;1562155580236;tkalbitz;NoBall
RC2019_first_testgame_G1C_Stardust_01090645_U.png;1562155597964;tkalbitz;NoBall
RC2019_first_testgame_G1C_Stardust_01092621_U.png;1562155599120;tkalbitz;NoBall
RC2019_first_testgame_G1C_Stardust_01098510_U.png;1562155600087;tkalbitz;NoBall
RC2019_first_testgame_G1C_Stardust_01118037_U.png;1562155604681;tkalbitz;NoBall
RC2019_first_testgame_G1C_Stardust_01123929_U.png;1562155605236;tkalbitz;NoBall
RC2019_first_testgame_G1C_Stardust_01164873_U.png;1562155606052;tkalbitz;NoBall
RC2019_first_testgame_G1C_Stardust_01176631_U.png;1562155606591;tkalbitz;NoBall
RC2019_first_testgame_G1C_Stardust_01180526_U.png;1562155608255;tkalbitz;NoBall
RC2019_first_testgame_G1C_Stardust_01188321_U.png;1562155608860;tkalbitz;NoBall
RC2019_first_testgame_G1C_Stardust_01201979_U.png;1562155609400;tkalbitz;NoBall
RC2019_first_testgame_G1C_Stardust_01203936_U.png;1562155610061;tkalbitz;NoBall
RC2019_first_testgame_G1C_Stardust_01223488_U.png;1562155615443;tkalbitz;NoBall
RC2019_first_testgame_G1C_Stardust_01252794_U.png;1562155621908;tkalbitz;NoBall
RC2019_first_testgame_G1C_Stardust_01256682_U.png;1562155623864;tkalbitz;NoBall
RC2019_first_testgame_G1C_Stardust_01258620_U.png;1562155625213;tkalbitz;NoBall
RC2019_first_testgame_G1C_Stardust_01270378_U.png;1562155626056;tkalbitz;NoBall
RC2019_first_testgame_G1C_Stardust_01274282_U.png;1562155627105;tkalbitz;NoBall
RC2019_first_testgame_G1C_Stardust_01282125_U.png;1562155627728;tkalbitz;NoBall
RC2019_first_testgame_G1C_Stardust_01286026_U.png;1562155628327;tkalbitz;NoBall
RC2019_first_testgame_G1C_Stardust_01311440_U.png;1562155630145;tkalbitz;NoBall
RC2019_first_testgame_G1C_Stardust_01336872_U.png;1562155642088;tkalbitz;NoBall
RC2019_first_testgame_G1C_Stardust_01348640_U.png;1562155647515;tkalbitz;NoBall
RC2019_first_testgame_G1C_Stardust_01352552_U.png;1562155648583;tkalbitz;NoBall
RC2019_first_testgame_G1C_Stardust_01356469_U.png;1562155649167;tkalbitz;NoBall
RC2019_first_testgame_G1C_Stardust_01358426_U.png;1562155651191;tkalbitz;NoBall
RC2019_first_testgame_G1C_Stardust_01360362_U.png;1562155651807;tkalbitz;NoBall
RC2019_first_testgame_G1C_Stardust_01370099_U.png;1562155652327;tkalbitz;NoBall
RC2019_first_testgame_G1C_Stardust_01377931_U.png;1562155652975;tkalbitz;NoBall
RC2019_first_testgame_G1C_Stardust_01385757_U.png;1562155653771;tkalbitz;NoBall
RC2019_first_testgame_G1B_Pathfinder_00383547_U.png;1652272916039;tkalbitz;NoCenterCirclePoints
RC2019_first_testgame_G1B_Pathfinder_00416776_U.png;1652272916634;tkalbitz;NoCenterCirclePoints
RC2019_first_testgame_G1B_Pathfinder_00626132_U.png;1652272922257;tkalbitz;NoCenterCirclePoints
RC2019_first_testgame_G1B_Pathfinder_00639793_U.png;1652272932491;tkalbitz;NoCenterCirclePoints
RC2019_first_testgame_G1B_Pathfinder_00645617_U.png;1652272933164;tkalbitz;NoCenterCirclePoints
RC2019_first_testgame_G1B_Pathfinder_00647549_U.png;1652272934563;tkalbitz;NoCenterCirclePoints
RC2019_first_testgame_G1B_Pathfinder_00686646_U.png;1652272939648;tkalbitz;NoCenterCirclePoints
RC2019_first_testgame_G1B_Phoenix_01223529_U.png;1652283412832;tkalbitz;NoCenterCirclePoints
RC2019_first_testgame_G1B_Phoenix_01274331_U.png;1652283417603;tkalbitz;NoCenterCirclePoints
RC2019_first_testgame_G1C_DeepImpact_00171961_U.png;1652283423136;tkalbitz;NoCenterCirclePoints
RC2019_first_testgame_G1C_DeepImpact_00281449_U.png;1652283429576;tkalbitz;NoCenterCirclePoints
RC2019_first_testgame_G1C_DeepImpact_00289247_U.png;1652283430732;tkalbitz;NoCenterCirclePoints
RC2019_first_testgame_G1C_DeepImpact_00387095_U.png;1652283432090;tkalbitz;NoCenterCirclePoints
RC2019_first_testgame_G1C_DeepImpact_00467359_U.png;1652283433034;tkalbitz;NoCenterCirclePoints
RC2019_first_testgame_G1C_DeepImpact_00576807_U.png;1652283434092;tkalbitz;NoCenterCirclePoints
RC2019_first_testgame_G1C_DeepImpact_00639349_U.png;1652272964746;tkalbitz;NoCenterCirclePoints
RC2019_first_testgame_G1C_DeepImpact_00645219_U.png;1652272965359;tkalbitz;NoCenterCirclePoints
RC2019_first_testgame_G1C_DeepImpact_00656961_U.png;1652272966197;tkalbitz;NoCenterCirclePoints
RC2019_first_testgame_G1C_DeepImpact_00956257_U.png;1652272973207;tkalbitz;NoCenterCirclePoints
RC2019_first_testgame_G1C_DeepImpact_01237869_U.png;1652272981477;tkalbitz;NoCenterCirclePoints
RC2019_first_testgame_G1C_Sputnik_00840714_U.png;1652272990956;tkalbitz;NoCenterCirclePoints
RC2019_first_testgame_G1C_Sputnik_00844638_U.png;1652272991824;tkalbitz;NoCenterCirclePoints
RC2019_first_testgame_G1C_Stardust_00160364_U.png;1652272996685;tkalbitz;NoCenterCirclePoints
RC2019_first_testgame_G1C_Stardust_00179894_U.png;1652272997502;tkalbitz;NoCenterCirclePoints
RC2019_first_testgame_G1B_Pathfinder_00231015_U.png;1623189412847;tkalbitz;NoGoalPost
RC2019_first_testgame_G1B_Pathfinder_00399199_U.png;1623189426811;tkalbitz;NoGoalPost
RC2019_first_testgame_G1B_Pathfinder_00401156_U.png;1623189428117;tkalbitz;NoGoalPost
RC2019_first_testgame_G1B_Pathfinder_01148051_U.png;1623189498908;tkalbitz;NoGoalPost
RC2019_first_testgame_G1B_Phoenix_00277084_U.png;1623189512587;tkalbitz;NoGoalPost
RC2019_first_testgame_G1B_Phoenix_00279046_U.png;1623189514409;tkalbitz;NoGoalPost
RC2019_first_testgame_G1B_Phoenix_00339652_U.png;1623189517825;tkalbitz;NoGoalPost
RC2019_first_testgame_G1B_Phoenix_00847975_U.png;1623189550156;tkalbitz;NoGoalPost
RC2019_first_testgame_G1B_Phoenix_00930070_U.png;1623189553205;tkalbitz;NoGoalPost
RC2019_first_testgame_G1B_Phoenix_01184453_U.png;1623189579890;tkalbitz;NoGoalPost
RC2019_first_testgame_G1B_Phoenix_01202071_U.png;1623189581100;tkalbitz;NoGoalPost
RC2019_first_testgame_G1C_DeepImpact_00228696_U.png;1623189614222;tkalbitz;NoGoalPost
RC2019_first_testgame_G1C_DeepImpact_00312745_U.png;1623189628294;tkalbitz;NoGoalPost
RC2019_first_testgame_G1C_DeepImpact_00553351_U.png;1623189654219;tkalbitz;NoGoalPost
RC2019_first_testgame_G1C_DeepImpact_00752766_U.png;1623189671002;tkalbitz;NoGoalPost
RC2019_first_testgame_G1C_DeepImpact_01081302_U.png;1623189679998;tkalbitz;NoGoalPost
RC2019_first_testgame_G1C_DeepImpact_01167392_U.png;1623189689539;tkalbitz;NoGoalPost
RC2019_first_testgame_G1C_Sputnik_00678553_U.png;1623189752612;tkalbitz;NoGoalPost
RC2019_first_testgame_G1C_DeepImpact_00596361_U.png;1562243589535;tkalbitz;SkipBall
RC2019_first_testgame_G1C_Sputnik_00539678_U.png;1562154921500;tkalbitz;SkipBall
RC2019_first_testgame_G1C_Sputnik_00619872_U.png;1562154956368;tkalbitz;SkipBall
RC2019_first_testgame_G1C_Sputnik_00672688_U.png;1562154975290;tkalbitz;SkipBall
RC2019_first_testgame_G1C_Sputnik_00950254_U.png;1562155049197;tkalbitz;SkipBall
RC2019_first_testgame_G1C_Stardust_00426157_U.png;1562155218930;tkalbitz;SkipBall
RC2019_first_testgame_G1C_Stardust_00602071_U.png;1562155296397;tkalbitz;SkipBall
RC2019_first_testgame_G1C_Stardust_00770191_U.png;1562155455388;tkalbitz;SkipBall
RC2019_first_testgame_G1C_Stardust_00949865_U.png;1562155512710;tkalbitz;SkipBall
RC2019_first_testgame_G1C_Stardust_01088711_U.png;1562155595956;tkalbitz;SkipBall
