GO2024-G8A_Curiosity_4_PLAY_00096805_TimeLoggedImaged_U.png;1718127902791;tkalbitz;CenterCirclePoints;598;178;598;178;Left
GO2024-G8A_Curiosity_4_PLAY_00096805_TimeLoggedImaged_U.png;1715669912040;tkalbitz;GoalPost;619;112;617;29;Left
GO2024-G8A_Curiosity_4_PLAY_00028876_TimeLoggedImaged_U.png;1715445441192;tkalbitz;NoGoalPost
