RC2023-G1A_CometInterceptor_4_PLAY_00259138_BallAppearedFromLastToThisImage_U.png;1718177575685;tkalbitz;CenterCirclePoints;269;104;269;104;Right
RC2023-G1A_CometInterceptor_4_PLAY_00328957_BallAppearedFromLastToThisImage_U.png;1718177579641;tkalbitz;CenterCirclePoints;268;247;268;247;Right
RC2023-G1A_CometInterceptor_4_PLAY_00415911_BallAppearedFromLastToThisImage_U.png;1718177581679;tkalbitz;CenterCirclePoints;254;207;254;207;Right
RC2023-G1A_CometInterceptor_4_PLAY_00417503_BallAppearedFromLastToThisImage_U.png;1718177584001;tkalbitz;CenterCirclePoints;355;263;355;263;Right
RC2023-G1A_CometInterceptor_4_PLAY_00573480_BallAppearedFromLastToThisImage_U.png;1718177588115;tkalbitz;CenterCirclePoints;168;212;168;212;Right
RC2023-G1A_CometInterceptor_4_PLAY_00624166_BallAppearedFromLastToThisImage_U.png;1718184567778;tkalbitz;CenterCirclePoints;103;168;103;168;Right
RC2023-G1A_CometInterceptor_4_PLAY_00718804_BallAppearedFromLastToThisImage_U.png;1718177592085;tkalbitz;CenterCirclePoints;340;178;340;178;Right
RC2023-G1A_CometInterceptor_4_PLAY_00857697_BallAppearedFromLastToThisImage_U.png;1718184575479;tkalbitz;CenterCirclePoints;490;204;490;204;Right
RC2023-G1A_CometInterceptor_4_SET_00236102_BallAppearedFromLastToThisImage_U.png;1718177601521;tkalbitz;CenterCirclePoints;182;128;182;128;Left
RC2023-G1A_CometInterceptor_4_SET_00236102_BallAppearedFromLastToThisImage_U.png;1718177603823;tkalbitz;CenterCirclePoints;453;136;453;136;Right
RC2023-G1A_CometInterceptor_4_SET_00382723_BallAppearedFromLastToThisImage_U.png;1718177607080;tkalbitz;CenterCirclePoints;522;210;522;210;Left
RC2023-G1B_CometInterceptor_4_PLAY_00136808_BallAppearedFromLastToThisImage_U.png;1718184578855;tkalbitz;CenterCirclePoints;392;210;392;210;Left
RC2023-G1B_CometInterceptor_4_PLAY_00146567_BallAppearedFromLastToThisImage_U.png;1718177610890;tkalbitz;CenterCirclePoints;522;230;522;230;Right
RC2023-G1B_CometInterceptor_4_PLAY_00150664_BallAppearedFromLastToThisImage_U.png;1718193380911;tkalbitz;CenterCirclePoints;422;260;422;260;Right
RC2023-G1B_CometInterceptor_4_PLAY_00200624_BallAppearedFromLastToThisImage_U.png;1718184582511;tkalbitz;CenterCirclePoints;396;161;396;161;Right
RC2023-G1B_CometInterceptor_4_PLAY_00237400_BallAppearedFromLastToThisImage_U.png;1718177614566;tkalbitz;CenterCirclePoints;537;289;537;289;Right
RC2023-G1B_CometInterceptor_4_PLAY_00237400_BallAppearedFromLastToThisImage_U.png;1718177616092;tkalbitz;CenterCirclePoints;371;447;371;447;Left
RC2023-G1B_CometInterceptor_4_PLAY_00372651_BallAppearedFromLastToThisImage_U.png;1718177619234;tkalbitz;CenterCirclePoints;300;155;300;155;Left
RC2023-G1B_CometInterceptor_4_PLAY_00384053_BallAppearedFromLastToThisImage_U.png;1718177622234;tkalbitz;CenterCirclePoints;18;182;18;182;Left
RC2023-G1B_CometInterceptor_4_PLAY_00385794_BallAppearedFromLastToThisImage_U.png;1718177627178;tkalbitz;CenterCirclePoints;469;228;469;228;Left
RC2023-G1B_CometInterceptor_4_PLAY_00527204_BallAppearedFromLastToThisImage_U.png;1718184584511;tkalbitz;CenterCirclePoints;252;124;252;124;Right
RC2023-G1B_CometInterceptor_4_PLAY_00530098_BallAppearedFromLastToThisImage_U.png;1718177631806;tkalbitz;CenterCirclePoints;329;124;329;124;Left
RC2023-G1B_CometInterceptor_4_PLAY_00539497_BallAppearedFromLastToThisImage_U.png;1718177635055;tkalbitz;CenterCirclePoints;436;242;436;242;Left
RC2023-G1B_CometInterceptor_4_PLAY_00670997_BallAppearedFromLastToThisImage_U.png;1718195036338;tkalbitz;CenterCirclePoints;391;101;391;101;Right
RC2023-G1B_CometInterceptor_4_SET_00456657_BallAppearedFromLastToThisImage_U.png;1718177637651;tkalbitz;CenterCirclePoints;291;360;291;360;Right
RC2023-G1A_CometInterceptor_4_PLAY_00187607_BallAppearedFromLastToThisImage_U.png;1715602134970;tkalbitz;GoalPost;293;205;277;-1;Right
RC2023-G1A_CometInterceptor_4_PLAY_00275355_BallAppearedFromLastToThisImage_U.png;1715602141226;tkalbitz;GoalPost;49;58;47;-3;Right
RC2023-G1A_CometInterceptor_4_PLAY_00554986_BallAppearedFromLastToThisImage_U.png;1715609666803;tkalbitz;GoalPost;507;97;505;-4;Left
RC2023-G1A_CometInterceptor_4_PLAY_00677943_BallAppearedFromLastToThisImage_U.png;1715620076083;tkalbitz;GoalPost;58;344;45;60;Left
RC2023-G1A_CometInterceptor_4_PLAY_00677943_BallAppearedFromLastToThisImage_U.png;1715620078435;tkalbitz;GoalPost;45;60;115;108;Middle
RC2023-G1A_CometInterceptor_4_PLAY_00811965_BallAppearedFromLastToThisImage_U.png;1715620086313;tkalbitz;GoalPost;632;358;627;212;Left
RC2023-G1A_CometInterceptor_4_PLAY_00857697_BallAppearedFromLastToThisImage_U.png;1715620095873;tkalbitz;GoalPost;477;146;476;78;Left
RC2023-G1A_CometInterceptor_4_PLAY_00857697_BallAppearedFromLastToThisImage_U.png;1715620097847;tkalbitz;GoalPost;476;78;607;72;Middle
RC2023-G1A_CometInterceptor_4_PLAY_00866469_BallAppearedFromLastToThisImage_U.png;1715609683267;tkalbitz;GoalPost;381;371;374;50;Right
RC2023-G1A_CometInterceptor_4_PLAY_00866469_BallAppearedFromLastToThisImage_U.png;1715609686936;tkalbitz;GoalPost;374;50;196;-8;Middle
RC2023-G1A_CometInterceptor_4_SET_00498074_BallAppearedFromLastToThisImage_U.png;1715605467117;tkalbitz;GoalPost;120;86;104;0;Right
RC2023-G1B_CometInterceptor_4_PLAY_00191273_BallAppearedFromLastToThisImage_U.png;1715602186648;tkalbitz;GoalPost;431;168;498;7;Right
RC2023-G1B_CometInterceptor_4_PLAY_00191273_BallAppearedFromLastToThisImage_U.png;1715602189706;tkalbitz;GoalPost;498;9;235;-9;Middle
RC2023-G1B_CometInterceptor_4_PLAY_00550762_BallAppearedFromLastToThisImage_U.png;1715602222228;tkalbitz;GoalPost;198;67;203;1;Right
RC2023-G1B_CometInterceptor_4_PLAY_00572510_BallAppearedFromLastToThisImage_U.png;1715602229052;tkalbitz;GoalPost;518;214;575;0;Left
RC2023-G1B_CometInterceptor_4_SET_00456657_BallAppearedFromLastToThisImage_U.png;1715677038989;tkalbitz;GoalPost;617;171;625;72;Right
RC2023-G1A_CometInterceptor_4_PLAY_00300820_BallAppearedFromLastToThisImage_U.png;1715609657866;tkalbitz;NoBall
RC2023-G1A_CometInterceptor_4_PLAY_00187607_BallAppearedFromLastToThisImage_U.png;1718195032890;tkalbitz;NoCenterCirclePoints
RC2023-G1A_CometInterceptor_4_PLAY_00187607_BallAppearedFromLastToThisImage_U.png;1718195439014;tkalbitz;NoCenterCirclePoints
RC2023-G1A_CometInterceptor_4_PLAY_00300820_BallAppearedFromLastToThisImage_U.png;1718193374159;tkalbitz;NoCenterCirclePoints
RC2023-G1A_CometInterceptor_4_PLAY_00313398_BallAppearedFromLastToThisImage_U.png;1718193375109;tkalbitz;NoCenterCirclePoints
RC2023-G1A_CometInterceptor_4_PLAY_00507217_BallAppearedFromLastToThisImage_U.png;1718193375967;tkalbitz;NoCenterCirclePoints
RC2023-G1A_CometInterceptor_4_PLAY_00677943_BallAppearedFromLastToThisImage_U.png;1718193377455;tkalbitz;NoCenterCirclePoints
RC2023-G1A_CometInterceptor_4_PLAY_00722344_BallAppearedFromLastToThisImage_U.png;1718177597083;tkalbitz;NoCenterCirclePoints
RC2023-G1A_CometInterceptor_4_PLAY_00815136_BallAppearedFromLastToThisImage_U.png;1718184570875;tkalbitz;NoCenterCirclePoints
RC2023-G1B_CometInterceptor_4_PLAY_00258836_BallAppearedFromLastToThisImage_U.png;1718197379601;tkalbitz;NoCenterCirclePoints
RC2023-G1A_CometInterceptor_4_PLAY_00432816_BallAppearedFromLastToThisImage_U.png;1715602153860;tkalbitz;NoGoalPost
RC2023-G1A_CometInterceptor_4_PLAY_00573480_BallAppearedFromLastToThisImage_U.png;1715609670697;tkalbitz;NoGoalPost
RC2023-G1A_CometInterceptor_4_PLAY_00576239_BallAppearedFromLastToThisImage_U.png;1715602156937;tkalbitz;NoGoalPost
RC2023-G1A_CometInterceptor_4_PLAY_00603727_BallAppearedFromLastToThisImage_U.png;1715605449380;tkalbitz;NoGoalPost
RC2023-G1A_CometInterceptor_4_PLAY_00606917_BallAppearedFromLastToThisImage_U.png;1715609672327;tkalbitz;NoGoalPost
RC2023-G1A_CometInterceptor_4_PLAY_00649379_BallAppearedFromLastToThisImage_U.png;1715605455034;tkalbitz;NoGoalPost
RC2023-G1A_CometInterceptor_4_PLAY_00689017_BallAppearedFromLastToThisImage_U.png;1715602164950;tkalbitz;NoGoalPost
RC2023-G1A_CometInterceptor_4_PLAY_00706855_BallAppearedFromLastToThisImage_U.png;1715602166842;tkalbitz;NoGoalPost
RC2023-G1A_CometInterceptor_4_PLAY_00711213_BallAppearedFromLastToThisImage_U.png;1715609677679;tkalbitz;NoGoalPost
RC2023-G1A_CometInterceptor_4_PLAY_00736896_BallAppearedFromLastToThisImage_U.png;1715605457723;tkalbitz;NoGoalPost
RC2023-G1A_CometInterceptor_4_PLAY_00815136_BallAppearedFromLastToThisImage_U.png;1715605460119;tkalbitz;NoGoalPost
RC2023-G1A_CometInterceptor_4_PLAY_00818207_BallAppearedFromLastToThisImage_U.png;1715605462375;tkalbitz;NoGoalPost
RC2023-G1A_CometInterceptor_4_PLAY_00822918_BallAppearedFromLastToThisImage_U.png;1715602170458;tkalbitz;NoGoalPost
RC2023-G1A_CometInterceptor_4_PLAY_00824495_BallAppearedFromLastToThisImage_U.png;1715602172740;tkalbitz;NoGoalPost
RC2023-G1A_CometInterceptor_4_PLAY_00845611_BallAppearedFromLastToThisImage_U.png;1715605463963;tkalbitz;NoGoalPost
RC2023-G1B_CometInterceptor_4_PLAY_00136808_BallAppearedFromLastToThisImage_U.png;1715602179439;tkalbitz;NoGoalPost
RC2023-G1B_CometInterceptor_4_PLAY_00146567_BallAppearedFromLastToThisImage_U.png;1715602181838;tkalbitz;NoGoalPost
RC2023-G1B_CometInterceptor_4_PLAY_00150664_BallAppearedFromLastToThisImage_U.png;1715605472621;tkalbitz;NoGoalPost
RC2023-G1B_CometInterceptor_4_PLAY_00159607_BallAppearedFromLastToThisImage_U.png;1715602182860;tkalbitz;NoGoalPost
RC2023-G1B_CometInterceptor_4_PLAY_00200624_BallAppearedFromLastToThisImage_U.png;1715605477983;tkalbitz;NoGoalPost
RC2023-G1B_CometInterceptor_4_PLAY_00217630_BallAppearedFromLastToThisImage_U.png;1715602193991;tkalbitz;NoGoalPost
RC2023-G1B_CometInterceptor_4_PLAY_00237400_BallAppearedFromLastToThisImage_U.png;1715602194789;tkalbitz;NoGoalPost
RC2023-G1B_CometInterceptor_4_PLAY_00243395_BallAppearedFromLastToThisImage_U.png;1715609711775;tkalbitz;NoGoalPost
RC2023-G1B_CometInterceptor_4_PLAY_00295292_BallAppearedFromLastToThisImage_U.png;1715602213362;tkalbitz;NoGoalPost
RC2023-G1B_CometInterceptor_4_PLAY_00325161_BallAppearedFromLastToThisImage_U.png;1715605490726;tkalbitz;NoGoalPost
RC2023-G1B_CometInterceptor_4_PLAY_00330428_BallAppearedFromLastToThisImage_U.png;1715609713051;tkalbitz;NoGoalPost
RC2023-G1B_CometInterceptor_4_PLAY_00332069_BallAppearedFromLastToThisImage_U.png;1715605493378;tkalbitz;NoGoalPost
RC2023-G1B_CometInterceptor_4_PLAY_00363903_BallAppearedFromLastToThisImage_U.png;1715609715095;tkalbitz;NoGoalPost
RC2023-G1B_CometInterceptor_4_PLAY_00384053_BallAppearedFromLastToThisImage_U.png;1715605496870;tkalbitz;NoGoalPost
RC2023-G1B_CometInterceptor_4_PLAY_00498424_BallAppearedFromLastToThisImage_U.png;1715620124709;tkalbitz;NoGoalPost
RC2023-G1B_CometInterceptor_4_PLAY_00512564_BallAppearedFromLastToThisImage_U.png;1715602214972;tkalbitz;NoGoalPost
RC2023-G1B_CometInterceptor_4_PLAY_00514714_BallAppearedFromLastToThisImage_U.png;1715609717457;tkalbitz;NoGoalPost
RC2023-G1B_CometInterceptor_4_PLAY_00516223_BallAppearedFromLastToThisImage_U.png;1715602216550;tkalbitz;NoGoalPost
RC2023-G1B_CometInterceptor_4_PLAY_00517709_BallAppearedFromLastToThisImage_U.png;1715602217663;tkalbitz;NoGoalPost
RC2023-G1B_CometInterceptor_4_PLAY_00530098_BallAppearedFromLastToThisImage_U.png;1715605498732;tkalbitz;NoGoalPost
RC2023-G1B_CometInterceptor_4_PLAY_00670997_BallAppearedFromLastToThisImage_U.png;1715602233838;tkalbitz;NoGoalPost
RC2023-G1B_CometInterceptor_4_READY_00097902_BallAppearedFromLastToThisImage_U.png;1715605503150;tkalbitz;NoGoalPost
RC2023-G1B_CometInterceptor_4_SET_00111521_BallAppearedFromLastToThisImage_U.png;1715605504773;tkalbitz;NoGoalPost
