GO2024-G6B_Atlas_3_READY_00316613_RobotDetectionToManyRobots_U.png;1718126927176;tkalbitz;CenterCirclePoints;406;252;406;252;Left
GO2024-G6B_Atlas_3_READY_00326514_RobotDetectionToManyRobots_U.png;1718126932661;tkalbitz;CenterCirclePoints;443;212;443;212;Left
GO2024-G6B_Atlas_3_READY_00338574_RobotDetectionToManyRobots_U.png;1718126937343;tkalbitz;CenterCirclePoints;429;216;429;216;Left
GO2024-G6B_Atlas_3_READY_00539762_RobotDetectionToManyRobots_U.png;1718135939730;tkalbitz;CenterCirclePoints;634;438;634;438;Right
GO2024-G6B_Atlas_3_SET_00135202_RobotDetectionToManyRobots_U.png;1718126940117;tkalbitz;CenterCirclePoints;414;215;414;215;Left
GO2024-G6B_Atlas_3_SET_00159159_RobotDetectionToManyRobots_U.png;1718126943269;tkalbitz;CenterCirclePoints;23;170;23;170;Left
GO2024-G6B_Atlas_3_SET_00159159_RobotDetectionToManyRobots_U.png;1718126946693;tkalbitz;CenterCirclePoints;317;159;317;159;Right
GO2024-G6B_Atlas_3_SET_00354829_RobotDetectionToManyRobots_U.png;1718126949611;tkalbitz;CenterCirclePoints;394;216;394;216;Left
GO2024-G6C_Atlas_3_PLAY_00225633_RobotDetectionToManyRobots_U.png;1718126952382;tkalbitz;CenterCirclePoints;13;178;13;178;Right
GO2024-G6C_Atlas_3_PLAY_00284871_RobotDetectionToManyRobots_U.png;1718126955731;tkalbitz;CenterCirclePoints;260;145;260;145;Right
GO2024-G6C_Atlas_3_PLAY_00377329_RobotDetectionToManyRobots_U.png;1718126960498;tkalbitz;CenterCirclePoints;269;146;269;146;Right
GO2024-G6C_Atlas_3_PLAY_00500405_RobotDetectionToManyRobots_U.png;1718126964446;tkalbitz;CenterCirclePoints;290;164;290;164;Left
GO2024-G6C_Atlas_3_PLAY_00500405_RobotDetectionToManyRobots_U.png;1718126972344;tkalbitz;CenterCirclePoints;558;159;558;159;Right
GO2024-G6C_Atlas_3_PLAY_00525287_RobotDetectionToManyRobots_U.png;1718126975455;tkalbitz;CenterCirclePoints;121;136;121;136;Left
GO2024-G6C_Atlas_3_PLAY_00525287_RobotDetectionToManyRobots_U.png;1718126977245;tkalbitz;CenterCirclePoints;386;112;386;112;Right
GO2024-G6C_Atlas_3_PLAY_00531097_RobotDetectionToManyRobots_U.png;1718135945839;tkalbitz;CenterCirclePoints;413;123;413;123;Right
GO2024-G6C_Atlas_3_PLAY_00650202_RobotDetectionToManyRobots_U.png;1718126981269;tkalbitz;CenterCirclePoints;89;140;89;140;Left
GO2024-G6C_Atlas_3_PLAY_00650202_RobotDetectionToManyRobots_U.png;1718126984525;tkalbitz;CenterCirclePoints;364;131;364;131;Right
GO2024-G6C_Atlas_3_PLAY_00692884_RobotDetectionToManyRobots_U.png;1718126989073;tkalbitz;CenterCirclePoints;246;305;246;305;Right
GO2024-G6C_Atlas_3_PLAY_00734020_RobotDetectionToManyRobots_U.png;1718126993683;tkalbitz;CenterCirclePoints;194;121;194;121;Right
GO2024-G6C_Atlas_3_PLAY_00766018_RobotDetectionToManyRobots_U.png;1718126996892;tkalbitz;CenterCirclePoints;144;139;144;139;Left
GO2024-G6C_Atlas_3_PLAY_00766018_RobotDetectionToManyRobots_U.png;1718126998803;tkalbitz;CenterCirclePoints;428;133;428;133;Right
GO2024-G6C_Atlas_3_READY_00308761_RobotDetectionToManyRobots_U.png;1718127005272;tkalbitz;CenterCirclePoints;257;189;257;189;Right
GO2024-G6C_Atlas_3_READY_00317550_RobotDetectionToManyRobots_U.png;1718127008732;tkalbitz;CenterCirclePoints;229;194;229;194;Right
GO2024-G6C_Atlas_3_READY_00406189_RobotDetectionToManyRobots_U.png;1718127013742;tkalbitz;CenterCirclePoints;288;215;288;215;Right
GO2024-G6C_Atlas_3_READY_00418981_RobotDetectionToManyRobots_U.png;1718127017360;tkalbitz;CenterCirclePoints;430;200;430;200;Left
GO2024-G6C_Atlas_3_READY_00426785_RobotDetectionToManyRobots_U.png;1718127020424;tkalbitz;CenterCirclePoints;61;215;61;215;Left
GO2024-G6C_Atlas_3_READY_00426785_RobotDetectionToManyRobots_U.png;1718127023189;tkalbitz;CenterCirclePoints;324;226;324;226;Right
GO2024-G6B_Atlas_3_PLAY_00171148_RobotDetectionToManyRobots_U.png;1718553430215;mu;FieldFeature;82;235;82;235;NoTMiddleLine
GO2024-G6B_Atlas_3_PLAY_00171148_RobotDetectionToManyRobots_U.png;1718553434919;mu;FieldFeature;100;271;100;271;NoCornerField
GO2024-G6B_Atlas_3_PLAY_00171148_RobotDetectionToManyRobots_U.png;1718553438465;mu;FieldFeature;129;295;129;296;NoTGoalArea
GO2024-G6B_Atlas_3_PLAY_00171148_RobotDetectionToManyRobots_U.png;1718553438918;mu;FieldFeature;136;333;136;333;NoCornerGoalArea
GO2024-G6B_Atlas_3_PLAY_00171148_RobotDetectionToManyRobots_U.png;1718553445032;mu;FieldFeature;420;77;420;77;TPenaltyArea
GO2024-G6B_Atlas_3_PLAY_00171148_RobotDetectionToManyRobots_U.png;1718553446857;mu;FieldFeature;91;73;91;73;TPenaltyArea
GO2024-G6B_Atlas_3_PLAY_00171148_RobotDetectionToManyRobots_U.png;1718553448648;mu;FieldFeature;472;86;472;86;CornerPenaltyArea
GO2024-G6B_Atlas_3_PLAY_00171148_RobotDetectionToManyRobots_U.png;1718553450807;mu;FieldFeature;71;84;71;84;CornerPenaltyArea
GO2024-G6B_Atlas_3_PLAY_00190554_RobotDetectionToManyRobots_U.png;1718553552269;mu;FieldFeature;60;407;60;407;NoTMiddleLine
GO2024-G6B_Atlas_3_PLAY_00190554_RobotDetectionToManyRobots_U.png;1718553556326;mu;FieldFeature;118;238;118;238;CornerField
GO2024-G6B_Atlas_3_PLAY_00190554_RobotDetectionToManyRobots_U.png;1718553572055;mu;FieldFeature;530;259;530;259;TPenaltyArea
GO2024-G6B_Atlas_3_PLAY_00190554_RobotDetectionToManyRobots_U.png;1718553574355;mu;FieldFeature;456;255;456;255;TGoalArea
GO2024-G6B_Atlas_3_PLAY_00190554_RobotDetectionToManyRobots_U.png;1718553579934;mu;FieldFeature;204;241;204;241;TPenaltyArea
GO2024-G6B_Atlas_3_PLAY_00190554_RobotDetectionToManyRobots_U.png;1718553585221;mu;FieldFeature;573;272;573;272;CornerPenaltyArea
GO2024-G6B_Atlas_3_PLAY_00190554_RobotDetectionToManyRobots_U.png;1718553592406;mu;FieldFeature;460;258;460;258;CornerGoalArea
GO2024-G6B_Atlas_3_PLAY_00190554_RobotDetectionToManyRobots_U.png;1718553594429;mu;FieldFeature;173;250;173;250;CornerPenaltyArea
GO2024-G6B_Atlas_3_PLAY_00270813_RobotDetectionToManyRobots_U.png;1718553607767;mu;FieldFeature;229;207;229;207;NoTMiddleLine
GO2024-G6B_Atlas_3_PLAY_00270813_RobotDetectionToManyRobots_U.png;1718553608112;mu;FieldFeature;246;229;246;229;NoCornerField
GO2024-G6B_Atlas_3_PLAY_00270813_RobotDetectionToManyRobots_U.png;1718553608532;mu;FieldFeature;268;254;268;255;NoTGoalArea
GO2024-G6B_Atlas_3_PLAY_00270813_RobotDetectionToManyRobots_U.png;1718553609005;mu;FieldFeature;298;284;298;284;NoCornerGoalArea
GO2024-G6B_Atlas_3_PLAY_00270813_RobotDetectionToManyRobots_U.png;1718553609419;mu;FieldFeature;339;309;340;309;NoTPenaltyArea
GO2024-G6B_Atlas_3_PLAY_00270813_RobotDetectionToManyRobots_U.png;1718553609782;mu;FieldFeature;377;351;377;351;NoCornerPenaltyArea
GO2024-G6B_Atlas_3_PLAY_00282728_RobotDetectionToManyRobots_U.png;1718553615905;mu;FieldFeature;575;162;575;162;TMiddleLine
GO2024-G6B_Atlas_3_PLAY_00282728_RobotDetectionToManyRobots_U.png;1718553618353;mu;FieldFeature;323;125;323;125;CornerField
GO2024-G6B_Atlas_3_PLAY_00282728_RobotDetectionToManyRobots_U.png;1718553622945;mu;FieldFeature;193;271;193;271;NoTGoalArea
GO2024-G6B_Atlas_3_PLAY_00282728_RobotDetectionToManyRobots_U.png;1718553623439;mu;FieldFeature;199;309;199;309;NoCornerGoalArea
GO2024-G6B_Atlas_3_PLAY_00282728_RobotDetectionToManyRobots_U.png;1718553628781;mu;FieldFeature;260;126;260;126;TPenaltyArea
GO2024-G6B_Atlas_3_PLAY_00282728_RobotDetectionToManyRobots_U.png;1718553633341;mu;FieldFeature;300;136;300;136;CornerPenaltyArea
GO2024-G6B_Atlas_3_READY_00316613_RobotDetectionToManyRobots_U.png;1718553695990;mu;FieldFeature;56;218;56;218;TMiddleLine
GO2024-G6B_Atlas_3_READY_00316613_RobotDetectionToManyRobots_U.png;1718553700077;mu;FieldFeature;163;315;163;315;NoCornerField
GO2024-G6B_Atlas_3_READY_00316613_RobotDetectionToManyRobots_U.png;1718553704232;mu;FieldFeature;422;198;422;198;TGoalArea
GO2024-G6B_Atlas_3_READY_00316613_RobotDetectionToManyRobots_U.png;1718553706133;mu;FieldFeature;418;201;418;201;CornerGoalArea
GO2024-G6B_Atlas_3_READY_00316613_RobotDetectionToManyRobots_U.png;1718553708008;mu;FieldFeature;360;192;360;192;TPenaltyArea
GO2024-G6B_Atlas_3_READY_00316613_RobotDetectionToManyRobots_U.png;1718553709643;mu;FieldFeature;327;201;327;201;CornerPenaltyArea
GO2024-G6B_Atlas_3_READY_00320487_RobotDetectionToManyRobots_U.png;1718553716298;mu;FieldFeature;163;312;163;312;NoTMiddleLine
GO2024-G6B_Atlas_3_READY_00320487_RobotDetectionToManyRobots_U.png;1718553718960;mu;FieldFeature;239;172;239;172;CornerField
GO2024-G6B_Atlas_3_READY_00320487_RobotDetectionToManyRobots_U.png;1718553739777;mu;FieldFeature;557;165;557;165;TGoalArea
GO2024-G6B_Atlas_3_READY_00320487_RobotDetectionToManyRobots_U.png;1718553742076;mu;FieldFeature;372;168;372;168;TGoalArea
GO2024-G6B_Atlas_3_READY_00320487_RobotDetectionToManyRobots_U.png;1718553743400;mu;FieldFeature;368;172;368;172;CornerGoalArea
GO2024-G6B_Atlas_3_READY_00320487_RobotDetectionToManyRobots_U.png;1718553746918;mu;FieldFeature;301;170;301;170;TPenaltyArea
GO2024-G6B_Atlas_3_READY_00320487_RobotDetectionToManyRobots_U.png;1718553749542;mu;FieldFeature;271;183;271;183;CornerPenaltyArea
GO2024-G6B_Atlas_3_READY_00326514_RobotDetectionToManyRobots_U.png;1718553754094;mu;FieldFeature;75;210;75;210;TMiddleLine
GO2024-G6B_Atlas_3_READY_00326514_RobotDetectionToManyRobots_U.png;1718553759907;mu;FieldFeature;137;306;137;306;NoCornerField
GO2024-G6B_Atlas_3_READY_00326514_RobotDetectionToManyRobots_U.png;1718553764963;mu;FieldFeature;613;153;613;153;TGoalArea
GO2024-G6B_Atlas_3_READY_00326514_RobotDetectionToManyRobots_U.png;1718553767521;mu;FieldFeature;420;157;420;157;TGoalArea
GO2024-G6B_Atlas_3_READY_00326514_RobotDetectionToManyRobots_U.png;1718553769049;mu;FieldFeature;419;161;419;161;CornerGoalArea
GO2024-G6B_Atlas_3_READY_00326514_RobotDetectionToManyRobots_U.png;1718553770981;mu;FieldFeature;345;158;345;158;TPenaltyArea
GO2024-G6B_Atlas_3_READY_00326514_RobotDetectionToManyRobots_U.png;1718553773416;mu;FieldFeature;327;168;327;168;CornerPenaltyArea
GO2024-G6B_Atlas_3_READY_00330784_RobotDetectionToManyRobots_U.png;1718553787822;mu;FieldFeature;215;314;215;314;NoTMiddleLine
GO2024-G6B_Atlas_3_READY_00330784_RobotDetectionToManyRobots_U.png;1718553791072;mu;FieldFeature;388;154;388;154;CornerField
GO2024-G6B_Atlas_3_READY_00330784_RobotDetectionToManyRobots_U.png;1718553795458;mu;FieldFeature;72;159;72;159;TGoalArea
GO2024-G6B_Atlas_3_READY_00330784_RobotDetectionToManyRobots_U.png;1718553796815;mu;FieldFeature;69;164;69;164;CornerGoalArea
GO2024-G6B_Atlas_3_READY_00330784_RobotDetectionToManyRobots_U.png;1718553798889;mu;FieldFeature;322;154;322;154;TPenaltyArea
GO2024-G6B_Atlas_3_READY_00330784_RobotDetectionToManyRobots_U.png;1718553804913;mu;FieldFeature;367;163;367;163;CornerPenaltyArea
GO2024-G6B_Atlas_3_READY_00334672_RobotDetectionToManyRobots_U.png;1718553819761;mu;FieldFeature;119;312;118;312;NoTMiddleLine
GO2024-G6B_Atlas_3_READY_00334672_RobotDetectionToManyRobots_U.png;1718553823578;mu;FieldFeature;79;345;79;345;NoCornerField
GO2024-G6B_Atlas_3_READY_00334672_RobotDetectionToManyRobots_U.png;1718553828275;mu;FieldFeature;69;156;69;156;TGoalArea
GO2024-G6B_Atlas_3_READY_00334672_RobotDetectionToManyRobots_U.png;1718553830983;mu;FieldFeature;59;258;59;258;NoCornerGoalArea
GO2024-G6B_Atlas_3_READY_00334672_RobotDetectionToManyRobots_U.png;1718553836003;mu;FieldFeature;323;156;323;156;TPenaltyArea
GO2024-G6B_Atlas_3_READY_00334672_RobotDetectionToManyRobots_U.png;1718553837661;mu;FieldFeature;364;166;364;166;CornerPenaltyArea
GO2024-G6B_Atlas_3_READY_00338574_RobotDetectionToManyRobots_U.png;1718553845635;mu;FieldFeature;81;208;81;208;TMiddleLine
GO2024-G6B_Atlas_3_READY_00338574_RobotDetectionToManyRobots_U.png;1718553847974;mu;FieldFeature;171;323;171;323;NoCornerField
GO2024-G6B_Atlas_3_READY_00338574_RobotDetectionToManyRobots_U.png;1718553851328;mu;FieldFeature;436;161;436;161;TGoalArea
GO2024-G6B_Atlas_3_READY_00338574_RobotDetectionToManyRobots_U.png;1718553852350;mu;FieldFeature;434;165;434;165;CornerGoalArea
GO2024-G6B_Atlas_3_READY_00338574_RobotDetectionToManyRobots_U.png;1718553854308;mu;FieldFeature;365;162;365;162;TPenaltyArea
GO2024-G6B_Atlas_3_READY_00338574_RobotDetectionToManyRobots_U.png;1718553855971;mu;FieldFeature;340;171;340;171;CornerPenaltyArea
GO2024-G6B_Atlas_3_READY_00342470_RobotDetectionToManyRobots_U.png;1718553871898;mu;FieldFeature;129;340;129;340;NoTMiddleLine
GO2024-G6B_Atlas_3_READY_00342470_RobotDetectionToManyRobots_U.png;1718553875447;mu;FieldFeature;146;306;146;306;NoCornerField
GO2024-G6B_Atlas_3_READY_00342470_RobotDetectionToManyRobots_U.png;1718553879459;mu;FieldFeature;348;159;348;159;TGoalArea
GO2024-G6B_Atlas_3_READY_00342470_RobotDetectionToManyRobots_U.png;1718553881488;mu;FieldFeature;344;163;344;163;CornerGoalArea
GO2024-G6B_Atlas_3_READY_00342470_RobotDetectionToManyRobots_U.png;1718553885374;mu;FieldFeature;607;159;607;159;TPenaltyArea
GO2024-G6B_Atlas_3_READY_00342470_RobotDetectionToManyRobots_U.png;1718553887513;mu;FieldFeature;276;161;276;161;TPenaltyArea
GO2024-G6B_Atlas_3_READY_00342470_RobotDetectionToManyRobots_U.png;1718553889916;mu;FieldFeature;279;303;279;303;NoCornerPenaltyArea
GO2024-G6B_Atlas_3_READY_00533874_RobotDetectionToManyRobots_U.png;1718553894565;mu;FieldFeature;171;364;171;364;NoTMiddleLine
GO2024-G6B_Atlas_3_READY_00533874_RobotDetectionToManyRobots_U.png;1718553895799;mu;FieldFeature;163;346;163;346;NoCornerField
GO2024-G6B_Atlas_3_READY_00533874_RobotDetectionToManyRobots_U.png;1718553899808;mu;FieldFeature;256;184;256;184;TGoalArea
GO2024-G6B_Atlas_3_READY_00533874_RobotDetectionToManyRobots_U.png;1718553902728;mu;FieldFeature;350;181;350;181;TPenaltyArea
GO2024-G6B_Atlas_3_READY_00533874_RobotDetectionToManyRobots_U.png;1718553908308;mu;FieldFeature;283;194;283;194;CornerGoalArea
GO2024-G6B_Atlas_3_READY_00533874_RobotDetectionToManyRobots_U.png;1718553910455;mu;FieldFeature;473;212;473;212;CornerPenaltyArea
GO2024-G6B_Atlas_3_READY_00539762_RobotDetectionToManyRobots_U.png;1718553926940;mu;FieldFeature;155;377;155;377;NoTMiddleLine
GO2024-G6B_Atlas_3_READY_00539762_RobotDetectionToManyRobots_U.png;1718553929164;mu;FieldFeature;406;164;406;164;CornerField
GO2024-G6B_Atlas_3_READY_00539762_RobotDetectionToManyRobots_U.png;1718553931981;mu;FieldFeature;210;167;210;167;TGoalArea
GO2024-G6B_Atlas_3_READY_00539762_RobotDetectionToManyRobots_U.png;1718553936813;mu;FieldFeature;311;164;311;164;TPenaltyArea
GO2024-G6B_Atlas_3_READY_00539762_RobotDetectionToManyRobots_U.png;1718553939334;mu;FieldFeature;222;174;222;174;CornerGoalArea
GO2024-G6B_Atlas_3_READY_00539762_RobotDetectionToManyRobots_U.png;1718553942208;mu;FieldFeature;398;188;398;188;CornerPenaltyArea
GO2024-G6B_Atlas_3_SET_00135202_RobotDetectionToManyRobots_U.png;1718553946638;mu;FieldFeature;28;215;28;215;TMiddleLine
GO2024-G6B_Atlas_3_SET_00135202_RobotDetectionToManyRobots_U.png;1718553948829;mu;FieldFeature;131;315;131;315;NoCornerField
GO2024-G6B_Atlas_3_SET_00135202_RobotDetectionToManyRobots_U.png;1718553954036;mu;FieldFeature;377;160;377;160;TGoalArea
GO2024-G6B_Atlas_3_SET_00135202_RobotDetectionToManyRobots_U.png;1718553957552;mu;FieldFeature;377;164;377;164;CornerGoalArea
GO2024-G6B_Atlas_3_SET_00135202_RobotDetectionToManyRobots_U.png;1718553959575;mu;FieldFeature;305;162;305;162;TPenaltyArea
GO2024-G6B_Atlas_3_SET_00135202_RobotDetectionToManyRobots_U.png;1718553962218;mu;FieldFeature;287;171;287;171;CornerPenaltyArea
GO2024-G6B_Atlas_3_SET_00152200_RobotDetectionToManyRobots_U.png;1718553974220;mu;FieldFeature;126;295;126;296;NoTMiddleLine
GO2024-G6B_Atlas_3_SET_00152200_RobotDetectionToManyRobots_U.png;1718553976352;mu;FieldFeature;39;76;39;76;CornerField
GO2024-G6B_Atlas_3_SET_00152200_RobotDetectionToManyRobots_U.png;1718553982646;mu;FieldFeature;205;75;205;75;TGoalArea
GO2024-G6B_Atlas_3_SET_00152200_RobotDetectionToManyRobots_U.png;1718553985272;mu;FieldFeature;204;78;204;78;CornerGoalArea
GO2024-G6B_Atlas_3_SET_00152200_RobotDetectionToManyRobots_U.png;1718553987302;mu;FieldFeature;126;75;126;75;TPenaltyArea
GO2024-G6B_Atlas_3_SET_00152200_RobotDetectionToManyRobots_U.png;1718553990004;mu;FieldFeature;455;75;455;75;TPenaltyArea
GO2024-G6B_Atlas_3_SET_00152200_RobotDetectionToManyRobots_U.png;1718553992223;mu;FieldFeature;206;240;206;240;NoCornerPenaltyArea
GO2024-G6B_Atlas_3_SET_00159159_RobotDetectionToManyRobots_U.png;1718553997455;mu;FieldFeature;586;145;586;145;TMiddleLine
GO2024-G6B_Atlas_3_SET_00159159_RobotDetectionToManyRobots_U.png;1718553999419;mu;FieldFeature;319;104;319;104;CornerField
GO2024-G6B_Atlas_3_SET_00159159_RobotDetectionToManyRobots_U.png;1718554002802;mu;FieldFeature;184;104;184;104;TGoalArea
GO2024-G6B_Atlas_3_SET_00159159_RobotDetectionToManyRobots_U.png;1718554006112;mu;FieldFeature;169;286;169;286;NoCornerGoalArea
GO2024-G6B_Atlas_3_SET_00159159_RobotDetectionToManyRobots_U.png;1718554011687;mu;FieldFeature;261;106;261;106;TPenaltyArea
GO2024-G6B_Atlas_3_SET_00159159_RobotDetectionToManyRobots_U.png;1718554014491;mu;FieldFeature;303;114;303;114;CornerPenaltyArea
GO2024-G6B_Atlas_3_SET_00348618_RobotDetectionToManyRobots_U.png;1718554019043;mu;FieldFeature;126;207;126;207;TMiddleLine
GO2024-G6B_Atlas_3_SET_00348618_RobotDetectionToManyRobots_U.png;1718554021655;mu;FieldFeature;153;331;153;332;NoCornerField
GO2024-G6B_Atlas_3_SET_00348618_RobotDetectionToManyRobots_U.png;1718554025809;mu;FieldFeature;485;161;485;161;TGoalArea
GO2024-G6B_Atlas_3_SET_00348618_RobotDetectionToManyRobots_U.png;1718554027357;mu;FieldFeature;481;164;481;164;CornerGoalArea
GO2024-G6B_Atlas_3_SET_00348618_RobotDetectionToManyRobots_U.png;1718554030588;mu;FieldFeature;410;162;410;162;TPenaltyArea
GO2024-G6B_Atlas_3_SET_00348618_RobotDetectionToManyRobots_U.png;1718554032157;mu;FieldFeature;384;172;384;172;CornerPenaltyArea
GO2024-G6B_Atlas_3_SET_00354829_RobotDetectionToManyRobots_U.png;1718554040404;mu;FieldFeature;41;207;41;207;TMiddleLine
GO2024-G6B_Atlas_3_SET_00354829_RobotDetectionToManyRobots_U.png;1718554044418;mu;FieldFeature;118;331;118;331;NoCornerField
GO2024-G6B_Atlas_3_SET_00354829_RobotDetectionToManyRobots_U.png;1718554059864;mu;FieldFeature;405;161;405;161;TGoalArea
GO2024-G6B_Atlas_3_SET_00354829_RobotDetectionToManyRobots_U.png;1718554061280;mu;FieldFeature;401;165;401;165;CornerGoalArea
GO2024-G6B_Atlas_3_SET_00354829_RobotDetectionToManyRobots_U.png;1718554064764;mu;FieldFeature;333;160;333;160;TPenaltyArea
GO2024-G6B_Atlas_3_SET_00354829_RobotDetectionToManyRobots_U.png;1718554067099;mu;FieldFeature;309;171;309;171;CornerPenaltyArea
GO2024-G6C_Atlas_3_PLAY_00201827_RobotDetectionToManyRobots_U.png;1718554078120;mu;FieldFeature;164;347;164;347;NoTMiddleLine
GO2024-G6C_Atlas_3_PLAY_00201827_RobotDetectionToManyRobots_U.png;1718554080389;mu;FieldFeature;210;319;210;319;NoCornerField
GO2024-G6C_Atlas_3_PLAY_00201827_RobotDetectionToManyRobots_U.png;1718554081980;mu;FieldFeature;246;294;246;294;NoTGoalArea
GO2024-G6C_Atlas_3_PLAY_00201827_RobotDetectionToManyRobots_U.png;1718554084221;mu;FieldFeature;288;264;288;264;NoCornerGoalArea
GO2024-G6C_Atlas_3_PLAY_00201827_RobotDetectionToManyRobots_U.png;1718554087615;mu;FieldFeature;333;239;333;239;NoTPenaltyArea
GO2024-G6C_Atlas_3_PLAY_00201827_RobotDetectionToManyRobots_U.png;1718554089942;mu;FieldFeature;493;116;493;116;CornerPenaltyArea
GO2024-G6C_Atlas_3_PLAY_00225633_RobotDetectionToManyRobots_U.png;1718554099243;mu;FieldFeature;284;152;284;152;TMiddleLine
GO2024-G6C_Atlas_3_PLAY_00225633_RobotDetectionToManyRobots_U.png;1718554102676;mu;FieldFeature;178;305;178;305;NoCornerField
GO2024-G6C_Atlas_3_PLAY_00225633_RobotDetectionToManyRobots_U.png;1718554104704;mu;FieldFeature;163;347;163;347;NoTGoalArea
GO2024-G6C_Atlas_3_PLAY_00225633_RobotDetectionToManyRobots_U.png;1718554105293;mu;FieldFeature;159;370;159;370;NoCornerGoalArea
GO2024-G6C_Atlas_3_PLAY_00225633_RobotDetectionToManyRobots_U.png;1718554105815;mu;FieldFeature;162;393;162;393;NoTPenaltyArea
GO2024-G6C_Atlas_3_PLAY_00225633_RobotDetectionToManyRobots_U.png;1718554106276;mu;FieldFeature;165;420;165;420;NoCornerPenaltyArea
GO2024-G6C_Atlas_3_PLAY_00263960_RobotDetectionToManyRobots_U.png;1718554111063;mu;FieldFeature;423;151;423;151;TMiddleLine
GO2024-G6C_Atlas_3_PLAY_00263960_RobotDetectionToManyRobots_U.png;1718554113502;mu;FieldFeature;194;242;194;242;NoCornerField
GO2024-G6C_Atlas_3_PLAY_00263960_RobotDetectionToManyRobots_U.png;1718554116013;mu;FieldFeature;184;279;184;279;NoTGoalArea
GO2024-G6C_Atlas_3_PLAY_00263960_RobotDetectionToManyRobots_U.png;1718554116673;mu;FieldFeature;185;300;185;300;NoCornerGoalArea
GO2024-G6C_Atlas_3_PLAY_00263960_RobotDetectionToManyRobots_U.png;1718554117344;mu;FieldFeature;184;319;184;319;NoTPenaltyArea
GO2024-G6C_Atlas_3_PLAY_00263960_RobotDetectionToManyRobots_U.png;1718554121825;mu;FieldFeature;163;106;163;106;CornerPenaltyArea
GO2024-G6C_Atlas_3_PLAY_00284871_RobotDetectionToManyRobots_U.png;1718554130890;mu;FieldFeature;538;152;538;152;TMiddleLine
GO2024-G6C_Atlas_3_PLAY_00284871_RobotDetectionToManyRobots_U.png;1718554132522;mu;FieldFeature;238;285;237;285;NoCornerField
GO2024-G6C_Atlas_3_PLAY_00284871_RobotDetectionToManyRobots_U.png;1718554134270;mu;FieldFeature;227;261;230;259;NoTGoalArea
GO2024-G6C_Atlas_3_PLAY_00284871_RobotDetectionToManyRobots_U.png;1718554135267;mu;FieldFeature;232;314;232;314;NoCornerGoalArea
GO2024-G6C_Atlas_3_PLAY_00284871_RobotDetectionToManyRobots_U.png;1718554144719;mu;FieldFeature;226;89;226;89;TPenaltyArea
GO2024-G6C_Atlas_3_PLAY_00284871_RobotDetectionToManyRobots_U.png;1718554147100;mu;FieldFeature;270;103;270;103;CornerPenaltyArea
GO2024-G6C_Atlas_3_PLAY_00304865_RobotDetectionToManyRobots_U.png;1718554154936;mu;FieldFeature;148;255;148;255;NoTMiddleLine
GO2024-G6C_Atlas_3_PLAY_00304865_RobotDetectionToManyRobots_U.png;1718554155822;mu;FieldFeature;172;254;172;254;NoCornerField
GO2024-G6C_Atlas_3_PLAY_00304865_RobotDetectionToManyRobots_U.png;1718554158233;mu;FieldFeature;329;12;329;12;NoTGoalArea
GO2024-G6C_Atlas_3_PLAY_00304865_RobotDetectionToManyRobots_U.png;1718554159165;mu;FieldFeature;344;12;344;12;NoCornerGoalArea
GO2024-G6C_Atlas_3_PLAY_00304865_RobotDetectionToManyRobots_U.png;1718554169571;mu;FieldFeature;215;177;215;177;NoTPenaltyArea
GO2024-G6C_Atlas_3_PLAY_00304865_RobotDetectionToManyRobots_U.png;1718554170496;mu;FieldFeature;219;177;219;177;NoCornerPenaltyArea
GO2024-G6C_Atlas_3_PLAY_00371245_RobotDetectionToManyRobots_U.png;1718554191318;mu;FieldFeature;126;272;126;273;NoTMiddleLine
GO2024-G6C_Atlas_3_PLAY_00371245_RobotDetectionToManyRobots_U.png;1718554193144;mu;FieldFeature;64;89;64;88;CornerField
GO2024-G6C_Atlas_3_PLAY_00371245_RobotDetectionToManyRobots_U.png;1718554196381;mu;FieldFeature;550;69;550;68;CornerField
GO2024-G6C_Atlas_3_PLAY_00371245_RobotDetectionToManyRobots_U.png;1718554201494;mu;FieldFeature;296;251;296;251;NoTGoalArea
GO2024-G6C_Atlas_3_PLAY_00371245_RobotDetectionToManyRobots_U.png;1718554202777;mu;FieldFeature;286;281;286;281;NoCornerGoalArea
GO2024-G6C_Atlas_3_PLAY_00371245_RobotDetectionToManyRobots_U.png;1718554206935;mu;FieldFeature;148;85;148;85;TPenaltyArea
GO2024-G6C_Atlas_3_PLAY_00371245_RobotDetectionToManyRobots_U.png;1718554210732;mu;FieldFeature;121;96;121;96;CornerPenaltyArea
GO2024-G6C_Atlas_3_PLAY_00371245_RobotDetectionToManyRobots_U.png;1718554212828;mu;FieldFeature;528;80;528;80;CornerPenaltyArea
GO2024-G6C_Atlas_3_PLAY_00377329_RobotDetectionToManyRobots_U.png;1718554221934;mu;FieldFeature;534;123;534;123;TMiddleLine
GO2024-G6C_Atlas_3_PLAY_00377329_RobotDetectionToManyRobots_U.png;1718554225521;mu;FieldFeature;264;287;264;287;NoCornerField
GO2024-G6C_Atlas_3_PLAY_00377329_RobotDetectionToManyRobots_U.png;1718554228315;mu;FieldFeature;153;284;152;284;NoTGoalArea
GO2024-G6C_Atlas_3_PLAY_00377329_RobotDetectionToManyRobots_U.png;1718554228700;mu;FieldFeature;149;320;149;320;NoCornerGoalArea
GO2024-G6C_Atlas_3_PLAY_00377329_RobotDetectionToManyRobots_U.png;1718554229137;mu;FieldFeature;157;338;158;341;NoTPenaltyArea
GO2024-G6C_Atlas_3_PLAY_00377329_RobotDetectionToManyRobots_U.png;1718554229629;mu;FieldFeature;180;366;180;366;NoCornerPenaltyArea
GO2024-G6C_Atlas_3_PLAY_00500405_RobotDetectionToManyRobots_U.png;1718554241949;mu;FieldFeature;103;272;103;272;NoTMiddleLine
GO2024-G6C_Atlas_3_PLAY_00500405_RobotDetectionToManyRobots_U.png;1718554243594;mu;FieldFeature;78;109;78;109;CornerField
GO2024-G6C_Atlas_3_PLAY_00500405_RobotDetectionToManyRobots_U.png;1718554245617;mu;FieldFeature;545;106;545;106;CornerField
GO2024-G6C_Atlas_3_PLAY_00500405_RobotDetectionToManyRobots_U.png;1718554251765;mu;FieldFeature;409;106;409;106;TGoalArea
GO2024-G6C_Atlas_3_PLAY_00500405_RobotDetectionToManyRobots_U.png;1718554255235;mu;FieldFeature;482;106;482;106;TPenaltyArea
GO2024-G6C_Atlas_3_PLAY_00500405_RobotDetectionToManyRobots_U.png;1718554258868;mu;FieldFeature;422;110;422;110;CornerGoalArea
GO2024-G6C_Atlas_3_PLAY_00500405_RobotDetectionToManyRobots_U.png;1718554261365;mu;FieldFeature;534;115;534;115;CornerPenaltyArea
GO2024-G6C_Atlas_3_PLAY_00500405_RobotDetectionToManyRobots_U.png;1718554269230;mu;FieldFeature;140;118;140;118;CornerPenaltyArea
GO2024-G6C_Atlas_3_PLAY_00513427_RobotDetectionToManyRobots_U.png;1718554276242;mu;FieldFeature;124;354;124;354;NoTMiddleLine
GO2024-G6C_Atlas_3_PLAY_00513427_RobotDetectionToManyRobots_U.png;1718554289777;mu;FieldFeature;427;106;427;106;CornerField
GO2024-G6C_Atlas_3_PLAY_00513427_RobotDetectionToManyRobots_U.png;1718554291519;mu;FieldFeature;270;296;270;296;NoTGoalArea
GO2024-G6C_Atlas_3_PLAY_00513427_RobotDetectionToManyRobots_U.png;1718554297983;mu;FieldFeature;357;116;357;116;TPenaltyArea
GO2024-G6C_Atlas_3_PLAY_00513427_RobotDetectionToManyRobots_U.png;1718554304407;mu;FieldFeature;294;128;294;128;CornerGoalArea
GO2024-G6C_Atlas_3_PLAY_00513427_RobotDetectionToManyRobots_U.png;1718554308045;mu;FieldFeature;398;122;398;122;CornerPenaltyArea
GO2024-G6C_Atlas_3_PLAY_00525287_RobotDetectionToManyRobots_U.png;1718554328736;mu;FieldFeature;200;245;198;250;NoTMiddleLine
GO2024-G6C_Atlas_3_PLAY_00525287_RobotDetectionToManyRobots_U.png;1718554331263;mu;FieldFeature;383;62;383;62;CornerField
GO2024-G6C_Atlas_3_PLAY_00525287_RobotDetectionToManyRobots_U.png;1718554333352;mu;FieldFeature;67;83;67;83;TGoalArea
GO2024-G6C_Atlas_3_PLAY_00525287_RobotDetectionToManyRobots_U.png;1718554335046;mu;FieldFeature;65;88;65;88;CornerGoalArea
GO2024-G6C_Atlas_3_PLAY_00525287_RobotDetectionToManyRobots_U.png;1718554339959;mu;FieldFeature;319;66;319;66;TPenaltyArea
GO2024-G6C_Atlas_3_PLAY_00525287_RobotDetectionToManyRobots_U.png;1718554341390;mu;FieldFeature;368;72;368;72;CornerPenaltyArea
GO2024-G6C_Atlas_3_PLAY_00531097_RobotDetectionToManyRobots_U.png;1718554347403;mu;FieldFeature;246;302;246;302;NoTMiddleLine
GO2024-G6C_Atlas_3_PLAY_00531097_RobotDetectionToManyRobots_U.png;1718554350022;mu;FieldFeature;432;69;432;69;CornerField
GO2024-G6C_Atlas_3_PLAY_00531097_RobotDetectionToManyRobots_U.png;1718554365395;mu;FieldFeature;105;72;105;72;TGoalArea
GO2024-G6C_Atlas_3_PLAY_00531097_RobotDetectionToManyRobots_U.png;1718554372248;mu;FieldFeature;104;78;104;78;CornerGoalArea
GO2024-G6C_Atlas_3_PLAY_00531097_RobotDetectionToManyRobots_U.png;1718554376640;mu;FieldFeature;19;74;19;74;TPenaltyArea
GO2024-G6C_Atlas_3_PLAY_00531097_RobotDetectionToManyRobots_U.png;1718554379117;mu;FieldFeature;361;68;361;68;TPenaltyArea
GO2024-G6C_Atlas_3_PLAY_00531097_RobotDetectionToManyRobots_U.png;1718554381242;mu;FieldFeature;405;81;405;81;CornerPenaltyArea
GO2024-G6C_Atlas_3_PLAY_00564173_RobotDetectionToManyRobots_U.png;1718554402665;mu;FieldFeature;498;169;498;169;TMiddleLine
GO2024-G6C_Atlas_3_PLAY_00564173_RobotDetectionToManyRobots_U.png;1718554413644;mu;FieldFeature;179;278;179;278;NoCornerField
GO2024-G6C_Atlas_3_PLAY_00564173_RobotDetectionToManyRobots_U.png;1718554418519;mu;FieldFeature;128;123;128;123;TGoalArea
GO2024-G6C_Atlas_3_PLAY_00564173_RobotDetectionToManyRobots_U.png;1718554422815;mu;FieldFeature;183;250;183;250;NoCornerGoalArea
GO2024-G6C_Atlas_3_PLAY_00564173_RobotDetectionToManyRobots_U.png;1718554425039;mu;FieldFeature;184;314;184;314;NoTPenaltyArea
GO2024-G6C_Atlas_3_PLAY_00564173_RobotDetectionToManyRobots_U.png;1718554426295;mu;FieldFeature;188;343;189;343;NoCornerPenaltyArea
GO2024-G6C_Atlas_3_PLAY_00622387_RobotDetectionToManyRobots_U.png;1718554438006;mu;FieldFeature;122;372;122;372;NoTMiddleLine
GO2024-G6C_Atlas_3_PLAY_00622387_RobotDetectionToManyRobots_U.png;1718554439868;mu;FieldFeature;136;343;136;343;NoCornerField
GO2024-G6C_Atlas_3_PLAY_00622387_RobotDetectionToManyRobots_U.png;1718554448313;mu;FieldFeature;337;163;337;163;TGoalArea
GO2024-G6C_Atlas_3_PLAY_00622387_RobotDetectionToManyRobots_U.png;1718554452025;mu;FieldFeature;399;154;399;154;TPenaltyArea
GO2024-G6C_Atlas_3_PLAY_00622387_RobotDetectionToManyRobots_U.png;1718554455615;mu;FieldFeature;62;204;62;204;TPenaltyArea
GO2024-G6C_Atlas_3_PLAY_00622387_RobotDetectionToManyRobots_U.png;1718554459929;mu;FieldFeature;150;190;150;190;TGoalArea
GO2024-G6C_Atlas_3_PLAY_00622387_RobotDetectionToManyRobots_U.png;1718554464626;mu;FieldFeature;471;155;471;155;CornerPenaltyArea
GO2024-G6C_Atlas_3_PLAY_00622387_RobotDetectionToManyRobots_U.png;1718554472186;mu;FieldFeature;348;164;348;164;CornerGoalArea
GO2024-G6C_Atlas_3_PLAY_00622387_RobotDetectionToManyRobots_U.png;1718554473702;mu;FieldFeature;153;195;153;195;CornerGoalArea
GO2024-G6C_Atlas_3_PLAY_00622387_RobotDetectionToManyRobots_U.png;1718554475154;mu;FieldFeature;52;220;52;220;CornerPenaltyArea
GO2024-G6C_Atlas_3_PLAY_00626271_RobotDetectionToManyRobots_U.png;1718554493061;mu;FieldFeature;102;345;102;345;NoTMiddleLine
GO2024-G6C_Atlas_3_PLAY_00626271_RobotDetectionToManyRobots_U.png;1718554493920;mu;FieldFeature;112;309;112;309;NoCornerField
GO2024-G6C_Atlas_3_PLAY_00626271_RobotDetectionToManyRobots_U.png;1718554498826;mu;FieldFeature;18;100;18;100;TGoalArea
GO2024-G6C_Atlas_3_PLAY_00626271_RobotDetectionToManyRobots_U.png;1718554501409;mu;FieldFeature;20;105;20;105;CornerGoalArea
GO2024-G6C_Atlas_3_PLAY_00626271_RobotDetectionToManyRobots_U.png;1718554505546;mu;FieldFeature;200;220;200;220;NoCornerGoalArea
GO2024-G6C_Atlas_3_PLAY_00626271_RobotDetectionToManyRobots_U.png;1718554506303;mu;FieldFeature;243;258;243;258;NoTPenaltyArea
GO2024-G6C_Atlas_3_PLAY_00632016_RobotDetectionToManyRobots_U.png;1718554512487;mu;FieldFeature;115;336;115;336;NoTMiddleLine
GO2024-G6C_Atlas_3_PLAY_00632016_RobotDetectionToManyRobots_U.png;1718554513586;mu;FieldFeature;120;362;120;362;NoCornerField
GO2024-G6C_Atlas_3_PLAY_00632016_RobotDetectionToManyRobots_U.png;1718554517658;mu;FieldFeature;187;123;187;123;TGoalArea
GO2024-G6C_Atlas_3_PLAY_00632016_RobotDetectionToManyRobots_U.png;1718554520021;mu;FieldFeature;452;118;452;118;TPenaltyArea
GO2024-G6C_Atlas_3_PLAY_00632016_RobotDetectionToManyRobots_U.png;1718554521744;mu;FieldFeature;100;125;100;125;TPenaltyArea
GO2024-G6C_Atlas_3_PLAY_00632016_RobotDetectionToManyRobots_U.png;1718554523518;mu;FieldFeature;80;138;80;138;CornerPenaltyArea
GO2024-G6C_Atlas_3_PLAY_00632016_RobotDetectionToManyRobots_U.png;1718554526857;mu;FieldFeature;189;128;189;128;CornerGoalArea
GO2024-G6C_Atlas_3_PLAY_00632016_RobotDetectionToManyRobots_U.png;1718554529990;mu;FieldFeature;515;127;515;127;CornerPenaltyArea
GO2024-G6C_Atlas_3_PLAY_00632016_RobotDetectionToManyRobots_U.png;1718554535403;mu;FieldFeature;381;120;381;120;TGoalArea
GO2024-G6C_Atlas_3_PLAY_00650202_RobotDetectionToManyRobots_U.png;1718554552893;mu;FieldFeature;638;120;638;120;TMiddleLine
GO2024-G6C_Atlas_3_PLAY_00650202_RobotDetectionToManyRobots_U.png;1718554555929;mu;FieldFeature;112;270;110;270;NoCornerField
GO2024-G6C_Atlas_3_PLAY_00650202_RobotDetectionToManyRobots_U.png;1718554557895;mu;FieldFeature;105;319;104;319;NoTGoalArea
GO2024-G6C_Atlas_3_PLAY_00650202_RobotDetectionToManyRobots_U.png;1718554558547;mu;FieldFeature;104;352;104;352;NoCornerGoalArea
GO2024-G6C_Atlas_3_PLAY_00650202_RobotDetectionToManyRobots_U.png;1718554563184;mu;FieldFeature;303;83;303;83;TPenaltyArea
GO2024-G6C_Atlas_3_PLAY_00650202_RobotDetectionToManyRobots_U.png;1718554564472;mu;FieldFeature;349;90;349;90;CornerPenaltyArea
GO2024-G6C_Atlas_3_PLAY_00692884_RobotDetectionToManyRobots_U.png;1718554569025;mu;FieldFeature;521;294;521;294;TMiddleLine
GO2024-G6C_Atlas_3_PLAY_00692884_RobotDetectionToManyRobots_U.png;1718554571369;mu;FieldFeature;258;378;258;378;NoCornerField
GO2024-G6C_Atlas_3_PLAY_00692884_RobotDetectionToManyRobots_U.png;1718554574208;mu;FieldFeature;147;390;147;390;NoTGoalArea
GO2024-G6C_Atlas_3_PLAY_00692884_RobotDetectionToManyRobots_U.png;1718554574829;mu;FieldFeature;153;411;153;411;NoCornerGoalArea
GO2024-G6C_Atlas_3_PLAY_00692884_RobotDetectionToManyRobots_U.png;1718554580403;mu;FieldFeature;291;401;291;401;NoTPenaltyArea
GO2024-G6C_Atlas_3_PLAY_00692884_RobotDetectionToManyRobots_U.png;1718554582897;mu;FieldFeature;246;262;246;262;CornerPenaltyArea
GO2024-G6C_Atlas_3_PLAY_00699081_RobotDetectionToManyRobots_U.png;1718554588538;mu;FieldFeature;611;302;611;302;TMiddleLine
GO2024-G6C_Atlas_3_PLAY_00699081_RobotDetectionToManyRobots_U.png;1718554590312;mu;FieldFeature;350;260;350;260;CornerField
GO2024-G6C_Atlas_3_PLAY_00699081_RobotDetectionToManyRobots_U.png;1718554594989;mu;FieldFeature;28;261;28;261;TGoalArea
GO2024-G6C_Atlas_3_PLAY_00699081_RobotDetectionToManyRobots_U.png;1718554600547;mu;FieldFeature;167;406;167;406;NoCornerGoalArea
GO2024-G6C_Atlas_3_PLAY_00699081_RobotDetectionToManyRobots_U.png;1718554603612;mu;FieldFeature;285;260;285;260;TPenaltyArea
GO2024-G6C_Atlas_3_PLAY_00699081_RobotDetectionToManyRobots_U.png;1718554606251;mu;FieldFeature;362;375;362;375;NoCornerPenaltyArea
GO2024-G6C_Atlas_3_PLAY_00727690_RobotDetectionToManyRobots_U.png;1718554617742;mu;FieldFeature;578;143;578;143;TMiddleLine
GO2024-G6C_Atlas_3_PLAY_00727690_RobotDetectionToManyRobots_U.png;1718554622360;mu;FieldFeature;336;109;336;109;CornerField
GO2024-G6C_Atlas_3_PLAY_00727690_RobotDetectionToManyRobots_U.png;1718554631266;mu;FieldFeature;147;300;147;300;NoTGoalArea
GO2024-G6C_Atlas_3_PLAY_00727690_RobotDetectionToManyRobots_U.png;1718554634837;mu;FieldFeature;202;114;202;114;CornerGoalArea
GO2024-G6C_Atlas_3_PLAY_00727690_RobotDetectionToManyRobots_U.png;1718554638142;mu;FieldFeature;276;246;276;246;NoTPenaltyArea
GO2024-G6C_Atlas_3_PLAY_00727690_RobotDetectionToManyRobots_U.png;1718554641180;mu;FieldFeature;305;118;305;118;CornerPenaltyArea
GO2024-G6C_Atlas_3_PLAY_00734020_RobotDetectionToManyRobots_U.png;1718554644383;mu;FieldFeature;453;114;453;114;TMiddleLine
GO2024-G6C_Atlas_3_PLAY_00734020_RobotDetectionToManyRobots_U.png;1718554646359;mu;FieldFeature;202;230;202;230;NoCornerField
GO2024-G6C_Atlas_3_PLAY_00734020_RobotDetectionToManyRobots_U.png;1718554648201;mu;FieldFeature;130;224;130;224;NoTGoalArea
GO2024-G6C_Atlas_3_PLAY_00734020_RobotDetectionToManyRobots_U.png;1718554648645;mu;FieldFeature;132;268;132;268;NoCornerGoalArea
GO2024-G6C_Atlas_3_PLAY_00734020_RobotDetectionToManyRobots_U.png;1718554658314;mu;FieldFeature;132;69;132;69;TPenaltyArea
GO2024-G6C_Atlas_3_PLAY_00734020_RobotDetectionToManyRobots_U.png;1718554659346;mu;FieldFeature;272;176;272;176;NoCornerPenaltyArea
GO2024-G6C_Atlas_3_PLAY_00766018_RobotDetectionToManyRobots_U.png;1718554672389;mu;FieldFeature;184;271;184;271;NoTMiddleLine
GO2024-G6C_Atlas_3_PLAY_00766018_RobotDetectionToManyRobots_U.png;1718554675278;mu;FieldFeature;446;76;446;76;CornerField
GO2024-G6C_Atlas_3_PLAY_00766018_RobotDetectionToManyRobots_U.png;1718554684524;mu;FieldFeature;125;77;125;77;TGoalArea
GO2024-G6C_Atlas_3_PLAY_00766018_RobotDetectionToManyRobots_U.png;1718554686977;mu;FieldFeature;39;78;39;78;TPenaltyArea
GO2024-G6C_Atlas_3_PLAY_00766018_RobotDetectionToManyRobots_U.png;1718554691682;mu;FieldFeature;311;76;311;76;TGoalArea
GO2024-G6C_Atlas_3_PLAY_00766018_RobotDetectionToManyRobots_U.png;1718554698538;mu;FieldFeature;384;78;384;78;TPenaltyArea
GO2024-G6C_Atlas_3_PLAY_00766018_RobotDetectionToManyRobots_U.png;1718554704505;mu;FieldFeature;123;81;123;81;CornerGoalArea
GO2024-G6C_Atlas_3_PLAY_00766018_RobotDetectionToManyRobots_U.png;1718554707352;mu;FieldFeature;429;87;429;87;CornerPenaltyArea
GO2024-G6C_Atlas_3_PLAY_00766018_RobotDetectionToManyRobots_U.png;1718554709378;mu;FieldFeature;11;89;11;89;CornerPenaltyArea
GO2024-G6C_Atlas_3_READY_00308761_RobotDetectionToManyRobots_U.png;1718554715417;mu;FieldFeature;536;155;536;155;TMiddleLine
GO2024-G6C_Atlas_3_READY_00308761_RobotDetectionToManyRobots_U.png;1718554717476;mu;FieldFeature;234;347;234;347;NoCornerField
GO2024-G6C_Atlas_3_READY_00308761_RobotDetectionToManyRobots_U.png;1718554721007;mu;FieldFeature;242;310;242;310;NoTGoalArea
GO2024-G6C_Atlas_3_READY_00308761_RobotDetectionToManyRobots_U.png;1718554721673;mu;FieldFeature;282;293;282;293;NoCornerGoalArea
GO2024-G6C_Atlas_3_READY_00308761_RobotDetectionToManyRobots_U.png;1718554722408;mu;FieldFeature;324;271;324;271;NoTPenaltyArea
GO2024-G6C_Atlas_3_READY_00308761_RobotDetectionToManyRobots_U.png;1718554725080;mu;FieldFeature;268;143;268;143;CornerPenaltyArea
GO2024-G6C_Atlas_3_READY_00313126_RobotDetectionToManyRobots_U.png;1718554730208;mu;FieldFeature;197;308;197;308;NoTMiddleLine
GO2024-G6C_Atlas_3_READY_00313126_RobotDetectionToManyRobots_U.png;1718554731103;mu;FieldFeature;207;276;207;276;NoCornerField
GO2024-G6C_Atlas_3_READY_00313126_RobotDetectionToManyRobots_U.png;1718554735379;mu;FieldFeature;515;138;515;138;TGoalArea
GO2024-G6C_Atlas_3_READY_00313126_RobotDetectionToManyRobots_U.png;1718554736754;mu;FieldFeature;523;142;523;142;CornerGoalArea
GO2024-G6C_Atlas_3_READY_00313126_RobotDetectionToManyRobots_U.png;1718554740725;mu;FieldFeature;268;145;268;145;TPenaltyArea
GO2024-G6C_Atlas_3_READY_00313126_RobotDetectionToManyRobots_U.png;1718554742574;mu;FieldFeature;240;155;240;154;CornerPenaltyArea
GO2024-G6C_Atlas_3_READY_00313126_RobotDetectionToManyRobots_U.png;1718554745076;mu;FieldFeature;636;146;636;146;CornerPenaltyArea
GO2024-G6C_Atlas_3_READY_00317550_RobotDetectionToManyRobots_U.png;1718554752222;mu;FieldFeature;510;182;510;182;TMiddleLine
GO2024-G6C_Atlas_3_READY_00317550_RobotDetectionToManyRobots_U.png;1718554754807;mu;FieldFeature;278;145;278;145;CornerField
GO2024-G6C_Atlas_3_READY_00317550_RobotDetectionToManyRobots_U.png;1718554758418;mu;FieldFeature;139;145;139;145;TGoalArea
GO2024-G6C_Atlas_3_READY_00317550_RobotDetectionToManyRobots_U.png;1718554763662;mu;FieldFeature;165;269;165;269;NoCornerGoalArea
GO2024-G6C_Atlas_3_READY_00317550_RobotDetectionToManyRobots_U.png;1718554793142;mu;FieldFeature;212;145;212;145;TPenaltyArea
GO2024-G6C_Atlas_3_READY_00317550_RobotDetectionToManyRobots_U.png;1718554795203;mu;FieldFeature;255;154;255;154;CornerPenaltyArea
GO2024-G6C_Atlas_3_READY_00322461_RobotDetectionToManyRobots_U.png;1718554801477;mu;FieldFeature;131;341;131;341;NoTMiddleLine
GO2024-G6C_Atlas_3_READY_00322461_RobotDetectionToManyRobots_U.png;1718554802282;mu;FieldFeature;230;338;230;338;NoCornerField
GO2024-G6C_Atlas_3_READY_00322461_RobotDetectionToManyRobots_U.png;1718554806166;mu;FieldFeature;259;149;259;149;TGoalArea
GO2024-G6C_Atlas_3_READY_00322461_RobotDetectionToManyRobots_U.png;1718554809766;mu;FieldFeature;192;150;192;149;TPenaltyArea
GO2024-G6C_Atlas_3_READY_00322461_RobotDetectionToManyRobots_U.png;1718554812355;mu;FieldFeature;504;146;504;146;TPenaltyArea
GO2024-G6C_Atlas_3_READY_00322461_RobotDetectionToManyRobots_U.png;1718554814443;mu;FieldFeature;259;153;259;153;CornerGoalArea
GO2024-G6C_Atlas_3_READY_00322461_RobotDetectionToManyRobots_U.png;1718554816112;mu;FieldFeature;546;154;546;154;CornerPenaltyArea
GO2024-G6C_Atlas_3_READY_00326403_RobotDetectionToManyRobots_U.png;1718554822178;mu;FieldFeature;430;185;430;185;TMiddleLine
GO2024-G6C_Atlas_3_READY_00326403_RobotDetectionToManyRobots_U.png;1718554826622;mu;FieldFeature;151;322;151;322;NoCornerField
GO2024-G6C_Atlas_3_READY_00326403_RobotDetectionToManyRobots_U.png;1718554830393;mu;FieldFeature;54;148;54;148;TGoalArea
GO2024-G6C_Atlas_3_READY_00326403_RobotDetectionToManyRobots_U.png;1718554835335;mu;FieldFeature;172;157;172;157;CornerPenaltyArea
GO2024-G6C_Atlas_3_READY_00326403_RobotDetectionToManyRobots_U.png;1718554838145;mu;FieldFeature;63;152;63;152;CornerGoalArea
GO2024-G6C_Atlas_3_READY_00326403_RobotDetectionToManyRobots_U.png;1718554840799;mu;FieldFeature;231;286;231;286;NoTPenaltyArea
GO2024-G6C_Atlas_3_READY_00330276_RobotDetectionToManyRobots_U.png;1718554848698;mu;FieldFeature;261;333;261;333;NoTMiddleLine
GO2024-G6C_Atlas_3_READY_00330276_RobotDetectionToManyRobots_U.png;1718554854533;mu;FieldFeature;228;305;227;305;NoCornerField
GO2024-G6C_Atlas_3_READY_00330276_RobotDetectionToManyRobots_U.png;1718554858549;mu;FieldFeature;189;152;189;152;TGoalArea
GO2024-G6C_Atlas_3_READY_00330276_RobotDetectionToManyRobots_U.png;1718554860076;mu;FieldFeature;362;150;362;150;TGoalArea
GO2024-G6C_Atlas_3_READY_00330276_RobotDetectionToManyRobots_U.png;1718554861525;mu;FieldFeature;431;149;431;149;TPenaltyArea
GO2024-G6C_Atlas_3_READY_00330276_RobotDetectionToManyRobots_U.png;1718554863249;mu;FieldFeature;114;152;114;152;TPenaltyArea
GO2024-G6C_Atlas_3_READY_00330276_RobotDetectionToManyRobots_U.png;1718554866212;mu;FieldFeature;187;156;187;156;CornerGoalArea
GO2024-G6C_Atlas_3_READY_00330276_RobotDetectionToManyRobots_U.png;1718554868270;mu;FieldFeature;370;154;370;154;CornerGoalArea
GO2024-G6C_Atlas_3_READY_00330276_RobotDetectionToManyRobots_U.png;1718554869514;mu;FieldFeature;470;159;470;159;CornerPenaltyArea
GO2024-G6C_Atlas_3_READY_00406189_RobotDetectionToManyRobots_U.png;1718554873992;mu;FieldFeature;587;173;587;173;TMiddleLine
GO2024-G6C_Atlas_3_READY_00406189_RobotDetectionToManyRobots_U.png;1718554876243;mu;FieldFeature;246;318;246;318;NoCornerField
GO2024-G6C_Atlas_3_READY_00406189_RobotDetectionToManyRobots_U.png;1718554881207;mu;FieldFeature;175;162;175;162;TGoalArea
GO2024-G6C_Atlas_3_READY_00406189_RobotDetectionToManyRobots_U.png;1718554891132;mu;FieldFeature;296;165;296;165;CornerPenaltyArea
GO2024-G6C_Atlas_3_READY_00406189_RobotDetectionToManyRobots_U.png;1718554894673;mu;FieldFeature;187;168;187;168;CornerGoalArea
GO2024-G6C_Atlas_3_READY_00406189_RobotDetectionToManyRobots_U.png;1718554896374;mu;FieldFeature;358;258;358;258;NoTPenaltyArea
GO2024-G6C_Atlas_3_READY_00411136_RobotDetectionToManyRobots_U.png;1718554903229;mu;FieldFeature;521;184;521;184;TMiddleLine
GO2024-G6C_Atlas_3_READY_00411136_RobotDetectionToManyRobots_U.png;1718554905164;mu;FieldFeature;156;351;156;351;NoCornerField
GO2024-G6C_Atlas_3_READY_00411136_RobotDetectionToManyRobots_U.png;1718554911794;mu;FieldFeature;118;143;118;143;TGoalArea
GO2024-G6C_Atlas_3_READY_00411136_RobotDetectionToManyRobots_U.png;1718554913120;mu;FieldFeature;128;146;128;146;CornerGoalArea
GO2024-G6C_Atlas_3_READY_00411136_RobotDetectionToManyRobots_U.png;1718554919766;mu;FieldFeature;284;308;284;308;NoTPenaltyArea
GO2024-G6C_Atlas_3_READY_00411136_RobotDetectionToManyRobots_U.png;1718554920250;mu;FieldFeature;301;338;301;338;NoCornerPenaltyArea
GO2024-G6C_Atlas_3_READY_00415034_RobotDetectionToManyRobots_U.png;1718554924654;mu;FieldFeature;190;266;189;267;NoTMiddleLine
GO2024-G6C_Atlas_3_READY_00415034_RobotDetectionToManyRobots_U.png;1718554926189;mu;FieldFeature;54;126;54;126;CornerField
GO2024-G6C_Atlas_3_READY_00415034_RobotDetectionToManyRobots_U.png;1718554933187;mu;FieldFeature;204;128;204;128;TGoalArea
GO2024-G6C_Atlas_3_READY_00415034_RobotDetectionToManyRobots_U.png;1718554934962;mu;FieldFeature;127;126;127;126;TPenaltyArea
GO2024-G6C_Atlas_3_READY_00415034_RobotDetectionToManyRobots_U.png;1718554937345;mu;FieldFeature;451;130;451;130;TPenaltyArea
GO2024-G6C_Atlas_3_READY_00415034_RobotDetectionToManyRobots_U.png;1718554941096;mu;FieldFeature;199;132;199;132;CornerGoalArea
GO2024-G6C_Atlas_3_READY_00415034_RobotDetectionToManyRobots_U.png;1718554944679;mu;FieldFeature;100;136;100;136;CornerPenaltyArea
GO2024-G6C_Atlas_3_READY_00415034_RobotDetectionToManyRobots_U.png;1718554945933;mu;FieldFeature;492;140;492;140;CornerPenaltyArea
GO2024-G6C_Atlas_3_READY_00418981_RobotDetectionToManyRobots_U.png;1718554950832;mu;FieldFeature;92;194;92;194;TMiddleLine
GO2024-G6C_Atlas_3_READY_00418981_RobotDetectionToManyRobots_U.png;1718554954296;mu;FieldFeature;217;289;217;289;NoCornerField
GO2024-G6C_Atlas_3_READY_00418981_RobotDetectionToManyRobots_U.png;1718554957550;mu;FieldFeature;456;145;456;145;TGoalArea
GO2024-G6C_Atlas_3_READY_00418981_RobotDetectionToManyRobots_U.png;1718554959819;mu;FieldFeature;452;149;452;149;CornerGoalArea
GO2024-G6C_Atlas_3_READY_00418981_RobotDetectionToManyRobots_U.png;1718554964621;mu;FieldFeature;384;146;384;146;TPenaltyArea
GO2024-G6C_Atlas_3_READY_00418981_RobotDetectionToManyRobots_U.png;1718554967373;mu;FieldFeature;360;156;360;156;CornerPenaltyArea
GO2024-G6C_Atlas_3_READY_00422888_RobotDetectionToManyRobots_U.png;1718554971037;mu;FieldFeature;388;243;388;244;NoTMiddleLine
GO2024-G6C_Atlas_3_READY_00422888_RobotDetectionToManyRobots_U.png;1718554972692;mu;FieldFeature;470;96;470;96;CornerField
GO2024-G6C_Atlas_3_READY_00422888_RobotDetectionToManyRobots_U.png;1718554977830;mu;FieldFeature;190;265;190;265;NoTGoalArea
GO2024-G6C_Atlas_3_READY_00422888_RobotDetectionToManyRobots_U.png;1718554978321;mu;FieldFeature;196;304;196;304;NoCornerGoalArea
GO2024-G6C_Atlas_3_READY_00422888_RobotDetectionToManyRobots_U.png;1718554981572;mu;FieldFeature;78;95;78;95;TPenaltyArea
GO2024-G6C_Atlas_3_READY_00422888_RobotDetectionToManyRobots_U.png;1718554983061;mu;FieldFeature;56;105;56;105;CornerPenaltyArea
GO2024-G6C_Atlas_3_READY_00426785_RobotDetectionToManyRobots_U.png;1718554988726;mu;FieldFeature;587;237;587;236;TMiddleLine
GO2024-G6C_Atlas_3_READY_00426785_RobotDetectionToManyRobots_U.png;1718554990479;mu;FieldFeature;343;181;343;181;CornerField
GO2024-G6C_Atlas_3_READY_00426785_RobotDetectionToManyRobots_U.png;1718554992155;mu;FieldFeature;23;157;23;157;TGoalArea
GO2024-G6C_Atlas_3_READY_00426785_RobotDetectionToManyRobots_U.png;1718554993087;mu;FieldFeature;17;166;17;166;CornerGoalArea
GO2024-G6C_Atlas_3_READY_00426785_RobotDetectionToManyRobots_U.png;1718554997658;mu;FieldFeature;252;328;252;328;NoTPenaltyArea
GO2024-G6C_Atlas_3_READY_00426785_RobotDetectionToManyRobots_U.png;1718554998073;mu;FieldFeature;258;374;258;375;NoCornerPenaltyArea
GO2024-G6B_Atlas_3_READY_00539762_RobotDetectionToManyRobots_U.png;1715539511186;tkalbitz;GoalPost;173;166;166;57;Right
GO2024-G6B_Atlas_3_READY_00539762_RobotDetectionToManyRobots_U.png;1715539514110;tkalbitz;GoalPost;166;57;0;49;Middle
GO2024-G6B_Atlas_3_SET_00348618_RobotDetectionToManyRobots_U.png;1715672369580;tkalbitz;GoalPost;509;160;515;88;Left
GO2024-G6C_Atlas_3_PLAY_00304865_RobotDetectionToManyRobots_U.png;1715672375566;tkalbitz;GoalPost;21;430;4;89;Left
GO2024-G6B_Atlas_3_READY_00533874_RobotDetectionToManyRobots_U.png;1715676417548;tkalbitz;NoGoalPost
GO2024-G6C_Atlas_3_PLAY_00201827_RobotDetectionToManyRobots_U.png;1715539521988;tkalbitz;NoGoalPost
GO2024-G6C_Atlas_3_PLAY_00225633_RobotDetectionToManyRobots_U.png;1715539523150;tkalbitz;NoGoalPost
GO2024-G6C_Atlas_3_PLAY_00284871_RobotDetectionToManyRobots_U.png;1715539527849;tkalbitz;NoGoalPost
GO2024-G6C_Atlas_3_PLAY_00371245_RobotDetectionToManyRobots_U.png;1715539530131;tkalbitz;NoGoalPost
GO2024-G6C_Atlas_3_PLAY_00692884_RobotDetectionToManyRobots_U.png;1715539535411;tkalbitz;NoGoalPost
GO2024-G6C_Atlas_3_READY_00308761_RobotDetectionToManyRobots_U.png;1715539537715;tkalbitz;NoGoalPost
GO2024-G6C_Atlas_3_READY_00326403_RobotDetectionToManyRobots_U.png;1715539541181;tkalbitz;NoGoalPost
