RC2023-G3A_Sputnik_4_PLAY_00162557_BallAppearedFromLastToThisImage_U.png;1718182537023;tkalbitz;CenterCirclePoints;274;137;274;137;Right
RC2023-G3A_Sputnik_4_PLAY_00184340_BallAppearedFromLastToThisImage_U.png;1718182541153;tkalbitz;CenterCirclePoints;250;124;250;124;Right
RC2023-G3A_Sputnik_4_PLAY_00297937_BallAppearedFromLastToThisImage_U.png;1718184935298;tkalbitz;CenterCirclePoints;20;119;20;119;Right
RC2023-G3A_Sputnik_4_PLAY_00582642_BallAppearedFromLastToThisImage_U.png;1718182543835;tkalbitz;CenterCirclePoints;23;203;23;203;Left
RC2023-G3A_Sputnik_4_PLAY_00585489_BallAppearedFromLastToThisImage_U.png;1718182546435;tkalbitz;CenterCirclePoints;390;119;390;119;Left
RC2023-G3A_Sputnik_4_PLAY_00587194_BallAppearedFromLastToThisImage_U.png;1718182549503;tkalbitz;CenterCirclePoints;392;123;392;123;Left
RC2023-G3A_Sputnik_4_PLAY_00610270_BallAppearedFromLastToThisImage_U.png;1718182553013;tkalbitz;CenterCirclePoints;195;125;195;125;Right
RC2023-G3A_Sputnik_4_PLAY_00686131_BallAppearedFromLastToThisImage_U.png;1718182556871;tkalbitz;CenterCirclePoints;119;138;119;138;Right
RC2023-G3A_Sputnik_4_SET_00146726_BallAppearedFromLastToThisImage_U.png;1718182559302;tkalbitz;CenterCirclePoints;115;116;115;116;Right
RC2023-G3A_Sputnik_4_SET_00268394_BallAppearedFromLastToThisImage_U.png;1718182562406;tkalbitz;CenterCirclePoints;464;163;464;163;Left
RC2023-G3A_Sputnik_4_SET_00289685_BallAppearedFromLastToThisImage_U.png;1718182564704;tkalbitz;CenterCirclePoints;78;137;78;138;Right
RC2023-G3A_Sputnik_4_SET_00369928_BallAppearedFromLastToThisImage_U.png;1718182567434;tkalbitz;CenterCirclePoints;485;172;485;172;Left
RC2023-G3B_Sputnik_4_PLAY_00403058_BallAppearedFromLastToThisImage_U.png;1718182574316;tkalbitz;CenterCirclePoints;293;380;293;380;Right
RC2023-G3B_Sputnik_4_PLAY_00578430_BallAppearedFromLastToThisImage_U.png;1718182576538;tkalbitz;CenterCirclePoints;14;313;14;314;Left
RC2023-G3B_Sputnik_4_PLAY_00697370_BallAppearedFromLastToThisImage_U.png;1718182579490;tkalbitz;CenterCirclePoints;406;154;406;154;Right
RC2023-G3B_Sputnik_4_SET_00151603_BallAppearedFromLastToThisImage_U.png;1718182581862;tkalbitz;CenterCirclePoints;269;263;269;263;Right
RC2023-G3A_Sputnik_4_PLAY_00162557_BallAppearedFromLastToThisImage_U.png;1715677869474;tkalbitz;GoalPost;247;74;246;7;Right
RC2023-G3A_Sputnik_4_PLAY_00184340_BallAppearedFromLastToThisImage_U.png;1715627192181;tkalbitz;GoalPost;142;65;137;-1;Left
RC2023-G3A_Sputnik_4_PLAY_00293190_BallAppearedFromLastToThisImage_U.png;1715677873598;tkalbitz;GoalPost;402;74;406;4;Right
RC2023-G3A_Sputnik_4_PLAY_00461541_BallAppearedFromLastToThisImage_U.png;1715627197447;tkalbitz;GoalPost;520;82;550;2;Left
RC2023-G3A_Sputnik_4_PLAY_00618754_BallAppearedFromLastToThisImage_U.png;1715627204755;tkalbitz;GoalPost;100;70;96;2;Left
RC2023-G3A_Sputnik_4_SET_00289685_BallAppearedFromLastToThisImage_U.png;1715677888431;tkalbitz;GoalPost;59;73;54;1;Right
RC2023-G3B_Sputnik_4_PLAY_00343921_BallAppearedFromLastToThisImage_U.png;1715627222212;tkalbitz;GoalPost;516;101;527;2;Left
RC2023-G3B_Sputnik_4_PLAY_00440743_BallAppearedFromLastToThisImage_U.png;1715627235764;tkalbitz;GoalPost;249;102;235;-1;Right
RC2023-G3B_Sputnik_4_PLAY_00466115_BallAppearedFromLastToThisImage_U.png;1715627239999;tkalbitz;GoalPost;300;264;332;1;Left
RC2023-G3B_Sputnik_4_PLAY_00471662_BallAppearedFromLastToThisImage_U.png;1715627243335;tkalbitz;GoalPost;133;167;96;3;Left
RC2023-G3B_Sputnik_4_PLAY_00726379_BallAppearedFromLastToThisImage_U.png;1715677896913;tkalbitz;GoalPost;265;58;275;0;Right
RC2023-G3B_Sputnik_4_SET_00686228_BallAppearedFromLastToThisImage_U.png;1715627251039;tkalbitz;GoalPost;135;309;142;229;Left
RC2023-G3A_Sputnik_4_PLAY_00405754_BallAppearedFromLastToThisImage_U.png;1718193549075;tkalbitz;NoCenterCirclePoints
RC2023-G3A_Sputnik_4_PLAY_00618754_BallAppearedFromLastToThisImage_U.png;1718184937310;tkalbitz;NoCenterCirclePoints
RC2023-G3B_Sputnik_4_PLAY_00354206_BallAppearedFromLastToThisImage_U.png;1718191908768;tkalbitz;NoCenterCirclePoints
RC2023-G3B_Sputnik_4_PLAY_00361786_BallAppearedFromLastToThisImage_U.png;1718182570830;tkalbitz;NoCenterCirclePoints
RC2023-G3B_Sputnik_4_PLAY_00440743_BallAppearedFromLastToThisImage_U.png;1718195120172;tkalbitz;NoCenterCirclePoints
RC2023-G3A_Sputnik_4_PLAY_00179629_BallAppearedFromLastToThisImage_U.png;1715627189429;tkalbitz;NoGoalPost
RC2023-G3A_Sputnik_4_PLAY_00585489_BallAppearedFromLastToThisImage_U.png;1715677879917;tkalbitz;NoGoalPost
RC2023-G3A_Sputnik_4_PLAY_00598326_BallAppearedFromLastToThisImage_U.png;1715627201931;tkalbitz;NoGoalPost
RC2023-G3A_Sputnik_4_PLAY_00610270_BallAppearedFromLastToThisImage_U.png;1715677882181;tkalbitz;NoGoalPost
RC2023-G3A_Sputnik_4_PLAY_00623683_BallAppearedFromLastToThisImage_U.png;1715627208310;tkalbitz;NoGoalPost
RC2023-G3A_Sputnik_4_SET_00128686_BallAppearedFromLastToThisImage_U.png;1715627211466;tkalbitz;NoGoalPost
RC2023-G3A_Sputnik_4_SET_00130515_BallAppearedFromLastToThisImage_U.png;1715627213646;tkalbitz;NoGoalPost
RC2023-G3A_Sputnik_4_SET_00131996_BallAppearedFromLastToThisImage_U.png;1715677884009;tkalbitz;NoGoalPost
RC2023-G3A_Sputnik_4_SET_00133513_BallAppearedFromLastToThisImage_U.png;1715627215292;tkalbitz;NoGoalPost
RC2023-G3A_Sputnik_4_SET_00135088_BallAppearedFromLastToThisImage_U.png;1715677884909;tkalbitz;NoGoalPost
RC2023-G3A_Sputnik_4_SET_00268394_BallAppearedFromLastToThisImage_U.png;1715627217096;tkalbitz;NoGoalPost
RC2023-G3B_Sputnik_4_PLAY_00332769_BallAppearedFromLastToThisImage_U.png;1715677893843;tkalbitz;NoGoalPost
RC2023-G3B_Sputnik_4_PLAY_00354206_BallAppearedFromLastToThisImage_U.png;1715627229174;tkalbitz;NoGoalPost
RC2023-G3B_Sputnik_4_SET_00151603_BallAppearedFromLastToThisImage_U.png;1715627247947;tkalbitz;NoGoalPost
