RC2022_5th-Game-vsBembelbots_G1A_Helios_2_PLAY_00249948_BallAppearedFromLastToThisImage_U.png;1718198752294;tkalbitz;CenterCirclePoints;28;269;28;269;Right
RC2022_5th-Game-vsBembelbots_G1A_Helios_2_PLAY_00254832_BallAppearedFromLastToThisImage_U.png;1718198754446;tkalbitz;CenterCirclePoints;141;474;141;474;Right
RC2022_5th-Game-vsBembelbots_G1B_CometInterceptor_4_PLAY_00160399_BallAppearedFromLastToThisImage_U.png;1718198756332;tkalbitz;CenterCirclePoints;162;393;162;393;Left
RC2022_5th-Game-vsBembelbots_G1B_CometInterceptor_4_PLAY_00437355_BallAppearedFromLastToThisImage_U.png;1718198761008;tkalbitz;CenterCirclePoints;153;136;153;136;Right
RC2022_5th-Game-vsBembelbots_G1B_CometInterceptor_4_PLAY_00550429_BallAppearedFromLastToThisImage_U.png;1718198763364;tkalbitz;CenterCirclePoints;179;159;179;159;Right
RC2022_5th-Game-vsBembelbots_G1B_CometInterceptor_4_PLAY_00574244_BallAppearedFromLastToThisImage_U.png;1718198765585;tkalbitz;CenterCirclePoints;437;120;437;120;Left
RC2022_5th-Game-vsBembelbots_G1B_CometInterceptor_4_PLAY_00575293_BallAppearedFromLastToThisImage_U.png;1718198767315;tkalbitz;CenterCirclePoints;507;88;507;88;Left
RC2022_5th-Game-vsBembelbots_G1B_CometInterceptor_4_PLAY_00623258_BallAppearedFromLastToThisImage_U.png;1718198769991;tkalbitz;CenterCirclePoints;420;66;420;66;Right
RC2022_5th-Game-vsBembelbots_G1B_Dawn_3_PLAY_00396778_BallAppearedFromLastToThisImage_U.png;1718198773485;tkalbitz;CenterCirclePoints;20;454;20;454;Left
RC2022_5th-Game-vsBembelbots_G1B_Dawn_3_PLAY_00570471_BallAppearedFromLastToThisImage_U.png;1718198776657;tkalbitz;CenterCirclePoints;424;179;424;179;Left
RC2022_5th-Game-vsBembelbots_G1B_Helios_2_PLAY_00156375_BallAppearedFromLastToThisImage_U.png;1718198781837;tkalbitz;CenterCirclePoints;20;227;20;227;Right
RC2022_5th-Game-vsBembelbots_G1B_Pioneer_5_PLAY_00146656_BallAppearedFromLastToThisImage_U.png;1718198785382;tkalbitz;CenterCirclePoints;371;56;371;56;Right
RC2022_5th-Game-vsBembelbots_G1B_Pioneer_5_PLAY_00240739_BallAppearedFromLastToThisImage_U.png;1718198788606;tkalbitz;CenterCirclePoints;36;148;36;148;Right
RC2022_5th-Game-vsBembelbots_G1B_Pioneer_5_PLAY_00673169_BallAppearedFromLastToThisImage_U.png;1718198790818;tkalbitz;CenterCirclePoints;111;47;111;47;Right
RC2022_5th-Game-vsBembelbots_G1C_CometInterceptor_4_PLAY_00123190_BallAppearedFromLastToThisImage_U.png;1718198792880;tkalbitz;CenterCirclePoints;303;168;303;168;Right
RC2022_5th-Game-vsBembelbots_G1C_CometInterceptor_4_PLAY_00124231_BallAppearedFromLastToThisImage_U.png;1718198794760;tkalbitz;CenterCirclePoints;431;206;431;206;Right
RC2022_5th-Game-vsBembelbots_G1C_CometInterceptor_4_PLAY_00125288_BallAppearedFromLastToThisImage_U.png;1718198796880;tkalbitz;CenterCirclePoints;247;221;247;221;Right
RC2022_5th-Game-vsBembelbots_G1C_CometInterceptor_4_PLAY_00152690_BallAppearedFromLastToThisImage_U.png;1718198798684;tkalbitz;CenterCirclePoints;148;175;148;175;Right
RC2022_5th-Game-vsBembelbots_G1C_CometInterceptor_4_PLAY_00405542_BallAppearedFromLastToThisImage_U.png;1718198801136;tkalbitz;CenterCirclePoints;341;102;341;102;Left
RC2022_5th-Game-vsBembelbots_G1C_CometInterceptor_4_PLAY_00411920_BallAppearedFromLastToThisImage_U.png;1718198805738;tkalbitz;CenterCirclePoints;456;124;456;124;Left
RC2022_5th-Game-vsBembelbots_G1C_CometInterceptor_4_PLAY_00416242_BallAppearedFromLastToThisImage_U.png;1718198808408;tkalbitz;CenterCirclePoints;247;100;247;100;Right
RC2022_5th-Game-vsBembelbots_G1C_CometInterceptor_4_PLAY_00609435_BallAppearedFromLastToThisImage_U.png;1718198813963;tkalbitz;CenterCirclePoints;600;120;600;120;Left
RC2022_5th-Game-vsBembelbots_G1C_CometInterceptor_4_PLAY_00610491_BallAppearedFromLastToThisImage_U.png;1718198817071;tkalbitz;CenterCirclePoints;429;208;429;208;Left
RC2022_5th-Game-vsBembelbots_G1C_CometInterceptor_4_PLAY_00613055_BallAppearedFromLastToThisImage_U.png;1718198819709;tkalbitz;CenterCirclePoints;566;106;566;106;Left
RC2022_5th-Game-vsBembelbots_G1C_CometInterceptor_4_PLAY_00618988_BallAppearedFromLastToThisImage_U.png;1718198821937;tkalbitz;CenterCirclePoints;602;165;602;165;Left
RC2022_5th-Game-vsBembelbots_G1C_CometInterceptor_4_PLAY_00620152_BallAppearedFromLastToThisImage_U.png;1718198824825;tkalbitz;CenterCirclePoints;492;172;492;172;Left
RC2022_5th-Game-vsBembelbots_G1C_CometInterceptor_4_PLAY_00621196_BallAppearedFromLastToThisImage_U.png;1718198827397;tkalbitz;CenterCirclePoints;493;160;493;160;Left
RC2022_5th-Game-vsBembelbots_G1C_CometInterceptor_4_PLAY_00627891_BallAppearedFromLastToThisImage_U.png;1718198829473;tkalbitz;CenterCirclePoints;497;163;497;163;Left
RC2022_5th-Game-vsBembelbots_G1C_CometInterceptor_4_PLAY_00634908_BallAppearedFromLastToThisImage_U.png;1718198831097;tkalbitz;CenterCirclePoints;474;173;474;173;Left
RC2022_5th-Game-vsBembelbots_G1C_CometInterceptor_4_PLAY_00636011_BallAppearedFromLastToThisImage_U.png;1718198838780;tkalbitz;CenterCirclePoints;476;172;476;172;Left
RC2022_5th-Game-vsBembelbots_G1C_CometInterceptor_4_PLAY_00748174_BallAppearedFromLastToThisImage_U.png;1718198845122;tkalbitz;CenterCirclePoints;464;206;464;206;Left
RC2022_5th-Game-vsBembelbots_G1C_CometInterceptor_4_PLAY_00800562_BallAppearedFromLastToThisImage_U.png;1718198848874;tkalbitz;CenterCirclePoints;121;287;121;287;Right
RC2022_5th-Game-vsBembelbots_G1C_CometInterceptor_4_PLAY_00813252_BallAppearedFromLastToThisImage_U.png;1718198852042;tkalbitz;CenterCirclePoints;545;468;545;468;Left
RC2022_5th-Game-vsBembelbots_G1C_CometInterceptor_4_PLAY_00884392_BallAppearedFromLastToThisImage_U.png;1718198857179;tkalbitz;CenterCirclePoints;631;224;631;224;Right
RC2022_5th-Game-vsBembelbots_G1C_Helios_2_PLAY_00309322_BallAppearedFromLastToThisImage_U.png;1718198860393;tkalbitz;CenterCirclePoints;180;167;180;167;Right
RC2022_5th-Game-vsBembelbots_G1C_Helios_2_PLAY_00399898_BallAppearedFromLastToThisImage_U.png;1718198862223;tkalbitz;CenterCirclePoints;462;281;462;281;Left
RC2022_5th-Game-vsBembelbots_G1C_Helios_2_PLAY_00414759_BallAppearedFromLastToThisImage_U.png;1718198863967;tkalbitz;CenterCirclePoints;156;266;156;266;Right
RC2022_5th-Game-vsBembelbots_G1C_Helios_2_PLAY_00432030_BallAppearedFromLastToThisImage_U.png;1718198865777;tkalbitz;CenterCirclePoints;600;341;600;341;Left
RC2022_5th-Game-vsBembelbots_G1C_Helios_2_PLAY_00805875_BallAppearedFromLastToThisImage_U.png;1718198867847;tkalbitz;CenterCirclePoints;334;229;334;229;Left
RC2022_5th-Game-vsBembelbots_G1A_CometInterceptor_4_PLAY_00114587_BallAppearedFromLastToThisImage_U.png;1718198746090;tkalbitz;NoCenterCirclePoints
RC2022_5th-Game-vsBembelbots_G1A_CometInterceptor_4_PLAY_00127946_BallAppearedFromLastToThisImage_U.png;1718198749542;tkalbitz;NoCenterCirclePoints
RC2022_5th-Game-vsBembelbots_G1A_Dawn_3_PLAY_00129522_BallAppearedFromLastToThisImage_U.png;1718198750394;tkalbitz;NoCenterCirclePoints
RC2022_5th-Game-vsBembelbots_G1B_CometInterceptor_4_PLAY_00400596_BallAppearedFromLastToThisImage_U.png;1718198757636;tkalbitz;NoCenterCirclePoints
RC2022_5th-Game-vsBembelbots_G1B_Dawn_3_PLAY_00436755_BallAppearedFromLastToThisImage_U.png;1718198775041;tkalbitz;NoCenterCirclePoints
RC2022_5th-Game-vsBembelbots_G1B_Helios_2_PLAY_00500508_BallAppearedFromLastToThisImage_U.png;1718198783319;tkalbitz;NoCenterCirclePoints
RC2022_5th-Game-vsBembelbots_G1C_CometInterceptor_4_PLAY_00840944_BallAppearedFromLastToThisImage_U.png;1718198853496;tkalbitz;NoCenterCirclePoints
