RC2023-G2B_Dawn_1,2_SET_00421618_CameraImageDirty_U.png;1718180619717;tkalbitz;CenterCirclePoints;248;161;248;161;Right
RC2023-G2B_Dawn_1,2_SET_00665951_CameraImageDirty_U.png;1718180624597;tkalbitz;CenterCirclePoints;179;132;179;132;Right
RC2023-G2B_Dawn_1,2_SET_00895194_CameraImageDirty_U.png;1718180627603;tkalbitz;CenterCirclePoints;105;156;105;156;Right
RC2023-G2B_Dawn_1,2_SET_00986249_CameraImageDirty_U.png;1718180631083;tkalbitz;CenterCirclePoints;169;156;169;156;Right
