GO2024-G6B_Genesis_7_READY_00331628_RobotDetectionToManyRobots_U.png;1718127342075;tkalbitz;CenterCirclePoints;600;357;600;357;Right
GO2024-G6B_Genesis_7_READY_00335520_RobotDetectionToManyRobots_U.png;1718127344504;tkalbitz;CenterCirclePoints;563;309;563;309;Right
GO2024-G6B_Genesis_7_READY_00339494_RobotDetectionToManyRobots_U.png;1718136304148;tkalbitz;CenterCirclePoints;285;299;285;299;Left
GO2024-G6B_Genesis_7_READY_00520400_RobotDetectionToManyRobots_U.png;1718127347304;tkalbitz;CenterCirclePoints;361;276;362;276;Left
GO2024-G6B_Genesis_7_SET_00348779_RobotDetectionToManyRobots_U.png;1718127349716;tkalbitz;CenterCirclePoints;586;323;586;323;Right
GO2024-G6B_Genesis_7_READY_00339494_RobotDetectionToManyRobots_U.png;1715672967081;tkalbitz;GoalPost;531;138;531;36;Left
GO2024-G6C_Genesis_7_READY_00334563_RobotDetectionToManyRobots_U.png;1715672970596;tkalbitz;GoalPost;174;104;189;5;Right
GO2024-G6C_Genesis_7_READY_00334563_RobotDetectionToManyRobots_U.png;1718136305839;tkalbitz;NoCenterCirclePoints
