RC2023-G7A_Pioneer_6_PLAY_00152818_RobotDetectionToManyRobots_U.png;1718192322420;tkalbitz;CenterCirclePoints;303;151;303;151;Left
RC2023-G7A_Pioneer_6_PLAY_00665283_RobotDetectionToManyRobots_U.png;1718192325765;tkalbitz;CenterCirclePoints;153;245;153;245;Right
RC2023-G7A_Pioneer_6_PLAY_00703882_RobotDetectionToManyRobots_U.png;1718192327899;tkalbitz;CenterCirclePoints;151;315;151;315;Right
RC2023-G7A_Pioneer_6_PLAY_00213071_RobotDetectionToManyRobots_U.png;1715628922043;tkalbitz;GoalPost;317;122;325;52;Right
RC2023-G7A_Pioneer_6_PLAY_00491232_RobotDetectionToManyRobots_U.png;1715679688402;tkalbitz;GoalPost;256;72;258;-2;Left
RC2023-G7A_Pioneer_6_PLAY_00591649_RobotDetectionToManyRobots_U.png;1715628930106;tkalbitz;GoalPost;92;269;112;160;Right
RC2023-G7A_Pioneer_6_PLAY_00665283_RobotDetectionToManyRobots_U.png;1715628933890;tkalbitz;GoalPost;123;104;98;10;Right
RC2023-G7A_Pioneer_6_PLAY_00771908_RobotDetectionToManyRobots_U.png;1715679693242;tkalbitz;GoalPost;178;178;171;97;Right
RC2023-G7A_Pioneer_6_READY_00110647_RobotDetectionToManyRobots_U.png;1715628939402;tkalbitz;GoalPost;118;101;110;27;Right
RC2023-G7A_Pioneer_6_READY_00114815_RobotDetectionToManyRobots_U.png;1715679696616;tkalbitz;GoalPost;114;96;107;24;Right
RC2023-G7A_Pioneer_6_SET_00135579_RobotDetectionToManyRobots_U.png;1715679701876;tkalbitz;GoalPost;142;103;144;29;Right
RC2023-G7B_Pioneer_6_PLAY_00248828_RobotDetectionToManyRobots_U.png;1715679705916;tkalbitz;GoalPost;203;138;200;56;Right
RC2023-G7B_Pioneer_6_PLAY_00327850_RobotDetectionToManyRobots_U.png;1715628943896;tkalbitz;GoalPost;458;142;447;4;Left
RC2023-G7B_Pioneer_6_PLAY_00347448_RobotDetectionToManyRobots_U.png;1715628948072;tkalbitz;GoalPost;506;140;516;1;Left
RC2023-G7B_Pioneer_6_PLAY_00356853_RobotDetectionToManyRobots_U.png;1715628952201;tkalbitz;GoalPost;358;104;346;-1;Right
RC2023-G7B_Pioneer_6_PLAY_00362694_RobotDetectionToManyRobots_U.png;1715628955859;tkalbitz;GoalPost;230;75;228;0;Right
RC2023-G7B_Pioneer_6_PLAY_00460097_RobotDetectionToManyRobots_U.png;1715628959669;tkalbitz;GoalPost;389;147;392;19;Left
RC2023-G7B_Pioneer_6_PLAY_00527440_RobotDetectionToManyRobots_U.png;1715628965321;tkalbitz;GoalPost;265;140;265;77;Right
RC2023-G7B_Pioneer_6_PLAY_00612976_RobotDetectionToManyRobots_U.png;1715628968423;tkalbitz;GoalPost;376;69;375;1;Left
RC2023-G7B_Pioneer_6_READY_00120259_RobotDetectionToManyRobots_U.png;1715628973599;tkalbitz;GoalPost;151;89;150;0;Right
RC2023-G7B_Pioneer_6_READY_00128041_RobotDetectionToManyRobots_U.png;1715628978722;tkalbitz;GoalPost;436;138;440;51;Right
RC2023-G7B_Pioneer_6_READY_00131934_RobotDetectionToManyRobots_U.png;1715628984172;tkalbitz;GoalPost;105;133;100;42;Right
RC2023-G7B_Pioneer_6_READY_00135835_RobotDetectionToManyRobots_U.png;1715628988320;tkalbitz;GoalPost;435;134;434;46;Right
RC2023-G7B_Pioneer_6_READY_00143621_RobotDetectionToManyRobots_U.png;1715628992698;tkalbitz;GoalPost;299;129;299;44;Right
RC2023-G7B_Pioneer_6_READY_00147531_RobotDetectionToManyRobots_U.png;1715679712258;tkalbitz;GoalPost;218;130;216;44;Right
RC2023-G7B_Pioneer_6_READY_00379713_RobotDetectionToManyRobots_U.png;1715628996474;tkalbitz;GoalPost;55;112;40;8;Right
RC2023-G7B_Pioneer_6_READY_00384342_RobotDetectionToManyRobots_U.png;1715629000265;tkalbitz;GoalPost;466;141;472;51;Left
RC2023-G7B_Pioneer_6_SET_00152596_RobotDetectionToManyRobots_U.png;1715629005309;tkalbitz;GoalPost;126;135;117;48;Right
RC2023-G7B_Pioneer_6_SET_00393665_RobotDetectionToManyRobots_U.png;1715629009453;tkalbitz;GoalPost;389;126;389;35;Right
RC2023-G7B_Pioneer_6_SET_00674884_RobotDetectionToManyRobots_U.png;1715629012541;tkalbitz;GoalPost;510;149;520;51;Left
RC2023-G7A_Pioneer_6_PLAY_00763099_RobotDetectionToManyRobots_U.png;1718189866162;tkalbitz;NoCenterCirclePoints
RC2023-G7B_Pioneer_6_PLAY_00178387_RobotDetectionToManyRobots_U.png;1718193907447;tkalbitz;NoCenterCirclePoints
RC2023-G7B_Pioneer_6_PLAY_00274266_RobotDetectionToManyRobots_U.png;1718189867002;tkalbitz;NoCenterCirclePoints
RC2023-G7B_Pioneer_6_PLAY_00453824_RobotDetectionToManyRobots_U.png;1718189868344;tkalbitz;NoCenterCirclePoints
RC2023-G7B_Pioneer_6_PLAY_00618378_RobotDetectionToManyRobots_U.png;1718192330884;tkalbitz;NoCenterCirclePoints
RC2023-G7B_Pioneer_6_PLAY_00861637_RobotDetectionToManyRobots_U.png;1718189870118;tkalbitz;NoCenterCirclePoints
RC2023-G7A_Pioneer_6_PLAY_00158949_RobotDetectionToManyRobots_U.png;1715628919419;tkalbitz;NoGoalPost
RC2023-G7A_Pioneer_6_PLAY_00763099_RobotDetectionToManyRobots_U.png;1715628937156;tkalbitz;NoGoalPost
RC2023-G7B_Pioneer_6_PLAY_00351597_RobotDetectionToManyRobots_U.png;1715679709856;tkalbitz;NoGoalPost
RC2023-G7B_Pioneer_6_READY_00115182_RobotDetectionToManyRobots_U.png;1715628971567;tkalbitz;NoGoalPost
