RC2023-G2A_DeepImpact_7_PLAY_00883750_TimeLoggedImaged_U.png;1718191828380;tkalbitz;CenterCirclePoints;232;201;232;201;Left
RC2023-G2A_DeepImpact_7_READY_00459543_TimeLoggedImaged_U.png;1718180906482;tkalbitz;CenterCirclePoints;522;239;522;239;Left
RC2023-G2A_DeepImpact_7_READY_00581630_TimeLoggedImaged_U.png;1718180912936;tkalbitz;CenterCirclePoints;149;220;149;220;Right
RC2023-G2A_DeepImpact_7_READY_00588923_TimeLoggedImaged_U.png;1718180915438;tkalbitz;CenterCirclePoints;7;208;7;208;Right
RC2023-G2B_DeepImpact_7_PLAY_00386952_TimeLoggedImaged_U.png;1718180920021;tkalbitz;CenterCirclePoints;381;190;381;190;Right
RC2023-G2B_DeepImpact_7_PLAY_00606621_TimeLoggedImaged_U.png;1718180924377;tkalbitz;CenterCirclePoints;440;343;440;343;Left
RC2023-G2B_DeepImpact_7_READY_00184598_TimeLoggedImaged_U.png;1718180929149;tkalbitz;CenterCirclePoints;210;278;210;278;Left
RC2023-G2B_DeepImpact_7_READY_00641998_TimeLoggedImaged_U.png;1718180931663;tkalbitz;CenterCirclePoints;239;423;239;423;Right
RC2023-G2B_DeepImpact_7_READY_00649302_TimeLoggedImaged_U.png;1718180935659;tkalbitz;CenterCirclePoints;203;255;203;255;Right
RC2023-G2B_DeepImpact_7_SET_00211427_TimeLoggedImaged_U.png;1718180937393;tkalbitz;CenterCirclePoints;554;277;554;277;Right
RC2023-G2B_DeepImpact_7_SET_00668476_TimeLoggedImaged_U.png;1718180942056;tkalbitz;CenterCirclePoints;269;179;269;179;Right
RC2023-G2A_DeepImpact_7_PLAY_00408558_TimeLoggedImaged_U.png;1715622312026;tkalbitz;GoalPost;143;124;130;-3;Right
RC2023-G2A_DeepImpact_7_PLAY_00415838_TimeLoggedImaged_U.png;1715622317418;tkalbitz;GoalPost;376;79;373;0;Left
RC2023-G2A_DeepImpact_7_PLAY_00435323_TimeLoggedImaged_U.png;1715622322672;tkalbitz;GoalPost;563;175;580;-2;Right
RC2023-G2A_DeepImpact_7_PLAY_00444968_TimeLoggedImaged_U.png;1715622326355;tkalbitz;GoalPost;342;167;398;2;Left
RC2023-G2A_DeepImpact_7_PLAY_00563815_TimeLoggedImaged_U.png;1715622331038;tkalbitz;GoalPost;238;140;236;21;Right
RC2023-G2A_DeepImpact_7_READY_00588923_TimeLoggedImaged_U.png;1715622341564;tkalbitz;GoalPost;41;104;38;13;Right
RC2023-G2A_DeepImpact_7_SET_00824367_TimeLoggedImaged_U.png;1715677523442;tkalbitz;GoalPost;107;260;104;125;Right
RC2023-G2B_DeepImpact_7_PLAY_00235624_TimeLoggedImaged_U.png;1715622345986;tkalbitz;GoalPost;102;266;96;132;Right
RC2023-G2B_DeepImpact_7_PLAY_00248313_TimeLoggedImaged_U.png;1715622350299;tkalbitz;GoalPost;100;265;92;127;Right
RC2023-G2B_DeepImpact_7_PLAY_00262914_TimeLoggedImaged_U.png;1715622355901;tkalbitz;GoalPost;99;265;97;132;Right
RC2023-G2B_DeepImpact_7_PLAY_00351073_TimeLoggedImaged_U.png;1715622362345;tkalbitz;GoalPost;362;126;352;29;Left
RC2023-G2B_DeepImpact_7_PLAY_00613910_TimeLoggedImaged_U.png;1715622366253;tkalbitz;GoalPost;557;199;551;57;Right
RC2023-G2B_DeepImpact_7_READY_00184598_TimeLoggedImaged_U.png;1715622370860;tkalbitz;GoalPost;505;101;508;5;Left
RC2023-G2B_DeepImpact_7_READY_00517405_TimeLoggedImaged_U.png;1715677536215;tkalbitz;GoalPost;339;88;337;17;Right
RC2023-G2A_DeepImpact_7_PLAY_00408558_TimeLoggedImaged_U.png;1718184824646;tkalbitz;NoCenterCirclePoints
RC2023-G2B_DeepImpact_7_PLAY_00627404_TimeLoggedImaged_U.png;1718180926721;tkalbitz;NoCenterCirclePoints
RC2023-G2B_DeepImpact_7_SET_00555710_TimeLoggedImaged_U.png;1718180940206;tkalbitz;NoCenterCirclePoints
RC2023-G2B_DeepImpact_7_PLAY_00606621_TimeLoggedImaged_U.png;1715677527161;tkalbitz;NoGoalPost
RC2023-G2B_DeepImpact_7_PLAY_00627404_TimeLoggedImaged_U.png;1715677531809;tkalbitz;NoGoalPost
RC2023-G2B_DeepImpact_7_PLAY_01088707_TimeLoggedImaged_U.png;1715677534229;tkalbitz;NoGoalPost
