GO2024-G2A_Curiosity_4_PLAY_00288581_TimeLoggedImaged_U.png;1718138152971;tkalbitz;CenterCirclePoints;15;240;15;240;Right
GO2024-G2A_Curiosity_4_PLAY_00372138_TimeLoggedImaged_U.png;1718131547169;tkalbitz;CenterCirclePoints;327;271;327;271;Right
GO2024-G2A_Curiosity_4_PLAY_00436162_TimeLoggedImaged_U.png;1718124546529;tkalbitz;CenterCirclePoints;299;196;299;196;Right
GO2024-G2A_Curiosity_4_PLAY_00556988_TimeLoggedImaged_U.png;1718133606849;tkalbitz;CenterCirclePoints;456;88;456;88;Right
GO2024-G2A_Curiosity_4_PLAY_00695936_TimeLoggedImaged_U.png;1718131550971;tkalbitz;CenterCirclePoints;465;195;465;195;Left
GO2024-G2A_Curiosity_4_SET_00592413_TimeLoggedImaged_U.png;1718131556008;tkalbitz;CenterCirclePoints;124;417;124;417;Left
GO2024-G2A_Curiosity_4_SET_00604457_TimeLoggedImaged_U.png;1718131559122;tkalbitz;CenterCirclePoints;16;239;16;239;Right
GO2024-G2B_Curiosity_4_PLAY_00255596_TimeLoggedImaged_U.png;1718131562446;tkalbitz;CenterCirclePoints;89;146;89;146;Left
GO2024-G2B_Curiosity_4_PLAY_00255596_TimeLoggedImaged_U.png;1718131564444;tkalbitz;CenterCirclePoints;360;81;360;81;Right
GO2024-G2B_Curiosity_4_PLAY_00388821_TimeLoggedImaged_U.png;1718133612261;tkalbitz;CenterCirclePoints;12;265;12;265;Left
GO2024-G2B_Curiosity_4_PLAY_00414489_TimeLoggedImaged_U.png;1718131569248;tkalbitz;CenterCirclePoints;294;181;294;181;Left
GO2024-G2B_Curiosity_4_PLAY_00651661_TimeLoggedImaged_U.png;1718124549496;tkalbitz;CenterCirclePoints;560;187;560;187;Right
GO2024-G2B_Curiosity_4_PLAY_00651661_TimeLoggedImaged_U.png;1718124551136;tkalbitz;CenterCirclePoints;216;247;216;247;Center
GO2024-G2B_Curiosity_4_PLAY_00715757_TimeLoggedImaged_U.png;1718124554834;tkalbitz;CenterCirclePoints;281;76;281;76;Left
GO2024-G2B_Curiosity_4_PLAY_00723056_TimeLoggedImaged_U.png;1718138157926;tkalbitz;CenterCirclePoints;606;166;606;166;Left
GO2024-G2B_Curiosity_4_PLAY_00824364_TimeLoggedImaged_U.png;1718131573562;tkalbitz;CenterCirclePoints;108;100;108;100;Right
GO2024-G2B_Curiosity_4_READY_00144184_TimeLoggedImaged_U.png;1718133617306;tkalbitz;CenterCirclePoints;203;200;203;200;Left
GO2024-G2B_Curiosity_4_READY_00737646_TimeLoggedImaged_U.png;1718131578505;tkalbitz;CenterCirclePoints;86;334;86;334;Left
GO2024-G2B_Curiosity_4_READY_00752210_TimeLoggedImaged_U.png;1718131581323;tkalbitz;CenterCirclePoints;20;322;20;322;Left
GO2024-G2B_Curiosity_4_READY_00860797_TimeLoggedImaged_U.png;1718131585075;tkalbitz;CenterCirclePoints;522;361;522;361;Left
GO2024-G2B_Curiosity_4_SET_00158730_TimeLoggedImaged_U.png;1718138165380;tkalbitz;CenterCirclePoints;330;238;330;238;Right
GO2024-G2B_Curiosity_4_SET_00166019_TimeLoggedImaged_U.png;1718131588709;tkalbitz;CenterCirclePoints;611;245;611;245;Right
GO2024-G2B_Curiosity_4_SET_00319094_TimeLoggedImaged_U.png;1718131592133;tkalbitz;CenterCirclePoints;6;372;6;372;Left
GO2024-G2B_Curiosity_4_SET_00637073_TimeLoggedImaged_U.png;1718131596135;tkalbitz;CenterCirclePoints;264;186;264;186;Right
GO2024-G2B_Curiosity_4_SET_00759525_TimeLoggedImaged_U.png;1718131598998;tkalbitz;CenterCirclePoints;57;377;57;377;Right
GO2024-G2B_Curiosity_4_SET_00774098_TimeLoggedImaged_U.png;1718133621936;tkalbitz;CenterCirclePoints;4;329;4;329;Left
GO2024-G2B_Curiosity_4_SET_00793218_TimeLoggedImaged_U.png;1718131604046;tkalbitz;CenterCirclePoints;583;286;583;286;Right
GO2024-G2A_Curiosity_4_PLAY_00276345_TimeLoggedImaged_U.png;1715462584019;tkalbitz;GoalPost;125;67;115;-2;Right
GO2024-G2A_Curiosity_4_PLAY_00340888_TimeLoggedImaged_U.png;1715468292428;tkalbitz;GoalPost;41;136;27;-6;Left
GO2024-G2A_Curiosity_4_PLAY_00340888_TimeLoggedImaged_U.png;1715468303788;tkalbitz;GoalPost;488;129;498;0;Right
GO2024-G2A_Curiosity_4_PLAY_00436162_TimeLoggedImaged_U.png;1715462590929;tkalbitz;GoalPost;56;108;38;18;Left
GO2024-G2A_Curiosity_4_PLAY_00436162_TimeLoggedImaged_U.png;1715462592992;tkalbitz;GoalPost;38;18;214;9;Middle
GO2024-G2A_Curiosity_4_PLAY_00436162_TimeLoggedImaged_U.png;1715462595838;tkalbitz;GoalPost;214;9;224;97;Right
GO2024-G2A_Curiosity_4_PLAY_00549692_TimeLoggedImaged_U.png;1715634350387;tkalbitz;GoalPost;411;63;410;2;Right
GO2024-G2A_Curiosity_4_PLAY_00625335_TimeLoggedImaged_U.png;1715462604390;tkalbitz;GoalPost;342;91;345;0;Left
GO2024-G2A_Curiosity_4_PLAY_00664458_TimeLoggedImaged_U.png;1715462609247;tkalbitz;GoalPost;216;151;203;-1;Right
GO2024-G2A_Curiosity_4_PLAY_00688667_TimeLoggedImaged_U.png;1715634355947;tkalbitz;GoalPost;579;151;576;2;Right
GO2024-G2A_Curiosity_4_PLAY_00830819_TimeLoggedImaged_U.png;1715634360632;tkalbitz;GoalPost;583;309;581;192;Left
GO2024-G2A_Curiosity_4_READY_00571588_TimeLoggedImaged_U.png;1715462620961;tkalbitz;GoalPost;484;157;494;45;Right
GO2024-G2A_Curiosity_4_READY_00571588_TimeLoggedImaged_U.png;1715462625045;tkalbitz;GoalPost;494;45;296;31;Middle
GO2024-G2A_Curiosity_4_SET_00592413_TimeLoggedImaged_U.png;1715634363594;tkalbitz;GoalPost;576;132;585;15;Left
GO2024-G2B_Curiosity_4_PLAY_00275385_TimeLoggedImaged_U.png;1715462630655;tkalbitz;GoalPost;421;214;444;-1;Right
GO2024-G2B_Curiosity_4_PLAY_00282655_TimeLoggedImaged_U.png;1715634366870;tkalbitz;GoalPost;557;338;597;12;Right
GO2024-G2B_Curiosity_4_PLAY_00403423_TimeLoggedImaged_U.png;1715668453747;tkalbitz;GoalPost;620;355;612;200;Left
GO2024-G2B_Curiosity_4_PLAY_00562290_TimeLoggedImaged_U.png;1715462637527;tkalbitz;GoalPost;400;398;419;135;Left
GO2024-G2B_Curiosity_4_PLAY_00562290_TimeLoggedImaged_U.png;1715462640522;tkalbitz;GoalPost;419;135;641;77;Middle
GO2024-G2B_Curiosity_4_PLAY_00706953_TimeLoggedImaged_U.png;1715634373486;tkalbitz;GoalPost;320;201;293;15;Right
GO2024-G2B_Curiosity_4_PLAY_00926446_TimeLoggedImaged_U.png;1715462647964;tkalbitz;GoalPost;73;373;76;169;Left
GO2024-G2B_Curiosity_4_PLAY_00926446_TimeLoggedImaged_U.png;1715462652696;tkalbitz;GoalPost;76;169;169;203;Middle
GO2024-G2B_Curiosity_4_PLAY_00926446_TimeLoggedImaged_U.png;1715462655828;tkalbitz;GoalPost;169;203;168;326;Right
GO2024-G2B_Curiosity_4_PLAY_00933719_TimeLoggedImaged_U.png;1715462663901;tkalbitz;GoalPost;74;373;79;171;Left
GO2024-G2B_Curiosity_4_PLAY_00933719_TimeLoggedImaged_U.png;1715462665831;tkalbitz;GoalPost;79;171;171;203;Middle
GO2024-G2B_Curiosity_4_PLAY_00933719_TimeLoggedImaged_U.png;1715462668837;tkalbitz;GoalPost;171;203;165;325;Right
GO2024-G2B_Curiosity_4_PLAY_00941019_TimeLoggedImaged_U.png;1715462673885;tkalbitz;GoalPost;74;373;76;169;Left
GO2024-G2B_Curiosity_4_PLAY_00941019_TimeLoggedImaged_U.png;1715462675599;tkalbitz;GoalPost;76;169;171;202;Middle
GO2024-G2B_Curiosity_4_PLAY_00941019_TimeLoggedImaged_U.png;1715462677561;tkalbitz;GoalPost;171;202;166;324;Right
GO2024-G2B_Curiosity_4_PLAY_00960070_TimeLoggedImaged_U.png;1715468339636;tkalbitz;GoalPost;215;163;228;1;Right
GO2024-G2B_Curiosity_4_READY_00737646_TimeLoggedImaged_U.png;1715634388082;tkalbitz;GoalPost;571;181;589;76;Left
GO2024-G2B_Curiosity_4_READY_00744923_TimeLoggedImaged_U.png;1715634391168;tkalbitz;GoalPost;611;270;631;125;Left
GO2024-G2B_Curiosity_4_READY_00752210_TimeLoggedImaged_U.png;1715462687272;tkalbitz;GoalPost;541;174;551;72;Right
GO2024-G2B_Curiosity_4_READY_00752210_TimeLoggedImaged_U.png;1715462689490;tkalbitz;GoalPost;551;72;366;74;Middle
GO2024-G2B_Curiosity_4_READY_00752210_TimeLoggedImaged_U.png;1715468348358;tkalbitz;GoalPost;372;166;367;75;Left
GO2024-G2B_Curiosity_4_SET_00158730_TimeLoggedImaged_U.png;1715462694140;tkalbitz;GoalPost;234;140;228;55;Right
GO2024-G2B_Curiosity_4_SET_00158730_TimeLoggedImaged_U.png;1715462696032;tkalbitz;GoalPost;228;55;150;54;Middle
GO2024-G2B_Curiosity_4_SET_00602736_TimeLoggedImaged_U.png;1715462703006;tkalbitz;GoalPost;187;239;176;94;Right
GO2024-G2B_Curiosity_4_SET_00602736_TimeLoggedImaged_U.png;1715462705564;tkalbitz;GoalPost;176;94;-3;96;Middle
GO2024-G2B_Curiosity_4_SET_00774098_TimeLoggedImaged_U.png;1715462718151;tkalbitz;GoalPost;500;166;502;68;Right
GO2024-G2B_Curiosity_4_SET_00774098_TimeLoggedImaged_U.png;1715462723409;tkalbitz;GoalPost;502;68;321;70;Middle
GO2024-G2B_Curiosity_4_SET_00793218_TimeLoggedImaged_U.png;1715462729887;tkalbitz;GoalPost;434;80;440;1;Right
GO2024-G2A_Curiosity_4_PLAY_00529138_TimeLoggedImaged_U.png;1718133604503;tkalbitz;NoCenterCirclePoints
GO2024-G2A_Curiosity_4_PLAY_00536404_TimeLoggedImaged_U.png;1718131548910;tkalbitz;NoCenterCirclePoints
GO2024-G2A_Curiosity_4_PLAY_00756160_TimeLoggedImaged_U.png;1718131554090;tkalbitz;NoCenterCirclePoints
GO2024-G2B_Curiosity_4_PLAY_00846208_TimeLoggedImaged_U.png;1718131575192;tkalbitz;NoCenterCirclePoints
GO2024-G2B_Curiosity_4_PLAY_00960070_TimeLoggedImaged_U.png;1718138162822;tkalbitz;NoCenterCirclePoints
GO2024-G2B_Curiosity_4_SET_00151461_TimeLoggedImaged_U.png;1718133618776;tkalbitz;NoCenterCirclePoints
GO2024-G2B_Curiosity_4_SET_00602736_TimeLoggedImaged_U.png;1718131593871;tkalbitz;NoCenterCirclePoints
GO2024-G2B_Curiosity_4_PLAY_00209448_TimeLoggedImaged_U.png;1715468334108;tkalbitz;NoGoalPost
GO2024-G2B_Curiosity_4_PLAY_00516947_TimeLoggedImaged_U.png;1715675198875;tkalbitz;NoGoalPost
GO2024-G2B_Curiosity_4_PLAY_00696492_TimeLoggedImaged_U.png;1715462644845;tkalbitz;NoGoalPost
