RC2023-G8A_DeepImpact_7_PLAY_00307851_BallVanishedFromLastToThisImage_U.png;1718179165586;tkalbitz;CenterCirclePoints;523;364;523;364;Left
RC2023-G8B_DeepImpact_7_PLAY_00292311_BallVanishedFromLastToThisImage_U.png;1718179169700;tkalbitz;CenterCirclePoints;236;182;236;182;Right
RC2023-G8B_DeepImpact_7_PLAY_00293854_BallVanishedFromLastToThisImage_U.png;1718179173074;tkalbitz;CenterCirclePoints;116;215;116;215;Right
RC2023-G8B_DeepImpact_7_PLAY_00295319_BallVanishedFromLastToThisImage_U.png;1718179175358;tkalbitz;CenterCirclePoints;84;222;84;222;Right
RC2023-G8B_DeepImpact_7_PLAY_00296908_BallVanishedFromLastToThisImage_U.png;1718179177116;tkalbitz;CenterCirclePoints;78;227;78;227;Right
RC2023-G8B_DeepImpact_7_SET_00242875_BallVanishedFromLastToThisImage_U.png;1718179179937;tkalbitz;CenterCirclePoints;304;264;304;264;Right
RC2023-G8B_DeepImpact_7_SET_00248938_BallVanishedFromLastToThisImage_U.png;1718179182253;tkalbitz;CenterCirclePoints;312;264;312;264;Right
RC2023-G8B_DeepImpact_7_PLAY_00301752_BallVanishedFromLastToThisImage_U.png;1715621339796;tkalbitz;GoalPost;110;26;109;-1;Right
RC2023-G8B_DeepImpact_7_SET_00118370_BallVanishedFromLastToThisImage_U.png;1715678493198;tkalbitz;GoalPost;397;95;398;22;Right
RC2023-G8A_DeepImpact_7_PLAY_00334629_BallVanishedFromLastToThisImage_U.png;1718179167096;tkalbitz;NoCenterCirclePoints
RC2023-G8A_DeepImpact_7_PLAY_00381578_BallVanishedFromLastToThisImage_U.png;1718179167893;tkalbitz;NoCenterCirclePoints
RC2023-G8B_DeepImpact_7_SET_00242875_BallVanishedFromLastToThisImage_U.png;1715621348480;tkalbitz;NoGoalPost
RC2023-G8B_DeepImpact_7_SET_00245876_BallVanishedFromLastToThisImage_U.png;1715621350454;tkalbitz;NoGoalPost
