RC2022_Final-vsBHuman-G1A_CometInterceptor_4_PLAY_00257744_BallVanishedFromLastToThisImage_U.png;1718196105463;tkalbitz;CenterCirclePoints;57;152;57;152;Right
RC2022_Final-vsBHuman-G1A_CometInterceptor_4_PLAY_00262544_BallVanishedFromLastToThisImage_U.png;1718196108611;tkalbitz;CenterCirclePoints;258;159;258;159;Right
RC2022_Final-vsBHuman-G1A_CometInterceptor_4_PLAY_00280570_BallVanishedFromLastToThisImage_U.png;1718196114090;tkalbitz;CenterCirclePoints;514;145;514;145;Left
RC2022_Final-vsBHuman-G1A_CometInterceptor_4_PLAY_00519469_BallVanishedFromLastToThisImage_U.png;1718196121732;tkalbitz;CenterCirclePoints;529;104;529;104;Right
RC2022_Final-vsBHuman-G1A_CometInterceptor_4_PLAY_00683960_BallVanishedFromLastToThisImage_U.png;1718197881777;tkalbitz;CenterCirclePoints;422;128;422;128;Left
RC2022_Final-vsBHuman-G1A_Helios_2_PLAY_00176167_BallVanishedFromLastToThisImage_U.png;1718197887336;tkalbitz;CenterCirclePoints;273;106;273;106;Right
RC2022_Final-vsBHuman-G1A_Helios_2_PLAY_00318190_BallVanishedFromLastToThisImage_U.png;1718196128556;tkalbitz;CenterCirclePoints;551;352;551;352;Left
RC2022_Final-vsBHuman-G1A_Helios_2_PLAY_00809238_BallVanishedFromLastToThisImage_U.png;1718196135735;tkalbitz;CenterCirclePoints;392;78;392;78;Left
RC2022_Final-vsBHuman-G1A_Helios_2_PLAY_00820456_BallVanishedFromLastToThisImage_U.png;1718197889243;tkalbitz;CenterCirclePoints;185;168;185;168;Right
RC2022_Final-vsBHuman-G1A_Helios_2_PLAY_00823438_BallVanishedFromLastToThisImage_U.png;1718196138493;tkalbitz;CenterCirclePoints;224;171;224;171;Right
RC2022_Final-vsBHuman-G1A_Helios_2_PLAY_00824878_BallVanishedFromLastToThisImage_U.png;1718196140419;tkalbitz;CenterCirclePoints;345;124;345;124;Right
RC2022_Final-vsBHuman-G1A_Helios_2_PLAY_00826563_BallVanishedFromLastToThisImage_U.png;1718197892402;tkalbitz;CenterCirclePoints;241;136;241;136;Right
RC2022_Final-vsBHuman-G1A_Helios_2_PLAY_00828858_BallVanishedFromLastToThisImage_U.png;1718196142789;tkalbitz;CenterCirclePoints;256;141;256;141;Right
RC2022_Final-vsBHuman-G1A_Pathfinder_PLAY_00378537_BallVanishedFromLastToThisImage_U.png;1718196145239;tkalbitz;CenterCirclePoints;440;280;440;280;Left
RC2022_Final-vsBHuman-G1A_Pathfinder_PLAY_00379979_BallVanishedFromLastToThisImage_U.png;1718196147445;tkalbitz;CenterCirclePoints;245;275;245;275;Left
RC2022_Final-vsBHuman-G1A_Pathfinder_PLAY_00638355_BallVanishedFromLastToThisImage_U.png;1718196151145;tkalbitz;CenterCirclePoints;329;155;329;155;Right
RC2022_Final-vsBHuman-G1A_Phoenix_1_PLAY_00336902_BallVanishedFromLastToThisImage_U.png;1718196156571;tkalbitz;CenterCirclePoints;14;129;14;129;Left
RC2022_Final-vsBHuman-G1A_Pioneer_5_PLAY_00171561_BallVanishedFromLastToThisImage_U.png;1718197901667;tkalbitz;CenterCirclePoints;252;168;252;168;Right
RC2022_Final-vsBHuman-G1A_Pioneer_5_PLAY_00176167_BallVanishedFromLastToThisImage_U.png;1718197903331;tkalbitz;CenterCirclePoints;275;102;275;102;Right
RC2022_Final-vsBHuman-G1A_Pioneer_5_PLAY_00318190_BallVanishedFromLastToThisImage_U.png;1718196163198;tkalbitz;CenterCirclePoints;550;353;550;353;Left
RC2022_Final-vsBHuman-G1A_Pioneer_5_PLAY_00809238_BallVanishedFromLastToThisImage_U.png;1718196173242;tkalbitz;CenterCirclePoints;395;78;395;78;Left
RC2022_Final-vsBHuman-G1A_Pioneer_5_PLAY_00820456_BallVanishedFromLastToThisImage_U.png;1718197905201;tkalbitz;CenterCirclePoints;185;168;185;168;Right
RC2022_Final-vsBHuman-G1A_Pioneer_5_PLAY_00823438_BallVanishedFromLastToThisImage_U.png;1718196176916;tkalbitz;CenterCirclePoints;225;171;225;171;Right
RC2022_Final-vsBHuman-G1A_Pioneer_5_PLAY_00824878_BallVanishedFromLastToThisImage_U.png;1718196180084;tkalbitz;CenterCirclePoints;345;125;345;125;Right
RC2022_Final-vsBHuman-G1A_Pioneer_5_PLAY_00826563_BallVanishedFromLastToThisImage_U.png;1718197907269;tkalbitz;CenterCirclePoints;241;135;241;135;Right
RC2022_Final-vsBHuman-G1A_Pioneer_5_PLAY_00828858_BallVanishedFromLastToThisImage_U.png;1718196183297;tkalbitz;CenterCirclePoints;256;141;256;141;Right
RC2022_Final-vsBHuman-G1B_CometInterceptor_4_PLAY_00212119_BallVanishedFromLastToThisImage_U.png;1718197909891;tkalbitz;CenterCirclePoints;24;309;24;309;Right
RC2022_Final-vsBHuman-G1B_Helios_2_PLAY_00291965_BallVanishedFromLastToThisImage_U.png;1718196190763;tkalbitz;CenterCirclePoints;212;155;212;155;Right
RC2022_Final-vsBHuman-G1B_Helios_2_PLAY_00307768_BallVanishedFromLastToThisImage_U.png;1718196193897;tkalbitz;CenterCirclePoints;35;181;35;181;Right
RC2022_Final-vsBHuman-G1B_Helios_2_PLAY_00317954_BallVanishedFromLastToThisImage_U.png;1718197915188;tkalbitz;CenterCirclePoints;90;178;90;178;Right
RC2022_Final-vsBHuman-G1B_Helios_2_PLAY_00319407_BallVanishedFromLastToThisImage_U.png;1718196197611;tkalbitz;CenterCirclePoints;146;162;146;162;Right
RC2022_Final-vsBHuman-G1B_Helios_2_PLAY_00331753_BallVanishedFromLastToThisImage_U.png;1718196200129;tkalbitz;CenterCirclePoints;67;152;67;152;Right
RC2022_Final-vsBHuman-G1B_Helios_2_PLAY_00353879_BallVanishedFromLastToThisImage_U.png;1718196203672;tkalbitz;CenterCirclePoints;129;114;129;114;Right
RC2022_Final-vsBHuman-G1B_Pathfinder_PLAY_00188710_BallVanishedFromLastToThisImage_U.png;1718196209314;tkalbitz;CenterCirclePoints;113;129;113;129;Right
RC2022_Final-vsBHuman-G1B_Pathfinder_PLAY_00220311_BallVanishedFromLastToThisImage_U.png;1718196211690;tkalbitz;CenterCirclePoints;157;112;157;112;Right
RC2022_Final-vsBHuman-G1B_Pathfinder_PLAY_00223393_BallVanishedFromLastToThisImage_U.png;1718196213932;tkalbitz;CenterCirclePoints;154;109;154;109;Right
RC2022_Final-vsBHuman-G1B_Pathfinder_PLAY_00506410_BallVanishedFromLastToThisImage_U.png;1718196216962;tkalbitz;CenterCirclePoints;538;122;538;122;Left
RC2022_Final-vsBHuman-G1B_Pathfinder_PLAY_00507820_BallVanishedFromLastToThisImage_U.png;1718196220132;tkalbitz;CenterCirclePoints;540;114;540;114;Left
RC2022_Final-vsBHuman-G1B_Pathfinder_PLAY_00550163_BallVanishedFromLastToThisImage_U.png;1718197918050;tkalbitz;CenterCirclePoints;351;108;351;108;Right
RC2022_Final-vsBHuman-G1B_Pathfinder_PLAY_00551594_BallVanishedFromLastToThisImage_U.png;1718196226578;tkalbitz;CenterCirclePoints;251;111;251;111;Right
RC2022_Final-vsBHuman-G1B_Pathfinder_PLAY_00555899_BallVanishedFromLastToThisImage_U.png;1718196232321;tkalbitz;CenterCirclePoints;159;91;159;91;Right
RC2022_Final-vsBHuman-G1B_Pathfinder_PLAY_00558376_BallVanishedFromLastToThisImage_U.png;1718196238545;tkalbitz;CenterCirclePoints;140;105;140;105;Right
RC2022_Final-vsBHuman-G1B_Phoenix_1_PLAY_00197785_BallVanishedFromLastToThisImage_U.png;1718196246779;tkalbitz;CenterCirclePoints;128;112;128;112;Right
RC2022_Final-vsBHuman-G1B_Pioneer_5_PLAY_00291965_BallVanishedFromLastToThisImage_U.png;1718196255624;tkalbitz;CenterCirclePoints;212;153;212;153;Right
RC2022_Final-vsBHuman-G1B_Pioneer_5_PLAY_00307768_BallVanishedFromLastToThisImage_U.png;1718196258306;tkalbitz;CenterCirclePoints;32;183;32;183;Right
RC2022_Final-vsBHuman-G1B_Pioneer_5_PLAY_00317954_BallVanishedFromLastToThisImage_U.png;1718197921442;tkalbitz;CenterCirclePoints;88;178;88;178;Right
RC2022_Final-vsBHuman-G1B_Pioneer_5_PLAY_00319407_BallVanishedFromLastToThisImage_U.png;1718196263304;tkalbitz;CenterCirclePoints;148;163;148;163;Right
RC2022_Final-vsBHuman-G1B_Pioneer_5_PLAY_00331753_BallVanishedFromLastToThisImage_U.png;1718196265508;tkalbitz;CenterCirclePoints;68;151;68;151;Right
RC2022_Final-vsBHuman-G1B_Pioneer_5_PLAY_00353879_BallVanishedFromLastToThisImage_U.png;1718196269072;tkalbitz;CenterCirclePoints;128;114;128;114;Right
RC2022_Final-vsBHuman-G1A_CometInterceptor_4_PLAY_00371358_BallVanishedFromLastToThisImage_U.png;1718196117764;tkalbitz;NoCenterCirclePoints
RC2022_Final-vsBHuman-G1A_CometInterceptor_4_PLAY_00463036_BallVanishedFromLastToThisImage_U.png;1718197875768;tkalbitz;NoCenterCirclePoints
RC2022_Final-vsBHuman-G1A_Helios_2_PLAY_00480445_BallVanishedFromLastToThisImage_U.png;1718196131089;tkalbitz;NoCenterCirclePoints
RC2022_Final-vsBHuman-G1A_Helios_2_PLAY_00613321_BallVanishedFromLastToThisImage_U.png;1718196131855;tkalbitz;NoCenterCirclePoints
RC2022_Final-vsBHuman-G1A_Helios_2_PLAY_00627479_BallVanishedFromLastToThisImage_U.png;1718196132729;tkalbitz;NoCenterCirclePoints
RC2022_Final-vsBHuman-G1A_Pathfinder_PLAY_00533293_BallVanishedFromLastToThisImage_U.png;1718197896409;tkalbitz;NoCenterCirclePoints
RC2022_Final-vsBHuman-G1A_Pathfinder_PLAY_00842675_BallVanishedFromLastToThisImage_U.png;1718197897283;tkalbitz;NoCenterCirclePoints
RC2022_Final-vsBHuman-G1A_Phoenix_1_PLAY_00322517_BallVanishedFromLastToThisImage_U.png;1718196152956;tkalbitz;NoCenterCirclePoints
RC2022_Final-vsBHuman-G1A_Pioneer_5_PLAY_00414820_BallVanishedFromLastToThisImage_U.png;1718196165546;tkalbitz;NoCenterCirclePoints
RC2022_Final-vsBHuman-G1A_Pioneer_5_PLAY_00480445_BallVanishedFromLastToThisImage_U.png;1718196166294;tkalbitz;NoCenterCirclePoints
RC2022_Final-vsBHuman-G1A_Pioneer_5_PLAY_00613321_BallVanishedFromLastToThisImage_U.png;1718196167118;tkalbitz;NoCenterCirclePoints
RC2022_Final-vsBHuman-G1A_Pioneer_5_PLAY_00627479_BallVanishedFromLastToThisImage_U.png;1718196167870;tkalbitz;NoCenterCirclePoints
RC2022_Final-vsBHuman-G1B_CometInterceptor_4_PLAY_00209556_BallVanishedFromLastToThisImage_U.png;1718196184739;tkalbitz;NoCenterCirclePoints
RC2022_Final-vsBHuman-G1B_CometInterceptor_4_PLAY_00234583_BallVanishedFromLastToThisImage_U.png;1718197911299;tkalbitz;NoCenterCirclePoints
RC2022_Final-vsBHuman-G1B_CometInterceptor_4_PLAY_00284227_BallVanishedFromLastToThisImage_U.png;1718196185503;tkalbitz;NoCenterCirclePoints
RC2022_Final-vsBHuman-G1B_CometInterceptor_4_PLAY_00349025_BallVanishedFromLastToThisImage_U.png;1718197912160;tkalbitz;NoCenterCirclePoints
RC2022_Final-vsBHuman-G1B_CometInterceptor_4_PLAY_00503228_BallVanishedFromLastToThisImage_U.png;1718196186221;tkalbitz;NoCenterCirclePoints
RC2022_Final-vsBHuman-G1B_CometInterceptor_4_PLAY_00565974_BallVanishedFromLastToThisImage_U.png;1718196187055;tkalbitz;NoCenterCirclePoints
RC2022_Final-vsBHuman-G1B_CometInterceptor_4_PLAY_00689478_BallVanishedFromLastToThisImage_U.png;1718196187691;tkalbitz;NoCenterCirclePoints
RC2022_Final-vsBHuman-G1B_Helios_2_PLAY_00122663_BallVanishedFromLastToThisImage_U.png;1718197912942;tkalbitz;NoCenterCirclePoints
RC2022_Final-vsBHuman-G1B_Helios_2_PLAY_00564897_BallVanishedFromLastToThisImage_U.png;1718196206336;tkalbitz;NoCenterCirclePoints
RC2022_Final-vsBHuman-G1B_Helios_2_PLAY_00573491_BallVanishedFromLastToThisImage_U.png;1718196207244;tkalbitz;NoCenterCirclePoints
RC2022_Final-vsBHuman-G1B_Pioneer_5_PLAY_00122663_BallVanishedFromLastToThisImage_U.png;1718197919458;tkalbitz;NoCenterCirclePoints
RC2022_Final-vsBHuman-G1B_Pioneer_5_PLAY_00564897_BallVanishedFromLastToThisImage_U.png;1718196272301;tkalbitz;NoCenterCirclePoints
RC2022_Final-vsBHuman-G1B_Pioneer_5_PLAY_00573491_BallVanishedFromLastToThisImage_U.png;1718196273093;tkalbitz;NoCenterCirclePoints
