2021.03_RODEO_1_BHuman_Part1_G1A_145_00256602_U.png;1650234041730;tkalbitz;CenterCirclePoints;69;365;68;365;Left
2021.03_RODEO_1_BHuman_Part1_G1A_145_00256602_U.png;1650234043792;tkalbitz;CenterCirclePoints;356;247;356;247;Center
2021.03_RODEO_1_BHuman_Part1_G1A_145_00256602_U.png;1650234045496;tkalbitz;CenterCirclePoints;481;196;481;196;Right
2021.03_RODEO_1_BHuman_Part1_G1A_145_00257737_U.png;1650234047874;tkalbitz;CenterCirclePoints;76;363;76;363;Left
2021.03_RODEO_1_BHuman_Part1_G1A_145_00257737_U.png;1650234049360;tkalbitz;CenterCirclePoints;362;247;362;247;Center
2021.03_RODEO_1_BHuman_Part1_G1A_145_00257737_U.png;1650234050774;tkalbitz;CenterCirclePoints;483;195;483;195;Right
2021.03_RODEO_1_BHuman_Part1_G1A_145_00258826_U.png;1650234053092;tkalbitz;CenterCirclePoints;32;321;32;321;Left
2021.03_RODEO_1_BHuman_Part1_G1A_145_00258826_U.png;1650234054326;tkalbitz;CenterCirclePoints;314;205;314;205;Center
2021.03_RODEO_1_BHuman_Part1_G1A_145_00258826_U.png;1650234055771;tkalbitz;CenterCirclePoints;424;154;424;154;Right
2021.03_RODEO_1_BHuman_Part1_G1A_145_00260275_U.png;1650234057711;tkalbitz;CenterCirclePoints;38;289;38;289;Left
2021.03_RODEO_1_BHuman_Part1_G1A_145_00260275_U.png;1650234058711;tkalbitz;CenterCirclePoints;297;160;297;160;Center
2021.03_RODEO_1_BHuman_Part1_G1A_145_00260275_U.png;1650234060273;tkalbitz;CenterCirclePoints;400;100;400;100;Right
2021.03_RODEO_1_BHuman_Part1_G1A_145_00261467_U.png;1650234062227;tkalbitz;CenterCirclePoints;155;339;155;339;Left
2021.03_RODEO_1_BHuman_Part1_G1A_145_00261467_U.png;1650234063487;tkalbitz;CenterCirclePoints;434;205;434;205;Center
2021.03_RODEO_1_BHuman_Part1_G1A_145_00261467_U.png;1650234064885;tkalbitz;CenterCirclePoints;560;141;560;141;Right
2021.03_RODEO_1_BHuman_Part1_G1A_145_00262564_U.png;1650234066939;tkalbitz;CenterCirclePoints;9;421;9;421;Left
2021.03_RODEO_1_BHuman_Part1_G1A_145_00262564_U.png;1650234068119;tkalbitz;CenterCirclePoints;325;192;325;192;Center
2021.03_RODEO_1_BHuman_Part1_G1A_145_00262564_U.png;1650234069211;tkalbitz;CenterCirclePoints;440;96;440;96;Right
2021.03_RODEO_1_BHuman_Part1_G1A_145_00263716_U.png;1650234071245;tkalbitz;CenterCirclePoints;180;208;180;208;Center
2021.03_RODEO_1_BHuman_Part1_G1A_145_00263716_U.png;1650234072707;tkalbitz;CenterCirclePoints;305;119;305;119;Right
2021.03_RODEO_1_BHuman_Part1_G1A_145_00264980_U.png;1650234074495;tkalbitz;CenterCirclePoints;198;185;198;185;Center
2021.03_RODEO_1_BHuman_Part1_G1A_145_00264980_U.png;1650234076037;tkalbitz;CenterCirclePoints;339;63;339;63;Right
2021.03_RODEO_1_BHuman_Part1_G1A_145_00266916_U.png;1650234077898;tkalbitz;CenterCirclePoints;256;186;256;186;Center
2021.03_RODEO_1_BHuman_Part1_G1A_145_00266916_U.png;1650234078962;tkalbitz;CenterCirclePoints;437;55;437;55;Right
2021.03_RODEO_1_BHuman_Part1_G1A_145_00268004_U.png;1650234080624;tkalbitz;CenterCirclePoints;255;182;255;182;Center
2021.03_RODEO_1_BHuman_Part1_G1A_145_00268004_U.png;1650234081994;tkalbitz;CenterCirclePoints;452;50;452;50;Right
2021.03_RODEO_1_BHuman_Part1_G1A_145_00269075_U.png;1650234083842;tkalbitz;CenterCirclePoints;137;334;137;334;Center
2021.03_RODEO_1_BHuman_Part1_G1A_145_00269075_U.png;1650234085160;tkalbitz;CenterCirclePoints;361;135;361;135;Right
2021.03_RODEO_1_BHuman_Part1_G1A_145_00359515_U.png;1650234094444;tkalbitz;CenterCirclePoints;121;179;121;179;Left
2021.03_RODEO_1_BHuman_Part1_G1A_145_00359515_U.png;1650234096502;tkalbitz;CenterCirclePoints;245;186;245;186;Center
2021.03_RODEO_1_BHuman_Part1_G1A_145_00359515_U.png;1650234098096;tkalbitz;CenterCirclePoints;415;195;415;195;Right
2021.03_RODEO_1_BHuman_Part1_G1A_145_00360734_U.png;1650234101080;tkalbitz;CenterCirclePoints;82;135;82;135;Left
2021.03_RODEO_1_BHuman_Part1_G1A_145_00360734_U.png;1650234102457;tkalbitz;CenterCirclePoints;221;148;221;149;Center
2021.03_RODEO_1_BHuman_Part1_G1A_145_00360734_U.png;1650234103843;tkalbitz;CenterCirclePoints;392;162;392;162;Right
2021.03_RODEO_1_BHuman_Part1_G1A_145_00481874_U.png;1650234106355;tkalbitz;CenterCirclePoints;262;193;262;193;Left
2021.03_RODEO_1_BHuman_Part1_G1A_145_00481874_U.png;1650234107881;tkalbitz;CenterCirclePoints;450;186;450;186;Center
2021.03_RODEO_1_BHuman_Part1_G1A_145_00482994_U.png;1650234111075;tkalbitz;CenterCirclePoints;107;148;107;148;Center
2021.03_RODEO_1_BHuman_Part1_G1A_145_00485573_U.png;1650234114903;tkalbitz;CenterCirclePoints;64;138;64;138;Center
2021.03_RODEO_1_BHuman_Part1_G1A_145_00495624_U.png;1650234117505;tkalbitz;CenterCirclePoints;134;152;134;152;Right
2021.03_RODEO_1_BHuman_Part1_G1A_145_00545434_U.png;1650234125406;tkalbitz;CenterCirclePoints;279;42;279;42;Right
2021.03_RODEO_1_BHuman_Part1_G1A_145_00547269_U.png;1650234128568;tkalbitz;CenterCirclePoints;271;4;271;4;Center
2021.03_RODEO_1_BHuman_Part1_G1A_145_00547269_U.png;1650234130266;tkalbitz;CenterCirclePoints;349;68;349;68;Right
2021.03_RODEO_1_BHuman_Part1_G1A_145_00548530_U.png;1650234132744;tkalbitz;CenterCirclePoints;250;130;250;130;Left
2021.03_RODEO_1_BHuman_Part1_G1A_145_00548530_U.png;1650234133884;tkalbitz;CenterCirclePoints;293;163;293;163;Center
2021.03_RODEO_1_BHuman_Part1_G1A_145_00548530_U.png;1650234135926;tkalbitz;CenterCirclePoints;365;226;365;226;Right
2021.03_RODEO_1_BHuman_Part1_G1A_145_00549745_U.png;1650234138226;tkalbitz;CenterCirclePoints;118;174;118;174;Left
2021.03_RODEO_1_BHuman_Part1_G1A_145_00549745_U.png;1650234139606;tkalbitz;CenterCirclePoints;154;212;154;212;Center
2021.03_RODEO_1_BHuman_Part1_G1A_145_00549745_U.png;1650234141016;tkalbitz;CenterCirclePoints;215;284;218;284;Right
2021.03_RODEO_1_BHuman_Part1_G1A_145_00550831_U.png;1650234143538;tkalbitz;CenterCirclePoints;252;155;252;155;Left
2021.03_RODEO_1_BHuman_Part1_G1A_145_00550831_U.png;1650234145182;tkalbitz;CenterCirclePoints;270;197;270;197;Center
2021.03_RODEO_1_BHuman_Part1_G1A_145_00550831_U.png;1650234146542;tkalbitz;CenterCirclePoints;303;291;303;291;Right
2021.03_RODEO_1_BHuman_Part1_G1A_145_00554418_U.png;1650234150680;tkalbitz;CenterCirclePoints;386;213;386;213;Left
2021.03_RODEO_1_BHuman_Part1_G1A_145_00554418_U.png;1650234151817;tkalbitz;CenterCirclePoints;446;58;446;58;Center
2021.03_RODEO_1_BHuman_Part1_G1A_145_00555511_U.png;1650234153877;tkalbitz;CenterCirclePoints;466;74;466;74;Center
2021.03_RODEO_1_BHuman_Part1_G1A_145_00555511_U.png;1650234155935;tkalbitz;CenterCirclePoints;465;301;465;301;Left
2021.03_RODEO_1_BHuman_Part1_G1A_145_00660710_U.png;1650234164297;tkalbitz;CenterCirclePoints;393;184;393;184;Left
2021.03_RODEO_1_BHuman_Part1_G1A_145_00660710_U.png;1650234165609;tkalbitz;CenterCirclePoints;585;185;585;185;Center
2021.03_RODEO_1_BHuman_Part1_G1A_22_00254491_U.png;1650234188594;tkalbitz;CenterCirclePoints;459;214;459;214;Left
2021.03_RODEO_1_BHuman_Part1_G1A_22_00257870_U.png;1650234191398;tkalbitz;CenterCirclePoints;166;231;167;231;Left
2021.03_RODEO_1_BHuman_Part1_G1A_22_00257870_U.png;1650234192488;tkalbitz;CenterCirclePoints;343;233;343;233;Center
2021.03_RODEO_1_BHuman_Part1_G1A_22_00257870_U.png;1650234193930;tkalbitz;CenterCirclePoints;503;227;503;227;Right
2021.03_RODEO_1_BHuman_Part1_G1A_22_00258976_U.png;1650234196021;tkalbitz;CenterCirclePoints;80;178;80;178;Left
2021.03_RODEO_1_BHuman_Part1_G1A_22_00258976_U.png;1650234197075;tkalbitz;CenterCirclePoints;264;173;264;173;Center
2021.03_RODEO_1_BHuman_Part1_G1A_22_00258976_U.png;1650234198203;tkalbitz;CenterCirclePoints;445;163;445;163;Right
2021.03_RODEO_1_BHuman_Part1_G1A_22_00260160_U.png;1650234200289;tkalbitz;CenterCirclePoints;134;263;134;263;Left
2021.03_RODEO_1_BHuman_Part1_G1A_22_00260160_U.png;1650234201739;tkalbitz;CenterCirclePoints;332;246;332;246;Center
2021.03_RODEO_1_BHuman_Part1_G1A_22_00260160_U.png;1650234203447;tkalbitz;CenterCirclePoints;504;229;504;229;Right
2021.03_RODEO_1_BHuman_Part1_G1A_22_00261267_U.png;1650234205521;tkalbitz;CenterCirclePoints;167;193;167;193;Left
2021.03_RODEO_1_BHuman_Part1_G1A_22_00261267_U.png;1650234206975;tkalbitz;CenterCirclePoints;376;176;376;176;Center
2021.03_RODEO_1_BHuman_Part1_G1A_22_00261267_U.png;1650234208321;tkalbitz;CenterCirclePoints;564;157;564;157;Right
2021.03_RODEO_1_BHuman_Part1_G1A_22_00269058_U.png;1650234210303;tkalbitz;CenterCirclePoints;138;212;138;212;Left
2021.03_RODEO_1_BHuman_Part1_G1A_22_00269058_U.png;1650234211829;tkalbitz;CenterCirclePoints;360;203;360;203;Center
2021.03_RODEO_1_BHuman_Part1_G1A_22_00269058_U.png;1650234213395;tkalbitz;CenterCirclePoints;552;191;552;191;Right
2021.03_RODEO_1_BHuman_Part1_G1A_22_00279417_U.png;1650234215634;tkalbitz;CenterCirclePoints;4;258;5;258;Center
2021.03_RODEO_1_BHuman_Part1_G1A_22_00279417_U.png;1650234216998;tkalbitz;CenterCirclePoints;266;220;266;220;Right
2021.03_RODEO_1_BHuman_Part1_G1A_22_00297691_U.png;1650234223854;tkalbitz;CenterCirclePoints;635;434;635;434;Right
2021.03_RODEO_1_BHuman_Part1_G1A_22_00303452_U.png;1650234228672;tkalbitz;CenterCirclePoints;567;265;567;265;Right
2021.03_RODEO_1_BHuman_Part1_G1A_22_00306638_U.png;1650234230608;tkalbitz;CenterCirclePoints;478;274;478;274;Center
2021.03_RODEO_1_BHuman_Part1_G1A_22_00309368_U.png;1650234232768;tkalbitz;CenterCirclePoints;235;323;235;323;Right
2021.03_RODEO_1_BHuman_Part1_G1A_22_00310571_U.png;1650234235240;tkalbitz;CenterCirclePoints;363;205;363;205;Right
2021.03_RODEO_1_BHuman_Part1_G1A_22_00311760_U.png;1650234237007;tkalbitz;CenterCirclePoints;312;206;312;206;Right
2021.03_RODEO_1_BHuman_Part1_G1A_22_00313197_U.png;1650234238623;tkalbitz;CenterCirclePoints;288;199;288;199;Right
2021.03_RODEO_1_BHuman_Part1_G1A_22_00347353_U.png;1650234251899;tkalbitz;CenterCirclePoints;577;46;577;46;Left
2021.03_RODEO_1_BHuman_Part1_G1A_22_00350021_U.png;1650234257337;tkalbitz;CenterCirclePoints;563;92;563;92;Left
2021.03_RODEO_1_BHuman_Part1_G1A_22_00351308_U.png;1650234260312;tkalbitz;CenterCirclePoints;340;137;340;137;Center
2021.03_RODEO_1_BHuman_Part1_G1A_22_00351308_U.png;1650234261939;tkalbitz;CenterCirclePoints;489;165;489;165;Right
2021.03_RODEO_1_BHuman_Part1_G1A_22_00359103_U.png;1650234266085;tkalbitz;CenterCirclePoints;3;50;3;50;Left
2021.03_RODEO_1_BHuman_Part1_G1A_22_00359103_U.png;1650234269532;tkalbitz;CenterCirclePoints;280;55;280;55;Right
2021.03_RODEO_1_BHuman_Part1_G1A_22_00483842_U.png;1650234276648;tkalbitz;CenterCirclePoints;413;377;413;377;Left
2021.03_RODEO_1_BHuman_Part1_G1A_22_00483842_U.png;1650234278588;tkalbitz;CenterCirclePoints;593;403;593;403;Right
2021.03_RODEO_1_BHuman_Part1_G1A_22_00493480_U.png;1650234286101;tkalbitz;CenterCirclePoints;171;66;171;66;Left
2021.03_RODEO_1_BHuman_Part1_G1A_22_00493480_U.png;1650234287517;tkalbitz;CenterCirclePoints;348;83;348;83;Right
2021.03_RODEO_1_BHuman_Part1_G1A_22_00493480_U.png;1650234288773;tkalbitz;CenterCirclePoints;245;75;245;75;Center
2021.03_RODEO_1_BHuman_Part1_G1A_22_00494860_U.png;1650234290837;tkalbitz;CenterCirclePoints;135;144;135;144;Left
2021.03_RODEO_1_BHuman_Part1_G1A_22_00494860_U.png;1650234291909;tkalbitz;CenterCirclePoints;210;157;210;157;Center
2021.03_RODEO_1_BHuman_Part1_G1A_22_00494860_U.png;1650234293882;tkalbitz;CenterCirclePoints;316;172;316;172;Right
2021.03_RODEO_1_BHuman_Part1_G1A_22_00496019_U.png;1650234296435;tkalbitz;CenterCirclePoints;87;132;87;132;Left
2021.03_RODEO_1_BHuman_Part1_G1A_22_00496019_U.png;1650234297845;tkalbitz;CenterCirclePoints;166;140;166;140;Center
2021.03_RODEO_1_BHuman_Part1_G1A_22_00496019_U.png;1650234298997;tkalbitz;CenterCirclePoints;275;148;275;148;Right
2021.03_RODEO_1_BHuman_Part1_G1A_22_00539581_U.png;1650234308230;tkalbitz;CenterCirclePoints;344;197;344;197;Left
2021.03_RODEO_1_BHuman_Part1_G1A_22_00539581_U.png;1650234309384;tkalbitz;CenterCirclePoints;349;215;349;215;Center
2021.03_RODEO_1_BHuman_Part1_G1A_22_00539581_U.png;1650234310334;tkalbitz;CenterCirclePoints;357;242;357;242;Right
2021.03_RODEO_1_BHuman_Part1_G1A_22_00554340_U.png;1650234313970;tkalbitz;CenterCirclePoints;244;141;244;141;Left
2021.03_RODEO_1_BHuman_Part1_G1A_22_00554340_U.png;1650234315420;tkalbitz;CenterCirclePoints;316;185;317;185;Center
2021.03_RODEO_1_BHuman_Part1_G1A_22_00555975_U.png;1650234318416;tkalbitz;CenterCirclePoints;162;349;162;349;Right
2021.03_RODEO_1_BHuman_Part1_G1A_22_00571800_U.png;1650234327059;tkalbitz;CenterCirclePoints;68;453;68;453;Center
2021.03_RODEO_1_BHuman_Part1_G1A_22_00571800_U.png;1650234328808;tkalbitz;CenterCirclePoints;388;219;388;219;Right
2021.03_RODEO_1_BHuman_Part1_G1A_22_00574764_U.png;1650234331015;tkalbitz;CenterCirclePoints;373;289;373;289;Center
2021.03_RODEO_1_BHuman_Part1_G1A_22_00576288_U.png;1650234332670;tkalbitz;CenterCirclePoints;361;218;361;218;Center
2021.03_RODEO_1_BHuman_Part1_G1A_22_00578270_U.png;1650234338961;tkalbitz;CenterCirclePoints;537;463;537;463;Left
2021.03_RODEO_1_BHuman_Part1_G1A_22_00690399_U.png;1650234352528;tkalbitz;CenterCirclePoints;9;216;9;216;Right
2021.03_RODEO_1_BHuman_Part1_G1A_22_00750699_U.png;1650234373591;tkalbitz;CenterCirclePoints;632;219;632;219;Left
2021.03_RODEO_1_BHuman_Part1_G1A_22_00833590_U.png;1650234384987;tkalbitz;CenterCirclePoints;302;191;302;191;Left
2021.03_RODEO_1_BHuman_Part1_G1A_22_00833590_U.png;1650234386593;tkalbitz;CenterCirclePoints;386;174;386;174;Center
2021.03_RODEO_1_BHuman_Part1_G1A_22_00833590_U.png;1650234388840;tkalbitz;CenterCirclePoints;455;159;455;159;Right
2021.03_RODEO_1_BHuman_Part1_G1A_22_00834686_U.png;1650234391998;tkalbitz;CenterCirclePoints;580;193;580;193;Left
2021.03_RODEO_1_BHuman_Part1_G1A_51_00254644_U.png;1650234395098;tkalbitz;CenterCirclePoints;380;295;380;295;Left
2021.03_RODEO_1_BHuman_Part1_G1A_51_00254644_U.png;1650234396262;tkalbitz;CenterCirclePoints;630;325;630;325;Center
2021.03_RODEO_1_BHuman_Part1_G1A_51_00268129_U.png;1650234398998;tkalbitz;CenterCirclePoints;219;165;219;165;Center
2021.03_RODEO_1_BHuman_Part1_G1A_51_00268129_U.png;1650234401934;tkalbitz;CenterCirclePoints;480;148;480;148;Right
2021.03_RODEO_1_BHuman_Part1_G1A_51_00269223_U.png;1650234404536;tkalbitz;CenterCirclePoints;47;188;47;188;Left
2021.03_RODEO_1_BHuman_Part1_G1A_51_00269223_U.png;1650234407575;tkalbitz;CenterCirclePoints;301;196;301;196;Center
2021.03_RODEO_1_BHuman_Part1_G1A_51_00269223_U.png;1650234408815;tkalbitz;CenterCirclePoints;590;207;590;207;Right
2021.03_RODEO_1_BHuman_Part1_G1A_51_00271289_U.png;1650234413469;tkalbitz;CenterCirclePoints;205;164;205;164;Center
2021.03_RODEO_1_BHuman_Part1_G1A_51_00271289_U.png;1650234417013;tkalbitz;CenterCirclePoints;535;157;535;157;Right
2021.03_RODEO_1_BHuman_Part1_G1A_51_00274671_U.png;1650234420267;tkalbitz;CenterCirclePoints;317;188;317;188;Right
2021.03_RODEO_1_BHuman_Part1_G1A_51_00470743_U.png;1650234432324;tkalbitz;CenterCirclePoints;396;330;396;330;Right
2021.03_RODEO_1_BHuman_Part1_G1A_51_00470743_U.png;1650234434008;tkalbitz;CenterCirclePoints;91;414;91;414;Center
2021.03_RODEO_1_BHuman_Part1_G1A_51_00472050_U.png;1650234436252;tkalbitz;CenterCirclePoints;310;279;310;279;Center
2021.03_RODEO_1_BHuman_Part1_G1A_51_00472050_U.png;1650234438516;tkalbitz;CenterCirclePoints;631;232;631;232;Right
2021.03_RODEO_1_BHuman_Part1_G1A_51_00473170_U.png;1650234441392;tkalbitz;CenterCirclePoints;310;279;310;279;Center
2021.03_RODEO_1_BHuman_Part1_G1A_51_00473170_U.png;1650234442926;tkalbitz;CenterCirclePoints;630;231;630;231;Right
2021.03_RODEO_1_BHuman_Part1_G1A_51_00474319_U.png;1650234445170;tkalbitz;CenterCirclePoints;311;279;311;279;Center
2021.03_RODEO_1_BHuman_Part1_G1A_51_00474319_U.png;1650234448507;tkalbitz;CenterCirclePoints;631;229;631;229;Right
2021.03_RODEO_1_BHuman_Part1_G1A_51_00475387_U.png;1650234450391;tkalbitz;CenterCirclePoints;312;281;312;281;Center
2021.03_RODEO_1_BHuman_Part1_G1A_51_00475387_U.png;1650234451955;tkalbitz;CenterCirclePoints;632;232;632;232;Right
2021.03_RODEO_1_BHuman_Part1_G1A_51_00480139_U.png;1650234457549;tkalbitz;CenterCirclePoints;125;195;125;195;Left
2021.03_RODEO_1_BHuman_Part1_G1A_51_00480139_U.png;1650234458951;tkalbitz;CenterCirclePoints;489;202;489;202;Center
2021.03_RODEO_1_BHuman_Part1_G1A_51_00481214_U.png;1650234461057;tkalbitz;CenterCirclePoints;247;171;247;171;Center
2021.03_RODEO_1_BHuman_Part1_G1A_51_00481214_U.png;1650234462543;tkalbitz;CenterCirclePoints;574;130;574;130;Right
2021.03_RODEO_1_BHuman_Part1_G1A_51_00482533_U.png;1650234465375;tkalbitz;CenterCirclePoints;517;128;517;128;Right
2021.03_RODEO_1_BHuman_Part1_G1A_51_00482533_U.png;1650234467231;tkalbitz;CenterCirclePoints;188;173;188;173;Center
2021.03_RODEO_1_BHuman_Part1_G1A_51_00495492_U.png;1650234473780;tkalbitz;CenterCirclePoints;39;370;39;370;Right
2021.03_RODEO_1_BHuman_Part1_G1A_51_00544209_U.png;1650234491946;tkalbitz;CenterCirclePoints;13;94;13;94;Right
2021.03_RODEO_1_BHuman_Part1_G1A_51_00545788_U.png;1650234493983;tkalbitz;CenterCirclePoints;222;95;222;95;Right
2021.03_RODEO_1_BHuman_Part1_G1A_51_00545788_U.png;1650234495429;tkalbitz;CenterCirclePoints;37;48;37;48;Center
2021.03_RODEO_1_BHuman_Part1_G1A_51_00546937_U.png;1650234497569;tkalbitz;CenterCirclePoints;44;134;44;134;Right
2021.03_RODEO_1_BHuman_Part1_G1A_51_00549098_U.png;1650234499723;tkalbitz;CenterCirclePoints;8;236;8;236;Right
2021.03_RODEO_1_BHuman_Part1_G1A_51_00553577_U.png;1650234502317;tkalbitz;CenterCirclePoints;88;341;88;341;Right
2021.03_RODEO_1_BHuman_Part1_G1A_51_00720395_U.png;1650234515417;tkalbitz;CenterCirclePoints;613;72;612;72;Left
2021.03_RODEO_1_BHuman_Part1_G1A_145_00277694_U.png;1622747824938;tkalbitz;GoalPost;28;158;-5;57;Left
2021.03_RODEO_1_BHuman_Part1_G1A_145_00277694_U.png;1622747832863;tkalbitz;GoalPost;278;148;251;8;Right
2021.03_RODEO_1_BHuman_Part1_G1A_145_00277694_U.png;1622747837479;tkalbitz;GoalPost;250;10;1;15;Middle
2021.03_RODEO_1_BHuman_Part1_G1A_145_00359515_U.png;1622747953841;tkalbitz;GoalPost;409;22;565;10;Middle
2021.03_RODEO_1_BHuman_Part1_G1A_145_00359515_U.png;1622747963531;tkalbitz;GoalPost;407;105;411;24;Left
2021.03_RODEO_1_BHuman_Part1_G1A_145_00359515_U.png;1622747981148;tkalbitz;GoalPost;571;9;561;103;Right
2021.03_RODEO_1_BHuman_Part1_G1A_145_00360734_U.png;1622749654892;tkalbitz;GoalPost;534;76;543;-1;Right
2021.03_RODEO_1_BHuman_Part1_G1A_145_00360734_U.png;1622749664676;tkalbitz;GoalPost;381;70;386;0;Left
2021.03_RODEO_1_BHuman_Part1_G1A_145_00481874_U.png;1622750084397;tkalbitz;GoalPost;244;109;245;25;Left
2021.03_RODEO_1_BHuman_Part1_G1A_145_00481874_U.png;1622750089410;tkalbitz;GoalPost;245;26;394;25;Middle
2021.03_RODEO_1_BHuman_Part1_G1A_145_00481874_U.png;1622750094931;tkalbitz;GoalPost;394;25;389;103;Right
2021.03_RODEO_1_BHuman_Part1_G1A_145_00482994_U.png;1622750105836;tkalbitz;GoalPost;27;60;24;-3;Right
2021.03_RODEO_1_BHuman_Part1_G1A_145_00552609_U.png;1622750254033;tkalbitz;GoalPost;240;146;232;42;Right
2021.03_RODEO_1_BHuman_Part1_G1A_145_00552609_U.png;1622750262571;tkalbitz;GoalPost;45;170;27;43;Left
2021.03_RODEO_1_BHuman_Part1_G1A_145_00552609_U.png;1622750273193;tkalbitz;GoalPost;27;43;232;42;Middle
2021.03_RODEO_1_BHuman_Part1_G1A_145_00585652_U.png;1622750304903;tkalbitz;GoalPost;199;45;0;52;Middle
2021.03_RODEO_1_BHuman_Part1_G1A_145_00585652_U.png;1622750313573;tkalbitz;GoalPost;199;46;201;158;Right
2021.03_RODEO_1_BHuman_Part1_G1A_145_00588010_U.png;1622750321292;tkalbitz;GoalPost;366;60;364;157;Right
2021.03_RODEO_1_BHuman_Part1_G1A_145_00588010_U.png;1622750326318;tkalbitz;GoalPost;157;71;160;170;Left
2021.03_RODEO_1_BHuman_Part1_G1A_145_00588010_U.png;1622750330840;tkalbitz;GoalPost;157;68;365;58;Middle
2021.03_RODEO_1_BHuman_Part1_G1A_145_00660710_U.png;1622750346283;tkalbitz;GoalPost;355;21;503;20;Middle
2021.03_RODEO_1_BHuman_Part1_G1A_145_00660710_U.png;1622750351479;tkalbitz;GoalPost;355;21;355;101;Left
2021.03_RODEO_1_BHuman_Part1_G1A_145_00660710_U.png;1622750360161;tkalbitz;GoalPost;505;20;502;101;Right
2021.03_RODEO_1_BHuman_Part1_G1A_145_00707566_U.png;1622750377606;tkalbitz;GoalPost;247;61;227;1;Right
2021.03_RODEO_1_BHuman_Part1_G1A_145_00709795_U.png;1622750386732;tkalbitz;GoalPost;95;142;73;1;Right
2021.03_RODEO_1_BHuman_Part1_G1A_22_00254491_U.png;1622750456336;tkalbitz;GoalPost;613;46;600;129;Right
2021.03_RODEO_1_BHuman_Part1_G1A_22_00254491_U.png;1622750463349;tkalbitz;GoalPost;454;50;447;130;Left
2021.03_RODEO_1_BHuman_Part1_G1A_22_00254491_U.png;1622750468762;tkalbitz;GoalPost;453;50;613;47;Middle
2021.03_RODEO_1_BHuman_Part1_G1A_22_00257870_U.png;1622750477363;tkalbitz;GoalPost;141;57;290;66;Middle
2021.03_RODEO_1_BHuman_Part1_G1A_22_00257870_U.png;1622750483180;tkalbitz;GoalPost;141;56;147;143;Left
2021.03_RODEO_1_BHuman_Part1_G1A_22_00257870_U.png;1622750489272;tkalbitz;GoalPost;291;66;289;145;Right
2021.03_RODEO_1_BHuman_Part1_G1A_22_00269058_U.png;1622750499067;tkalbitz;GoalPost;324;15;323;101;Right
2021.03_RODEO_1_BHuman_Part1_G1A_22_00269058_U.png;1622750504282;tkalbitz;GoalPost;161;15;324;17;Middle
2021.03_RODEO_1_BHuman_Part1_G1A_22_00269058_U.png;1622750509979;tkalbitz;GoalPost;161;15;168;101;Left
2021.03_RODEO_1_BHuman_Part1_G1A_22_00309368_U.png;1622750534154;tkalbitz;GoalPost;93;77;85;-3;Right
2021.03_RODEO_1_BHuman_Part1_G1A_22_00324265_U.png;1622750549684;tkalbitz;GoalPost;175;0;198;122;Left
2021.03_RODEO_1_BHuman_Part1_G1A_22_00326487_U.png;1622750560355;tkalbitz;GoalPost;139;43;130;-1;Left
2021.03_RODEO_1_BHuman_Part1_G1A_22_00326487_U.png;1622750564857;tkalbitz;GoalPost;400;8;400;-3;Right
2021.03_RODEO_1_BHuman_Part1_G1A_22_00374877_U.png;1622750601150;tkalbitz;GoalPost;40;284;0;-1;Left
2021.03_RODEO_1_BHuman_Part1_G1A_22_00494860_U.png;1622750617264;tkalbitz;GoalPost;397;136;404;73;Left
2021.03_RODEO_1_BHuman_Part1_G1A_22_00494860_U.png;1622750624105;tkalbitz;GoalPost;403;73;527;76;Middle
2021.03_RODEO_1_BHuman_Part1_G1A_22_00494860_U.png;1622750630704;tkalbitz;GoalPost;526;76;517;145;Right
2021.03_RODEO_1_BHuman_Part1_G1A_22_00496019_U.png;1622750638442;tkalbitz;GoalPost;486;25;485;100;Right
2021.03_RODEO_1_BHuman_Part1_G1A_22_00496019_U.png;1622750643587;tkalbitz;GoalPost;359;28;362;96;Left
2021.03_RODEO_1_BHuman_Part1_G1A_22_00496019_U.png;1622750647699;tkalbitz;GoalPost;359;28;487;24;Middle
2021.03_RODEO_1_BHuman_Part1_G1A_22_00555975_U.png;1622750679391;tkalbitz;GoalPost;345;20;453;18;Middle
2021.03_RODEO_1_BHuman_Part1_G1A_22_00555975_U.png;1622750684061;tkalbitz;GoalPost;348;21;337;119;Left
2021.03_RODEO_1_BHuman_Part1_G1A_22_00582923_U.png;1622750709967;tkalbitz;GoalPost;157;55;147;1;Left
2021.03_RODEO_1_BHuman_Part1_G1A_22_00582923_U.png;1622750714986;tkalbitz;GoalPost;387;43;385;0;Right
2021.03_RODEO_1_BHuman_Part1_G1A_22_00588686_U.png;1622750727577;tkalbitz;GoalPost;11;70;0;1;Left
2021.03_RODEO_1_BHuman_Part1_G1A_22_00588686_U.png;1622750732565;tkalbitz;GoalPost;346;47;345;0;Right
2021.03_RODEO_1_BHuman_Part1_G1A_22_00610131_U.png;1622750753718;tkalbitz;GoalPost;356;85;335;1;Left
2021.03_RODEO_1_BHuman_Part1_G1A_22_00611741_U.png;1622750759684;tkalbitz;GoalPost;276;0;282;98;Left
2021.03_RODEO_1_BHuman_Part1_G1A_22_00612863_U.png;1622750765162;tkalbitz;GoalPost;318;0;326;123;Left
2021.03_RODEO_1_BHuman_Part1_G1A_22_00613956_U.png;1622750772585;tkalbitz;GoalPost;407;0;365;206;Left
2021.03_RODEO_1_BHuman_Part1_G1A_22_00616857_U.png;1622750778331;tkalbitz;GoalPost;438;0;382;443;Left
2021.03_RODEO_1_BHuman_Part1_G1A_22_00698346_U.png;1622750787886;tkalbitz;GoalPost;541;349;554;206;Left
2021.03_RODEO_1_BHuman_Part1_G1A_22_00698346_U.png;1622750793710;tkalbitz;GoalPost;555;206;637;204;Middle
2021.03_RODEO_1_BHuman_Part1_G1A_22_00699445_U.png;1622750802632;tkalbitz;GoalPost;556;77;638;74;Middle
2021.03_RODEO_1_BHuman_Part1_G1A_22_00699445_U.png;1622750808116;tkalbitz;GoalPost;554;76;547;213;Left
2021.03_RODEO_1_BHuman_Part1_G1A_22_00704725_U.png;1622750818488;tkalbitz;GoalPost;184;152;196;0;Left
2021.03_RODEO_1_BHuman_Part1_G1A_22_00704725_U.png;1622750822959;tkalbitz;GoalPost;458;187;493;1;Right
2021.03_RODEO_1_BHuman_Part1_G1A_22_00705908_U.png;1622750832584;tkalbitz;GoalPost;556;95;572;0;Right
2021.03_RODEO_1_BHuman_Part1_G1A_22_00705908_U.png;1622750838048;tkalbitz;GoalPost;246;51;244;0;Left
2021.03_RODEO_1_BHuman_Part1_G1A_22_00707106_U.png;1622750843943;tkalbitz;GoalPost;54;0;72;76;Left
2021.03_RODEO_1_BHuman_Part1_G1A_22_00707106_U.png;1622750849242;tkalbitz;GoalPost;411;0;413;85;Right
2021.03_RODEO_1_BHuman_Part1_G1A_22_00708233_U.png;1622750855659;tkalbitz;GoalPost;292;1;301;164;Right
2021.03_RODEO_1_BHuman_Part1_G1A_22_00709359_U.png;1622750862005;tkalbitz;GoalPost;393;1;393;132;Right
2021.03_RODEO_1_BHuman_Part1_G1A_22_00709359_U.png;1622750866599;tkalbitz;GoalPost;40;1;67;127;Left
2021.03_RODEO_1_BHuman_Part1_G1A_22_00710676_U.png;1622750871719;tkalbitz;GoalPost;32;2;73;179;Left
2021.03_RODEO_1_BHuman_Part1_G1A_22_00710676_U.png;1622750877074;tkalbitz;GoalPost;365;1;379;185;Right
2021.03_RODEO_1_BHuman_Part1_G1A_22_00711968_U.png;1622750884116;tkalbitz;GoalPost;374;1;379;73;Right
2021.03_RODEO_1_BHuman_Part1_G1A_22_00711968_U.png;1622750892093;tkalbitz;GoalPost;66;1;77;49;Left
2021.03_RODEO_1_BHuman_Part1_G1A_22_00750699_U.png;1622750917733;tkalbitz;GoalPost;68;45;234;46;Middle
2021.03_RODEO_1_BHuman_Part1_G1A_22_00750699_U.png;1622750921982;tkalbitz;GoalPost;234;47;245;127;Right
2021.03_RODEO_1_BHuman_Part1_G1A_22_00823034_U.png;1622750939291;tkalbitz;GoalPost;565;168;566;297;Left
2021.03_RODEO_1_BHuman_Part1_G1A_22_00823034_U.png;1622750946687;tkalbitz;GoalPost;564;167;639;149;Middle
2021.03_RODEO_1_BHuman_Part1_G1A_22_00833590_U.png;1622750955735;tkalbitz;GoalPost;33;96;163;89;Middle
2021.03_RODEO_1_BHuman_Part1_G1A_22_00833590_U.png;1622750962081;tkalbitz;GoalPost;164;89;176;155;Right
2021.03_RODEO_1_BHuman_Part1_G1A_22_00833590_U.png;1622750968634;tkalbitz;GoalPost;34;96;52;169;Left
2021.03_RODEO_1_BHuman_Part1_G1A_22_00834686_U.png;1622750974813;tkalbitz;GoalPost;326;101;330;168;Left
2021.03_RODEO_1_BHuman_Part1_G1A_22_00834686_U.png;1622750979835;tkalbitz;GoalPost;448;88;446;152;Right
2021.03_RODEO_1_BHuman_Part1_G1A_22_00834686_U.png;1622750983897;tkalbitz;GoalPost;326;100;447;89;Middle
2021.03_RODEO_1_BHuman_Part1_G1A_51_00268129_U.png;1622750999422;tkalbitz;GoalPost;360;1;361;28;Right
2021.03_RODEO_1_BHuman_Part1_G1A_51_00269223_U.png;1622751010394;tkalbitz;GoalPost;441;3;442;57;Right
2021.03_RODEO_1_BHuman_Part1_G1A_51_00287375_U.png;1622751023943;tkalbitz;GoalPost;90;0;98;60;Right
2021.03_RODEO_1_BHuman_Part1_G1A_51_00324413_U.png;1622751030425;tkalbitz;GoalPost;541;47;553;173;Right
2021.03_RODEO_1_BHuman_Part1_G1A_51_00324413_U.png;1622751037543;tkalbitz;GoalPost;296;62;316;189;Left
2021.03_RODEO_1_BHuman_Part1_G1A_51_00324413_U.png;1622751043117;tkalbitz;GoalPost;296;62;542;48;Middle
2021.03_RODEO_1_BHuman_Part1_G1A_51_00325648_U.png;1622751052062;tkalbitz;GoalPost;253;21;514;23;Middle
2021.03_RODEO_1_BHuman_Part1_G1A_51_00325648_U.png;1622751064619;tkalbitz;GoalPost;253;21;229;158;Left
2021.03_RODEO_1_BHuman_Part1_G1A_51_00325648_U.png;1622751069833;tkalbitz;GoalPost;515;23;473;157;Right
2021.03_RODEO_1_BHuman_Part1_G1A_51_00326785_U.png;1622751077514;tkalbitz;GoalPost;436;81;421;205;Right
2021.03_RODEO_1_BHuman_Part1_G1A_51_00326785_U.png;1622751084792;tkalbitz;GoalPost;168;68;161;202;Left
2021.03_RODEO_1_BHuman_Part1_G1A_51_00326785_U.png;1622751091356;tkalbitz;GoalPost;168;68;436;81;Middle
2021.03_RODEO_1_BHuman_Part1_G1A_51_00361887_U.png;1622751106956;tkalbitz;GoalPost;7;13;431;44;Middle
2021.03_RODEO_1_BHuman_Part1_G1A_51_00361887_U.png;1622751112943;tkalbitz;GoalPost;433;43;417;251;Right
2021.03_RODEO_1_BHuman_Part1_G1A_51_00361887_U.png;1622751117577;tkalbitz;GoalPost;7;13;12;270;Left
2021.03_RODEO_1_BHuman_Part1_G1A_51_00364178_U.png;1622751125231;tkalbitz;GoalPost;15;115;2;1;Left
2021.03_RODEO_1_BHuman_Part1_G1A_51_00364178_U.png;1622751142686;tkalbitz;GoalPost;551;2;529;96;Right
2021.03_RODEO_1_BHuman_Part1_G1A_51_00470743_U.png;1622751150242;tkalbitz;GoalPost;64;104;80;197;Right
2021.03_RODEO_1_BHuman_Part1_G1A_51_00470743_U.png;1622751157067;tkalbitz;GoalPost;64;104;1;105;Middle
2021.03_RODEO_1_BHuman_Part1_G1A_51_00472050_U.png;1622751169328;tkalbitz;GoalPost;115;3;131;98;Left
2021.03_RODEO_1_BHuman_Part1_G1A_51_00472050_U.png;1622751174628;tkalbitz;GoalPost;304;2;310;79;Right
2021.03_RODEO_1_BHuman_Part1_G1A_51_00553577_U.png;1622751252327;tkalbitz;GoalPost;508;67;637;62;Middle
2021.03_RODEO_1_BHuman_Part1_G1A_51_00553577_U.png;1622751258096;tkalbitz;GoalPost;509;68;501;164;Left
2021.03_RODEO_1_BHuman_Part1_G1A_51_00705937_U.png;1622751278465;tkalbitz;GoalPost;231;1;257;161;Right
2021.03_RODEO_1_BHuman_Part1_G1A_51_00707075_U.png;1622751285405;tkalbitz;GoalPost;283;0;294;169;Right
2021.03_RODEO_1_BHuman_Part1_G1A_51_00712665_U.png;1622751293425;tkalbitz;GoalPost;107;0;123;65;Right
2021.03_RODEO_1_BHuman_Part1_G1A_51_00751836_U.png;1622751321999;tkalbitz;GoalPost;637;1;626;56;Right
2021.03_RODEO_1_BHuman_Part1_G1A_51_00751836_U.png;1622751328239;tkalbitz;GoalPost;468;1;461;59;Left
2021.03_RODEO_1_BHuman_Part1_G1A_51_00753215_U.png;1622751336945;tkalbitz;GoalPost;430;15;428;100;Left
2021.03_RODEO_1_BHuman_Part1_G1A_51_00753215_U.png;1622751342429;tkalbitz;GoalPost;430;15;595;7;Middle
2021.03_RODEO_1_BHuman_Part1_G1A_51_00753215_U.png;1622751355082;tkalbitz;GoalPost;596;8;589;91;Right
2021.03_RODEO_1_BHuman_Part1_G1A_51_00556669_U.png;1622751266955;tkalbitz;Ignore
2021.03_RODEO_1_BHuman_Part1_G1A_145_00271204_U.png;1650234087064;tkalbitz;NoCenterCirclePoints
2021.03_RODEO_1_BHuman_Part1_G1A_145_00274096_U.png;1650234088144;tkalbitz;NoCenterCirclePoints
2021.03_RODEO_1_BHuman_Part1_G1A_145_00275320_U.png;1650234088712;tkalbitz;NoCenterCirclePoints
2021.03_RODEO_1_BHuman_Part1_G1A_145_00276410_U.png;1650234089708;tkalbitz;NoCenterCirclePoints
2021.03_RODEO_1_BHuman_Part1_G1A_145_00277694_U.png;1650234090360;tkalbitz;NoCenterCirclePoints
2021.03_RODEO_1_BHuman_Part1_G1A_145_00280562_U.png;1650234091060;tkalbitz;NoCenterCirclePoints
2021.03_RODEO_1_BHuman_Part1_G1A_145_00282787_U.png;1650234091708;tkalbitz;NoCenterCirclePoints
2021.03_RODEO_1_BHuman_Part1_G1A_145_00484087_U.png;1650234112697;tkalbitz;NoCenterCirclePoints
2021.03_RODEO_1_BHuman_Part1_G1A_145_00499871_U.png;1650234119209;tkalbitz;NoCenterCirclePoints
2021.03_RODEO_1_BHuman_Part1_G1A_145_00500968_U.png;1650234120171;tkalbitz;NoCenterCirclePoints
2021.03_RODEO_1_BHuman_Part1_G1A_145_00502387_U.png;1650234120859;tkalbitz;NoCenterCirclePoints
2021.03_RODEO_1_BHuman_Part1_G1A_145_00539720_U.png;1650234121713;tkalbitz;NoCenterCirclePoints
2021.03_RODEO_1_BHuman_Part1_G1A_145_00542017_U.png;1650234122337;tkalbitz;NoCenterCirclePoints
2021.03_RODEO_1_BHuman_Part1_G1A_145_00543558_U.png;1650234122987;tkalbitz;NoCenterCirclePoints
2021.03_RODEO_1_BHuman_Part1_G1A_145_00552609_U.png;1650234149268;tkalbitz;NoCenterCirclePoints
2021.03_RODEO_1_BHuman_Part1_G1A_145_00559375_U.png;1650234157561;tkalbitz;NoCenterCirclePoints
2021.03_RODEO_1_BHuman_Part1_G1A_145_00584586_U.png;1650234158701;tkalbitz;NoCenterCirclePoints
2021.03_RODEO_1_BHuman_Part1_G1A_145_00585652_U.png;1650234159683;tkalbitz;NoCenterCirclePoints
2021.03_RODEO_1_BHuman_Part1_G1A_145_00588010_U.png;1650234160317;tkalbitz;NoCenterCirclePoints
2021.03_RODEO_1_BHuman_Part1_G1A_145_00598345_U.png;1650234161307;tkalbitz;NoCenterCirclePoints
2021.03_RODEO_1_BHuman_Part1_G1A_145_00599412_U.png;1650234162035;tkalbitz;NoCenterCirclePoints
2021.03_RODEO_1_BHuman_Part1_G1A_145_00700342_U.png;1650234167315;tkalbitz;NoCenterCirclePoints
2021.03_RODEO_1_BHuman_Part1_G1A_145_00701413_U.png;1650234168357;tkalbitz;NoCenterCirclePoints
2021.03_RODEO_1_BHuman_Part1_G1A_145_00702565_U.png;1650234168945;tkalbitz;NoCenterCirclePoints
2021.03_RODEO_1_BHuman_Part1_G1A_145_00703725_U.png;1650234169807;tkalbitz;NoCenterCirclePoints
2021.03_RODEO_1_BHuman_Part1_G1A_145_00705431_U.png;1650234170899;tkalbitz;NoCenterCirclePoints
2021.03_RODEO_1_BHuman_Part1_G1A_145_00707566_U.png;1650234171455;tkalbitz;NoCenterCirclePoints
2021.03_RODEO_1_BHuman_Part1_G1A_145_00709795_U.png;1650234171959;tkalbitz;NoCenterCirclePoints
2021.03_RODEO_1_BHuman_Part1_G1A_145_00713265_U.png;1650234172498;tkalbitz;NoCenterCirclePoints
2021.03_RODEO_1_BHuman_Part1_G1A_145_00721316_U.png;1650234173202;tkalbitz;NoCenterCirclePoints
2021.03_RODEO_1_BHuman_Part1_G1A_145_00723130_U.png;1650234173807;tkalbitz;NoCenterCirclePoints
2021.03_RODEO_1_BHuman_Part1_G1A_145_00724350_U.png;1650234174465;tkalbitz;NoCenterCirclePoints
2021.03_RODEO_1_BHuman_Part1_G1A_145_00726278_U.png;1650234175190;tkalbitz;NoCenterCirclePoints
2021.03_RODEO_1_BHuman_Part1_G1A_145_00727832_U.png;1650234175736;tkalbitz;NoCenterCirclePoints
2021.03_RODEO_1_BHuman_Part1_G1A_145_00731449_U.png;1650234176667;tkalbitz;NoCenterCirclePoints
2021.03_RODEO_1_BHuman_Part1_G1A_145_00772872_U.png;1650234177348;tkalbitz;NoCenterCirclePoints
2021.03_RODEO_1_BHuman_Part1_G1A_145_00774543_U.png;1650234178024;tkalbitz;NoCenterCirclePoints
2021.03_RODEO_1_BHuman_Part1_G1A_145_00775765_U.png;1650234178706;tkalbitz;NoCenterCirclePoints
2021.03_RODEO_1_BHuman_Part1_G1A_145_00776835_U.png;1650234179508;tkalbitz;NoCenterCirclePoints
2021.03_RODEO_1_BHuman_Part1_G1A_145_00786718_U.png;1650234180364;tkalbitz;NoCenterCirclePoints
2021.03_RODEO_1_BHuman_Part1_G1A_145_00794792_U.png;1650234181408;tkalbitz;NoCenterCirclePoints
2021.03_RODEO_1_BHuman_Part1_G1A_145_00814215_U.png;1650234182162;tkalbitz;NoCenterCirclePoints
2021.03_RODEO_1_BHuman_Part1_G1A_145_00815416_U.png;1650234182936;tkalbitz;NoCenterCirclePoints
2021.03_RODEO_1_BHuman_Part1_G1A_145_00830525_U.png;1650234183469;tkalbitz;NoCenterCirclePoints
2021.03_RODEO_1_BHuman_Part1_G1A_145_00838719_U.png;1650234184294;tkalbitz;NoCenterCirclePoints
2021.03_RODEO_1_BHuman_Part1_G1A_145_00839883_U.png;1650234185472;tkalbitz;NoCenterCirclePoints
2021.03_RODEO_1_BHuman_Part1_G1A_145_00842585_U.png;1650234186410;tkalbitz;NoCenterCirclePoints
2021.03_RODEO_1_BHuman_Part1_G1A_22_00288541_U.png;1650234218818;tkalbitz;NoCenterCirclePoints
2021.03_RODEO_1_BHuman_Part1_G1A_22_00298789_U.png;1650234225482;tkalbitz;NoCenterCirclePoints
2021.03_RODEO_1_BHuman_Part1_G1A_22_00299870_U.png;1650234225998;tkalbitz;NoCenterCirclePoints
2021.03_RODEO_1_BHuman_Part1_G1A_22_00301450_U.png;1650234226572;tkalbitz;NoCenterCirclePoints
2021.03_RODEO_1_BHuman_Part1_G1A_22_00320108_U.png;1650234241282;tkalbitz;NoCenterCirclePoints
2021.03_RODEO_1_BHuman_Part1_G1A_22_00323141_U.png;1650234242325;tkalbitz;NoCenterCirclePoints
2021.03_RODEO_1_BHuman_Part1_G1A_22_00324265_U.png;1650234243095;tkalbitz;NoCenterCirclePoints
2021.03_RODEO_1_BHuman_Part1_G1A_22_00325397_U.png;1650234243681;tkalbitz;NoCenterCirclePoints
2021.03_RODEO_1_BHuman_Part1_G1A_22_00326487_U.png;1650234244147;tkalbitz;NoCenterCirclePoints
2021.03_RODEO_1_BHuman_Part1_G1A_22_00327609_U.png;1650234244897;tkalbitz;NoCenterCirclePoints
2021.03_RODEO_1_BHuman_Part1_G1A_22_00328829_U.png;1650234245395;tkalbitz;NoCenterCirclePoints
2021.03_RODEO_1_BHuman_Part1_G1A_22_00330344_U.png;1650234245889;tkalbitz;NoCenterCirclePoints
2021.03_RODEO_1_BHuman_Part1_G1A_22_00331438_U.png;1650234246363;tkalbitz;NoCenterCirclePoints
2021.03_RODEO_1_BHuman_Part1_G1A_22_00332569_U.png;1650234246797;tkalbitz;NoCenterCirclePoints
2021.03_RODEO_1_BHuman_Part1_G1A_22_00335510_U.png;1650234248095;tkalbitz;NoCenterCirclePoints
2021.03_RODEO_1_BHuman_Part1_G1A_22_00339364_U.png;1650234248721;tkalbitz;NoCenterCirclePoints
2021.03_RODEO_1_BHuman_Part1_G1A_22_00340745_U.png;1650234249351;tkalbitz;NoCenterCirclePoints
2021.03_RODEO_1_BHuman_Part1_G1A_22_00343268_U.png;1650234250109;tkalbitz;NoCenterCirclePoints
2021.03_RODEO_1_BHuman_Part1_G1A_22_00348676_U.png;1650234254101;tkalbitz;NoCenterCirclePoints
2021.03_RODEO_1_BHuman_Part1_G1A_22_00361517_U.png;1650234271316;tkalbitz;NoCenterCirclePoints
2021.03_RODEO_1_BHuman_Part1_G1A_22_00368520_U.png;1650234272228;tkalbitz;NoCenterCirclePoints
2021.03_RODEO_1_BHuman_Part1_G1A_22_00370161_U.png;1650234273016;tkalbitz;NoCenterCirclePoints
2021.03_RODEO_1_BHuman_Part1_G1A_22_00374877_U.png;1650234273802;tkalbitz;NoCenterCirclePoints
2021.03_RODEO_1_BHuman_Part1_G1A_22_00376580_U.png;1650234274476;tkalbitz;NoCenterCirclePoints
2021.03_RODEO_1_BHuman_Part1_G1A_22_00501529_U.png;1650234301607;tkalbitz;NoCenterCirclePoints
2021.03_RODEO_1_BHuman_Part1_G1A_22_00502619_U.png;1650234302205;tkalbitz;NoCenterCirclePoints
2021.03_RODEO_1_BHuman_Part1_G1A_22_00505715_U.png;1650234302727;tkalbitz;NoCenterCirclePoints
2021.03_RODEO_1_BHuman_Part1_G1A_22_00509323_U.png;1650234303275;tkalbitz;NoCenterCirclePoints
2021.03_RODEO_1_BHuman_Part1_G1A_22_00511362_U.png;1650234304039;tkalbitz;NoCenterCirclePoints
2021.03_RODEO_1_BHuman_Part1_G1A_22_00518325_U.png;1650234304679;tkalbitz;NoCenterCirclePoints
2021.03_RODEO_1_BHuman_Part1_G1A_22_00520090_U.png;1650234305199;tkalbitz;NoCenterCirclePoints
2021.03_RODEO_1_BHuman_Part1_G1A_22_00521326_U.png;1650234305747;tkalbitz;NoCenterCirclePoints
2021.03_RODEO_1_BHuman_Part1_G1A_22_00536457_U.png;1650234306356;tkalbitz;NoCenterCirclePoints
2021.03_RODEO_1_BHuman_Part1_G1A_22_00540675_U.png;1650234312684;tkalbitz;NoCenterCirclePoints
2021.03_RODEO_1_BHuman_Part1_G1A_22_00560883_U.png;1650234320290;tkalbitz;NoCenterCirclePoints
2021.03_RODEO_1_BHuman_Part1_G1A_22_00561953_U.png;1650234321024;tkalbitz;NoCenterCirclePoints
2021.03_RODEO_1_BHuman_Part1_G1A_22_00563213_U.png;1650234321512;tkalbitz;NoCenterCirclePoints
2021.03_RODEO_1_BHuman_Part1_G1A_22_00564338_U.png;1650234322150;tkalbitz;NoCenterCirclePoints
2021.03_RODEO_1_BHuman_Part1_G1A_22_00568461_U.png;1650234322850;tkalbitz;NoCenterCirclePoints
2021.03_RODEO_1_BHuman_Part1_G1A_22_00569550_U.png;1650234324078;tkalbitz;NoCenterCirclePoints
2021.03_RODEO_1_BHuman_Part1_G1A_22_00570705_U.png;1650234324924;tkalbitz;NoCenterCirclePoints
2021.03_RODEO_1_BHuman_Part1_G1A_22_00582923_U.png;1650234340739;tkalbitz;NoCenterCirclePoints
2021.03_RODEO_1_BHuman_Part1_G1A_22_00585013_U.png;1650234341361;tkalbitz;NoCenterCirclePoints
2021.03_RODEO_1_BHuman_Part1_G1A_22_00586310_U.png;1650234341963;tkalbitz;NoCenterCirclePoints
2021.03_RODEO_1_BHuman_Part1_G1A_22_00587400_U.png;1650234342493;tkalbitz;NoCenterCirclePoints
2021.03_RODEO_1_BHuman_Part1_G1A_22_00588686_U.png;1650234343053;tkalbitz;NoCenterCirclePoints
2021.03_RODEO_1_BHuman_Part1_G1A_22_00589758_U.png;1650234343613;tkalbitz;NoCenterCirclePoints
2021.03_RODEO_1_BHuman_Part1_G1A_22_00591104_U.png;1650234344101;tkalbitz;NoCenterCirclePoints
2021.03_RODEO_1_BHuman_Part1_G1A_22_00592474_U.png;1650234344679;tkalbitz;NoCenterCirclePoints
2021.03_RODEO_1_BHuman_Part1_G1A_22_00593616_U.png;1650234345233;tkalbitz;NoCenterCirclePoints
2021.03_RODEO_1_BHuman_Part1_G1A_22_00595267_U.png;1650234345789;tkalbitz;NoCenterCirclePoints
2021.03_RODEO_1_BHuman_Part1_G1A_22_00599514_U.png;1650234346294;tkalbitz;NoCenterCirclePoints
2021.03_RODEO_1_BHuman_Part1_G1A_22_00608425_U.png;1650234346899;tkalbitz;NoCenterCirclePoints
2021.03_RODEO_1_BHuman_Part1_G1A_22_00610131_U.png;1650234347410;tkalbitz;NoCenterCirclePoints
2021.03_RODEO_1_BHuman_Part1_G1A_22_00611741_U.png;1650234347950;tkalbitz;NoCenterCirclePoints
2021.03_RODEO_1_BHuman_Part1_G1A_22_00612863_U.png;1650234348388;tkalbitz;NoCenterCirclePoints
2021.03_RODEO_1_BHuman_Part1_G1A_22_00613956_U.png;1650234348850;tkalbitz;NoCenterCirclePoints
2021.03_RODEO_1_BHuman_Part1_G1A_22_00616857_U.png;1650234349358;tkalbitz;NoCenterCirclePoints
2021.03_RODEO_1_BHuman_Part1_G1A_22_00619425_U.png;1650234349974;tkalbitz;NoCenterCirclePoints
2021.03_RODEO_1_BHuman_Part1_G1A_22_00698346_U.png;1650234354850;tkalbitz;NoCenterCirclePoints
2021.03_RODEO_1_BHuman_Part1_G1A_22_00699445_U.png;1650234355636;tkalbitz;NoCenterCirclePoints
2021.03_RODEO_1_BHuman_Part1_G1A_22_00702182_U.png;1650234356150;tkalbitz;NoCenterCirclePoints
2021.03_RODEO_1_BHuman_Part1_G1A_22_00703315_U.png;1650234356728;tkalbitz;NoCenterCirclePoints
2021.03_RODEO_1_BHuman_Part1_G1A_22_00704725_U.png;1650234357454;tkalbitz;NoCenterCirclePoints
2021.03_RODEO_1_BHuman_Part1_G1A_22_00705908_U.png;1650234358054;tkalbitz;NoCenterCirclePoints
2021.03_RODEO_1_BHuman_Part1_G1A_22_00707106_U.png;1650234358624;tkalbitz;NoCenterCirclePoints
2021.03_RODEO_1_BHuman_Part1_G1A_22_00708233_U.png;1650234359128;tkalbitz;NoCenterCirclePoints
2021.03_RODEO_1_BHuman_Part1_G1A_22_00709359_U.png;1650234359664;tkalbitz;NoCenterCirclePoints
2021.03_RODEO_1_BHuman_Part1_G1A_22_00710676_U.png;1650234360226;tkalbitz;NoCenterCirclePoints
2021.03_RODEO_1_BHuman_Part1_G1A_22_00711968_U.png;1650234360838;tkalbitz;NoCenterCirclePoints
2021.03_RODEO_1_BHuman_Part1_G1A_22_00713226_U.png;1650234361344;tkalbitz;NoCenterCirclePoints
2021.03_RODEO_1_BHuman_Part1_G1A_22_00716828_U.png;1650234361958;tkalbitz;NoCenterCirclePoints
2021.03_RODEO_1_BHuman_Part1_G1A_22_00717897_U.png;1650234362502;tkalbitz;NoCenterCirclePoints
2021.03_RODEO_1_BHuman_Part1_G1A_22_00719054_U.png;1650234363092;tkalbitz;NoCenterCirclePoints
2021.03_RODEO_1_BHuman_Part1_G1A_22_00720179_U.png;1650234364566;tkalbitz;NoCenterCirclePoints
2021.03_RODEO_1_BHuman_Part1_G1A_22_00721306_U.png;1650234365616;tkalbitz;NoCenterCirclePoints
2021.03_RODEO_1_BHuman_Part1_G1A_22_00722525_U.png;1650234366216;tkalbitz;NoCenterCirclePoints
2021.03_RODEO_1_BHuman_Part1_G1A_22_00723684_U.png;1650234366854;tkalbitz;NoCenterCirclePoints
2021.03_RODEO_1_BHuman_Part1_G1A_22_00726007_U.png;1650234367487;tkalbitz;NoCenterCirclePoints
2021.03_RODEO_1_BHuman_Part1_G1A_22_00727194_U.png;1650234368176;tkalbitz;NoCenterCirclePoints
2021.03_RODEO_1_BHuman_Part1_G1A_22_00728424_U.png;1650234368703;tkalbitz;NoCenterCirclePoints
2021.03_RODEO_1_BHuman_Part1_G1A_22_00731932_U.png;1650234369449;tkalbitz;NoCenterCirclePoints
2021.03_RODEO_1_BHuman_Part1_G1A_22_00738705_U.png;1650234370071;tkalbitz;NoCenterCirclePoints
2021.03_RODEO_1_BHuman_Part1_G1A_22_00740965_U.png;1650234370739;tkalbitz;NoCenterCirclePoints
2021.03_RODEO_1_BHuman_Part1_G1A_22_00751893_U.png;1650234375585;tkalbitz;NoCenterCirclePoints
2021.03_RODEO_1_BHuman_Part1_G1A_22_00753021_U.png;1650234376161;tkalbitz;NoCenterCirclePoints
2021.03_RODEO_1_BHuman_Part1_G1A_22_00754435_U.png;1650234376705;tkalbitz;NoCenterCirclePoints
2021.03_RODEO_1_BHuman_Part1_G1A_22_00755583_U.png;1650234377253;tkalbitz;NoCenterCirclePoints
2021.03_RODEO_1_BHuman_Part1_G1A_22_00757453_U.png;1650234377819;tkalbitz;NoCenterCirclePoints
2021.03_RODEO_1_BHuman_Part1_G1A_22_00767244_U.png;1650234380129;tkalbitz;NoCenterCirclePoints
2021.03_RODEO_1_BHuman_Part1_G1A_22_00769731_U.png;1650234381365;tkalbitz;NoCenterCirclePoints
2021.03_RODEO_1_BHuman_Part1_G1A_22_00823034_U.png;1650234382775;tkalbitz;NoCenterCirclePoints
2021.03_RODEO_1_BHuman_Part1_G1A_51_00287375_U.png;1650234421865;tkalbitz;NoCenterCirclePoints
2021.03_RODEO_1_BHuman_Part1_G1A_51_00323325_U.png;1650234422897;tkalbitz;NoCenterCirclePoints
2021.03_RODEO_1_BHuman_Part1_G1A_51_00324413_U.png;1650234423469;tkalbitz;NoCenterCirclePoints
2021.03_RODEO_1_BHuman_Part1_G1A_51_00325648_U.png;1650234423989;tkalbitz;NoCenterCirclePoints
2021.03_RODEO_1_BHuman_Part1_G1A_51_00326785_U.png;1650234424515;tkalbitz;NoCenterCirclePoints
2021.03_RODEO_1_BHuman_Part1_G1A_51_00327871_U.png;1650234425089;tkalbitz;NoCenterCirclePoints
2021.03_RODEO_1_BHuman_Part1_G1A_51_00329192_U.png;1650234427303;tkalbitz;NoCenterCirclePoints
2021.03_RODEO_1_BHuman_Part1_G1A_51_00332978_U.png;1650234427855;tkalbitz;NoCenterCirclePoints
2021.03_RODEO_1_BHuman_Part1_G1A_51_00341683_U.png;1650234428855;tkalbitz;NoCenterCirclePoints
2021.03_RODEO_1_BHuman_Part1_G1A_51_00361887_U.png;1650234429441;tkalbitz;NoCenterCirclePoints
2021.03_RODEO_1_BHuman_Part1_G1A_51_00364178_U.png;1650234430000;tkalbitz;NoCenterCirclePoints
2021.03_RODEO_1_BHuman_Part1_G1A_51_00484268_U.png;1650234469097;tkalbitz;NoCenterCirclePoints
2021.03_RODEO_1_BHuman_Part1_G1A_51_00488645_U.png;1650234470159;tkalbitz;NoCenterCirclePoints
2021.03_RODEO_1_BHuman_Part1_G1A_51_00490040_U.png;1650234470941;tkalbitz;NoCenterCirclePoints
2021.03_RODEO_1_BHuman_Part1_G1A_51_00491175_U.png;1650234471531;tkalbitz;NoCenterCirclePoints
2021.03_RODEO_1_BHuman_Part1_G1A_51_00498397_U.png;1650234475558;tkalbitz;NoCenterCirclePoints
2021.03_RODEO_1_BHuman_Part1_G1A_51_00499915_U.png;1650234476438;tkalbitz;NoCenterCirclePoints
2021.03_RODEO_1_BHuman_Part1_G1A_51_00501201_U.png;1650234477152;tkalbitz;NoCenterCirclePoints
2021.03_RODEO_1_BHuman_Part1_G1A_51_00503017_U.png;1650234477716;tkalbitz;NoCenterCirclePoints
2021.03_RODEO_1_BHuman_Part1_G1A_51_00504268_U.png;1650234478330;tkalbitz;NoCenterCirclePoints
2021.03_RODEO_1_BHuman_Part1_G1A_51_00509108_U.png;1650234479066;tkalbitz;NoCenterCirclePoints
2021.03_RODEO_1_BHuman_Part1_G1A_51_00510785_U.png;1650234480084;tkalbitz;NoCenterCirclePoints
2021.03_RODEO_1_BHuman_Part1_G1A_51_00521131_U.png;1650234480736;tkalbitz;NoCenterCirclePoints
2021.03_RODEO_1_BHuman_Part1_G1A_51_00522580_U.png;1650234486200;tkalbitz;NoCenterCirclePoints
2021.03_RODEO_1_BHuman_Part1_G1A_51_00523679_U.png;1650234486804;tkalbitz;NoCenterCirclePoints
2021.03_RODEO_1_BHuman_Part1_G1A_51_00539271_U.png;1650234487496;tkalbitz;NoCenterCirclePoints
2021.03_RODEO_1_BHuman_Part1_G1A_51_00540372_U.png;1650234488170;tkalbitz;NoCenterCirclePoints
2021.03_RODEO_1_BHuman_Part1_G1A_51_00541500_U.png;1650234488740;tkalbitz;NoCenterCirclePoints
2021.03_RODEO_1_BHuman_Part1_G1A_51_00542600_U.png;1650234489300;tkalbitz;NoCenterCirclePoints
2021.03_RODEO_1_BHuman_Part1_G1A_51_00698216_U.png;1650234505349;tkalbitz;NoCenterCirclePoints
2021.03_RODEO_1_BHuman_Part1_G1A_51_00702081_U.png;1650234506145;tkalbitz;NoCenterCirclePoints
2021.03_RODEO_1_BHuman_Part1_G1A_51_00704238_U.png;1650234506885;tkalbitz;NoCenterCirclePoints
2021.03_RODEO_1_BHuman_Part1_G1A_51_00705937_U.png;1650234507733;tkalbitz;NoCenterCirclePoints
2021.03_RODEO_1_BHuman_Part1_G1A_51_00707075_U.png;1650234508945;tkalbitz;NoCenterCirclePoints
2021.03_RODEO_1_BHuman_Part1_G1A_51_00711468_U.png;1650234510429;tkalbitz;NoCenterCirclePoints
2021.03_RODEO_1_BHuman_Part1_G1A_51_00712665_U.png;1650234511287;tkalbitz;NoCenterCirclePoints
2021.03_RODEO_1_BHuman_Part1_G1A_51_00713856_U.png;1650234511803;tkalbitz;NoCenterCirclePoints
2021.03_RODEO_1_BHuman_Part1_G1A_51_00715107_U.png;1650234512457;tkalbitz;NoCenterCirclePoints
2021.03_RODEO_1_BHuman_Part1_G1A_51_00716716_U.png;1650234513061;tkalbitz;NoCenterCirclePoints
2021.03_RODEO_1_BHuman_Part1_G1A_51_00730274_U.png;1650234517110;tkalbitz;NoCenterCirclePoints
2021.03_RODEO_1_BHuman_Part1_G1A_51_00731601_U.png;1650234517680;tkalbitz;NoCenterCirclePoints
2021.03_RODEO_1_BHuman_Part1_G1A_51_00732756_U.png;1650234518468;tkalbitz;NoCenterCirclePoints
2021.03_RODEO_1_BHuman_Part1_G1A_51_00743365_U.png;1650234519158;tkalbitz;NoCenterCirclePoints
2021.03_RODEO_1_BHuman_Part1_G1A_51_00744453_U.png;1650234519772;tkalbitz;NoCenterCirclePoints
2021.03_RODEO_1_BHuman_Part1_G1A_51_00745517_U.png;1650234520282;tkalbitz;NoCenterCirclePoints
2021.03_RODEO_1_BHuman_Part1_G1A_51_00751836_U.png;1650234521196;tkalbitz;NoCenterCirclePoints
2021.03_RODEO_1_BHuman_Part1_G1A_51_00753215_U.png;1650234522928;tkalbitz;NoCenterCirclePoints
2021.03_RODEO_1_BHuman_Part1_G1A_51_00827741_U.png;1650234523786;tkalbitz;NoCenterCirclePoints
2021.03_RODEO_1_BHuman_Part1_G1A_51_00835173_U.png;1650234524432;tkalbitz;NoCenterCirclePoints
2021.03_RODEO_1_BHuman_Part1_G1A_51_00836370_U.png;1650234525040;tkalbitz;NoCenterCirclePoints
2021.03_RODEO_1_BHuman_Part1_G1A_51_00837500_U.png;1650234525584;tkalbitz;NoCenterCirclePoints
2021.03_RODEO_1_BHuman_Part1_G1A_51_00838815_U.png;1650234526126;tkalbitz;NoCenterCirclePoints
2021.03_RODEO_1_BHuman_Part1_G1A_51_00840452_U.png;1650234526646;tkalbitz;NoCenterCirclePoints
2021.03_RODEO_1_BHuman_Part1_G1A_145_00256602_U.png;1622747806189;tkalbitz;NoGoalPost
2021.03_RODEO_1_BHuman_Part1_G1A_145_00257737_U.png;1622747812806;tkalbitz;NoGoalPost
2021.03_RODEO_1_BHuman_Part1_G1A_145_00258826_U.png;1622747814390;tkalbitz;NoGoalPost
2021.03_RODEO_1_BHuman_Part1_G1A_145_00484087_U.png;1622750122343;tkalbitz;NoGoalPost
2021.03_RODEO_1_BHuman_Part1_G1A_145_00485573_U.png;1622750124668;tkalbitz;NoGoalPost
2021.03_RODEO_1_BHuman_Part1_G1A_145_00495624_U.png;1622750125806;tkalbitz;NoGoalPost
2021.03_RODEO_1_BHuman_Part1_G1A_145_00499871_U.png;1622750126688;tkalbitz;NoGoalPost
2021.03_RODEO_1_BHuman_Part1_G1A_145_00500968_U.png;1622750127707;tkalbitz;NoGoalPost
2021.03_RODEO_1_BHuman_Part1_G1A_145_00502387_U.png;1622750129414;tkalbitz;NoGoalPost
2021.03_RODEO_1_BHuman_Part1_G1A_145_00539720_U.png;1622750130462;tkalbitz;NoGoalPost
2021.03_RODEO_1_BHuman_Part1_G1A_145_00542017_U.png;1622750131564;tkalbitz;NoGoalPost
2021.03_RODEO_1_BHuman_Part1_G1A_145_00543558_U.png;1622750132984;tkalbitz;NoGoalPost
2021.03_RODEO_1_BHuman_Part1_G1A_145_00545434_U.png;1622750139638;tkalbitz;NoGoalPost
2021.03_RODEO_1_BHuman_Part1_G1A_145_00547269_U.png;1622750239347;tkalbitz;NoGoalPost
2021.03_RODEO_1_BHuman_Part1_G1A_145_00548530_U.png;1622750242508;tkalbitz;NoGoalPost
2021.03_RODEO_1_BHuman_Part1_G1A_145_00549745_U.png;1622750249100;tkalbitz;NoGoalPost
2021.03_RODEO_1_BHuman_Part1_G1A_145_00550831_U.png;1622750249892;tkalbitz;NoGoalPost
2021.03_RODEO_1_BHuman_Part1_G1A_145_00554418_U.png;1622750292224;tkalbitz;NoGoalPost
2021.03_RODEO_1_BHuman_Part1_G1A_145_00555511_U.png;1622750293812;tkalbitz;NoGoalPost
2021.03_RODEO_1_BHuman_Part1_G1A_145_00559375_U.png;1622750299196;tkalbitz;NoGoalPost
2021.03_RODEO_1_BHuman_Part1_G1A_145_00584586_U.png;1622750300506;tkalbitz;NoGoalPost
2021.03_RODEO_1_BHuman_Part1_G1A_145_00598345_U.png;1622750339732;tkalbitz;NoGoalPost
2021.03_RODEO_1_BHuman_Part1_G1A_145_00700342_U.png;1622750366828;tkalbitz;NoGoalPost
2021.03_RODEO_1_BHuman_Part1_G1A_145_00701413_U.png;1622750368082;tkalbitz;NoGoalPost
2021.03_RODEO_1_BHuman_Part1_G1A_145_00702565_U.png;1622750369146;tkalbitz;NoGoalPost
2021.03_RODEO_1_BHuman_Part1_G1A_145_00703725_U.png;1622750372594;tkalbitz;NoGoalPost
2021.03_RODEO_1_BHuman_Part1_G1A_145_00713265_U.png;1622750422280;tkalbitz;NoGoalPost
2021.03_RODEO_1_BHuman_Part1_G1A_145_00721316_U.png;1622750423250;tkalbitz;NoGoalPost
2021.03_RODEO_1_BHuman_Part1_G1A_145_00723130_U.png;1622750424232;tkalbitz;NoGoalPost
2021.03_RODEO_1_BHuman_Part1_G1A_145_00724350_U.png;1622750425906;tkalbitz;NoGoalPost
2021.03_RODEO_1_BHuman_Part1_G1A_145_00726278_U.png;1622750427020;tkalbitz;NoGoalPost
2021.03_RODEO_1_BHuman_Part1_G1A_145_00727832_U.png;1622750427716;tkalbitz;NoGoalPost
2021.03_RODEO_1_BHuman_Part1_G1A_145_00731449_U.png;1622750429019;tkalbitz;NoGoalPost
2021.03_RODEO_1_BHuman_Part1_G1A_145_00772872_U.png;1622750429777;tkalbitz;NoGoalPost
2021.03_RODEO_1_BHuman_Part1_G1A_145_00774543_U.png;1622750430709;tkalbitz;NoGoalPost
2021.03_RODEO_1_BHuman_Part1_G1A_145_00775765_U.png;1622750431392;tkalbitz;NoGoalPost
2021.03_RODEO_1_BHuman_Part1_G1A_145_00776835_U.png;1622750432203;tkalbitz;NoGoalPost
2021.03_RODEO_1_BHuman_Part1_G1A_145_00786718_U.png;1622750433801;tkalbitz;NoGoalPost
2021.03_RODEO_1_BHuman_Part1_G1A_145_00794792_U.png;1622750435123;tkalbitz;NoGoalPost
2021.03_RODEO_1_BHuman_Part1_G1A_145_00814215_U.png;1622750436387;tkalbitz;NoGoalPost
2021.03_RODEO_1_BHuman_Part1_G1A_145_00815416_U.png;1622750437309;tkalbitz;NoGoalPost
2021.03_RODEO_1_BHuman_Part1_G1A_145_00830525_U.png;1622750444043;tkalbitz;NoGoalPost
2021.03_RODEO_1_BHuman_Part1_G1A_145_00838719_U.png;1622750445960;tkalbitz;NoGoalPost
2021.03_RODEO_1_BHuman_Part1_G1A_145_00842585_U.png;1622750451302;tkalbitz;NoGoalPost
2021.03_RODEO_1_BHuman_Part1_G1A_22_00299870_U.png;1622750525119;tkalbitz;NoGoalPost
2021.03_RODEO_1_BHuman_Part1_G1A_22_00301450_U.png;1622750526175;tkalbitz;NoGoalPost
2021.03_RODEO_1_BHuman_Part1_G1A_22_00303452_U.png;1622750526931;tkalbitz;NoGoalPost
2021.03_RODEO_1_BHuman_Part1_G1A_22_00306638_U.png;1622750529465;tkalbitz;NoGoalPost
2021.03_RODEO_1_BHuman_Part1_G1A_22_00310571_U.png;1622750538714;tkalbitz;NoGoalPost
2021.03_RODEO_1_BHuman_Part1_G1A_22_00311760_U.png;1622750539559;tkalbitz;NoGoalPost
2021.03_RODEO_1_BHuman_Part1_G1A_22_00313197_U.png;1622750540610;tkalbitz;NoGoalPost
2021.03_RODEO_1_BHuman_Part1_G1A_22_00320108_U.png;1622750541942;tkalbitz;NoGoalPost
2021.03_RODEO_1_BHuman_Part1_G1A_22_00323141_U.png;1622750543752;tkalbitz;NoGoalPost
2021.03_RODEO_1_BHuman_Part1_G1A_22_00327609_U.png;1622750568947;tkalbitz;NoGoalPost
2021.03_RODEO_1_BHuman_Part1_G1A_22_00328829_U.png;1622750569951;tkalbitz;NoGoalPost
2021.03_RODEO_1_BHuman_Part1_G1A_22_00330344_U.png;1622750570803;tkalbitz;NoGoalPost
2021.03_RODEO_1_BHuman_Part1_G1A_22_00331438_U.png;1622750571489;tkalbitz;NoGoalPost
2021.03_RODEO_1_BHuman_Part1_G1A_22_00332569_U.png;1622750572138;tkalbitz;NoGoalPost
2021.03_RODEO_1_BHuman_Part1_G1A_22_00335510_U.png;1622750572893;tkalbitz;NoGoalPost
2021.03_RODEO_1_BHuman_Part1_G1A_22_00339364_U.png;1622750575180;tkalbitz;NoGoalPost
2021.03_RODEO_1_BHuman_Part1_G1A_22_00340745_U.png;1622750576758;tkalbitz;NoGoalPost
2021.03_RODEO_1_BHuman_Part1_G1A_22_00343268_U.png;1622750577954;tkalbitz;NoGoalPost
2021.03_RODEO_1_BHuman_Part1_G1A_22_00347353_U.png;1622750581462;tkalbitz;NoGoalPost
2021.03_RODEO_1_BHuman_Part1_G1A_22_00348676_U.png;1622750582372;tkalbitz;NoGoalPost
2021.03_RODEO_1_BHuman_Part1_G1A_22_00350021_U.png;1622750583600;tkalbitz;NoGoalPost
2021.03_RODEO_1_BHuman_Part1_G1A_22_00359103_U.png;1622750591140;tkalbitz;NoGoalPost
2021.03_RODEO_1_BHuman_Part1_G1A_22_00361517_U.png;1622750592086;tkalbitz;NoGoalPost
2021.03_RODEO_1_BHuman_Part1_G1A_22_00483842_U.png;1622750610717;tkalbitz;NoGoalPost
2021.03_RODEO_1_BHuman_Part1_G1A_22_00492382_U.png;1622750612750;tkalbitz;NoGoalPost
2021.03_RODEO_1_BHuman_Part1_G1A_22_00501529_U.png;1622750658289;tkalbitz;NoGoalPost
2021.03_RODEO_1_BHuman_Part1_G1A_22_00502619_U.png;1622750658955;tkalbitz;NoGoalPost
2021.03_RODEO_1_BHuman_Part1_G1A_22_00505715_U.png;1622750659886;tkalbitz;NoGoalPost
2021.03_RODEO_1_BHuman_Part1_G1A_22_00509323_U.png;1622750661664;tkalbitz;NoGoalPost
2021.03_RODEO_1_BHuman_Part1_G1A_22_00511362_U.png;1622750666674;tkalbitz;NoGoalPost
2021.03_RODEO_1_BHuman_Part1_G1A_22_00518325_U.png;1622750668054;tkalbitz;NoGoalPost
2021.03_RODEO_1_BHuman_Part1_G1A_22_00520090_U.png;1622750668988;tkalbitz;NoGoalPost
2021.03_RODEO_1_BHuman_Part1_G1A_22_00521326_U.png;1622750669794;tkalbitz;NoGoalPost
2021.03_RODEO_1_BHuman_Part1_G1A_22_00536457_U.png;1622750670420;tkalbitz;NoGoalPost
2021.03_RODEO_1_BHuman_Part1_G1A_22_00539581_U.png;1622750672656;tkalbitz;NoGoalPost
2021.03_RODEO_1_BHuman_Part1_G1A_22_00540675_U.png;1622750673550;tkalbitz;NoGoalPost
2021.03_RODEO_1_BHuman_Part1_G1A_22_00554340_U.png;1622750675046;tkalbitz;NoGoalPost
2021.03_RODEO_1_BHuman_Part1_G1A_22_00560883_U.png;1622750690653;tkalbitz;NoGoalPost
2021.03_RODEO_1_BHuman_Part1_G1A_22_00561953_U.png;1622750692569;tkalbitz;NoGoalPost
2021.03_RODEO_1_BHuman_Part1_G1A_22_00564338_U.png;1622750694744;tkalbitz;NoGoalPost
2021.03_RODEO_1_BHuman_Part1_G1A_22_00568461_U.png;1622750695871;tkalbitz;NoGoalPost
2021.03_RODEO_1_BHuman_Part1_G1A_22_00569550_U.png;1622750697144;tkalbitz;NoGoalPost
2021.03_RODEO_1_BHuman_Part1_G1A_22_00570705_U.png;1622750700899;tkalbitz;NoGoalPost
2021.03_RODEO_1_BHuman_Part1_G1A_22_00571800_U.png;1622750702468;tkalbitz;NoGoalPost
2021.03_RODEO_1_BHuman_Part1_G1A_22_00574764_U.png;1622750703165;tkalbitz;NoGoalPost
2021.03_RODEO_1_BHuman_Part1_G1A_22_00576288_U.png;1622750703820;tkalbitz;NoGoalPost
2021.03_RODEO_1_BHuman_Part1_G1A_22_00578270_U.png;1622750705006;tkalbitz;NoGoalPost
2021.03_RODEO_1_BHuman_Part1_G1A_22_00585013_U.png;1622750718484;tkalbitz;NoGoalPost
2021.03_RODEO_1_BHuman_Part1_G1A_22_00586310_U.png;1622750719456;tkalbitz;NoGoalPost
2021.03_RODEO_1_BHuman_Part1_G1A_22_00587400_U.png;1622750721200;tkalbitz;NoGoalPost
2021.03_RODEO_1_BHuman_Part1_G1A_22_00593616_U.png;1622750743550;tkalbitz;NoGoalPost
2021.03_RODEO_1_BHuman_Part1_G1A_22_00595267_U.png;1622750744163;tkalbitz;NoGoalPost
2021.03_RODEO_1_BHuman_Part1_G1A_22_00599514_U.png;1622750747105;tkalbitz;NoGoalPost
2021.03_RODEO_1_BHuman_Part1_G1A_22_00690399_U.png;1622750784169;tkalbitz;NoGoalPost
2021.03_RODEO_1_BHuman_Part1_G1A_22_00702182_U.png;1622750814035;tkalbitz;NoGoalPost
2021.03_RODEO_1_BHuman_Part1_G1A_22_00717897_U.png;1622750900919;tkalbitz;NoGoalPost
2021.03_RODEO_1_BHuman_Part1_G1A_22_00720179_U.png;1622750903855;tkalbitz;NoGoalPost
2021.03_RODEO_1_BHuman_Part1_G1A_22_00721306_U.png;1622750904903;tkalbitz;NoGoalPost
2021.03_RODEO_1_BHuman_Part1_G1A_22_00722525_U.png;1622750906185;tkalbitz;NoGoalPost
2021.03_RODEO_1_BHuman_Part1_G1A_22_00723684_U.png;1622750907361;tkalbitz;NoGoalPost
2021.03_RODEO_1_BHuman_Part1_G1A_22_00726007_U.png;1622750908221;tkalbitz;NoGoalPost
2021.03_RODEO_1_BHuman_Part1_G1A_22_00727194_U.png;1622750908951;tkalbitz;NoGoalPost
2021.03_RODEO_1_BHuman_Part1_G1A_22_00728424_U.png;1622750909585;tkalbitz;NoGoalPost
2021.03_RODEO_1_BHuman_Part1_G1A_22_00731932_U.png;1622750910395;tkalbitz;NoGoalPost
2021.03_RODEO_1_BHuman_Part1_G1A_22_00738705_U.png;1622750912067;tkalbitz;NoGoalPost
2021.03_RODEO_1_BHuman_Part1_G1A_22_00740965_U.png;1622750913233;tkalbitz;NoGoalPost
2021.03_RODEO_1_BHuman_Part1_G1A_22_00751893_U.png;1622750927590;tkalbitz;NoGoalPost
2021.03_RODEO_1_BHuman_Part1_G1A_22_00753021_U.png;1622750928606;tkalbitz;NoGoalPost
2021.03_RODEO_1_BHuman_Part1_G1A_22_00754435_U.png;1622750929532;tkalbitz;NoGoalPost
2021.03_RODEO_1_BHuman_Part1_G1A_22_00755583_U.png;1622750930192;tkalbitz;NoGoalPost
2021.03_RODEO_1_BHuman_Part1_G1A_22_00757453_U.png;1622750931774;tkalbitz;NoGoalPost
2021.03_RODEO_1_BHuman_Part1_G1A_22_00767244_U.png;1622750933426;tkalbitz;NoGoalPost
2021.03_RODEO_1_BHuman_Part1_G1A_22_00769731_U.png;1622750934393;tkalbitz;NoGoalPost
2021.03_RODEO_1_BHuman_Part1_G1A_51_00271289_U.png;1622751018580;tkalbitz;NoGoalPost
2021.03_RODEO_1_BHuman_Part1_G1A_51_00274671_U.png;1622751020312;tkalbitz;NoGoalPost
2021.03_RODEO_1_BHuman_Part1_G1A_51_00329192_U.png;1622751100022;tkalbitz;NoGoalPost
2021.03_RODEO_1_BHuman_Part1_G1A_51_00332978_U.png;1622751101298;tkalbitz;NoGoalPost
2021.03_RODEO_1_BHuman_Part1_G1A_51_00480139_U.png;1622751183078;tkalbitz;NoGoalPost
2021.03_RODEO_1_BHuman_Part1_G1A_51_00481214_U.png;1622751183897;tkalbitz;NoGoalPost
2021.03_RODEO_1_BHuman_Part1_G1A_51_00482533_U.png;1622751184564;tkalbitz;NoGoalPost
2021.03_RODEO_1_BHuman_Part1_G1A_51_00484268_U.png;1622751186916;tkalbitz;NoGoalPost
2021.03_RODEO_1_BHuman_Part1_G1A_51_00488645_U.png;1622751187789;tkalbitz;NoGoalPost
2021.03_RODEO_1_BHuman_Part1_G1A_51_00490040_U.png;1622751192660;tkalbitz;NoGoalPost
2021.03_RODEO_1_BHuman_Part1_G1A_51_00491175_U.png;1622751193600;tkalbitz;NoGoalPost
2021.03_RODEO_1_BHuman_Part1_G1A_51_00495492_U.png;1622751203637;tkalbitz;NoGoalPost
2021.03_RODEO_1_BHuman_Part1_G1A_51_00498397_U.png;1622751204819;tkalbitz;NoGoalPost
2021.03_RODEO_1_BHuman_Part1_G1A_51_00499915_U.png;1622751205473;tkalbitz;NoGoalPost
2021.03_RODEO_1_BHuman_Part1_G1A_51_00501201_U.png;1622751206249;tkalbitz;NoGoalPost
2021.03_RODEO_1_BHuman_Part1_G1A_51_00503017_U.png;1622751207069;tkalbitz;NoGoalPost
2021.03_RODEO_1_BHuman_Part1_G1A_51_00504268_U.png;1622751207775;tkalbitz;NoGoalPost
2021.03_RODEO_1_BHuman_Part1_G1A_51_00509108_U.png;1622751208821;tkalbitz;NoGoalPost
2021.03_RODEO_1_BHuman_Part1_G1A_51_00510785_U.png;1622751210063;tkalbitz;NoGoalPost
2021.03_RODEO_1_BHuman_Part1_G1A_51_00521131_U.png;1622751218220;tkalbitz;NoGoalPost
2021.03_RODEO_1_BHuman_Part1_G1A_51_00522580_U.png;1622751219312;tkalbitz;NoGoalPost
2021.03_RODEO_1_BHuman_Part1_G1A_51_00523679_U.png;1622751220012;tkalbitz;NoGoalPost
2021.03_RODEO_1_BHuman_Part1_G1A_51_00540372_U.png;1622751224101;tkalbitz;NoGoalPost
2021.03_RODEO_1_BHuman_Part1_G1A_51_00541500_U.png;1622751225184;tkalbitz;NoGoalPost
2021.03_RODEO_1_BHuman_Part1_G1A_51_00542600_U.png;1622751226142;tkalbitz;NoGoalPost
2021.03_RODEO_1_BHuman_Part1_G1A_51_00544209_U.png;1622751227100;tkalbitz;NoGoalPost
2021.03_RODEO_1_BHuman_Part1_G1A_51_00545788_U.png;1622751227898;tkalbitz;NoGoalPost
2021.03_RODEO_1_BHuman_Part1_G1A_51_00546937_U.png;1622751229214;tkalbitz;NoGoalPost
2021.03_RODEO_1_BHuman_Part1_G1A_51_00549098_U.png;1622751231042;tkalbitz;NoGoalPost
2021.03_RODEO_1_BHuman_Part1_G1A_51_00698216_U.png;1622751268383;tkalbitz;NoGoalPost
2021.03_RODEO_1_BHuman_Part1_G1A_51_00704238_U.png;1622751272696;tkalbitz;NoGoalPost
2021.03_RODEO_1_BHuman_Part1_G1A_51_00711468_U.png;1622751290788;tkalbitz;NoGoalPost
2021.03_RODEO_1_BHuman_Part1_G1A_51_00713856_U.png;1622751297919;tkalbitz;NoGoalPost
2021.03_RODEO_1_BHuman_Part1_G1A_51_00715107_U.png;1622751298746;tkalbitz;NoGoalPost
2021.03_RODEO_1_BHuman_Part1_G1A_51_00716716_U.png;1622751300373;tkalbitz;NoGoalPost
2021.03_RODEO_1_BHuman_Part1_G1A_51_00720395_U.png;1622751301516;tkalbitz;NoGoalPost
2021.03_RODEO_1_BHuman_Part1_G1A_51_00730274_U.png;1622751303329;tkalbitz;NoGoalPost
2021.03_RODEO_1_BHuman_Part1_G1A_51_00731601_U.png;1622751304186;tkalbitz;NoGoalPost
2021.03_RODEO_1_BHuman_Part1_G1A_51_00732756_U.png;1622751306256;tkalbitz;NoGoalPost
2021.03_RODEO_1_BHuman_Part1_G1A_51_00743365_U.png;1622751311716;tkalbitz;NoGoalPost
2021.03_RODEO_1_BHuman_Part1_G1A_51_00744453_U.png;1622751316824;tkalbitz;NoGoalPost
2021.03_RODEO_1_BHuman_Part1_G1A_51_00745517_U.png;1622751317630;tkalbitz;NoGoalPost
2021.03_RODEO_1_BHuman_Part1_G1A_51_00827741_U.png;1622751359603;tkalbitz;NoGoalPost
2021.03_RODEO_1_BHuman_Part1_G1A_51_00835173_U.png;1622751361154;tkalbitz;NoGoalPost
2021.03_RODEO_1_BHuman_Part1_G1A_51_00836370_U.png;1622751362354;tkalbitz;NoGoalPost
2021.03_RODEO_1_BHuman_Part1_G1A_51_00837500_U.png;1622751363402;tkalbitz;NoGoalPost
2021.03_RODEO_1_BHuman_Part1_G1A_51_00838815_U.png;1622751365423;tkalbitz;NoGoalPost
2021.03_RODEO_1_BHuman_Part1_G1A_51_00840452_U.png;1622751366693;tkalbitz;NoGoalPost
