RC2023-G1A_Pathfinder_5_PLAY_00257182_BallVanishedFromLastToThisImage_U.png;1718178362442;tkalbitz;CenterCirclePoints;172;104;172;104;Right
RC2023-G1A_Pathfinder_5_PLAY_00258961_BallVanishedFromLastToThisImage_U.png;1718178365150;tkalbitz;CenterCirclePoints;173;108;172;108;Right
RC2023-G1A_Pathfinder_5_PLAY_00260453_BallVanishedFromLastToThisImage_U.png;1718193434992;tkalbitz;CenterCirclePoints;198;111;198;111;Right
RC2023-G1A_Pathfinder_5_PLAY_00421743_BallVanishedFromLastToThisImage_U.png;1718184715720;tkalbitz;CenterCirclePoints;635;47;635;47;Right
RC2023-G1A_Pathfinder_5_PLAY_00520662_BallVanishedFromLastToThisImage_U.png;1718178372308;tkalbitz;CenterCirclePoints;473;125;473;125;Left
RC2023-G1A_Pathfinder_5_PLAY_00522199_BallVanishedFromLastToThisImage_U.png;1718178377489;tkalbitz;CenterCirclePoints;485;114;485;114;Left
RC2023-G1A_Pathfinder_5_PLAY_00525266_BallVanishedFromLastToThisImage_U.png;1718178384757;tkalbitz;CenterCirclePoints;458;117;458;117;Left
RC2023-G1A_Pathfinder_5_PLAY_00531983_BallVanishedFromLastToThisImage_U.png;1718191743932;tkalbitz;CenterCirclePoints;151;43;151;43;Right
RC2023-G1A_Pathfinder_5_PLAY_00571799_BallVanishedFromLastToThisImage_U.png;1718191746912;tkalbitz;CenterCirclePoints;142;114;142;114;Left
RC2023-G1A_Pathfinder_5_PLAY_00591587_BallVanishedFromLastToThisImage_U.png;1718178388029;tkalbitz;CenterCirclePoints;180;92;180;92;Right
RC2023-G1A_Pathfinder_5_PLAY_00615180_BallVanishedFromLastToThisImage_U.png;1718178390403;tkalbitz;CenterCirclePoints;157;116;157;116;Right
RC2023-G1A_Pathfinder_5_PLAY_00616644_BallVanishedFromLastToThisImage_U.png;1718178392975;tkalbitz;CenterCirclePoints;157;117;157;117;Right
RC2023-G1A_Pathfinder_5_PLAY_00621887_BallVanishedFromLastToThisImage_U.png;1718178398039;tkalbitz;CenterCirclePoints;158;115;158;115;Right
RC2023-G1A_Pathfinder_5_PLAY_00624823_BallVanishedFromLastToThisImage_U.png;1718191752869;tkalbitz;CenterCirclePoints;155;115;155;115;Right
RC2023-G1A_Pathfinder_5_PLAY_00628713_BallVanishedFromLastToThisImage_U.png;1718178400814;tkalbitz;CenterCirclePoints;4;80;4;80;Right
RC2023-G1A_Pathfinder_5_PLAY_00768559_BallVanishedFromLastToThisImage_U.png;1718197399724;tkalbitz;CenterCirclePoints;153;95;153;95;Right
RC2023-G1A_Pathfinder_5_PLAY_00771308_BallVanishedFromLastToThisImage_U.png;1718191755817;tkalbitz;CenterCirclePoints;153;91;153;91;Right
RC2023-G1A_Pathfinder_5_PLAY_00792716_BallVanishedFromLastToThisImage_U.png;1718178408312;tkalbitz;CenterCirclePoints;115;117;115;117;Right
RC2023-G1A_Pathfinder_5_PLAY_00795921_BallVanishedFromLastToThisImage_U.png;1718178410222;tkalbitz;CenterCirclePoints;115;117;115;117;Right
RC2023-G1A_Pathfinder_5_PLAY_00799030_BallVanishedFromLastToThisImage_U.png;1718178412146;tkalbitz;CenterCirclePoints;127;115;127;115;Right
RC2023-G1A_Pathfinder_5_PLAY_00814655_BallVanishedFromLastToThisImage_U.png;1718178418902;tkalbitz;CenterCirclePoints;72;44;72;44;Left
RC2023-G1A_Pathfinder_5_PLAY_00818029_BallVanishedFromLastToThisImage_U.png;1718178421634;tkalbitz;CenterCirclePoints;205;96;205;96;Right
RC2023-G1A_Pathfinder_5_SET_00131746_BallVanishedFromLastToThisImage_U.png;1718178425961;tkalbitz;CenterCirclePoints;128;136;128;136;Left
RC2023-G1A_Pathfinder_5_SET_00131746_BallVanishedFromLastToThisImage_U.png;1718178427269;tkalbitz;CenterCirclePoints;411;128;411;128;Right
RC2023-G1B_Pathfinder_5_PLAY_00184501_BallVanishedFromLastToThisImage_U.png;1718178430662;tkalbitz;CenterCirclePoints;549;170;549;169;Right
RC2023-G1B_Pathfinder_5_PLAY_00237962_BallVanishedFromLastToThisImage_U.png;1718178433619;tkalbitz;CenterCirclePoints;264;355;264;355;Left
RC2023-G1B_Pathfinder_5_PLAY_00538720_BallVanishedFromLastToThisImage_U.png;1718193441178;tkalbitz;CenterCirclePoints;238;69;238;69;Right
RC2023-G1A_Pathfinder_5_PLAY_00174944_BallVanishedFromLastToThisImage_U.png;1715620570373;tkalbitz;GoalPost;384;338;391;2;Right
RC2023-G1A_Pathfinder_5_PLAY_00424716_BallVanishedFromLastToThisImage_U.png;1715609315995;tkalbitz;GoalPost;183;327;161;0;Left
RC2023-G1A_Pathfinder_5_PLAY_00591587_BallVanishedFromLastToThisImage_U.png;1715620589898;tkalbitz;GoalPost;40;39;33;0;Right
RC2023-G1A_Pathfinder_5_PLAY_00684325_BallVanishedFromLastToThisImage_U.png;1715677209392;tkalbitz;GoalPost;628;232;634;0;Left
RC2023-G1A_Pathfinder_5_PLAY_00698226_BallVanishedFromLastToThisImage_U.png;1715609330718;tkalbitz;GoalPost;500;157;512;-1;Left
RC2023-G1A_Pathfinder_5_PLAY_00734837_BallVanishedFromLastToThisImage_U.png;1715609340018;tkalbitz;GoalPost;439;82;447;-2;Left
RC2023-G1A_Pathfinder_5_PLAY_00805737_BallVanishedFromLastToThisImage_U.png;1715609351125;tkalbitz;GoalPost;209;53;206;0;Right
RC2023-G1B_Pathfinder_5_PLAY_00220512_BallVanishedFromLastToThisImage_U.png;1715620601864;tkalbitz;GoalPost;145;58;142;-2;Right
RC2023-G1B_Pathfinder_5_PLAY_00258882_BallVanishedFromLastToThisImage_U.png;1715677215746;tkalbitz;GoalPost;324;131;324;1;Right
RC2023-G1A_Pathfinder_5_PLAY_00291033_BallVanishedFromLastToThisImage_U.png;1718193436500;tkalbitz;NoCenterCirclePoints
RC2023-G1A_Pathfinder_5_PLAY_00295757_BallVanishedFromLastToThisImage_U.png;1718178368254;tkalbitz;NoCenterCirclePoints
RC2023-G1A_Pathfinder_5_PLAY_00299841_BallVanishedFromLastToThisImage_U.png;1718178368861;tkalbitz;NoCenterCirclePoints
RC2023-G1A_Pathfinder_5_PLAY_00424716_BallVanishedFromLastToThisImage_U.png;1718193437710;tkalbitz;NoCenterCirclePoints
RC2023-G1A_Pathfinder_5_PLAY_00542172_BallVanishedFromLastToThisImage_U.png;1718193438850;tkalbitz;NoCenterCirclePoints
RC2023-G1A_Pathfinder_5_PLAY_00677056_BallVanishedFromLastToThisImage_U.png;1718178403582;tkalbitz;NoCenterCirclePoints
RC2023-G1A_Pathfinder_5_PLAY_00726411_BallVanishedFromLastToThisImage_U.png;1718197397258;tkalbitz;NoCenterCirclePoints
RC2023-G1A_Pathfinder_5_PLAY_00832958_BallVanishedFromLastToThisImage_U.png;1718178424103;tkalbitz;NoCenterCirclePoints
RC2023-G1B_Pathfinder_5_PLAY_00385475_BallVanishedFromLastToThisImage_U.png;1718178437333;tkalbitz;NoCenterCirclePoints
RC2023-G1A_Pathfinder_5_PLAY_00147836_BallVanishedFromLastToThisImage_U.png;1715609305363;tkalbitz;NoGoalPost
RC2023-G1A_Pathfinder_5_PLAY_00291033_BallVanishedFromLastToThisImage_U.png;1715609310285;tkalbitz;NoGoalPost
RC2023-G1A_Pathfinder_5_PLAY_00295757_BallVanishedFromLastToThisImage_U.png;1715677202610;tkalbitz;NoGoalPost
RC2023-G1A_Pathfinder_5_PLAY_00299841_BallVanishedFromLastToThisImage_U.png;1715609312288;tkalbitz;NoGoalPost
RC2023-G1A_Pathfinder_5_PLAY_00310798_BallVanishedFromLastToThisImage_U.png;1715620576591;tkalbitz;NoGoalPost
RC2023-G1A_Pathfinder_5_PLAY_00316408_BallVanishedFromLastToThisImage_U.png;1715620577780;tkalbitz;NoGoalPost
RC2023-G1A_Pathfinder_5_PLAY_00540542_BallVanishedFromLastToThisImage_U.png;1715609321004;tkalbitz;NoGoalPost
RC2023-G1A_Pathfinder_5_PLAY_00542172_BallVanishedFromLastToThisImage_U.png;1715677205620;tkalbitz;NoGoalPost
RC2023-G1A_Pathfinder_5_PLAY_00546883_BallVanishedFromLastToThisImage_U.png;1715609322088;tkalbitz;NoGoalPost
RC2023-G1A_Pathfinder_5_PLAY_00549112_BallVanishedFromLastToThisImage_U.png;1715620584194;tkalbitz;NoGoalPost
RC2023-G1A_Pathfinder_5_PLAY_00556124_BallVanishedFromLastToThisImage_U.png;1715677207176;tkalbitz;NoGoalPost
RC2023-G1A_Pathfinder_5_PLAY_00624823_BallVanishedFromLastToThisImage_U.png;1715620597410;tkalbitz;NoGoalPost
RC2023-G1A_Pathfinder_5_PLAY_00631954_BallVanishedFromLastToThisImage_U.png;1715609325438;tkalbitz;NoGoalPost
RC2023-G1A_Pathfinder_5_PLAY_00694306_BallVanishedFromLastToThisImage_U.png;1715609327254;tkalbitz;NoGoalPost
RC2023-G1A_Pathfinder_5_PLAY_00703291_BallVanishedFromLastToThisImage_U.png;1715609337068;tkalbitz;NoGoalPost
RC2023-G1A_Pathfinder_5_PLAY_00792716_BallVanishedFromLastToThisImage_U.png;1715620599018;tkalbitz;NoGoalPost
RC2023-G1A_Pathfinder_5_PLAY_00799030_BallVanishedFromLastToThisImage_U.png;1715677214086;tkalbitz;NoGoalPost
RC2023-G1B_Pathfinder_5_PLAY_00237962_BallVanishedFromLastToThisImage_U.png;1715609358157;tkalbitz;NoGoalPost
RC2023-G1B_Pathfinder_5_PLAY_00281300_BallVanishedFromLastToThisImage_U.png;1715620605639;tkalbitz;NoGoalPost
RC2023-G1B_Pathfinder_5_PLAY_00348293_BallVanishedFromLastToThisImage_U.png;1715609360287;tkalbitz;NoGoalPost
