GO2024-G8B_Genesis_7_PLAY_00325989_RobotDetectionToManyRobots_U.png;1718135669356;tkalbitz;CenterCirclePoints;530;178;530;178;Left
GO2024-G8B_Genesis_7_PLAY_00420620_RobotDetectionToManyRobots_U.png;1718139297439;tkalbitz;CenterCirclePoints;480;152;480;152;Left
GO2024-G8B_Genesis_7_PLAY_00426176_RobotDetectionToManyRobots_U.png;1718139300007;tkalbitz;CenterCirclePoints;421;179;421;179;Left
GO2024-G8B_Genesis_7_PLAY_00526256_RobotDetectionToManyRobots_U.png;1718135674976;tkalbitz;CenterCirclePoints;497;220;497;220;Left
GO2024-G8B_Genesis_7_PLAY_00808634_RobotDetectionToManyRobots_U.png;1718139302949;tkalbitz;CenterCirclePoints;318;326;318;326;Right
GO2024-G8B_Genesis_7_PLAY_00814827_RobotDetectionToManyRobots_U.png;1718128105555;tkalbitz;CenterCirclePoints;218;261;218;261;Left
GO2024-G8B_Genesis_7_PLAY_00814827_RobotDetectionToManyRobots_U.png;1718128107433;tkalbitz;CenterCirclePoints;293;384;293;384;Right
GO2024-G8B_Genesis_7_READY_00618747_RobotDetectionToManyRobots_U.png;1718135679731;tkalbitz;CenterCirclePoints;150;177;150;177;Left
GO2024-G8B_Genesis_7_READY_00618747_RobotDetectionToManyRobots_U.png;1718135681141;tkalbitz;CenterCirclePoints;364;176;364;176;Right
GO2024-G8B_Genesis_7_READY_00623919_RobotDetectionToManyRobots_U.png;1718135683703;tkalbitz;CenterCirclePoints;579;275;579;275;Left
GO2024-G8B_Genesis_7_READY_00742485_RobotDetectionToManyRobots_U.png;1718135686799;tkalbitz;CenterCirclePoints;479;186;479;186;Left
GO2024-G8B_Genesis_7_SET_00629964_RobotDetectionToManyRobots_U.png;1718139305442;tkalbitz;CenterCirclePoints;593;276;593;276;Left
GO2024-G8B_Genesis_7_SET_00765905_RobotDetectionToManyRobots_U.png;1718135691447;tkalbitz;CenterCirclePoints;522;217;522;217;Right
GO2024-G8B_Genesis_7_SET_00771599_RobotDetectionToManyRobots_U.png;1718139308834;tkalbitz;CenterCirclePoints;282;208;282;208;Right
GO2024-G8A_Genesis_7_PLAY_00342480_RobotDetectionToManyRobots_U.png;1715670550673;tkalbitz;GoalPost;102;300;102;180;Right
GO2024-G8A_Genesis_7_PLAY_00631932_RobotDetectionToManyRobots_U.png;1715542038576;tkalbitz;GoalPost;527;305;526;182;Left
GO2024-G8A_Genesis_7_PLAY_00631932_RobotDetectionToManyRobots_U.png;1715542041222;tkalbitz;GoalPost;526;182;635;155;Middle
GO2024-G8A_Genesis_7_PLAY_00793534_RobotDetectionToManyRobots_U.png;1715670566436;tkalbitz;GoalPost;609;302;626;-1;Right
GO2024-G8B_Genesis_7_PLAY_00837348_RobotDetectionToManyRobots_U.png;1715542051059;tkalbitz;GoalPost;152;206;134;59;Right
GO2024-G8B_Genesis_7_PLAY_00837348_RobotDetectionToManyRobots_U.png;1715542053047;tkalbitz;GoalPost;134;59;1;50;Middle
GO2024-G8B_Genesis_7_PLAY_00518654_RobotDetectionToManyRobots_U.png;1718135673481;tkalbitz;NoCenterCirclePoints
GO2024-G8B_Genesis_7_PLAY_00837348_RobotDetectionToManyRobots_U.png;1718135676485;tkalbitz;NoCenterCirclePoints
