2016BerlinIntensivG2A_Day2_00095804_L.png;1487363730632;tkalbitz;Ball;69;371;-70;401;Ball
2016BerlinIntensivG2A_Day2_00101089_L.png;1487363745040;tkalbitz;Ball;38;439;-64;471;Ball
2016BerlinIntensivG2A_Day2_00294799_L.png;1488217909437;tkalbitz;Ball;541;336;658;433;Ball
2016BerlinIntensivG2A_Day2_00338707_L.png;1488217940261;tkalbitz;Ball;187;39;184;-78;Ball
2016BerlinIntensivG2A_Day2_00363384_L.png;1488217960898;tkalbitz;Ball;542;37;585;-57;Ball
2016BerlinIntensivG2A_Day2_00368617_L.png;1488217974192;tkalbitz;Ball;223;26;238;-70;Ball
2016BerlinIntensivG2A_Day2_00387906_L.png;1562254698849;tkalbitz;Ball;26;172;-72;167;Ball
2016BerlinIntensivG2A_Day2_00404336_L.png;1487363900855;tkalbitz;Ball;78;428;-3;537;Ball
2016BerlinIntensivG2A_Day2_00179511_L.png;1652364739926;tkalbitz;CenterCirclePoints;303;18;303;18;Left
2016BerlinIntensivG2A_Day2_00181260_L.png;1652367991182;tkalbitz;CenterCirclePoints;558;97;558;97;Left
2016BerlinIntensivG2A_Day2_00188333_L.png;1652364741946;tkalbitz;CenterCirclePoints;302;90;302;90;Left
2016BerlinIntensivG2A_Day2_00190038_L.png;1652364742879;tkalbitz;CenterCirclePoints;248;119;248;119;Left
2016BerlinIntensivG2A_Day2_00197193_L.png;1652364743800;tkalbitz;CenterCirclePoints;278;123;278;123;Left
2016BerlinIntensivG2A_Day2_00199030_L.png;1652364745040;tkalbitz;CenterCirclePoints;570;173;569;173;Left
2016BerlinIntensivG2A_Day2_00200758_L.png;1652364746106;tkalbitz;CenterCirclePoints;333;234;333;234;Left
2016BerlinIntensivG2A_Day2_00202553_L.png;1652364747415;tkalbitz;CenterCirclePoints;357;358;357;358;Right
2016BerlinIntensivG2A_Day2_00294799_L.png;1652364750399;tkalbitz;CenterCirclePoints;71;170;71;170;Left
2016BerlinIntensivG2A_Day2_00481918_L.png;1652364762241;tkalbitz;CenterCirclePoints;526;447;525;447;Left
2016BerlinIntensivG2A_Day2_00031901_L.png;1457980167639;Notebook-M4600;NoBall
2016BerlinIntensivG2A_Day2_00033666_L.png;1457980167641;Notebook-M4600;NoBall
2016BerlinIntensivG2A_Day2_00035362_L.png;1457980167641;Notebook-M4600;NoBall
2016BerlinIntensivG2A_Day2_00037075_L.png;1457980167641;Notebook-M4600;NoBall
2016BerlinIntensivG2A_Day2_00038846_L.png;1457980167641;Notebook-M4600;NoBall
2016BerlinIntensivG2A_Day2_00040710_L.png;1457980167642;Notebook-M4600;NoBall
2016BerlinIntensivG2A_Day2_00042565_L.png;1457980167642;Notebook-M4600;NoBall
2016BerlinIntensivG2A_Day2_00044306_L.png;1457980167642;Notebook-M4600;NoBall
2016BerlinIntensivG2A_Day2_00046052_L.png;1457980167642;Notebook-M4600;NoBall
2016BerlinIntensivG2A_Day2_00047810_L.png;1457980167642;Notebook-M4600;NoBall
2016BerlinIntensivG2A_Day2_00049534_L.png;1457980167643;Notebook-M4600;NoBall
2016BerlinIntensivG2A_Day2_00051260_L.png;1457980167643;Notebook-M4600;NoBall
2016BerlinIntensivG2A_Day2_00053027_L.png;1457980167643;Notebook-M4600;NoBall
2016BerlinIntensivG2A_Day2_00054796_L.png;1457980167643;Notebook-M4600;NoBall
2016BerlinIntensivG2A_Day2_00056653_L.png;1457980167643;Notebook-M4600;NoBall
2016BerlinIntensivG2A_Day2_00058482_L.png;1457980167644;Notebook-M4600;NoBall
2016BerlinIntensivG2A_Day2_00060244_L.png;1457980167644;Notebook-M4600;NoBall
2016BerlinIntensivG2A_Day2_00062108_L.png;1457980167644;Notebook-M4600;NoBall
2016BerlinIntensivG2A_Day2_00064036_L.png;1457980167644;Notebook-M4600;NoBall
2016BerlinIntensivG2A_Day2_00065719_L.png;1457980167644;Notebook-M4600;NoBall
2016BerlinIntensivG2A_Day2_00067455_L.png;1457980167645;Notebook-M4600;NoBall
2016BerlinIntensivG2A_Day2_00069190_L.png;1457980167645;Notebook-M4600;NoBall
2016BerlinIntensivG2A_Day2_00070970_L.png;1457980167645;Notebook-M4600;NoBall
2016BerlinIntensivG2A_Day2_00072711_L.png;1457980167645;Notebook-M4600;NoBall
2016BerlinIntensivG2A_Day2_00074517_L.png;1457980167645;Notebook-M4600;NoBall
2016BerlinIntensivG2A_Day2_00076330_L.png;1457980167645;Notebook-M4600;NoBall
2016BerlinIntensivG2A_Day2_00078103_L.png;1457980167646;Notebook-M4600;NoBall
2016BerlinIntensivG2A_Day2_00079790_L.png;1457980167646;Notebook-M4600;NoBall
2016BerlinIntensivG2A_Day2_00081518_L.png;1457980167646;Notebook-M4600;NoBall
2016BerlinIntensivG2A_Day2_00083297_L.png;1457980167646;Notebook-M4600;NoBall
2016BerlinIntensivG2A_Day2_00086701_L.png;1457980167646;Notebook-M4600;NoBall
2016BerlinIntensivG2A_Day2_00097540_L.png;1457980167647;Notebook-M4600;NoBall
2016BerlinIntensivG2A_Day2_00099302_L.png;1457980167647;Notebook-M4600;NoBall
2016BerlinIntensivG2A_Day2_00111754_L.png;1457980167647;Notebook-M4600;NoBall
2016BerlinIntensivG2A_Day2_00117599_L.png;1457980167647;Notebook-M4600;NoBall
2016BerlinIntensivG2A_Day2_00122863_L.png;1457980167648;Notebook-M4600;NoBall
2016BerlinIntensivG2A_Day2_00124565_L.png;1457980167648;Notebook-M4600;NoBall
2016BerlinIntensivG2A_Day2_00126308_L.png;1457980167648;Notebook-M4600;NoBall
2016BerlinIntensivG2A_Day2_00128068_L.png;1457980167648;Notebook-M4600;NoBall
2016BerlinIntensivG2A_Day2_00129883_L.png;1457980167648;Notebook-M4600;NoBall
2016BerlinIntensivG2A_Day2_00131660_L.png;1457980167648;Notebook-M4600;NoBall
2016BerlinIntensivG2A_Day2_00133447_L.png;1457980167649;Notebook-M4600;NoBall
2016BerlinIntensivG2A_Day2_00135171_L.png;1457980167649;Notebook-M4600;NoBall
2016BerlinIntensivG2A_Day2_00136916_L.png;1457980167649;Notebook-M4600;NoBall
2016BerlinIntensivG2A_Day2_00138649_L.png;1457980167649;Notebook-M4600;NoBall
2016BerlinIntensivG2A_Day2_00140358_L.png;1457980167649;Notebook-M4600;NoBall
2016BerlinIntensivG2A_Day2_00142093_L.png;1457980167650;Notebook-M4600;NoBall
2016BerlinIntensivG2A_Day2_00143830_L.png;1457980167650;Notebook-M4600;NoBall
2016BerlinIntensivG2A_Day2_00145681_L.png;1457980167650;Notebook-M4600;NoBall
2016BerlinIntensivG2A_Day2_00147570_L.png;1457980167650;Notebook-M4600;NoBall
2016BerlinIntensivG2A_Day2_00149460_L.png;1457980167650;Notebook-M4600;NoBall
2016BerlinIntensivG2A_Day2_00151297_L.png;1457980167650;Notebook-M4600;NoBall
2016BerlinIntensivG2A_Day2_00153093_L.png;1457980167651;Notebook-M4600;NoBall
2016BerlinIntensivG2A_Day2_00154874_L.png;1457980167651;Notebook-M4600;NoBall
2016BerlinIntensivG2A_Day2_00156626_L.png;1457980167652;Notebook-M4600;NoBall
2016BerlinIntensivG2A_Day2_00158341_L.png;1457980167652;Notebook-M4600;NoBall
2016BerlinIntensivG2A_Day2_00160055_L.png;1457980167652;Notebook-M4600;NoBall
2016BerlinIntensivG2A_Day2_00163618_L.png;1457980167652;Notebook-M4600;NoBall
2016BerlinIntensivG2A_Day2_00165424_L.png;1457980167653;Notebook-M4600;NoBall
2016BerlinIntensivG2A_Day2_00167200_L.png;1457980167653;Notebook-M4600;NoBall
2016BerlinIntensivG2A_Day2_00169055_L.png;1457980167653;Notebook-M4600;NoBall
2016BerlinIntensivG2A_Day2_00170835_L.png;1457980167653;Notebook-M4600;NoBall
2016BerlinIntensivG2A_Day2_00172566_L.png;1457980167653;Notebook-M4600;NoBall
2016BerlinIntensivG2A_Day2_00174288_L.png;1457980167654;Notebook-M4600;NoBall
2016BerlinIntensivG2A_Day2_00176015_L.png;1457980167654;Notebook-M4600;NoBall
2016BerlinIntensivG2A_Day2_00177771_L.png;1457980167654;Notebook-M4600;NoBall
2016BerlinIntensivG2A_Day2_00179511_L.png;1457980167654;Notebook-M4600;NoBall
2016BerlinIntensivG2A_Day2_00181260_L.png;1457980167654;Notebook-M4600;NoBall
2016BerlinIntensivG2A_Day2_00183001_L.png;1457980167655;Notebook-M4600;NoBall
2016BerlinIntensivG2A_Day2_00184843_L.png;1457980167655;Notebook-M4600;NoBall
2016BerlinIntensivG2A_Day2_00186606_L.png;1457980167655;Notebook-M4600;NoBall
2016BerlinIntensivG2A_Day2_00188333_L.png;1457980167655;Notebook-M4600;NoBall
2016BerlinIntensivG2A_Day2_00190038_L.png;1457980167655;Notebook-M4600;NoBall
2016BerlinIntensivG2A_Day2_00191821_L.png;1457980167655;Notebook-M4600;NoBall
2016BerlinIntensivG2A_Day2_00193600_L.png;1457980167656;Notebook-M4600;NoBall
2016BerlinIntensivG2A_Day2_00195375_L.png;1457980167656;Notebook-M4600;NoBall
2016BerlinIntensivG2A_Day2_00197193_L.png;1457980167656;Notebook-M4600;NoBall
2016BerlinIntensivG2A_Day2_00199030_L.png;1457980167656;Notebook-M4600;NoBall
2016BerlinIntensivG2A_Day2_00200758_L.png;1457980167656;Notebook-M4600;NoBall
2016BerlinIntensivG2A_Day2_00202553_L.png;1457980167656;Notebook-M4600;NoBall
2016BerlinIntensivG2A_Day2_00204333_L.png;1457980167657;Notebook-M4600;NoBall
2016BerlinIntensivG2A_Day2_00206132_L.png;1457980167657;Notebook-M4600;NoBall
2016BerlinIntensivG2A_Day2_00207853_L.png;1457980167657;Notebook-M4600;NoBall
2016BerlinIntensivG2A_Day2_00209548_L.png;1457980167657;Notebook-M4600;NoBall
2016BerlinIntensivG2A_Day2_00211302_L.png;1457980167658;Notebook-M4600;NoBall
2016BerlinIntensivG2A_Day2_00213041_L.png;1457980167658;Notebook-M4600;NoBall
2016BerlinIntensivG2A_Day2_00214778_L.png;1457980167658;Notebook-M4600;NoBall
2016BerlinIntensivG2A_Day2_00216596_L.png;1457980167658;Notebook-M4600;NoBall
2016BerlinIntensivG2A_Day2_00218390_L.png;1457980167658;Notebook-M4600;NoBall
2016BerlinIntensivG2A_Day2_00220125_L.png;1457980167659;Notebook-M4600;NoBall
2016BerlinIntensivG2A_Day2_00221962_L.png;1457980167659;Notebook-M4600;NoBall
2016BerlinIntensivG2A_Day2_00223766_L.png;1457980167659;Notebook-M4600;NoBall
2016BerlinIntensivG2A_Day2_00225488_L.png;1457980167659;Notebook-M4600;NoBall
2016BerlinIntensivG2A_Day2_00227210_L.png;1457980167660;Notebook-M4600;NoBall
2016BerlinIntensivG2A_Day2_00228952_L.png;1457980167660;Notebook-M4600;NoBall
2016BerlinIntensivG2A_Day2_00239810_L.png;1457980167660;Notebook-M4600;NoBall
2016BerlinIntensivG2A_Day2_00241602_L.png;1457980167660;Notebook-M4600;NoBall
2016BerlinIntensivG2A_Day2_00243383_L.png;1457980167660;Notebook-M4600;NoBall
2016BerlinIntensivG2A_Day2_00245138_L.png;1457980167660;Notebook-M4600;NoBall
2016BerlinIntensivG2A_Day2_00246877_L.png;1457980167661;Notebook-M4600;NoBall
2016BerlinIntensivG2A_Day2_00250342_L.png;1457980167661;Notebook-M4600;NoBall
2016BerlinIntensivG2A_Day2_00252141_L.png;1457980167661;Notebook-M4600;NoBall
2016BerlinIntensivG2A_Day2_00253977_L.png;1457980167661;Notebook-M4600;NoBall
2016BerlinIntensivG2A_Day2_00255802_L.png;1457980167661;Notebook-M4600;NoBall
2016BerlinIntensivG2A_Day2_00257586_L.png;1457980167662;Notebook-M4600;NoBall
2016BerlinIntensivG2A_Day2_00259338_L.png;1457980167662;Notebook-M4600;NoBall
2016BerlinIntensivG2A_Day2_00261076_L.png;1457980167662;Notebook-M4600;NoBall
2016BerlinIntensivG2A_Day2_00262836_L.png;1457980167662;Notebook-M4600;NoBall
2016BerlinIntensivG2A_Day2_00264568_L.png;1457980167662;Notebook-M4600;NoBall
2016BerlinIntensivG2A_Day2_00266315_L.png;1457980167662;Notebook-M4600;NoBall
2016BerlinIntensivG2A_Day2_00268057_L.png;1457980167663;Notebook-M4600;NoBall
2016BerlinIntensivG2A_Day2_00269850_L.png;1457980167663;Notebook-M4600;NoBall
2016BerlinIntensivG2A_Day2_00271635_L.png;1457980167663;Notebook-M4600;NoBall
2016BerlinIntensivG2A_Day2_00273461_L.png;1457980167663;Notebook-M4600;NoBall
2016BerlinIntensivG2A_Day2_00275341_L.png;1457980167663;Notebook-M4600;NoBall
2016BerlinIntensivG2A_Day2_00277176_L.png;1457980167664;Notebook-M4600;NoBall
2016BerlinIntensivG2A_Day2_00278953_L.png;1457980167664;Notebook-M4600;NoBall
2016BerlinIntensivG2A_Day2_00280729_L.png;1457980167664;Notebook-M4600;NoBall
2016BerlinIntensivG2A_Day2_00282439_L.png;1457980167664;Notebook-M4600;NoBall
2016BerlinIntensivG2A_Day2_00284181_L.png;1457980167664;Notebook-M4600;NoBall
2016BerlinIntensivG2A_Day2_00285908_L.png;1457980167664;Notebook-M4600;NoBall
2016BerlinIntensivG2A_Day2_00287667_L.png;1457980167665;Notebook-M4600;NoBall
2016BerlinIntensivG2A_Day2_00289489_L.png;1457980167665;Notebook-M4600;NoBall
2016BerlinIntensivG2A_Day2_00291269_L.png;1457980167665;Notebook-M4600;NoBall
2016BerlinIntensivG2A_Day2_00293056_L.png;1457980167665;Notebook-M4600;NoBall
2016BerlinIntensivG2A_Day2_00296502_L.png;1457980167666;Notebook-M4600;NoBall
2016BerlinIntensivG2A_Day2_00298228_L.png;1457980167666;Notebook-M4600;NoBall
2016BerlinIntensivG2A_Day2_00299942_L.png;1457980167666;Notebook-M4600;NoBall
2016BerlinIntensivG2A_Day2_00301739_L.png;1457980167666;Notebook-M4600;NoBall
2016BerlinIntensivG2A_Day2_00303486_L.png;1457980167666;Notebook-M4600;NoBall
2016BerlinIntensivG2A_Day2_00305257_L.png;1457980167667;Notebook-M4600;NoBall
2016BerlinIntensivG2A_Day2_00307018_L.png;1457980167667;Notebook-M4600;NoBall
2016BerlinIntensivG2A_Day2_00308757_L.png;1457980167667;Notebook-M4600;NoBall
2016BerlinIntensivG2A_Day2_00310493_L.png;1457980167667;Notebook-M4600;NoBall
2016BerlinIntensivG2A_Day2_00312297_L.png;1457980167667;Notebook-M4600;NoBall
2016BerlinIntensivG2A_Day2_00314041_L.png;1457980167668;Notebook-M4600;NoBall
2016BerlinIntensivG2A_Day2_00315802_L.png;1457980167668;Notebook-M4600;NoBall
2016BerlinIntensivG2A_Day2_00317591_L.png;1457980167668;Notebook-M4600;NoBall
2016BerlinIntensivG2A_Day2_00319375_L.png;1457980167669;Notebook-M4600;NoBall
2016BerlinIntensivG2A_Day2_00321152_L.png;1457980167669;Notebook-M4600;NoBall
2016BerlinIntensivG2A_Day2_00322976_L.png;1457980167669;Notebook-M4600;NoBall
2016BerlinIntensivG2A_Day2_00324736_L.png;1457980167669;Notebook-M4600;NoBall
2016BerlinIntensivG2A_Day2_00326499_L.png;1457980167669;Notebook-M4600;NoBall
2016BerlinIntensivG2A_Day2_00328337_L.png;1457980167669;Notebook-M4600;NoBall
2016BerlinIntensivG2A_Day2_00330087_L.png;1457980167670;Notebook-M4600;NoBall
2016BerlinIntensivG2A_Day2_00331814_L.png;1457980167670;Notebook-M4600;NoBall
2016BerlinIntensivG2A_Day2_00333546_L.png;1457980167670;Notebook-M4600;NoBall
2016BerlinIntensivG2A_Day2_00335282_L.png;1457980167670;Notebook-M4600;NoBall
2016BerlinIntensivG2A_Day2_00336996_L.png;1457980167670;Notebook-M4600;NoBall
2016BerlinIntensivG2A_Day2_00340450_L.png;1457980167670;Notebook-M4600;NoBall
2016BerlinIntensivG2A_Day2_00342188_L.png;1457980167671;Notebook-M4600;NoBall
2016BerlinIntensivG2A_Day2_00344009_L.png;1457980167671;Notebook-M4600;NoBall
2016BerlinIntensivG2A_Day2_00345743_L.png;1457980167671;Notebook-M4600;NoBall
2016BerlinIntensivG2A_Day2_00347482_L.png;1457980167671;Notebook-M4600;NoBall
2016BerlinIntensivG2A_Day2_00349217_L.png;1457980167671;Notebook-M4600;NoBall
2016BerlinIntensivG2A_Day2_00350962_L.png;1457980167672;Notebook-M4600;NoBall
2016BerlinIntensivG2A_Day2_00352751_L.png;1457980167672;Notebook-M4600;NoBall
2016BerlinIntensivG2A_Day2_00354521_L.png;1457980167672;Notebook-M4600;NoBall
2016BerlinIntensivG2A_Day2_00356298_L.png;1457980167672;Notebook-M4600;NoBall
2016BerlinIntensivG2A_Day2_00358090_L.png;1457980167672;Notebook-M4600;NoBall
2016BerlinIntensivG2A_Day2_00359829_L.png;1457980167673;Notebook-M4600;NoBall
2016BerlinIntensivG2A_Day2_00361589_L.png;1457980167673;Notebook-M4600;NoBall
2016BerlinIntensivG2A_Day2_00365141_L.png;1457980167673;Notebook-M4600;NoBall
2016BerlinIntensivG2A_Day2_00366865_L.png;1457980167673;Notebook-M4600;NoBall
2016BerlinIntensivG2A_Day2_00370384_L.png;1457980167674;Notebook-M4600;NoBall
2016BerlinIntensivG2A_Day2_00372108_L.png;1457980167674;Notebook-M4600;NoBall
2016BerlinIntensivG2A_Day2_00375590_L.png;1457980167674;Notebook-M4600;NoBall
2016BerlinIntensivG2A_Day2_00377342_L.png;1457980167674;Notebook-M4600;NoBall
2016BerlinIntensivG2A_Day2_00379137_L.png;1457980167674;Notebook-M4600;NoBall
2016BerlinIntensivG2A_Day2_00380953_L.png;1457980167675;Notebook-M4600;NoBall
2016BerlinIntensivG2A_Day2_00384464_L.png;1457980167676;Notebook-M4600;NoBall
2016BerlinIntensivG2A_Day2_00386155_L.png;1457980167676;Notebook-M4600;NoBall
2016BerlinIntensivG2A_Day2_00389691_L.png;1457980167676;Notebook-M4600;NoBall
2016BerlinIntensivG2A_Day2_00391457_L.png;1457980167676;Notebook-M4600;NoBall
2016BerlinIntensivG2A_Day2_00393272_L.png;1457980167676;Notebook-M4600;NoBall
2016BerlinIntensivG2A_Day2_00395061_L.png;1457980167676;Notebook-M4600;NoBall
2016BerlinIntensivG2A_Day2_00396853_L.png;1457980167677;Notebook-M4600;NoBall
2016BerlinIntensivG2A_Day2_00398657_L.png;1457980167677;Notebook-M4600;NoBall
2016BerlinIntensivG2A_Day2_00400480_L.png;1457980167677;Notebook-M4600;NoBall
2016BerlinIntensivG2A_Day2_00402564_L.png;1457980167677;Notebook-M4600;NoBall
2016BerlinIntensivG2A_Day2_00406037_L.png;1457980167677;Notebook-M4600;NoBall
2016BerlinIntensivG2A_Day2_00407778_L.png;1457980167678;Notebook-M4600;NoBall
2016BerlinIntensivG2A_Day2_00411241_L.png;1457980167678;Notebook-M4600;NoBall
2016BerlinIntensivG2A_Day2_00425240_L.png;1457980167678;Notebook-M4600;NoBall
2016BerlinIntensivG2A_Day2_00430536_L.png;1457980167678;Notebook-M4600;NoBall
2016BerlinIntensivG2A_Day2_00432426_L.png;1457980167679;Notebook-M4600;NoBall
2016BerlinIntensivG2A_Day2_00434342_L.png;1457980167679;Notebook-M4600;NoBall
2016BerlinIntensivG2A_Day2_00436142_L.png;1457980167679;Notebook-M4600;NoBall
2016BerlinIntensivG2A_Day2_00437991_L.png;1457980167679;Notebook-M4600;NoBall
2016BerlinIntensivG2A_Day2_00439798_L.png;1457980167679;Notebook-M4600;NoBall
2016BerlinIntensivG2A_Day2_00441540_L.png;1457980167679;Notebook-M4600;NoBall
2016BerlinIntensivG2A_Day2_00443265_L.png;1457980167680;Notebook-M4600;NoBall
2016BerlinIntensivG2A_Day2_00446793_L.png;1457980167680;Notebook-M4600;NoBall
2016BerlinIntensivG2A_Day2_00448581_L.png;1457980167680;Notebook-M4600;NoBall
2016BerlinIntensivG2A_Day2_00450329_L.png;1457980167680;Notebook-M4600;NoBall
2016BerlinIntensivG2A_Day2_00452107_L.png;1457980167680;Notebook-M4600;NoBall
2016BerlinIntensivG2A_Day2_00453880_L.png;1457980167680;Notebook-M4600;NoBall
2016BerlinIntensivG2A_Day2_00455616_L.png;1457980167681;Notebook-M4600;NoBall
2016BerlinIntensivG2A_Day2_00457338_L.png;1457980167681;Notebook-M4600;NoBall
2016BerlinIntensivG2A_Day2_00459067_L.png;1457980167681;Notebook-M4600;NoBall
2016BerlinIntensivG2A_Day2_00469540_L.png;1457980167681;Notebook-M4600;NoBall
2016BerlinIntensivG2A_Day2_00471291_L.png;1457980167682;Notebook-M4600;NoBall
2016BerlinIntensivG2A_Day2_00473030_L.png;1457980167682;Notebook-M4600;NoBall
2016BerlinIntensivG2A_Day2_00474787_L.png;1457980167682;Notebook-M4600;NoBall
2016BerlinIntensivG2A_Day2_00481918_L.png;1652364767558;tkalbitz;NoBall
2016BerlinIntensivG2A_Day2_00483792_L.png;1457980167682;Notebook-M4600;NoBall
2016BerlinIntensivG2A_Day2_00485643_L.png;1457980167682;Notebook-M4600;NoBall
2016BerlinIntensivG2A_Day2_00491007_L.png;1457980167683;Notebook-M4600;NoBall
2016BerlinIntensivG2A_Day2_00492731_L.png;1457980167683;Notebook-M4600;NoBall
2016BerlinIntensivG2A_Day2_00031901_L.png;1652572653411;tkalbitz;NoCenterCirclePoints
2016BerlinIntensivG2A_Day2_00037075_L.png;1652903748753;tkalbitz;NoCenterCirclePoints
2016BerlinIntensivG2A_Day2_00049534_L.png;1652367990006;tkalbitz;NoCenterCirclePoints
2016BerlinIntensivG2A_Day2_00051260_L.png;1652479992876;tkalbitz;NoCenterCirclePoints
2016BerlinIntensivG2A_Day2_00053027_L.png;1652364735658;tkalbitz;NoCenterCirclePoints
2016BerlinIntensivG2A_Day2_00056653_L.png;1652364736882;tkalbitz;NoCenterCirclePoints
2016BerlinIntensivG2A_Day2_00058482_L.png;1652364737693;tkalbitz;NoCenterCirclePoints
2016BerlinIntensivG2A_Day2_00064036_L.png;1652364738362;tkalbitz;NoCenterCirclePoints
2016BerlinIntensivG2A_Day2_00133447_L.png;1652772528438;FalseGenerator;NoCenterCirclePoints
2016BerlinIntensivG2A_Day2_00140358_L.png;1652772528438;FalseGenerator;NoCenterCirclePoints
2016BerlinIntensivG2A_Day2_00142093_L.png;1652772528438;FalseGenerator;NoCenterCirclePoints
2016BerlinIntensivG2A_Day2_00145681_L.png;1652736120636;tkalbitz;NoCenterCirclePoints
2016BerlinIntensivG2A_Day2_00149460_L.png;1652772528438;FalseGenerator;NoCenterCirclePoints
2016BerlinIntensivG2A_Day2_00151297_L.png;1652772528438;FalseGenerator;NoCenterCirclePoints
2016BerlinIntensivG2A_Day2_00153093_L.png;1652772528438;FalseGenerator;NoCenterCirclePoints
2016BerlinIntensivG2A_Day2_00183001_L.png;1652364740893;tkalbitz;NoCenterCirclePoints
2016BerlinIntensivG2A_Day2_00213041_L.png;1652364749114;tkalbitz;NoCenterCirclePoints
2016BerlinIntensivG2A_Day2_00220125_L.png;1652372131996;tkalbitz;NoCenterCirclePoints
2016BerlinIntensivG2A_Day2_00228952_L.png;1652374863732;tkalbitz;NoCenterCirclePoints
2016BerlinIntensivG2A_Day2_00284181_L.png;1652374864791;tkalbitz;NoCenterCirclePoints
2016BerlinIntensivG2A_Day2_00404336_L.png;1652557014140;tkalbitz;NoCenterCirclePoints
2016BerlinIntensivG2A_Day2_00471291_L.png;1652891627473;tkalbitz;NoCenterCirclePoints
2016BerlinIntensivG2A_Day2_00031901_L.png;1488217809491;tkalbitz;NoFeet
2016BerlinIntensivG2A_Day2_00033666_L.png;1488217820162;tkalbitz;NoFeet
2016BerlinIntensivG2A_Day2_00035362_L.png;1488217821130;tkalbitz;NoFeet
2016BerlinIntensivG2A_Day2_00037075_L.png;1488217821722;tkalbitz;NoFeet
2016BerlinIntensivG2A_Day2_00038846_L.png;1488217822202;tkalbitz;NoFeet
2016BerlinIntensivG2A_Day2_00040710_L.png;1488217822818;tkalbitz;NoFeet
2016BerlinIntensivG2A_Day2_00042565_L.png;1488217823290;tkalbitz;NoFeet
2016BerlinIntensivG2A_Day2_00044306_L.png;1488217823714;tkalbitz;NoFeet
2016BerlinIntensivG2A_Day2_00046052_L.png;1488217824338;tkalbitz;NoFeet
2016BerlinIntensivG2A_Day2_00047810_L.png;1488217824818;tkalbitz;NoFeet
2016BerlinIntensivG2A_Day2_00049534_L.png;1488217825490;tkalbitz;NoFeet
2016BerlinIntensivG2A_Day2_00051260_L.png;1488217825922;tkalbitz;NoFeet
2016BerlinIntensivG2A_Day2_00053027_L.png;1488217826370;tkalbitz;NoFeet
2016BerlinIntensivG2A_Day2_00054796_L.png;1488217826810;tkalbitz;NoFeet
2016BerlinIntensivG2A_Day2_00056653_L.png;1488217827410;tkalbitz;NoFeet
2016BerlinIntensivG2A_Day2_00058482_L.png;1488217828002;tkalbitz;NoFeet
2016BerlinIntensivG2A_Day2_00060244_L.png;1488217828345;tkalbitz;NoFeet
2016BerlinIntensivG2A_Day2_00062108_L.png;1488217829034;tkalbitz;NoFeet
2016BerlinIntensivG2A_Day2_00064036_L.png;1488217829473;tkalbitz;NoFeet
2016BerlinIntensivG2A_Day2_00065719_L.png;1488217830065;tkalbitz;NoFeet
2016BerlinIntensivG2A_Day2_00067455_L.png;1488217830546;tkalbitz;NoFeet
2016BerlinIntensivG2A_Day2_00069190_L.png;1488217831033;tkalbitz;NoFeet
2016BerlinIntensivG2A_Day2_00070970_L.png;1488217831497;tkalbitz;NoFeet
2016BerlinIntensivG2A_Day2_00072711_L.png;1488217831905;tkalbitz;NoFeet
2016BerlinIntensivG2A_Day2_00074517_L.png;1488217832329;tkalbitz;NoFeet
2016BerlinIntensivG2A_Day2_00076330_L.png;1488217832769;tkalbitz;NoFeet
2016BerlinIntensivG2A_Day2_00078103_L.png;1488217833161;tkalbitz;NoFeet
2016BerlinIntensivG2A_Day2_00079790_L.png;1488217833545;tkalbitz;NoFeet
2016BerlinIntensivG2A_Day2_00081518_L.png;1488217833929;tkalbitz;NoFeet
2016BerlinIntensivG2A_Day2_00083297_L.png;1488217834281;tkalbitz;NoFeet
2016BerlinIntensivG2A_Day2_00086701_L.png;1488217834601;tkalbitz;NoFeet
2016BerlinIntensivG2A_Day2_00095804_L.png;1488217834945;tkalbitz;NoFeet
2016BerlinIntensivG2A_Day2_00097540_L.png;1488217835761;tkalbitz;NoFeet
2016BerlinIntensivG2A_Day2_00099302_L.png;1488217836201;tkalbitz;NoFeet
2016BerlinIntensivG2A_Day2_00111754_L.png;1488217836761;tkalbitz;NoFeet
2016BerlinIntensivG2A_Day2_00117599_L.png;1488217837073;tkalbitz;NoFeet
2016BerlinIntensivG2A_Day2_00122863_L.png;1488217837337;tkalbitz;NoFeet
2016BerlinIntensivG2A_Day2_00124565_L.png;1488217838081;tkalbitz;NoFeet
2016BerlinIntensivG2A_Day2_00126308_L.png;1488217838321;tkalbitz;NoFeet
2016BerlinIntensivG2A_Day2_00128068_L.png;1488217838617;tkalbitz;NoFeet
2016BerlinIntensivG2A_Day2_00129883_L.png;1488217838881;tkalbitz;NoFeet
2016BerlinIntensivG2A_Day2_00131660_L.png;1488217839161;tkalbitz;NoFeet
2016BerlinIntensivG2A_Day2_00133447_L.png;1488217839465;tkalbitz;NoFeet
2016BerlinIntensivG2A_Day2_00135171_L.png;1488217840081;tkalbitz;NoFeet
2016BerlinIntensivG2A_Day2_00136916_L.png;1488217840345;tkalbitz;NoFeet
2016BerlinIntensivG2A_Day2_00138649_L.png;1488217840761;tkalbitz;NoFeet
2016BerlinIntensivG2A_Day2_00140358_L.png;1488217841145;tkalbitz;NoFeet
2016BerlinIntensivG2A_Day2_00142093_L.png;1488217841473;tkalbitz;NoFeet
2016BerlinIntensivG2A_Day2_00143830_L.png;1488217841905;tkalbitz;NoFeet
2016BerlinIntensivG2A_Day2_00145681_L.png;1488217842305;tkalbitz;NoFeet
2016BerlinIntensivG2A_Day2_00147570_L.png;1488217842729;tkalbitz;NoFeet
2016BerlinIntensivG2A_Day2_00149460_L.png;1488217842969;tkalbitz;NoFeet
2016BerlinIntensivG2A_Day2_00151297_L.png;1488217843377;tkalbitz;NoFeet
2016BerlinIntensivG2A_Day2_00153093_L.png;1488217843705;tkalbitz;NoFeet
2016BerlinIntensivG2A_Day2_00154874_L.png;1488217843993;tkalbitz;NoFeet
2016BerlinIntensivG2A_Day2_00156626_L.png;1488217844273;tkalbitz;NoFeet
2016BerlinIntensivG2A_Day2_00158341_L.png;1488217844545;tkalbitz;NoFeet
2016BerlinIntensivG2A_Day2_00160055_L.png;1488217844817;tkalbitz;NoFeet
2016BerlinIntensivG2A_Day2_00163618_L.png;1488217845081;tkalbitz;NoFeet
2016BerlinIntensivG2A_Day2_00165424_L.png;1488217845345;tkalbitz;NoFeet
2016BerlinIntensivG2A_Day2_00167200_L.png;1488217845592;tkalbitz;NoFeet
2016BerlinIntensivG2A_Day2_00169055_L.png;1488217845832;tkalbitz;NoFeet
2016BerlinIntensivG2A_Day2_00170835_L.png;1488217846073;tkalbitz;NoFeet
2016BerlinIntensivG2A_Day2_00172566_L.png;1488217846321;tkalbitz;NoFeet
2016BerlinIntensivG2A_Day2_00174288_L.png;1488217846576;tkalbitz;NoFeet
2016BerlinIntensivG2A_Day2_00176015_L.png;1488217846824;tkalbitz;NoFeet
2016BerlinIntensivG2A_Day2_00177771_L.png;1488217847080;tkalbitz;NoFeet
2016BerlinIntensivG2A_Day2_00179511_L.png;1488217847336;tkalbitz;NoFeet
2016BerlinIntensivG2A_Day2_00181260_L.png;1488217847592;tkalbitz;NoFeet
2016BerlinIntensivG2A_Day2_00183001_L.png;1488217847960;tkalbitz;NoFeet
2016BerlinIntensivG2A_Day2_00184843_L.png;1488217848304;tkalbitz;NoFeet
2016BerlinIntensivG2A_Day2_00186606_L.png;1488217848600;tkalbitz;NoFeet
2016BerlinIntensivG2A_Day2_00188333_L.png;1488217848952;tkalbitz;NoFeet
2016BerlinIntensivG2A_Day2_00190038_L.png;1488217849288;tkalbitz;NoFeet
2016BerlinIntensivG2A_Day2_00191821_L.png;1488217849664;tkalbitz;NoFeet
2016BerlinIntensivG2A_Day2_00193600_L.png;1488217850064;tkalbitz;NoFeet
2016BerlinIntensivG2A_Day2_00195375_L.png;1488217850456;tkalbitz;NoFeet
2016BerlinIntensivG2A_Day2_00197193_L.png;1488217850944;tkalbitz;NoFeet
2016BerlinIntensivG2A_Day2_00200758_L.png;1488217859648;tkalbitz;NoFeet
2016BerlinIntensivG2A_Day2_00202553_L.png;1488217860144;tkalbitz;NoFeet
2016BerlinIntensivG2A_Day2_00204333_L.png;1488217860632;tkalbitz;NoFeet
2016BerlinIntensivG2A_Day2_00206132_L.png;1488217860984;tkalbitz;NoFeet
2016BerlinIntensivG2A_Day2_00207853_L.png;1488217861400;tkalbitz;NoFeet
2016BerlinIntensivG2A_Day2_00209548_L.png;1488217861760;tkalbitz;NoFeet
2016BerlinIntensivG2A_Day2_00213041_L.png;1488217866311;tkalbitz;NoFeet
2016BerlinIntensivG2A_Day2_00214778_L.png;1488217867095;tkalbitz;NoFeet
2016BerlinIntensivG2A_Day2_00216596_L.png;1488217867655;tkalbitz;NoFeet
2016BerlinIntensivG2A_Day2_00218390_L.png;1488217868127;tkalbitz;NoFeet
2016BerlinIntensivG2A_Day2_00220125_L.png;1488217868599;tkalbitz;NoFeet
2016BerlinIntensivG2A_Day2_00221962_L.png;1488217869087;tkalbitz;NoFeet
2016BerlinIntensivG2A_Day2_00223766_L.png;1488217869519;tkalbitz;NoFeet
2016BerlinIntensivG2A_Day2_00225488_L.png;1488217869935;tkalbitz;NoFeet
2016BerlinIntensivG2A_Day2_00227210_L.png;1488217872023;tkalbitz;NoFeet
2016BerlinIntensivG2A_Day2_00228952_L.png;1488217872879;tkalbitz;NoFeet
2016BerlinIntensivG2A_Day2_00239810_L.png;1488217873399;tkalbitz;NoFeet
2016BerlinIntensivG2A_Day2_00241602_L.png;1488217873879;tkalbitz;NoFeet
2016BerlinIntensivG2A_Day2_00243383_L.png;1488217874343;tkalbitz;NoFeet
2016BerlinIntensivG2A_Day2_00245138_L.png;1488217874767;tkalbitz;NoFeet
2016BerlinIntensivG2A_Day2_00246877_L.png;1488217875375;tkalbitz;NoFeet
2016BerlinIntensivG2A_Day2_00250342_L.png;1488217875847;tkalbitz;NoFeet
2016BerlinIntensivG2A_Day2_00252141_L.png;1488217876343;tkalbitz;NoFeet
2016BerlinIntensivG2A_Day2_00253977_L.png;1488217878655;tkalbitz;NoFeet
2016BerlinIntensivG2A_Day2_00255802_L.png;1488217879167;tkalbitz;NoFeet
2016BerlinIntensivG2A_Day2_00257586_L.png;1488217879807;tkalbitz;NoFeet
2016BerlinIntensivG2A_Day2_00259338_L.png;1488217880303;tkalbitz;NoFeet
2016BerlinIntensivG2A_Day2_00261076_L.png;1488217880887;tkalbitz;NoFeet
2016BerlinIntensivG2A_Day2_00262836_L.png;1488217881439;tkalbitz;NoFeet
2016BerlinIntensivG2A_Day2_00264568_L.png;1488217881887;tkalbitz;NoFeet
2016BerlinIntensivG2A_Day2_00266315_L.png;1488217882391;tkalbitz;NoFeet
2016BerlinIntensivG2A_Day2_00268057_L.png;1488217882807;tkalbitz;NoFeet
2016BerlinIntensivG2A_Day2_00269850_L.png;1488217883679;tkalbitz;NoFeet
2016BerlinIntensivG2A_Day2_00271635_L.png;1488217884199;tkalbitz;NoFeet
2016BerlinIntensivG2A_Day2_00277176_L.png;1488217890614;tkalbitz;NoFeet
2016BerlinIntensivG2A_Day2_00278953_L.png;1488217891542;tkalbitz;NoFeet
2016BerlinIntensivG2A_Day2_00280729_L.png;1488217892134;tkalbitz;NoFeet
2016BerlinIntensivG2A_Day2_00282439_L.png;1488217895118;tkalbitz;NoFeet
2016BerlinIntensivG2A_Day2_00284181_L.png;1488217895694;tkalbitz;NoFeet
2016BerlinIntensivG2A_Day2_00285908_L.png;1488217896262;tkalbitz;NoFeet
2016BerlinIntensivG2A_Day2_00287667_L.png;1488217896718;tkalbitz;NoFeet
2016BerlinIntensivG2A_Day2_00289489_L.png;1488217897262;tkalbitz;NoFeet
2016BerlinIntensivG2A_Day2_00291269_L.png;1488217897798;tkalbitz;NoFeet
2016BerlinIntensivG2A_Day2_00293056_L.png;1488217898278;tkalbitz;NoFeet
2016BerlinIntensivG2A_Day2_00294799_L.png;1488217920517;tkalbitz;NoFeet
2016BerlinIntensivG2A_Day2_00296502_L.png;1488217921532;tkalbitz;NoFeet
2016BerlinIntensivG2A_Day2_00298228_L.png;1488217922308;tkalbitz;NoFeet
2016BerlinIntensivG2A_Day2_00299942_L.png;1488217923028;tkalbitz;NoFeet
2016BerlinIntensivG2A_Day2_00301739_L.png;1488217923532;tkalbitz;NoFeet
2016BerlinIntensivG2A_Day2_00303486_L.png;1488217924004;tkalbitz;NoFeet
2016BerlinIntensivG2A_Day2_00305257_L.png;1488217924420;tkalbitz;NoFeet
2016BerlinIntensivG2A_Day2_00307018_L.png;1488217924884;tkalbitz;NoFeet
2016BerlinIntensivG2A_Day2_00308757_L.png;1488217925524;tkalbitz;NoFeet
2016BerlinIntensivG2A_Day2_00310493_L.png;1488217925940;tkalbitz;NoFeet
2016BerlinIntensivG2A_Day2_00312297_L.png;1488217926348;tkalbitz;NoFeet
2016BerlinIntensivG2A_Day2_00314041_L.png;1488217926692;tkalbitz;NoFeet
2016BerlinIntensivG2A_Day2_00315802_L.png;1488217927004;tkalbitz;NoFeet
2016BerlinIntensivG2A_Day2_00317591_L.png;1488217927356;tkalbitz;NoFeet
2016BerlinIntensivG2A_Day2_00319375_L.png;1488217927740;tkalbitz;NoFeet
2016BerlinIntensivG2A_Day2_00321152_L.png;1488217928148;tkalbitz;NoFeet
2016BerlinIntensivG2A_Day2_00322976_L.png;1488217928500;tkalbitz;NoFeet
2016BerlinIntensivG2A_Day2_00324736_L.png;1488217928844;tkalbitz;NoFeet
2016BerlinIntensivG2A_Day2_00326499_L.png;1488217929476;tkalbitz;NoFeet
2016BerlinIntensivG2A_Day2_00328337_L.png;1488217929836;tkalbitz;NoFeet
2016BerlinIntensivG2A_Day2_00331814_L.png;1488217934324;tkalbitz;NoFeet
2016BerlinIntensivG2A_Day2_00333546_L.png;1488217934788;tkalbitz;NoFeet
2016BerlinIntensivG2A_Day2_00335282_L.png;1488217935404;tkalbitz;NoFeet
2016BerlinIntensivG2A_Day2_00336996_L.png;1488217935876;tkalbitz;NoFeet
2016BerlinIntensivG2A_Day2_00338707_L.png;1488217949011;tkalbitz;NoFeet
2016BerlinIntensivG2A_Day2_00340450_L.png;1488217949563;tkalbitz;NoFeet
2016BerlinIntensivG2A_Day2_00342188_L.png;1488217950611;tkalbitz;NoFeet
2016BerlinIntensivG2A_Day2_00344009_L.png;1488217951123;tkalbitz;NoFeet
2016BerlinIntensivG2A_Day2_00345743_L.png;1488217951675;tkalbitz;NoFeet
2016BerlinIntensivG2A_Day2_00347482_L.png;1488217952195;tkalbitz;NoFeet
2016BerlinIntensivG2A_Day2_00349217_L.png;1488217952827;tkalbitz;NoFeet
2016BerlinIntensivG2A_Day2_00350962_L.png;1488217953315;tkalbitz;NoFeet
2016BerlinIntensivG2A_Day2_00352751_L.png;1488217953747;tkalbitz;NoFeet
2016BerlinIntensivG2A_Day2_00354521_L.png;1488217954107;tkalbitz;NoFeet
2016BerlinIntensivG2A_Day2_00356298_L.png;1488217954507;tkalbitz;NoFeet
2016BerlinIntensivG2A_Day2_00358090_L.png;1488217954899;tkalbitz;NoFeet
2016BerlinIntensivG2A_Day2_00359829_L.png;1488217955427;tkalbitz;NoFeet
2016BerlinIntensivG2A_Day2_00361589_L.png;1488217955875;tkalbitz;NoFeet
2016BerlinIntensivG2A_Day2_00368617_L.png;1488217982665;tkalbitz;NoFeet
2016BerlinIntensivG2A_Day2_00370384_L.png;1488217983145;tkalbitz;NoFeet
2016BerlinIntensivG2A_Day2_00372108_L.png;1488217984097;tkalbitz;NoFeet
2016BerlinIntensivG2A_Day2_00375590_L.png;1488217984601;tkalbitz;NoFeet
2016BerlinIntensivG2A_Day2_00377342_L.png;1488217985369;tkalbitz;NoFeet
2016BerlinIntensivG2A_Day2_00379137_L.png;1488217985801;tkalbitz;NoFeet
2016BerlinIntensivG2A_Day2_00380953_L.png;1488217986225;tkalbitz;NoFeet
2016BerlinIntensivG2A_Day2_00384464_L.png;1488217986561;tkalbitz;NoFeet
2016BerlinIntensivG2A_Day2_00386155_L.png;1488217986929;tkalbitz;NoFeet
2016BerlinIntensivG2A_Day2_00387906_L.png;1488217987377;tkalbitz;NoFeet
2016BerlinIntensivG2A_Day2_00389691_L.png;1488217991761;tkalbitz;NoFeet
2016BerlinIntensivG2A_Day2_00393272_L.png;1488217993825;tkalbitz;NoFeet
2016BerlinIntensivG2A_Day2_00395061_L.png;1488217994353;tkalbitz;NoFeet
2016BerlinIntensivG2A_Day2_00396853_L.png;1488217994937;tkalbitz;NoFeet
2016BerlinIntensivG2A_Day2_00400480_L.png;1488217996721;tkalbitz;NoFeet
2016BerlinIntensivG2A_Day2_00402564_L.png;1488217997257;tkalbitz;NoFeet
2016BerlinIntensivG2A_Day2_00404336_L.png;1488217998209;tkalbitz;NoFeet
2016BerlinIntensivG2A_Day2_00406037_L.png;1488217998777;tkalbitz;NoFeet
2016BerlinIntensivG2A_Day2_00407778_L.png;1488217999288;tkalbitz;NoFeet
2016BerlinIntensivG2A_Day2_00411241_L.png;1488218002736;tkalbitz;NoFeet
2016BerlinIntensivG2A_Day2_00425240_L.png;1488218003280;tkalbitz;NoFeet
2016BerlinIntensivG2A_Day2_00430536_L.png;1488218003760;tkalbitz;NoFeet
2016BerlinIntensivG2A_Day2_00436142_L.png;1488218006048;tkalbitz;NoFeet
2016BerlinIntensivG2A_Day2_00437991_L.png;1488218006592;tkalbitz;NoFeet
2016BerlinIntensivG2A_Day2_00439798_L.png;1488218007080;tkalbitz;NoFeet
2016BerlinIntensivG2A_Day2_00441540_L.png;1488218007656;tkalbitz;NoFeet
2016BerlinIntensivG2A_Day2_00443265_L.png;1488218008168;tkalbitz;NoFeet
2016BerlinIntensivG2A_Day2_00446793_L.png;1488218008912;tkalbitz;NoFeet
2016BerlinIntensivG2A_Day2_00448581_L.png;1488218009392;tkalbitz;NoFeet
2016BerlinIntensivG2A_Day2_00450329_L.png;1488218010280;tkalbitz;NoFeet
2016BerlinIntensivG2A_Day2_00455616_L.png;1488218012896;tkalbitz;NoFeet
2016BerlinIntensivG2A_Day2_00459067_L.png;1488218014200;tkalbitz;NoFeet
2016BerlinIntensivG2A_Day2_00469540_L.png;1488218014776;tkalbitz;NoFeet
2016BerlinIntensivG2A_Day2_00471291_L.png;1488218015272;tkalbitz;NoFeet
2016BerlinIntensivG2A_Day2_00473030_L.png;1488218015760;tkalbitz;NoFeet
2016BerlinIntensivG2A_Day2_00474787_L.png;1488218016272;tkalbitz;NoFeet
2016BerlinIntensivG2A_Day2_00483792_L.png;1488218018047;tkalbitz;NoFeet
2016BerlinIntensivG2A_Day2_00485643_L.png;1488218018703;tkalbitz;NoFeet
2016BerlinIntensivG2A_Day2_00492731_L.png;1488218019855;tkalbitz;NoFeet
2016BerlinIntensivG2A_Day2_00031901_L.png;1487363686475;tkalbitz;NoPenaltySpot
2016BerlinIntensivG2A_Day2_00033666_L.png;1487363696930;tkalbitz;NoPenaltySpot
2016BerlinIntensivG2A_Day2_00035362_L.png;1487363697658;tkalbitz;NoPenaltySpot
2016BerlinIntensivG2A_Day2_00037075_L.png;1487363698274;tkalbitz;NoPenaltySpot
2016BerlinIntensivG2A_Day2_00038846_L.png;1487363698930;tkalbitz;NoPenaltySpot
2016BerlinIntensivG2A_Day2_00040710_L.png;1487363699546;tkalbitz;NoPenaltySpot
2016BerlinIntensivG2A_Day2_00042565_L.png;1487363700042;tkalbitz;NoPenaltySpot
2016BerlinIntensivG2A_Day2_00044306_L.png;1487363700562;tkalbitz;NoPenaltySpot
2016BerlinIntensivG2A_Day2_00046052_L.png;1487363701050;tkalbitz;NoPenaltySpot
2016BerlinIntensivG2A_Day2_00047810_L.png;1487363701578;tkalbitz;NoPenaltySpot
2016BerlinIntensivG2A_Day2_00049534_L.png;1487363702034;tkalbitz;NoPenaltySpot
2016BerlinIntensivG2A_Day2_00051260_L.png;1487363702450;tkalbitz;NoPenaltySpot
2016BerlinIntensivG2A_Day2_00053027_L.png;1487363702906;tkalbitz;NoPenaltySpot
2016BerlinIntensivG2A_Day2_00054796_L.png;1487363703378;tkalbitz;NoPenaltySpot
2016BerlinIntensivG2A_Day2_00056653_L.png;1487363704066;tkalbitz;NoPenaltySpot
2016BerlinIntensivG2A_Day2_00058482_L.png;1487363704617;tkalbitz;NoPenaltySpot
2016BerlinIntensivG2A_Day2_00060244_L.png;1487363705113;tkalbitz;NoPenaltySpot
2016BerlinIntensivG2A_Day2_00062108_L.png;1487363705810;tkalbitz;NoPenaltySpot
2016BerlinIntensivG2A_Day2_00064036_L.png;1487363706426;tkalbitz;NoPenaltySpot
2016BerlinIntensivG2A_Day2_00065719_L.png;1487363707066;tkalbitz;NoPenaltySpot
2016BerlinIntensivG2A_Day2_00067455_L.png;1487363707601;tkalbitz;NoPenaltySpot
2016BerlinIntensivG2A_Day2_00069190_L.png;1487363708145;tkalbitz;NoPenaltySpot
2016BerlinIntensivG2A_Day2_00070970_L.png;1487363708665;tkalbitz;NoPenaltySpot
2016BerlinIntensivG2A_Day2_00072711_L.png;1487363711593;tkalbitz;NoPenaltySpot
2016BerlinIntensivG2A_Day2_00074517_L.png;1487363712481;tkalbitz;NoPenaltySpot
2016BerlinIntensivG2A_Day2_00076330_L.png;1487363712953;tkalbitz;NoPenaltySpot
2016BerlinIntensivG2A_Day2_00078103_L.png;1487363713409;tkalbitz;NoPenaltySpot
2016BerlinIntensivG2A_Day2_00079790_L.png;1487363713985;tkalbitz;NoPenaltySpot
2016BerlinIntensivG2A_Day2_00081518_L.png;1487363714465;tkalbitz;NoPenaltySpot
2016BerlinIntensivG2A_Day2_00083297_L.png;1487363714977;tkalbitz;NoPenaltySpot
2016BerlinIntensivG2A_Day2_00086701_L.png;1487363715457;tkalbitz;NoPenaltySpot
2016BerlinIntensivG2A_Day2_00095804_L.png;1487363725920;tkalbitz;NoPenaltySpot
2016BerlinIntensivG2A_Day2_00097540_L.png;1487363738945;tkalbitz;NoPenaltySpot
2016BerlinIntensivG2A_Day2_00099302_L.png;1487363739776;tkalbitz;NoPenaltySpot
2016BerlinIntensivG2A_Day2_00101089_L.png;1587407082041;tkalbitz;NoPenaltySpot
2016BerlinIntensivG2A_Day2_00111754_L.png;1487363751471;tkalbitz;NoPenaltySpot
2016BerlinIntensivG2A_Day2_00117599_L.png;1487363752967;tkalbitz;NoPenaltySpot
2016BerlinIntensivG2A_Day2_00122863_L.png;1487363753863;tkalbitz;NoPenaltySpot
2016BerlinIntensivG2A_Day2_00124565_L.png;1487363754751;tkalbitz;NoPenaltySpot
2016BerlinIntensivG2A_Day2_00126308_L.png;1487363755527;tkalbitz;NoPenaltySpot
2016BerlinIntensivG2A_Day2_00128068_L.png;1487363756151;tkalbitz;NoPenaltySpot
2016BerlinIntensivG2A_Day2_00129883_L.png;1487363756711;tkalbitz;NoPenaltySpot
2016BerlinIntensivG2A_Day2_00131660_L.png;1487363757391;tkalbitz;NoPenaltySpot
2016BerlinIntensivG2A_Day2_00135171_L.png;1487363764495;tkalbitz;NoPenaltySpot
2016BerlinIntensivG2A_Day2_00136916_L.png;1487363765606;tkalbitz;NoPenaltySpot
2016BerlinIntensivG2A_Day2_00138649_L.png;1487363766630;tkalbitz;NoPenaltySpot
2016BerlinIntensivG2A_Day2_00143830_L.png;1487363775894;tkalbitz;NoPenaltySpot
2016BerlinIntensivG2A_Day2_00147570_L.png;1487363781886;tkalbitz;NoPenaltySpot
2016BerlinIntensivG2A_Day2_00154874_L.png;1487363793877;tkalbitz;NoPenaltySpot
2016BerlinIntensivG2A_Day2_00156626_L.png;1487363794613;tkalbitz;NoPenaltySpot
2016BerlinIntensivG2A_Day2_00158341_L.png;1487363795165;tkalbitz;NoPenaltySpot
2016BerlinIntensivG2A_Day2_00160055_L.png;1487363795933;tkalbitz;NoPenaltySpot
2016BerlinIntensivG2A_Day2_00163618_L.png;1487363796829;tkalbitz;NoPenaltySpot
2016BerlinIntensivG2A_Day2_00165424_L.png;1487363797677;tkalbitz;NoPenaltySpot
2016BerlinIntensivG2A_Day2_00167200_L.png;1487363798253;tkalbitz;NoPenaltySpot
2016BerlinIntensivG2A_Day2_00169055_L.png;1487363798781;tkalbitz;NoPenaltySpot
2016BerlinIntensivG2A_Day2_00170835_L.png;1487363799589;tkalbitz;NoPenaltySpot
2016BerlinIntensivG2A_Day2_00172566_L.png;1487363802492;tkalbitz;NoPenaltySpot
2016BerlinIntensivG2A_Day2_00174288_L.png;1487363804196;tkalbitz;NoPenaltySpot
2016BerlinIntensivG2A_Day2_00176015_L.png;1487363804972;tkalbitz;NoPenaltySpot
2016BerlinIntensivG2A_Day2_00177771_L.png;1487363805644;tkalbitz;NoPenaltySpot
2016BerlinIntensivG2A_Day2_00179511_L.png;1487363812348;tkalbitz;NoPenaltySpot
2016BerlinIntensivG2A_Day2_00181260_L.png;1487363813052;tkalbitz;NoPenaltySpot
2016BerlinIntensivG2A_Day2_00183001_L.png;1487363813788;tkalbitz;NoPenaltySpot
2016BerlinIntensivG2A_Day2_00184843_L.png;1487363814556;tkalbitz;NoPenaltySpot
2016BerlinIntensivG2A_Day2_00186606_L.png;1487363815724;tkalbitz;NoPenaltySpot
2016BerlinIntensivG2A_Day2_00188333_L.png;1487363817212;tkalbitz;NoPenaltySpot
2016BerlinIntensivG2A_Day2_00190038_L.png;1487363817787;tkalbitz;NoPenaltySpot
2016BerlinIntensivG2A_Day2_00191821_L.png;1487363818716;tkalbitz;NoPenaltySpot
2016BerlinIntensivG2A_Day2_00193600_L.png;1487363819651;tkalbitz;NoPenaltySpot
2016BerlinIntensivG2A_Day2_00195375_L.png;1487363820379;tkalbitz;NoPenaltySpot
2016BerlinIntensivG2A_Day2_00197193_L.png;1487363821163;tkalbitz;NoPenaltySpot
2016BerlinIntensivG2A_Day2_00199030_L.png;1487363821900;tkalbitz;NoPenaltySpot
2016BerlinIntensivG2A_Day2_00200758_L.png;1487363822523;tkalbitz;NoPenaltySpot
2016BerlinIntensivG2A_Day2_00202553_L.png;1487363823171;tkalbitz;NoPenaltySpot
2016BerlinIntensivG2A_Day2_00204333_L.png;1487363823787;tkalbitz;NoPenaltySpot
2016BerlinIntensivG2A_Day2_00206132_L.png;1487363824523;tkalbitz;NoPenaltySpot
2016BerlinIntensivG2A_Day2_00207853_L.png;1487363828395;tkalbitz;NoPenaltySpot
2016BerlinIntensivG2A_Day2_00209548_L.png;1487363829395;tkalbitz;NoPenaltySpot
2016BerlinIntensivG2A_Day2_00211302_L.png;1487363830603;tkalbitz;NoPenaltySpot
2016BerlinIntensivG2A_Day2_00213041_L.png;1487363831259;tkalbitz;NoPenaltySpot
2016BerlinIntensivG2A_Day2_00214778_L.png;1487363831755;tkalbitz;NoPenaltySpot
2016BerlinIntensivG2A_Day2_00216596_L.png;1487363832379;tkalbitz;NoPenaltySpot
2016BerlinIntensivG2A_Day2_00218390_L.png;1487363832875;tkalbitz;NoPenaltySpot
2016BerlinIntensivG2A_Day2_00220125_L.png;1487363833483;tkalbitz;NoPenaltySpot
2016BerlinIntensivG2A_Day2_00221962_L.png;1487363834027;tkalbitz;NoPenaltySpot
2016BerlinIntensivG2A_Day2_00223766_L.png;1487363834667;tkalbitz;NoPenaltySpot
2016BerlinIntensivG2A_Day2_00225488_L.png;1487363835187;tkalbitz;NoPenaltySpot
2016BerlinIntensivG2A_Day2_00227210_L.png;1487363835779;tkalbitz;NoPenaltySpot
2016BerlinIntensivG2A_Day2_00228952_L.png;1487363836275;tkalbitz;NoPenaltySpot
2016BerlinIntensivG2A_Day2_00239810_L.png;1487363836771;tkalbitz;NoPenaltySpot
2016BerlinIntensivG2A_Day2_00241602_L.png;1487363837235;tkalbitz;NoPenaltySpot
2016BerlinIntensivG2A_Day2_00243383_L.png;1487363837683;tkalbitz;NoPenaltySpot
2016BerlinIntensivG2A_Day2_00245138_L.png;1487363838163;tkalbitz;NoPenaltySpot
2016BerlinIntensivG2A_Day2_00246877_L.png;1487363838851;tkalbitz;NoPenaltySpot
2016BerlinIntensivG2A_Day2_00250342_L.png;1487363840578;tkalbitz;NoPenaltySpot
2016BerlinIntensivG2A_Day2_00252141_L.png;1487363841130;tkalbitz;NoPenaltySpot
2016BerlinIntensivG2A_Day2_00253977_L.png;1487363841602;tkalbitz;NoPenaltySpot
2016BerlinIntensivG2A_Day2_00255802_L.png;1487363842058;tkalbitz;NoPenaltySpot
2016BerlinIntensivG2A_Day2_00257586_L.png;1487363842642;tkalbitz;NoPenaltySpot
2016BerlinIntensivG2A_Day2_00259338_L.png;1487363843122;tkalbitz;NoPenaltySpot
2016BerlinIntensivG2A_Day2_00261076_L.png;1487363843618;tkalbitz;NoPenaltySpot
2016BerlinIntensivG2A_Day2_00262836_L.png;1487363844090;tkalbitz;NoPenaltySpot
2016BerlinIntensivG2A_Day2_00264568_L.png;1487363844562;tkalbitz;NoPenaltySpot
2016BerlinIntensivG2A_Day2_00266315_L.png;1487363845058;tkalbitz;NoPenaltySpot
2016BerlinIntensivG2A_Day2_00268057_L.png;1487363845562;tkalbitz;NoPenaltySpot
2016BerlinIntensivG2A_Day2_00269850_L.png;1487363846330;tkalbitz;NoPenaltySpot
2016BerlinIntensivG2A_Day2_00271635_L.png;1487363846922;tkalbitz;NoPenaltySpot
2016BerlinIntensivG2A_Day2_00273461_L.png;1487363847602;tkalbitz;NoPenaltySpot
2016BerlinIntensivG2A_Day2_00275341_L.png;1487363848202;tkalbitz;NoPenaltySpot
2016BerlinIntensivG2A_Day2_00277176_L.png;1487363848786;tkalbitz;NoPenaltySpot
2016BerlinIntensivG2A_Day2_00278953_L.png;1487363849298;tkalbitz;NoPenaltySpot
2016BerlinIntensivG2A_Day2_00280729_L.png;1487363849786;tkalbitz;NoPenaltySpot
2016BerlinIntensivG2A_Day2_00282439_L.png;1487363850386;tkalbitz;NoPenaltySpot
2016BerlinIntensivG2A_Day2_00284181_L.png;1487363850906;tkalbitz;NoPenaltySpot
2016BerlinIntensivG2A_Day2_00285908_L.png;1487363851402;tkalbitz;NoPenaltySpot
2016BerlinIntensivG2A_Day2_00287667_L.png;1487363851882;tkalbitz;NoPenaltySpot
2016BerlinIntensivG2A_Day2_00289489_L.png;1487363852394;tkalbitz;NoPenaltySpot
2016BerlinIntensivG2A_Day2_00291269_L.png;1487363852858;tkalbitz;NoPenaltySpot
2016BerlinIntensivG2A_Day2_00293056_L.png;1487363853330;tkalbitz;NoPenaltySpot
2016BerlinIntensivG2A_Day2_00294799_L.png;1488217916893;tkalbitz;NoPenaltySpot
2016BerlinIntensivG2A_Day2_00296502_L.png;1487363854274;tkalbitz;NoPenaltySpot
2016BerlinIntensivG2A_Day2_00298228_L.png;1487363854737;tkalbitz;NoPenaltySpot
2016BerlinIntensivG2A_Day2_00299942_L.png;1487363855178;tkalbitz;NoPenaltySpot
2016BerlinIntensivG2A_Day2_00301739_L.png;1487363855577;tkalbitz;NoPenaltySpot
2016BerlinIntensivG2A_Day2_00303486_L.png;1487363856041;tkalbitz;NoPenaltySpot
2016BerlinIntensivG2A_Day2_00305257_L.png;1487363856497;tkalbitz;NoPenaltySpot
2016BerlinIntensivG2A_Day2_00307018_L.png;1487363856913;tkalbitz;NoPenaltySpot
2016BerlinIntensivG2A_Day2_00308757_L.png;1487363857337;tkalbitz;NoPenaltySpot
2016BerlinIntensivG2A_Day2_00310493_L.png;1487363857825;tkalbitz;NoPenaltySpot
2016BerlinIntensivG2A_Day2_00312297_L.png;1487363858177;tkalbitz;NoPenaltySpot
2016BerlinIntensivG2A_Day2_00314041_L.png;1487363858617;tkalbitz;NoPenaltySpot
2016BerlinIntensivG2A_Day2_00315802_L.png;1487363859057;tkalbitz;NoPenaltySpot
2016BerlinIntensivG2A_Day2_00317591_L.png;1487363859457;tkalbitz;NoPenaltySpot
2016BerlinIntensivG2A_Day2_00319375_L.png;1487363859921;tkalbitz;NoPenaltySpot
2016BerlinIntensivG2A_Day2_00321152_L.png;1487363860329;tkalbitz;NoPenaltySpot
2016BerlinIntensivG2A_Day2_00322976_L.png;1487363860761;tkalbitz;NoPenaltySpot
2016BerlinIntensivG2A_Day2_00324736_L.png;1487363861161;tkalbitz;NoPenaltySpot
2016BerlinIntensivG2A_Day2_00326499_L.png;1487363861577;tkalbitz;NoPenaltySpot
2016BerlinIntensivG2A_Day2_00328337_L.png;1487363861985;tkalbitz;NoPenaltySpot
2016BerlinIntensivG2A_Day2_00330087_L.png;1487363862417;tkalbitz;NoPenaltySpot
2016BerlinIntensivG2A_Day2_00331814_L.png;1487363862969;tkalbitz;NoPenaltySpot
2016BerlinIntensivG2A_Day2_00333546_L.png;1487363863361;tkalbitz;NoPenaltySpot
2016BerlinIntensivG2A_Day2_00335282_L.png;1487363863793;tkalbitz;NoPenaltySpot
2016BerlinIntensivG2A_Day2_00336996_L.png;1487363864225;tkalbitz;NoPenaltySpot
2016BerlinIntensivG2A_Day2_00338707_L.png;1488217946003;tkalbitz;NoPenaltySpot
2016BerlinIntensivG2A_Day2_00340450_L.png;1487363865153;tkalbitz;NoPenaltySpot
2016BerlinIntensivG2A_Day2_00342188_L.png;1487363865529;tkalbitz;NoPenaltySpot
2016BerlinIntensivG2A_Day2_00344009_L.png;1487363866033;tkalbitz;NoPenaltySpot
2016BerlinIntensivG2A_Day2_00345743_L.png;1487363866513;tkalbitz;NoPenaltySpot
2016BerlinIntensivG2A_Day2_00347482_L.png;1487363866961;tkalbitz;NoPenaltySpot
2016BerlinIntensivG2A_Day2_00349217_L.png;1487363867418;tkalbitz;NoPenaltySpot
2016BerlinIntensivG2A_Day2_00350962_L.png;1487363867849;tkalbitz;NoPenaltySpot
2016BerlinIntensivG2A_Day2_00352751_L.png;1487363868305;tkalbitz;NoPenaltySpot
2016BerlinIntensivG2A_Day2_00354521_L.png;1487363868769;tkalbitz;NoPenaltySpot
2016BerlinIntensivG2A_Day2_00356298_L.png;1487363869209;tkalbitz;NoPenaltySpot
2016BerlinIntensivG2A_Day2_00358090_L.png;1487363869625;tkalbitz;NoPenaltySpot
2016BerlinIntensivG2A_Day2_00359829_L.png;1487363870049;tkalbitz;NoPenaltySpot
2016BerlinIntensivG2A_Day2_00361589_L.png;1487363870545;tkalbitz;NoPenaltySpot
2016BerlinIntensivG2A_Day2_00363384_L.png;1488217965226;tkalbitz;NoPenaltySpot
2016BerlinIntensivG2A_Day2_00363384_L.png;1488217968018;tkalbitz;NoPenaltySpot
2016BerlinIntensivG2A_Day2_00365141_L.png;1487363871649;tkalbitz;NoPenaltySpot
2016BerlinIntensivG2A_Day2_00365141_L.png;1488217968890;tkalbitz;NoPenaltySpot
2016BerlinIntensivG2A_Day2_00366865_L.png;1487363872113;tkalbitz;NoPenaltySpot
2016BerlinIntensivG2A_Day2_00366865_L.png;1488217969762;tkalbitz;NoPenaltySpot
2016BerlinIntensivG2A_Day2_00368617_L.png;1488217979962;tkalbitz;NoPenaltySpot
2016BerlinIntensivG2A_Day2_00370384_L.png;1487363876217;tkalbitz;NoPenaltySpot
2016BerlinIntensivG2A_Day2_00372108_L.png;1487363878104;tkalbitz;NoPenaltySpot
2016BerlinIntensivG2A_Day2_00375590_L.png;1487363878712;tkalbitz;NoPenaltySpot
2016BerlinIntensivG2A_Day2_00377342_L.png;1487363879384;tkalbitz;NoPenaltySpot
2016BerlinIntensivG2A_Day2_00379137_L.png;1487363879944;tkalbitz;NoPenaltySpot
2016BerlinIntensivG2A_Day2_00380953_L.png;1487363880568;tkalbitz;NoPenaltySpot
2016BerlinIntensivG2A_Day2_00384464_L.png;1487363881392;tkalbitz;NoPenaltySpot
2016BerlinIntensivG2A_Day2_00386155_L.png;1487363881888;tkalbitz;NoPenaltySpot
2016BerlinIntensivG2A_Day2_00387906_L.png;1487363882432;tkalbitz;NoPenaltySpot
2016BerlinIntensivG2A_Day2_00389691_L.png;1487363886680;tkalbitz;NoPenaltySpot
2016BerlinIntensivG2A_Day2_00391457_L.png;1487363887640;tkalbitz;NoPenaltySpot
2016BerlinIntensivG2A_Day2_00393272_L.png;1487363889104;tkalbitz;NoPenaltySpot
2016BerlinIntensivG2A_Day2_00395061_L.png;1487363889616;tkalbitz;NoPenaltySpot
2016BerlinIntensivG2A_Day2_00396853_L.png;1487363890192;tkalbitz;NoPenaltySpot
2016BerlinIntensivG2A_Day2_00398657_L.png;1487363890848;tkalbitz;NoPenaltySpot
2016BerlinIntensivG2A_Day2_00400480_L.png;1487363891488;tkalbitz;NoPenaltySpot
2016BerlinIntensivG2A_Day2_00402564_L.png;1487363892048;tkalbitz;NoPenaltySpot
2016BerlinIntensivG2A_Day2_00404336_L.png;1587407082697;tkalbitz;NoPenaltySpot
2016BerlinIntensivG2A_Day2_00406037_L.png;1487363909031;tkalbitz;NoPenaltySpot
2016BerlinIntensivG2A_Day2_00407778_L.png;1487363910671;tkalbitz;NoPenaltySpot
2016BerlinIntensivG2A_Day2_00411241_L.png;1487363911270;tkalbitz;NoPenaltySpot
2016BerlinIntensivG2A_Day2_00425240_L.png;1487363911814;tkalbitz;NoPenaltySpot
2016BerlinIntensivG2A_Day2_00430536_L.png;1487363912318;tkalbitz;NoPenaltySpot
2016BerlinIntensivG2A_Day2_00432426_L.png;1487363912782;tkalbitz;NoPenaltySpot
2016BerlinIntensivG2A_Day2_00434342_L.png;1487363913615;tkalbitz;NoPenaltySpot
2016BerlinIntensivG2A_Day2_00436142_L.png;1487363914182;tkalbitz;NoPenaltySpot
2016BerlinIntensivG2A_Day2_00437991_L.png;1487363914758;tkalbitz;NoPenaltySpot
2016BerlinIntensivG2A_Day2_00439798_L.png;1487363915350;tkalbitz;NoPenaltySpot
2016BerlinIntensivG2A_Day2_00441540_L.png;1487363915830;tkalbitz;NoPenaltySpot
2016BerlinIntensivG2A_Day2_00443265_L.png;1487363916422;tkalbitz;NoPenaltySpot
2016BerlinIntensivG2A_Day2_00446793_L.png;1487363917830;tkalbitz;NoPenaltySpot
2016BerlinIntensivG2A_Day2_00448581_L.png;1487363918502;tkalbitz;NoPenaltySpot
2016BerlinIntensivG2A_Day2_00450329_L.png;1487363919142;tkalbitz;NoPenaltySpot
2016BerlinIntensivG2A_Day2_00452107_L.png;1487363919998;tkalbitz;NoPenaltySpot
2016BerlinIntensivG2A_Day2_00453880_L.png;1487363920526;tkalbitz;NoPenaltySpot
2016BerlinIntensivG2A_Day2_00455616_L.png;1487363921126;tkalbitz;NoPenaltySpot
2016BerlinIntensivG2A_Day2_00457338_L.png;1487363921630;tkalbitz;NoPenaltySpot
2016BerlinIntensivG2A_Day2_00459067_L.png;1487363922142;tkalbitz;NoPenaltySpot
2016BerlinIntensivG2A_Day2_00469540_L.png;1487363922638;tkalbitz;NoPenaltySpot
2016BerlinIntensivG2A_Day2_00471291_L.png;1487363923102;tkalbitz;NoPenaltySpot
2016BerlinIntensivG2A_Day2_00473030_L.png;1487363923590;tkalbitz;NoPenaltySpot
2016BerlinIntensivG2A_Day2_00474787_L.png;1487363924102;tkalbitz;NoPenaltySpot
2016BerlinIntensivG2A_Day2_00481918_L.png;1652364770469;tkalbitz;NoPenaltySpot
2016BerlinIntensivG2A_Day2_00483792_L.png;1487363925390;tkalbitz;NoPenaltySpot
2016BerlinIntensivG2A_Day2_00485643_L.png;1487363925910;tkalbitz;NoPenaltySpot
2016BerlinIntensivG2A_Day2_00491007_L.png;1487363926478;tkalbitz;NoPenaltySpot
2016BerlinIntensivG2A_Day2_00492731_L.png;1487363926934;tkalbitz;NoPenaltySpot
2016BerlinIntensivG2A_Day2_00133447_L.png;1487363761759;tkalbitz;PenaltySpot;356;18;464;107;PenaltySpot
2016BerlinIntensivG2A_Day2_00140358_L.png;1487363770678;tkalbitz;PenaltySpot;501;2;589;65;PenaltySpot
2016BerlinIntensivG2A_Day2_00142093_L.png;1487363773334;tkalbitz;PenaltySpot;441;0;525;25;PenaltySpot
2016BerlinIntensivG2A_Day2_00145681_L.png;1487363779397;tkalbitz;PenaltySpot;0;127;91;228;PenaltySpot
2016BerlinIntensivG2A_Day2_00149460_L.png;1487363785845;tkalbitz;PenaltySpot;338;293;470;416;PenaltySpot
2016BerlinIntensivG2A_Day2_00151297_L.png;1487363787701;tkalbitz;PenaltySpot;280;180;408;298;PenaltySpot
2016BerlinIntensivG2A_Day2_00153093_L.png;1487363789525;tkalbitz;PenaltySpot;314;387;456;473;PenaltySpot
2016BerlinIntensivG2A_Day2_00218390_L.png;1652518001286;tkalbitz;SkipCenterCirclePoints
