RC2023-G1C_Pathfinder_5_READY_00072080_TimeLoggedImaged_U.png;1718178567099;tkalbitz;CenterCirclePoints;89;190;89;190;Left
RC2023-G1C_Pathfinder_5_READY_00072080_TimeLoggedImaged_U.png;1718178569500;tkalbitz;CenterCirclePoints;217;155;217;155;Right
RC2023-G1C_Pathfinder_5_READY_00083741_TimeLoggedImaged_U.png;1718178573419;tkalbitz;CenterCirclePoints;383;245;383;245;Right
RC2023-G1C_Pathfinder_5_READY_00098301_TimeLoggedImaged_U.png;1718178576971;tkalbitz;CenterCirclePoints;579;285;579;285;Right
RC2023-G1C_Pathfinder_5_SET_00110004_TimeLoggedImaged_U.png;1718178580563;tkalbitz;CenterCirclePoints;277;269;277;269;Right
RC2023-G1A_Pathfinder_5_PLAY_00182208_TimeLoggedImaged_U.png;1715620636318;tkalbitz;GoalPost;559;172;580;-1;Left
RC2023-G1A_Pathfinder_5_PLAY_00189498_TimeLoggedImaged_U.png;1715620643658;tkalbitz;GoalPost;10;148;10;-3;Right
RC2023-G1A_Pathfinder_5_READY_00204072_TimeLoggedImaged_U.png;1715620649400;tkalbitz;GoalPost;344;235;330;2;Left
RC2023-G1A_Pathfinder_5_READY_00354850_TimeLoggedImaged_U.png;1715620657333;tkalbitz;GoalPost;298;216;319;-1;Right
RC2023-G1B_Pathfinder_5_PLAY_00191765_TimeLoggedImaged_U.png;1715620662935;tkalbitz;GoalPost;547;162;584;0;Left
RC2023-G1B_Pathfinder_5_SET_00644695_TimeLoggedImaged_U.png;1715677232165;tkalbitz;GoalPost;52;90;43;0;Right
RC2023-G1A_Pathfinder_5_PLAY_00189498_TimeLoggedImaged_U.png;1718184736150;tkalbitz;NoCenterCirclePoints
RC2023-G1B_Pathfinder_5_PLAY_00683684_TimeLoggedImaged_U.png;1718191769084;tkalbitz;NoCenterCirclePoints
RC2023-G1C_Pathfinder_5_PLAY_00140261_TimeLoggedImaged_U.png;1718178563310;tkalbitz;NoCenterCirclePoints
RC2023-G1C_Pathfinder_5_PLAY_00256566_TimeLoggedImaged_U.png;1718178564225;tkalbitz;NoCenterCirclePoints
RC2023-G1C_Pathfinder_5_SET_00120384_TimeLoggedImaged_U.png;1715620669677;tkalbitz;NoGoalPost
