RC2023-G7A_Sputnik_4_PLAY_00166978_BallAppearedFromLastToThisImage_U.png;1718189884684;tkalbitz;CenterCirclePoints;618;157;618;157;Left
RC2023-G7A_Sputnik_4_PLAY_00664843_BallAppearedFromLastToThisImage_U.png;1718195395680;tkalbitz;CenterCirclePoints;315;224;315;224;Right
RC2023-G7B_Sputnik_4_PLAY_00187381_BallAppearedFromLastToThisImage_U.png;1718189888351;tkalbitz;CenterCirclePoints;450;151;450;151;Left
RC2023-G7B_Sputnik_4_PLAY_00197947_BallAppearedFromLastToThisImage_U.png;1718193916555;tkalbitz;CenterCirclePoints;441;117;441;117;Left
RC2023-G7B_Sputnik_4_PLAY_00241189_BallAppearedFromLastToThisImage_U.png;1718189895905;tkalbitz;CenterCirclePoints;198;116;198;116;Right
RC2023-G7B_Sputnik_4_PLAY_00296690_BallAppearedFromLastToThisImage_U.png;1718189898623;tkalbitz;CenterCirclePoints;450;332;450;332;Right
RC2023-G7B_Sputnik_4_PLAY_00429391_BallAppearedFromLastToThisImage_U.png;1718189902119;tkalbitz;CenterCirclePoints;123;13;123;13;Right
RC2023-G7B_Sputnik_4_PLAY_00431159_BallAppearedFromLastToThisImage_U.png;1718192339932;tkalbitz;CenterCirclePoints;210;67;210;67;Right
RC2023-G7B_Sputnik_4_PLAY_00439021_BallAppearedFromLastToThisImage_U.png;1718189904835;tkalbitz;CenterCirclePoints;252;90;252;90;Right
RC2023-G7B_Sputnik_4_PLAY_00465899_BallAppearedFromLastToThisImage_U.png;1718189907547;tkalbitz;CenterCirclePoints;147;96;147;96;Right
RC2023-G7B_Sputnik_4_PLAY_00476998_BallAppearedFromLastToThisImage_U.png;1718195400852;tkalbitz;CenterCirclePoints;100;116;100;116;Right
RC2023-G7B_Sputnik_4_PLAY_00478512_BallAppearedFromLastToThisImage_U.png;1718195404146;tkalbitz;CenterCirclePoints;101;115;101;115;Right
RC2023-G7B_Sputnik_4_PLAY_00508808_BallAppearedFromLastToThisImage_U.png;1718193920290;tkalbitz;CenterCirclePoints;547;117;547;117;Left
RC2023-G7B_Sputnik_4_PLAY_00526223_BallAppearedFromLastToThisImage_U.png;1718192342990;tkalbitz;CenterCirclePoints;522;138;522;138;Left
RC2023-G7B_Sputnik_4_PLAY_00601211_BallAppearedFromLastToThisImage_U.png;1718192345342;tkalbitz;CenterCirclePoints;140;101;140;101;Right
RC2023-G7B_Sputnik_4_PLAY_00621625_BallAppearedFromLastToThisImage_U.png;1718189911504;tkalbitz;CenterCirclePoints;370;59;370;59;Left
RC2023-G7B_Sputnik_4_PLAY_00724794_BallAppearedFromLastToThisImage_U.png;1718189915968;tkalbitz;CenterCirclePoints;598;135;598;135;Left
RC2023-G7B_Sputnik_4_PLAY_00728565_BallAppearedFromLastToThisImage_U.png;1718193922831;tkalbitz;CenterCirclePoints;597;152;597;152;Left
RC2023-G7B_Sputnik_4_PLAY_00730476_BallAppearedFromLastToThisImage_U.png;1718189919118;tkalbitz;CenterCirclePoints;474;140;474;140;Left
RC2023-G7A_Sputnik_4_PLAY_00357291_BallAppearedFromLastToThisImage_U.png;1715629055499;tkalbitz;GoalPost;467;118;479;20;Left
RC2023-G7A_Sputnik_4_PLAY_00369114_BallAppearedFromLastToThisImage_U.png;1715679719532;tkalbitz;GoalPost;201;158;193;2;Right
RC2023-G7A_Sputnik_4_PLAY_00526782_BallAppearedFromLastToThisImage_U.png;1715679723052;tkalbitz;GoalPost;368;94;377;0;Left
RC2023-G7A_Sputnik_4_PLAY_00594229_BallAppearedFromLastToThisImage_U.png;1715629066099;tkalbitz;GoalPost;71;66;70;-3;Left
RC2023-G7A_Sputnik_4_PLAY_00621250_BallAppearedFromLastToThisImage_U.png;1715629069277;tkalbitz;GoalPost;229;57;231;0;Right
RC2023-G7A_Sputnik_4_PLAY_00718671_BallAppearedFromLastToThisImage_U.png;1715629072705;tkalbitz;GoalPost;372;143;374;0;Right
RC2023-G7A_Sputnik_4_PLAY_00728398_BallAppearedFromLastToThisImage_U.png;1715629075797;tkalbitz;GoalPost;312;183;397;-2;Right
RC2023-G7B_Sputnik_4_PLAY_00184275_BallAppearedFromLastToThisImage_U.png;1715629086318;tkalbitz;GoalPost;401;40;408;-4;Left
RC2023-G7B_Sputnik_4_PLAY_00197947_BallAppearedFromLastToThisImage_U.png;1715629089060;tkalbitz;GoalPost;576;64;587;0;Left
RC2023-G7B_Sputnik_4_PLAY_00233033_BallAppearedFromLastToThisImage_U.png;1715629094560;tkalbitz;GoalPost;33;59;21;-1;Left
RC2023-G7B_Sputnik_4_PLAY_00241189_BallAppearedFromLastToThisImage_U.png;1715629098720;tkalbitz;GoalPost;145;52;143;1;Left
RC2023-G7B_Sputnik_4_PLAY_00270163_BallAppearedFromLastToThisImage_U.png;1715629102177;tkalbitz;GoalPost;208;40;207;0;Left
RC2023-G7B_Sputnik_4_PLAY_00330787_BallAppearedFromLastToThisImage_U.png;1715679729826;tkalbitz;GoalPost;381;114;426;-1;Right
RC2023-G7B_Sputnik_4_PLAY_00464231_BallAppearedFromLastToThisImage_U.png;1715629110541;tkalbitz;GoalPost;249;54;252;-1;Left
RC2023-G7B_Sputnik_4_PLAY_00728565_BallAppearedFromLastToThisImage_U.png;1715629119479;tkalbitz;GoalPost;546;83;556;7;Left
RC2023-G7B_Sputnik_4_SET_00156076_BallAppearedFromLastToThisImage_U.png;1715629124960;tkalbitz;GoalPost;139;86;134;15;Right
RC2023-G7B_Sputnik_4_SET_00391267_BallAppearedFromLastToThisImage_U.png;1715629128840;tkalbitz;GoalPost;160;111;170;5;Right
RC2023-G7B_Sputnik_4_SET_00845009_BallAppearedFromLastToThisImage_U.png;1715629133276;tkalbitz;GoalPost;541;66;550;3;Left
RC2023-G7A_Sputnik_4_PLAY_00445435_BallAppearedFromLastToThisImage_U.png;1718197592094;tkalbitz;NoCenterCirclePoints
RC2023-G7A_Sputnik_4_PLAY_00449885_BallAppearedFromLastToThisImage_U.png;1718197593602;tkalbitz;NoCenterCirclePoints
RC2023-G7A_Sputnik_4_PLAY_00541426_BallAppearedFromLastToThisImage_U.png;1718189886162;tkalbitz;NoCenterCirclePoints
RC2023-G7A_Sputnik_4_PLAY_00566402_BallAppearedFromLastToThisImage_U.png;1718192333736;tkalbitz;NoCenterCirclePoints
RC2023-G7A_Sputnik_4_PLAY_00630582_BallAppearedFromLastToThisImage_U.png;1718195388558;tkalbitz;NoCenterCirclePoints
RC2023-G7A_Sputnik_4_PLAY_00636204_BallAppearedFromLastToThisImage_U.png;1718193910100;tkalbitz;NoCenterCirclePoints
RC2023-G7B_Sputnik_4_PLAY_00231563_BallAppearedFromLastToThisImage_U.png;1718192337576;tkalbitz;NoCenterCirclePoints
RC2023-G7B_Sputnik_4_PLAY_00723189_BallAppearedFromLastToThisImage_U.png;1718189913534;tkalbitz;NoCenterCirclePoints
RC2023-G7A_Sputnik_4_PLAY_00497181_BallAppearedFromLastToThisImage_U.png;1715679721554;tkalbitz;NoGoalPost
RC2023-G7A_Sputnik_4_PLAY_00509201_BallAppearedFromLastToThisImage_U.png;1715629062755;tkalbitz;NoGoalPost
RC2023-G7A_Sputnik_4_SET_00255246_BallAppearedFromLastToThisImage_U.png;1715629083776;tkalbitz;NoGoalPost
RC2023-G7A_Sputnik_4_SET_00272341_BallAppearedFromLastToThisImage_U.png;1715679728184;tkalbitz;NoGoalPost
RC2023-G7B_Sputnik_4_PLAY_00209688_BallAppearedFromLastToThisImage_U.png;1715629092716;tkalbitz;NoGoalPost
RC2023-G7B_Sputnik_4_SET_00703121_BallAppearedFromLastToThisImage_U.png;1715679735509;tkalbitz;NoGoalPost
