GO2024-G3A_Atlas_3_PLAY_00623551_TimeLoggedImaged_U.png;1718129433927;tkalbitz;CenterCirclePoints;179;251;179;251;Right
GO2024-G3A_Atlas_3_PLAY_00761773_TimeLoggedImaged_U.png;1718124806500;tkalbitz;CenterCirclePoints;432;134;432;134;Right
GO2024-G3A_Atlas_3_SET_00327744_TimeLoggedImaged_U.png;1718129438263;tkalbitz;CenterCirclePoints;419;362;419;362;Left
GO2024-G3A_Atlas_3_SET_00719085_TimeLoggedImaged_U.png;1718124812380;tkalbitz;CenterCirclePoints;444;247;444;247;Left
GO2024-G3B_Atlas_3_PLAY_00459042_TimeLoggedImaged_U.png;1718132241328;tkalbitz;CenterCirclePoints;183;105;183;105;Right
GO2024-G3B_Atlas_3_PLAY_00514607_TimeLoggedImaged_U.png;1718129442517;tkalbitz;CenterCirclePoints;216;127;216;127;Right
GO2024-G3B_Atlas_3_PLAY_00536467_TimeLoggedImaged_U.png;1718138297267;tkalbitz;CenterCirclePoints;264;44;264;44;Left
GO2024-G3B_Atlas_3_PLAY_00536467_TimeLoggedImaged_U.png;1718138299136;tkalbitz;CenterCirclePoints;511;51;511;51;Right
GO2024-G3B_Atlas_3_SET_00643621_TimeLoggedImaged_U.png;1718124818543;tkalbitz;CenterCirclePoints;275;209;275;209;Right
GO2024-G3A_Atlas_3_PLAY_00383081_TimeLoggedImaged_U.png;1715468907605;tkalbitz;GoalPost;155;53;150;-1;Right
GO2024-G3A_Atlas_3_PLAY_00550988_TimeLoggedImaged_U.png;1715468914605;tkalbitz;GoalPost;467;177;469;34;Left
GO2024-G3A_Atlas_3_PLAY_00550988_TimeLoggedImaged_U.png;1715468916233;tkalbitz;GoalPost;469;34;639;32;Middle
GO2024-G3A_Atlas_3_READY_00667983_TimeLoggedImaged_U.png;1715634661386;tkalbitz;GoalPost;339;191;347;31;Right
GO2024-G3A_Atlas_3_SET_00327744_TimeLoggedImaged_U.png;1715468930194;tkalbitz;GoalPost;153;174;138;70;Left
GO2024-G3A_Atlas_3_SET_00327744_TimeLoggedImaged_U.png;1715468932814;tkalbitz;GoalPost;138;70;316;68;Middle
GO2024-G3B_Atlas_3_PLAY_00222214_TimeLoggedImaged_U.png;1715634669549;tkalbitz;GoalPost;334;187;350;3;Left
GO2024-G3B_Atlas_3_PLAY_00529188_TimeLoggedImaged_U.png;1715468943753;tkalbitz;GoalPost;369;315;350;-5;Right
GO2024-G3B_Atlas_3_PLAY_00736839_TimeLoggedImaged_U.png;1715634675729;tkalbitz;GoalPost;19;229;-1;117;Left
GO2024-G3A_Atlas_3_PLAY_00375807_TimeLoggedImaged_U.png;1718132233046;tkalbitz;NoCenterCirclePoints
GO2024-G3A_Atlas_3_PLAY_00383081_TimeLoggedImaged_U.png;1718124804540;tkalbitz;NoCenterCirclePoints
GO2024-G3A_Atlas_3_PLAY_00483393_TimeLoggedImaged_U.png;1718132233818;tkalbitz;NoCenterCirclePoints
GO2024-G3A_Atlas_3_PLAY_00795285_TimeLoggedImaged_U.png;1718132237246;tkalbitz;NoCenterCirclePoints
GO2024-G3A_Atlas_3_READY_00410885_TimeLoggedImaged_U.png;1718129435840;tkalbitz;NoCenterCirclePoints
GO2024-G3A_Atlas_3_SET_00439847_TimeLoggedImaged_U.png;1718129439862;tkalbitz;NoCenterCirclePoints
GO2024-G3A_Atlas_3_SET_00447121_TimeLoggedImaged_U.png;1718129440530;tkalbitz;NoCenterCirclePoints
GO2024-G3A_Atlas_3_SET_00711779_TimeLoggedImaged_U.png;1718134042600;tkalbitz;NoCenterCirclePoints
GO2024-G3B_Atlas_3_PLAY_00214919_TimeLoggedImaged_U.png;1718138293648;tkalbitz;NoCenterCirclePoints
GO2024-G3B_Atlas_3_PLAY_00222214_TimeLoggedImaged_U.png;1718134043598;tkalbitz;NoCenterCirclePoints
GO2024-G3B_Atlas_3_PLAY_00406380_TimeLoggedImaged_U.png;1718132239010;tkalbitz;NoCenterCirclePoints
GO2024-G3B_Atlas_3_PLAY_00529188_TimeLoggedImaged_U.png;1718138294554;tkalbitz;NoCenterCirclePoints
GO2024-G3B_Atlas_3_PLAY_00678825_TimeLoggedImaged_U.png;1718129444084;tkalbitz;NoCenterCirclePoints
GO2024-G3B_Atlas_3_PLAY_00765632_TimeLoggedImaged_U.png;1718129445644;tkalbitz;NoCenterCirclePoints
GO2024-G3A_Atlas_3_PLAY_00483393_TimeLoggedImaged_U.png;1715468912445;tkalbitz;NoGoalPost
GO2024-G3A_Atlas_3_PLAY_00559779_TimeLoggedImaged_U.png;1715468919776;tkalbitz;NoGoalPost
GO2024-G3A_Atlas_3_PLAY_00653400_TimeLoggedImaged_U.png;1715468920878;tkalbitz;NoGoalPost
GO2024-G3A_Atlas_3_PLAY_00795285_TimeLoggedImaged_U.png;1715468922794;tkalbitz;NoGoalPost
GO2024-G3A_Atlas_3_PLAY_00899294_TimeLoggedImaged_U.png;1715468924358;tkalbitz;NoGoalPost
GO2024-G3A_Atlas_3_SET_00342312_TimeLoggedImaged_U.png;1715675474848;tkalbitz;NoGoalPost
GO2024-G3A_Atlas_3_SET_00418164_TimeLoggedImaged_U.png;1715468936031;tkalbitz;NoGoalPost
GO2024-G3B_Atlas_3_PLAY_00543765_TimeLoggedImaged_U.png;1715468947249;tkalbitz;NoGoalPost
GO2024-G3B_Atlas_3_PLAY_00758341_TimeLoggedImaged_U.png;1715675476666;tkalbitz;NoGoalPost
