RC2022_SemiFinals-vsNaoDevils-G1A_CometInterceptor_4_PLAY_00803668_TimeLoggedImaged_U.png;1718197138392;tkalbitz;CenterCirclePoints;286;345;286;345;Left
RC2022_SemiFinals-vsNaoDevils-G1A_Helios_2_PLAY_00125298_TimeLoggedImaged_U.png;1718197141722;tkalbitz;CenterCirclePoints;72;316;72;316;Right
RC2022_SemiFinals-vsNaoDevils-G1A_Helios_2_PLAY_00150921_TimeLoggedImaged_U.png;1718197144158;tkalbitz;CenterCirclePoints;378;97;378;97;Left
RC2022_SemiFinals-vsNaoDevils-G1A_Helios_2_PLAY_00157996_TimeLoggedImaged_U.png;1718197146286;tkalbitz;CenterCirclePoints;364;118;364;118;Left
RC2022_SemiFinals-vsNaoDevils-G1A_Helios_2_PLAY_00172154_TimeLoggedImaged_U.png;1718197148192;tkalbitz;CenterCirclePoints;360;100;360;100;Left
RC2022_SemiFinals-vsNaoDevils-G1A_Helios_2_PLAY_00289901_TimeLoggedImaged_U.png;1718197150586;tkalbitz;CenterCirclePoints;428;466;428;466;Right
RC2022_SemiFinals-vsNaoDevils-G1A_Helios_2_PLAY_00391641_TimeLoggedImaged_U.png;1718197155384;tkalbitz;CenterCirclePoints;375;169;375;169;Left
RC2022_SemiFinals-vsNaoDevils-G1A_Helios_2_PLAY_00438633_TimeLoggedImaged_U.png;1718197158229;tkalbitz;CenterCirclePoints;271;82;271;82;Right
RC2022_SemiFinals-vsNaoDevils-G1A_Pathfinder_3_PLAY_00484470_TimeLoggedImaged_U.png;1718197162707;tkalbitz;CenterCirclePoints;597;144;597;144;Left
RC2022_SemiFinals-vsNaoDevils-G1A_Pathfinder_3_PLAY_00514112_TimeLoggedImaged_U.png;1718197164933;tkalbitz;CenterCirclePoints;188;105;188;105;Right
RC2022_SemiFinals-vsNaoDevils-G1B_Helios_2_PLAY_00520520_TimeLoggedImaged_U.png;1718197173425;tkalbitz;CenterCirclePoints;21;115;21;115;Right
RC2022_SemiFinals-vsNaoDevils-G1B_Helios_2_PLAY_00545582_TimeLoggedImaged_U.png;1718198002409;tkalbitz;CenterCirclePoints;475;244;475;244;Left
RC2022_SemiFinals-vsNaoDevils-G1B_Helios_2_PLAY_00837125_TimeLoggedImaged_U.png;1718197179042;tkalbitz;CenterCirclePoints;479;120;479;120;Left
RC2022_SemiFinals-vsNaoDevils-G1B_Pathfinder_3_PLAY_00525619_TimeLoggedImaged_U.png;1718197181918;tkalbitz;CenterCirclePoints;542;76;542;76;Left
RC2022_SemiFinals-vsNaoDevils-G1B_Pathfinder_3_PLAY_00553932_TimeLoggedImaged_U.png;1718197184336;tkalbitz;CenterCirclePoints;284;178;284;178;Right
RC2022_SemiFinals-vsNaoDevils-G1B_Pioneer_5_PLAY_00685257_TimeLoggedImaged_U.png;1718197189574;tkalbitz;CenterCirclePoints;97;221;97;221;Right
RC2022_SemiFinals-vsNaoDevils-G1A_Pathfinder_3_PLAY_00650069_TimeLoggedImaged_U.png;1718197170429;tkalbitz;NoCenterCirclePoints
RC2022_SemiFinals-vsNaoDevils-G1A_Pioneer_5_PLAY_00456064_TimeLoggedImaged_U.png;1718198000549;tkalbitz;NoCenterCirclePoints
RC2022_SemiFinals-vsNaoDevils-G1B_Helios_2_PLAY_00607779_TimeLoggedImaged_U.png;1718197176932;tkalbitz;NoCenterCirclePoints
RC2022_SemiFinals-vsNaoDevils-G1B_Helios_2_PLAY_00711246_TimeLoggedImaged_U.png;1718198003739;tkalbitz;NoCenterCirclePoints
RC2022_SemiFinals-vsNaoDevils-G1B_Pathfinder_3_PLAY_00579431_TimeLoggedImaged_U.png;1718197185698;tkalbitz;NoCenterCirclePoints
RC2022_SemiFinals-vsNaoDevils-G1B_Pioneer_5_PLAY_00119011_TimeLoggedImaged_U.png;1718197186334;tkalbitz;NoCenterCirclePoints
RC2022_SemiFinals-vsNaoDevils-G1B_Pioneer_5_PLAY_00418948_TimeLoggedImaged_U.png;1718198004622;tkalbitz;NoCenterCirclePoints
