RC2019_4th_game_vs_berlin_G1A_Dawn_00316300_L.png;1562324215935;tkalbitz;Ball;198;53;331;55;Ball
RC2019_4th_game_vs_berlin_G1A_Dawn_00378110_L.png;1562324224589;tkalbitz;Ball;352;28;347;-68;Ball
RC2019_4th_game_vs_berlin_G1A_Dawn_00383838_L.png;1562324227981;tkalbitz;Ball;224;68;217;-67;Ball
RC2019_4th_game_vs_berlin_G1A_Dawn_00410028_L.png;1562324237965;tkalbitz;Ball;218;196;114;99;Ball
RC2019_4th_game_vs_berlin_G1A_Dawn_00418653_L.png;1562324241830;tkalbitz;Ball;328;157;385;266;Ball
RC2019_4th_game_vs_berlin_G1A_DeepImpact_00415312_L.png;1562324275358;tkalbitz;Ball;234;13;319;75;Ball
RC2019_4th_game_vs_berlin_G1A_DeepImpact_00431520_L.png;1562324278637;tkalbitz;Ball;563;170;654;291;Ball
RC2019_4th_game_vs_berlin_G1A_DeepImpact_00442227_L.png;1562324282518;tkalbitz;Ball;343;180;223;243;Ball
RC2019_4th_game_vs_berlin_G1A_DeepImpact_00461511_L.png;1562324291581;tkalbitz;Ball;44;372;106;562;Ball
RC2019_4th_game_vs_berlin_G1A_DeepImpact_00462726_L.png;1562324296878;tkalbitz;Ball;72;68;-19;40;Ball
RC2019_4th_game_vs_berlin_G1A_DeepImpact_00523066_L.png;1562324311670;tkalbitz;Ball;585;94;709;61;Ball
RC2019_4th_game_vs_berlin_G1A_DeepImpact_00529314_L.png;1562324318454;tkalbitz;Ball;258;194;402;273;Ball
RC2019_4th_game_vs_berlin_G1A_DeepImpact_00533460_L.png;1562324322444;tkalbitz;Ball;342;169;209;214;Ball
RC2019_4th_game_vs_berlin_G1A_DeepImpact_00541230_L.png;1562324326687;tkalbitz;Ball;279;343;218;495;Ball
RC2019_4th_game_vs_berlin_G1A_DeepImpact_00546645_L.png;1562324331471;tkalbitz;Ball;334;58;310;-48;Ball
RC2019_4th_game_vs_berlin_G1A_DeepImpact_00550742_L.png;1562324334878;tkalbitz;Ball;305;103;251;252;Ball
RC2019_4th_game_vs_berlin_G1A_DeepImpact_00567464_L.png;1562324340534;tkalbitz;Ball;192;188;294;295;Ball
RC2019_4th_game_vs_berlin_G1A_DeepImpact_00569494_L.png;1562324343366;tkalbitz;Ball;51;305;-20;439;Ball
RC2019_4th_game_vs_berlin_G1A_DeepImpact_00574911_L.png;1562324347959;tkalbitz;Ball;380;90;437;-53;Ball
RC2019_4th_game_vs_berlin_G1A_Sputnik_00175052_L.png;1562324401735;tkalbitz;Ball;336;380;501;411;Ball
RC2019_4th_game_vs_berlin_G1A_Sputnik_00180890_L.png;1562324405535;tkalbitz;Ball;232;124;277;268;Ball
RC2019_4th_game_vs_berlin_G1A_Sputnik_00185313_L.png;1562324409095;tkalbitz;Ball;230;228;381;200;Ball
RC2019_4th_game_vs_berlin_G1A_Sputnik_00193585_L.png;1562324413886;tkalbitz;Ball;296;112;319;-4;Ball
RC2019_4th_game_vs_berlin_G1A_Sputnik_00344031_L.png;1562324429454;tkalbitz;Ball;238;138;289;248;Ball
RC2019_4th_game_vs_berlin_G1A_Sputnik_00350439_L.png;1562324432879;tkalbitz;Ball;254;104;167;212;Ball
RC2019_4th_game_vs_berlin_G1A_Sputnik_00360849_L.png;1562324438007;tkalbitz;Ball;382;426;467;562;Ball
RC2019_4th_game_vs_berlin_G1A_Sputnik_00363038_L.png;1562324442633;tkalbitz;Ball;422;198;296;284;Ball
RC2019_4th_game_vs_berlin_G1A_Sputnik_00483478_L.png;1562324452295;tkalbitz;Ball;422;318;324;465;Ball
RC2019_4th_game_vs_berlin_G1A_Sputnik_00485843_L.png;1562324455814;tkalbitz;Ball;330;50;227;80;Ball
RC2019_4th_game_vs_berlin_G1A_Sputnik_00492991_L.png;1562324458719;tkalbitz;Ball;242;110;296;248;Ball
RC2019_4th_game_vs_berlin_G1A_Sputnik_00499308_L.png;1562324461646;tkalbitz;Ball;298;175;298;329;Ball
RC2019_4th_game_vs_berlin_G1A_Stardust_00287565_L.png;1562324491622;tkalbitz;Ball;218;35;194;-89;Ball
RC2019_4th_game_vs_berlin_G1A_Stardust_00291916_L.png;1562324494413;tkalbitz;Ball;317;58;318;-55;Ball
RC2019_4th_game_vs_berlin_G1A_Stardust_00320104_L.png;1562324502159;tkalbitz;Ball;588;187;704;205;Ball
RC2019_4th_game_vs_berlin_G1A_Stardust_00339071_L.png;1562324506352;tkalbitz;Ball;67;447;47;608;Ball
RC2019_4th_game_vs_berlin_G1A_Stardust_00341847_L.png;1562324509808;tkalbitz;Ball;313;126;184;158;Ball
RC2019_4th_game_vs_berlin_G1A_Stardust_00345506_L.png;1562324513528;tkalbitz;Ball;624;123;593;13;Ball
RC2019_4th_game_vs_berlin_G1B_DeepImpact_00439212_L.png;1562324542856;tkalbitz;Ball;404;80;474;-35;Ball
RC2019_4th_game_vs_berlin_G1B_DeepImpact_00470057_L.png;1562324546288;tkalbitz;Ball;386;114;344;270;Ball
RC2019_4th_game_vs_berlin_G1B_DeepImpact_00474958_L.png;1562324555640;tkalbitz;Ball;420;86;434;-63;Ball
RC2019_4th_game_vs_berlin_G1B_DeepImpact_00482161_L.png;1562324559271;tkalbitz;Ball;448;61;571;72;Ball
RC2019_4th_game_vs_berlin_G1B_DeepImpact_00488778_L.png;1562324562632;tkalbitz;Ball;307;148;336;306;Ball
RC2019_4th_game_vs_berlin_G1B_DeepImpact_00492869_L.png;1562324566576;tkalbitz;Ball;403;192;455;315;Ball
RC2019_4th_game_vs_berlin_G1B_DeepImpact_00495671_L.png;1562324571111;tkalbitz;Ball;275;153;207;272;Ball
RC2019_4th_game_vs_berlin_G1B_DeepImpact_00501118_L.png;1562324635577;tkalbitz;Ball;155;393;123;558;Ball
RC2019_4th_game_vs_berlin_G1B_DeepImpact_00564737_L.png;1562324652767;tkalbitz;Ball;513;232;560;388;Ball
RC2019_4th_game_vs_berlin_G1B_DeepImpact_00566699_L.png;1562324660256;tkalbitz;Ball;413;41;394;-73;Ball
RC2019_4th_game_vs_berlin_G1B_DeepImpact_00584244_L.png;1562324663153;tkalbitz;Ball;456;32;500;-101;Ball
RC2019_4th_game_vs_berlin_G1B_DeepImpact_00595638_L.png;1562324666625;tkalbitz;Ball;548;28;646;22;Ball
RC2019_4th_game_vs_berlin_G1B_Pathfinder_00119193_L.png;1562324676377;tkalbitz;Ball;270;20;365;30;Ball
RC2019_4th_game_vs_berlin_G1B_Pathfinder_00120924_L.png;1562324679752;tkalbitz;Ball;402;35;404;-80;Ball
RC2019_4th_game_vs_berlin_G1B_Pathfinder_00229046_L.png;1562324691064;tkalbitz;Ball;257;23;263;-67;Ball
RC2019_4th_game_vs_berlin_G1B_Pathfinder_00245899_L.png;1562324693578;tkalbitz;Ball;376;28;379;-98;Ball
RC2019_4th_game_vs_berlin_G1B_Pathfinder_00248257_L.png;1562324695936;tkalbitz;Ball;415;107;433;260;Ball
RC2019_4th_game_vs_berlin_G1B_Pathfinder_00257121_L.png;1562324702816;tkalbitz;Ball;417;339;571;309;Ball
RC2019_4th_game_vs_berlin_G1B_Pathfinder_00293324_L.png;1562324717385;tkalbitz;Ball;253;48;257;-75;Ball
RC2019_4th_game_vs_berlin_G1B_Pathfinder_00296026_L.png;1562324721418;tkalbitz;Ball;569;267;716;305;Ball
RC2019_4th_game_vs_berlin_G1B_Pathfinder_00305818_L.png;1562324724441;tkalbitz;Ball;209;235;61;364;Ball
RC2019_4th_game_vs_berlin_G1B_Pathfinder_00310400_L.png;1562324729081;tkalbitz;Ball;49;165;-35;140;Ball
RC2019_4th_game_vs_berlin_G1B_Pathfinder_00312865_L.png;1562324731724;tkalbitz;Ball;456;18;513;127;Ball
RC2019_4th_game_vs_berlin_G1B_Pathfinder_00628546_L.png;1562324754545;tkalbitz;Ball;63;69;-26;100;Ball
RC2019_4th_game_vs_berlin_G1B_Sputnik_00145600_L.png;1562324790617;tkalbitz;Ball;292;105;340;236;Ball
RC2019_4th_game_vs_berlin_G1B_Sputnik_00147595_L.png;1562324795017;tkalbitz;Ball;95;22;-1;21;Ball
RC2019_4th_game_vs_berlin_G1B_Sputnik_00149822_L.png;1562324798907;tkalbitz;Ball;271;43;252;-68;Ball
RC2019_4th_game_vs_berlin_G1B_Sputnik_00289737_L.png;1562324819186;tkalbitz;Ball;101;28;187;0;Ball
RC2019_4th_game_vs_berlin_G1B_Sputnik_00323593_L.png;1562324827242;tkalbitz;Ball;420;140;475;257;Ball
RC2019_4th_game_vs_berlin_G1B_Sputnik_00326681_L.png;1562324831385;tkalbitz;Ball;396;329;267;434;Ball
RC2019_4th_game_vs_berlin_G1B_Sputnik_00330710_L.png;1562324834898;tkalbitz;Ball;289;303;185;431;Ball
RC2019_4th_game_vs_berlin_G1B_Sputnik_00333566_L.png;1562324838362;tkalbitz;Ball;371;254;372;409;Ball
RC2019_4th_game_vs_berlin_G1B_Sputnik_00344915_L.png;1562324843154;tkalbitz;Ball;318;211;281;356;Ball
RC2019_4th_game_vs_berlin_G1A_Dawn_00199311_L.png;1652355381699;tkalbitz;CenterCirclePoints;608;43;608;43;Center
RC2019_4th_game_vs_berlin_G1A_Dawn_00212961_L.png;1652311193345;tkalbitz;CenterCirclePoints;506;117;506;117;Right
RC2019_4th_game_vs_berlin_G1A_Dawn_00346242_L.png;1652352601569;tkalbitz;CenterCirclePoints;298;166;298;166;Left
RC2019_4th_game_vs_berlin_G1A_Dawn_00349402_L.png;1652354490924;tkalbitz;CenterCirclePoints;270;60;271;60;Center
RC2019_4th_game_vs_berlin_G1A_Dawn_00359493_L.png;1652354492769;tkalbitz;CenterCirclePoints;153;96;151;100;Center
RC2019_4th_game_vs_berlin_G1A_Dawn_00361907_L.png;1652354494575;tkalbitz;CenterCirclePoints;75;172;75;172;Center
RC2019_4th_game_vs_berlin_G1A_Dawn_00562026_L.png;1652354497435;tkalbitz;CenterCirclePoints;100;32;100;32;Center
RC2019_4th_game_vs_berlin_G1A_Dawn_00564055_L.png;1652371900225;tkalbitz;CenterCirclePoints;10;347;10;347;Center
RC2019_4th_game_vs_berlin_G1A_Sputnik_00116076_L.png;1652354499799;tkalbitz;CenterCirclePoints;131;3;131;3;Right
RC2019_4th_game_vs_berlin_G1A_Sputnik_00121888_L.png;1652354502327;tkalbitz;CenterCirclePoints;633;173;633;173;Center
RC2019_4th_game_vs_berlin_G1A_Sputnik_00121888_L.png;1652354504249;tkalbitz;CenterCirclePoints;43;8;43;8;Left
RC2019_4th_game_vs_berlin_G1A_Sputnik_00133558_L.png;1652311195952;tkalbitz;CenterCirclePoints;221;14;221;14;Left
RC2019_4th_game_vs_berlin_G1A_Sputnik_00225381_L.png;1652311198453;tkalbitz;CenterCirclePoints;325;8;325;8;Left
RC2019_4th_game_vs_berlin_G1A_Sputnik_00485843_L.png;1652353525933;tkalbitz;CenterCirclePoints;531;50;531;50;Right
RC2019_4th_game_vs_berlin_G1A_Sputnik_00532245_L.png;1652354505923;tkalbitz;CenterCirclePoints;505;242;505;242;Center
RC2019_4th_game_vs_berlin_G1A_Sputnik_00576949_L.png;1652354507672;tkalbitz;CenterCirclePoints;250;37;250;37;Right
RC2019_4th_game_vs_berlin_G1A_Sputnik_00588600_L.png;1652353527658;tkalbitz;CenterCirclePoints;58;166;58;166;Right
RC2019_4th_game_vs_berlin_G1A_Sputnik_00634876_L.png;1652355385002;tkalbitz;CenterCirclePoints;613;90;613;90;Right
RC2019_4th_game_vs_berlin_G1A_Stardust_00174516_L.png;1652353530375;tkalbitz;CenterCirclePoints;159;124;159;124;Right
RC2019_4th_game_vs_berlin_G1A_Stardust_00192008_L.png;1652353532100;tkalbitz;CenterCirclePoints;475;256;475;256;Right
RC2019_4th_game_vs_berlin_G1A_Stardust_00215315_L.png;1652311200317;tkalbitz;CenterCirclePoints;336;34;336;34;Left
RC2019_4th_game_vs_berlin_G1A_Stardust_00303586_L.png;1652352603511;tkalbitz;CenterCirclePoints;629;176;629;176;Right
RC2019_4th_game_vs_berlin_G1A_Stardust_00386230_L.png;1652353537467;tkalbitz;CenterCirclePoints;475;32;475;32;Left
RC2019_4th_game_vs_berlin_G1B_DeepImpact_00276448_L.png;1652352607248;tkalbitz;CenterCirclePoints;11;111;11;111;Center
RC2019_4th_game_vs_berlin_G1B_DeepImpact_00276448_L.png;1652352608362;tkalbitz;CenterCirclePoints;632;110;632;110;Right
RC2019_4th_game_vs_berlin_G1B_DeepImpact_00322935_L.png;1652352610163;tkalbitz;CenterCirclePoints;303;9;303;9;Right
RC2019_4th_game_vs_berlin_G1B_Pathfinder_00087513_L.png;1652354510489;tkalbitz;CenterCirclePoints;375;54;375;54;Center
RC2019_4th_game_vs_berlin_G1B_Pathfinder_00093347_L.png;1652357111202;tkalbitz;CenterCirclePoints;562;7;562;7;Center
RC2019_4th_game_vs_berlin_G1B_Pathfinder_00180747_L.png;1652311815232;tkalbitz;CenterCirclePoints;341;146;341;146;Right
RC2019_4th_game_vs_berlin_G1B_Pathfinder_00467576_L.png;1652354511785;tkalbitz;CenterCirclePoints;416;93;416;93;Center
RC2019_4th_game_vs_berlin_G1B_Pathfinder_00473400_L.png;1652354513926;tkalbitz;CenterCirclePoints;531;465;531;465;Center
RC2019_4th_game_vs_berlin_G1A_DeepImpact_00413772_L.png;1652571342004;tkalbitz;Ignore
RC2019_4th_game_vs_berlin_G1A_DeepImpact_00515853_L.png;1562324306664;tkalbitz;Ignore
RC2019_4th_game_vs_berlin_G1B_Pathfinder_00254894_L.png;1562324701004;tkalbitz;Ignore
RC2019_4th_game_vs_berlin_G1B_Sputnik_00152881_L.png;1562324811478;tkalbitz;Ignore
RC2019_4th_game_vs_berlin_G1B_Sputnik_00357123_L.png;1562324848348;tkalbitz;Ignore
RC2019_4th_game_vs_berlin_G1A_Dawn_00104439_L.png;1562324180544;tkalbitz;NoBall
RC2019_4th_game_vs_berlin_G1A_Dawn_00104439_L.png;1562324862294;tkalbitz;NoBall
RC2019_4th_game_vs_berlin_G1A_Dawn_00110275_L.png;1562324197236;tkalbitz;NoBall
RC2019_4th_game_vs_berlin_G1A_Dawn_00110275_L.png;1562324862794;tkalbitz;NoBall
RC2019_4th_game_vs_berlin_G1A_Dawn_00116114_L.png;1562324198267;tkalbitz;NoBall
RC2019_4th_game_vs_berlin_G1A_Dawn_00116114_L.png;1562324863242;tkalbitz;NoBall
RC2019_4th_game_vs_berlin_G1A_Dawn_00121941_L.png;1562324198850;tkalbitz;NoBall
RC2019_4th_game_vs_berlin_G1A_Dawn_00121941_L.png;1562324863693;tkalbitz;NoBall
RC2019_4th_game_vs_berlin_G1A_Dawn_00127762_L.png;1562324199525;tkalbitz;NoBall
RC2019_4th_game_vs_berlin_G1A_Dawn_00127762_L.png;1562324864098;tkalbitz;NoBall
RC2019_4th_game_vs_berlin_G1A_Dawn_00133593_L.png;1562324200047;tkalbitz;NoBall
RC2019_4th_game_vs_berlin_G1A_Dawn_00133593_L.png;1562324864575;tkalbitz;NoBall
RC2019_4th_game_vs_berlin_G1A_Dawn_00139415_L.png;1562324200502;tkalbitz;NoBall
RC2019_4th_game_vs_berlin_G1A_Dawn_00139415_L.png;1562324865110;tkalbitz;NoBall
RC2019_4th_game_vs_berlin_G1A_Dawn_00199311_L.png;1562324203373;tkalbitz;NoBall
RC2019_4th_game_vs_berlin_G1A_Dawn_00199311_L.png;1562324865538;tkalbitz;NoBall
RC2019_4th_game_vs_berlin_G1A_Dawn_00205125_L.png;1562324204190;tkalbitz;NoBall
RC2019_4th_game_vs_berlin_G1A_Dawn_00205125_L.png;1562324866020;tkalbitz;NoBall
RC2019_4th_game_vs_berlin_G1A_Dawn_00212961_L.png;1562324205401;tkalbitz;NoBall
RC2019_4th_game_vs_berlin_G1A_Dawn_00212961_L.png;1562324866458;tkalbitz;NoBall
RC2019_4th_game_vs_berlin_G1A_Dawn_00218797_L.png;1562324206011;tkalbitz;NoBall
RC2019_4th_game_vs_berlin_G1A_Dawn_00218797_L.png;1562324866974;tkalbitz;NoBall
RC2019_4th_game_vs_berlin_G1A_Dawn_00224624_L.png;1562324206531;tkalbitz;NoBall
RC2019_4th_game_vs_berlin_G1A_Dawn_00224624_L.png;1562324867412;tkalbitz;NoBall
RC2019_4th_game_vs_berlin_G1A_Dawn_00230456_L.png;1562324207867;tkalbitz;NoBall
RC2019_4th_game_vs_berlin_G1A_Dawn_00230456_L.png;1562324867795;tkalbitz;NoBall
RC2019_4th_game_vs_berlin_G1A_Dawn_00236269_L.png;1562324208377;tkalbitz;NoBall
RC2019_4th_game_vs_berlin_G1A_Dawn_00236269_L.png;1562324868181;tkalbitz;NoBall
RC2019_4th_game_vs_berlin_G1A_Dawn_00242094_L.png;1562324208861;tkalbitz;NoBall
RC2019_4th_game_vs_berlin_G1A_Dawn_00242094_L.png;1562324868547;tkalbitz;NoBall
RC2019_4th_game_vs_berlin_G1A_Dawn_00247930_L.png;1562324209341;tkalbitz;NoBall
RC2019_4th_game_vs_berlin_G1A_Dawn_00247930_L.png;1562324868967;tkalbitz;NoBall
RC2019_4th_game_vs_berlin_G1A_Dawn_00271250_L.png;1562324210024;tkalbitz;NoBall
RC2019_4th_game_vs_berlin_G1A_Dawn_00271250_L.png;1562324869338;tkalbitz;NoBall
RC2019_4th_game_vs_berlin_G1A_Dawn_00277089_L.png;1562324210502;tkalbitz;NoBall
RC2019_4th_game_vs_berlin_G1A_Dawn_00277089_L.png;1562324869686;tkalbitz;NoBall
RC2019_4th_game_vs_berlin_G1A_Dawn_00282913_L.png;1562324210910;tkalbitz;NoBall
RC2019_4th_game_vs_berlin_G1A_Dawn_00282913_L.png;1562324870057;tkalbitz;NoBall
RC2019_4th_game_vs_berlin_G1A_Dawn_00300376_L.png;1562324211516;tkalbitz;NoBall
RC2019_4th_game_vs_berlin_G1A_Dawn_00300376_L.png;1562324870438;tkalbitz;NoBall
RC2019_4th_game_vs_berlin_G1A_Dawn_00312028_L.png;1562324212011;tkalbitz;NoBall
RC2019_4th_game_vs_berlin_G1A_Dawn_00312028_L.png;1562324870858;tkalbitz;NoBall
RC2019_4th_game_vs_berlin_G1A_Dawn_00346242_L.png;1562324219054;tkalbitz;NoBall
RC2019_4th_game_vs_berlin_G1A_Dawn_00349402_L.png;1562324219770;tkalbitz;NoBall
RC2019_4th_game_vs_berlin_G1A_Dawn_00359493_L.png;1562324220354;tkalbitz;NoBall
RC2019_4th_game_vs_berlin_G1A_Dawn_00361907_L.png;1562324220844;tkalbitz;NoBall
RC2019_4th_game_vs_berlin_G1A_Dawn_00367729_L.png;1562324221433;tkalbitz;NoBall
RC2019_4th_game_vs_berlin_G1A_Dawn_00393308_L.png;1562324235604;tkalbitz;NoBall
RC2019_4th_game_vs_berlin_G1A_Dawn_00424458_L.png;1562324246115;tkalbitz;NoBall
RC2019_4th_game_vs_berlin_G1A_Dawn_00430293_L.png;1562324246744;tkalbitz;NoBall
RC2019_4th_game_vs_berlin_G1A_Dawn_00436133_L.png;1562324247537;tkalbitz;NoBall
RC2019_4th_game_vs_berlin_G1A_Dawn_00441970_L.png;1562324248051;tkalbitz;NoBall
RC2019_4th_game_vs_berlin_G1A_Dawn_00456074_L.png;1562324249027;tkalbitz;NoBall
RC2019_4th_game_vs_berlin_G1A_Dawn_00473568_L.png;1562324249518;tkalbitz;NoBall
RC2019_4th_game_vs_berlin_G1A_Dawn_00479403_L.png;1562324250128;tkalbitz;NoBall
RC2019_4th_game_vs_berlin_G1A_Dawn_00485240_L.png;1562324250808;tkalbitz;NoBall
RC2019_4th_game_vs_berlin_G1A_Dawn_00495676_L.png;1562324251325;tkalbitz;NoBall
RC2019_4th_game_vs_berlin_G1A_Dawn_00501512_L.png;1562324251825;tkalbitz;NoBall
RC2019_4th_game_vs_berlin_G1A_Dawn_00507322_L.png;1562324252436;tkalbitz;NoBall
RC2019_4th_game_vs_berlin_G1A_Dawn_00513151_L.png;1562324253019;tkalbitz;NoBall
RC2019_4th_game_vs_berlin_G1A_Dawn_00536443_L.png;1562324253524;tkalbitz;NoBall
RC2019_4th_game_vs_berlin_G1A_Dawn_00542263_L.png;1562324254067;tkalbitz;NoBall
RC2019_4th_game_vs_berlin_G1A_Dawn_00562026_L.png;1562324254790;tkalbitz;NoBall
RC2019_4th_game_vs_berlin_G1A_Dawn_00564055_L.png;1562324255297;tkalbitz;NoBall
RC2019_4th_game_vs_berlin_G1A_Dawn_00569882_L.png;1562324256056;tkalbitz;NoBall
RC2019_4th_game_vs_berlin_G1A_Dawn_00575713_L.png;1562324256607;tkalbitz;NoBall
RC2019_4th_game_vs_berlin_G1A_Dawn_00581551_L.png;1562324257529;tkalbitz;NoBall
RC2019_4th_game_vs_berlin_G1A_DeepImpact_00104475_L.png;1562324258198;tkalbitz;NoBall
RC2019_4th_game_vs_berlin_G1A_DeepImpact_00162774_L.png;1562324258831;tkalbitz;NoBall
RC2019_4th_game_vs_berlin_G1A_DeepImpact_00173559_L.png;1562324259477;tkalbitz;NoBall
RC2019_4th_game_vs_berlin_G1A_DeepImpact_00180044_L.png;1562324260073;tkalbitz;NoBall
RC2019_4th_game_vs_berlin_G1A_DeepImpact_00196199_L.png;1562324260575;tkalbitz;NoBall
RC2019_4th_game_vs_berlin_G1A_DeepImpact_00198808_L.png;1562324261074;tkalbitz;NoBall
RC2019_4th_game_vs_berlin_G1A_DeepImpact_00204640_L.png;1562324262635;tkalbitz;NoBall
RC2019_4th_game_vs_berlin_G1A_DeepImpact_00210471_L.png;1562324263365;tkalbitz;NoBall
RC2019_4th_game_vs_berlin_G1A_DeepImpact_00216297_L.png;1562324263925;tkalbitz;NoBall
RC2019_4th_game_vs_berlin_G1A_DeepImpact_00222127_L.png;1562324264463;tkalbitz;NoBall
RC2019_4th_game_vs_berlin_G1A_DeepImpact_00227945_L.png;1562324265006;tkalbitz;NoBall
RC2019_4th_game_vs_berlin_G1A_DeepImpact_00233784_L.png;1562324265507;tkalbitz;NoBall
RC2019_4th_game_vs_berlin_G1A_DeepImpact_00239627_L.png;1562324265963;tkalbitz;NoBall
RC2019_4th_game_vs_berlin_G1A_DeepImpact_00245450_L.png;1562324266358;tkalbitz;NoBall
RC2019_4th_game_vs_berlin_G1A_DeepImpact_00344510_L.png;1562324266769;tkalbitz;NoBall
RC2019_4th_game_vs_berlin_G1A_DeepImpact_00347249_L.png;1562324267111;tkalbitz;NoBall
RC2019_4th_game_vs_berlin_G1A_DeepImpact_00353132_L.png;1562324268082;tkalbitz;NoBall
RC2019_4th_game_vs_berlin_G1A_DeepImpact_00361902_L.png;1562324268636;tkalbitz;NoBall
RC2019_4th_game_vs_berlin_G1A_DeepImpact_00379383_L.png;1562324269080;tkalbitz;NoBall
RC2019_4th_game_vs_berlin_G1A_DeepImpact_00396829_L.png;1562324269514;tkalbitz;NoBall
RC2019_4th_game_vs_berlin_G1A_DeepImpact_00448047_L.png;1562324286609;tkalbitz;NoBall
RC2019_4th_game_vs_berlin_G1A_DeepImpact_00453889_L.png;1562324287304;tkalbitz;NoBall
RC2019_4th_game_vs_berlin_G1A_DeepImpact_00459701_L.png;1562324287856;tkalbitz;NoBall
RC2019_4th_game_vs_berlin_G1A_DeepImpact_00465982_L.png;1562324302183;tkalbitz;NoBall
RC2019_4th_game_vs_berlin_G1A_DeepImpact_00469108_L.png;1562324303946;tkalbitz;NoBall
RC2019_4th_game_vs_berlin_G1A_DeepImpact_00489692_L.png;1562324304516;tkalbitz;NoBall
RC2019_4th_game_vs_berlin_G1A_DeepImpact_00495525_L.png;1562324304963;tkalbitz;NoBall
RC2019_4th_game_vs_berlin_G1A_DeepImpact_00521681_L.png;1562324308077;tkalbitz;NoBall
RC2019_4th_game_vs_berlin_G1A_DeepImpact_00562421_L.png;1562324338139;tkalbitz;NoBall
RC2019_4th_game_vs_berlin_G1A_DeepImpact_00581330_L.png;1562324350819;tkalbitz;NoBall
RC2019_4th_game_vs_berlin_G1A_DeepImpact_00593010_L.png;1562324351715;tkalbitz;NoBall
RC2019_4th_game_vs_berlin_G1A_DeepImpact_00638035_L.png;1562324353001;tkalbitz;NoBall
RC2019_4th_game_vs_berlin_G1A_DeepImpact_00661324_L.png;1562324353721;tkalbitz;NoBall
RC2019_4th_game_vs_berlin_G1A_DeepImpact_00667157_L.png;1562324354215;tkalbitz;NoBall
RC2019_4th_game_vs_berlin_G1A_DeepImpact_00678821_L.png;1562324354670;tkalbitz;NoBall
RC2019_4th_game_vs_berlin_G1A_DeepImpact_00696289_L.png;1562324355676;tkalbitz;NoBall
RC2019_4th_game_vs_berlin_G1A_DeepImpact_00718389_L.png;1562324356180;tkalbitz;NoBall
RC2019_4th_game_vs_berlin_G1A_DeepImpact_00730068_L.png;1562324358013;tkalbitz;NoBall
RC2019_4th_game_vs_berlin_G1A_Pathfinder_00066940_L.png;1562324358503;tkalbitz;NoBall
RC2019_4th_game_vs_berlin_G1A_Pathfinder_00090229_L.png;1562324359004;tkalbitz;NoBall
RC2019_4th_game_vs_berlin_G1A_Pathfinder_00096064_L.png;1562324359520;tkalbitz;NoBall
RC2019_4th_game_vs_berlin_G1A_Pathfinder_00107731_L.png;1562324360235;tkalbitz;NoBall
RC2019_4th_game_vs_berlin_G1A_Pathfinder_00125211_L.png;1562324360732;tkalbitz;NoBall
RC2019_4th_game_vs_berlin_G1A_Pathfinder_00160206_L.png;1562324361233;tkalbitz;NoBall
RC2019_4th_game_vs_berlin_G1A_Pathfinder_00166028_L.png;1562324361666;tkalbitz;NoBall
RC2019_4th_game_vs_berlin_G1A_Pathfinder_00171866_L.png;1562324362076;tkalbitz;NoBall
RC2019_4th_game_vs_berlin_G1A_Pathfinder_00177702_L.png;1562324362465;tkalbitz;NoBall
RC2019_4th_game_vs_berlin_G1A_Pathfinder_00183543_L.png;1562324362840;tkalbitz;NoBall
RC2019_4th_game_vs_berlin_G1A_Pathfinder_00211235_L.png;1562324363200;tkalbitz;NoBall
RC2019_4th_game_vs_berlin_G1A_Pathfinder_00217700_L.png;1562324363784;tkalbitz;NoBall
RC2019_4th_game_vs_berlin_G1A_Pathfinder_00223522_L.png;1562324364176;tkalbitz;NoBall
RC2019_4th_game_vs_berlin_G1A_Pathfinder_00229351_L.png;1562324364591;tkalbitz;NoBall
RC2019_4th_game_vs_berlin_G1A_Pathfinder_00235183_L.png;1562324365129;tkalbitz;NoBall
RC2019_4th_game_vs_berlin_G1A_Phoenix_00110379_L.png;1562324365547;tkalbitz;NoBall
RC2019_4th_game_vs_berlin_G1A_Phoenix_00116219_L.png;1562324366086;tkalbitz;NoBall
RC2019_4th_game_vs_berlin_G1A_Phoenix_00122055_L.png;1562324366618;tkalbitz;NoBall
RC2019_4th_game_vs_berlin_G1A_Phoenix_00180357_L.png;1562324367073;tkalbitz;NoBall
RC2019_4th_game_vs_berlin_G1A_Phoenix_00252872_L.png;1562324367505;tkalbitz;NoBall
RC2019_4th_game_vs_berlin_G1A_Phoenix_00282032_L.png;1562324368516;tkalbitz;NoBall
RC2019_4th_game_vs_berlin_G1A_Phoenix_00287861_L.png;1562324369924;tkalbitz;NoBall
RC2019_4th_game_vs_berlin_G1A_Phoenix_00340537_L.png;1562324370435;tkalbitz;NoBall
RC2019_4th_game_vs_berlin_G1A_Phoenix_00346379_L.png;1562324370917;tkalbitz;NoBall
RC2019_4th_game_vs_berlin_G1A_Phoenix_00352210_L.png;1562324371391;tkalbitz;NoBall
RC2019_4th_game_vs_berlin_G1A_Phoenix_00358044_L.png;1562324372040;tkalbitz;NoBall
RC2019_4th_game_vs_berlin_G1A_Phoenix_00381334_L.png;1562324372508;tkalbitz;NoBall
RC2019_4th_game_vs_berlin_G1A_Phoenix_00387165_L.png;1562324373026;tkalbitz;NoBall
RC2019_4th_game_vs_berlin_G1A_Phoenix_00398825_L.png;1562324373575;tkalbitz;NoBall
RC2019_4th_game_vs_berlin_G1A_Phoenix_00422108_L.png;1562324374075;tkalbitz;NoBall
RC2019_4th_game_vs_berlin_G1A_Phoenix_00433762_L.png;1562324374544;tkalbitz;NoBall
RC2019_4th_game_vs_berlin_G1A_Phoenix_00439596_L.png;1562324375050;tkalbitz;NoBall
RC2019_4th_game_vs_berlin_G1A_Phoenix_00462946_L.png;1562324375510;tkalbitz;NoBall
RC2019_4th_game_vs_berlin_G1A_Phoenix_00488515_L.png;1562324375944;tkalbitz;NoBall
RC2019_4th_game_vs_berlin_G1A_Phoenix_00494351_L.png;1562324376387;tkalbitz;NoBall
RC2019_4th_game_vs_berlin_G1A_Phoenix_00506007_L.png;1562324376840;tkalbitz;NoBall
RC2019_4th_game_vs_berlin_G1A_Phoenix_00511835_L.png;1562324377278;tkalbitz;NoBall
RC2019_4th_game_vs_berlin_G1A_Phoenix_00540947_L.png;1562324377706;tkalbitz;NoBall
RC2019_4th_game_vs_berlin_G1A_Phoenix_00552607_L.png;1562324378111;tkalbitz;NoBall
RC2019_4th_game_vs_berlin_G1A_Phoenix_00564282_L.png;1562324378538;tkalbitz;NoBall
RC2019_4th_game_vs_berlin_G1A_Phoenix_00575924_L.png;1562324378953;tkalbitz;NoBall
RC2019_4th_game_vs_berlin_G1A_Phoenix_00599243_L.png;1562324379419;tkalbitz;NoBall
RC2019_4th_game_vs_berlin_G1A_Phoenix_00622521_L.png;1562324389597;tkalbitz;NoBall
RC2019_4th_game_vs_berlin_G1A_Phoenix_00663281_L.png;1562324390200;tkalbitz;NoBall
RC2019_4th_game_vs_berlin_G1A_Phoenix_00669085_L.png;1562324390751;tkalbitz;NoBall
RC2019_4th_game_vs_berlin_G1A_Phoenix_00674928_L.png;1562324391212;tkalbitz;NoBall
RC2019_4th_game_vs_berlin_G1A_Phoenix_00680756_L.png;1562324391597;tkalbitz;NoBall
RC2019_4th_game_vs_berlin_G1A_Phoenix_00698255_L.png;1562324391985;tkalbitz;NoBall
RC2019_4th_game_vs_berlin_G1A_Phoenix_00709879_L.png;1562324392390;tkalbitz;NoBall
RC2019_4th_game_vs_berlin_G1A_Phoenix_00715709_L.png;1562324393255;tkalbitz;NoBall
RC2019_4th_game_vs_berlin_G1A_Phoenix_00723259_L.png;1562324393788;tkalbitz;NoBall
RC2019_4th_game_vs_berlin_G1A_Phoenix_00729100_L.png;1562324394214;tkalbitz;NoBall
RC2019_4th_game_vs_berlin_G1A_Phoenix_00740769_L.png;1562324394716;tkalbitz;NoBall
RC2019_4th_game_vs_berlin_G1A_Sputnik_00104510_L.png;1562324395249;tkalbitz;NoBall
RC2019_4th_game_vs_berlin_G1A_Sputnik_00110340_L.png;1562324395674;tkalbitz;NoBall
RC2019_4th_game_vs_berlin_G1A_Sputnik_00116076_L.png;1562324396040;tkalbitz;NoBall
RC2019_4th_game_vs_berlin_G1A_Sputnik_00121888_L.png;1562324396605;tkalbitz;NoBall
RC2019_4th_game_vs_berlin_G1A_Sputnik_00127724_L.png;1562324397062;tkalbitz;NoBall
RC2019_4th_game_vs_berlin_G1A_Sputnik_00133558_L.png;1562324397499;tkalbitz;NoBall
RC2019_4th_game_vs_berlin_G1A_Sputnik_00139399_L.png;1562324397927;tkalbitz;NoBall
RC2019_4th_game_vs_berlin_G1A_Sputnik_00170658_L.png;1562324398370;tkalbitz;NoBall
RC2019_4th_game_vs_berlin_G1A_Sputnik_00199410_L.png;1562324416819;tkalbitz;NoBall
RC2019_4th_game_vs_berlin_G1A_Sputnik_00200669_L.png;1562324417526;tkalbitz;NoBall
RC2019_4th_game_vs_berlin_G1A_Sputnik_00207879_L.png;1562324418047;tkalbitz;NoBall
RC2019_4th_game_vs_berlin_G1A_Sputnik_00219552_L.png;1562324418520;tkalbitz;NoBall
RC2019_4th_game_vs_berlin_G1A_Sputnik_00225381_L.png;1562324419088;tkalbitz;NoBall
RC2019_4th_game_vs_berlin_G1A_Sputnik_00231218_L.png;1562324419566;tkalbitz;NoBall
RC2019_4th_game_vs_berlin_G1A_Sputnik_00237044_L.png;1562324420047;tkalbitz;NoBall
RC2019_4th_game_vs_berlin_G1A_Sputnik_00242885_L.png;1562324420535;tkalbitz;NoBall
RC2019_4th_game_vs_berlin_G1A_Sputnik_00248718_L.png;1562324420988;tkalbitz;NoBall
RC2019_4th_game_vs_berlin_G1A_Sputnik_00254509_L.png;1562324421400;tkalbitz;NoBall
RC2019_4th_game_vs_berlin_G1A_Sputnik_00277838_L.png;1562324421787;tkalbitz;NoBall
RC2019_4th_game_vs_berlin_G1A_Sputnik_00293852_L.png;1562324422179;tkalbitz;NoBall
RC2019_4th_game_vs_berlin_G1A_Sputnik_00328187_L.png;1562324422573;tkalbitz;NoBall
RC2019_4th_game_vs_berlin_G1A_Sputnik_00334017_L.png;1562324425698;tkalbitz;NoBall
RC2019_4th_game_vs_berlin_G1A_Sputnik_00422705_L.png;1562324447611;tkalbitz;NoBall
RC2019_4th_game_vs_berlin_G1A_Sputnik_00440214_L.png;1562324448120;tkalbitz;NoBall
RC2019_4th_game_vs_berlin_G1A_Sputnik_00446043_L.png;1562324448602;tkalbitz;NoBall
RC2019_4th_game_vs_berlin_G1A_Sputnik_00451867_L.png;1562324449182;tkalbitz;NoBall
RC2019_4th_game_vs_berlin_G1A_Sputnik_00463537_L.png;1562324449648;tkalbitz;NoBall
RC2019_4th_game_vs_berlin_G1A_Sputnik_00481000_L.png;1562324450133;tkalbitz;NoBall
RC2019_4th_game_vs_berlin_G1A_Sputnik_00518807_L.png;1562324467141;tkalbitz;NoBall
RC2019_4th_game_vs_berlin_G1A_Sputnik_00524652_L.png;1562324467821;tkalbitz;NoBall
RC2019_4th_game_vs_berlin_G1A_Sputnik_00530479_L.png;1562324468220;tkalbitz;NoBall
RC2019_4th_game_vs_berlin_G1A_Sputnik_00532245_L.png;1562324468815;tkalbitz;NoBall
RC2019_4th_game_vs_berlin_G1A_Sputnik_00543910_L.png;1562324469554;tkalbitz;NoBall
RC2019_4th_game_vs_berlin_G1A_Sputnik_00549756_L.png;1562324470024;tkalbitz;NoBall
RC2019_4th_game_vs_berlin_G1A_Sputnik_00555581_L.png;1562324470470;tkalbitz;NoBall
RC2019_4th_game_vs_berlin_G1A_Sputnik_00561412_L.png;1562324470954;tkalbitz;NoBall
RC2019_4th_game_vs_berlin_G1A_Sputnik_00571118_L.png;1562324471347;tkalbitz;NoBall
RC2019_4th_game_vs_berlin_G1A_Sputnik_00576949_L.png;1562324471725;tkalbitz;NoBall
RC2019_4th_game_vs_berlin_G1A_Sputnik_00588600_L.png;1562324472115;tkalbitz;NoBall
RC2019_4th_game_vs_berlin_G1A_Sputnik_00600232_L.png;1562324472500;tkalbitz;NoBall
RC2019_4th_game_vs_berlin_G1A_Sputnik_00625303_L.png;1562324472878;tkalbitz;NoBall
RC2019_4th_game_vs_berlin_G1A_Sputnik_00631137_L.png;1562324473333;tkalbitz;NoBall
RC2019_4th_game_vs_berlin_G1A_Sputnik_00634876_L.png;1562324473764;tkalbitz;NoBall
RC2019_4th_game_vs_berlin_G1A_Sputnik_00640691_L.png;1562324474455;tkalbitz;NoBall
RC2019_4th_game_vs_berlin_G1A_Sputnik_00646509_L.png;1562324474974;tkalbitz;NoBall
RC2019_4th_game_vs_berlin_G1A_Sputnik_00652305_L.png;1562324475393;tkalbitz;NoBall
RC2019_4th_game_vs_berlin_G1A_Sputnik_00658142_L.png;1562324475789;tkalbitz;NoBall
RC2019_4th_game_vs_berlin_G1A_Sputnik_00663963_L.png;1562324476239;tkalbitz;NoBall
RC2019_4th_game_vs_berlin_G1A_Sputnik_00669790_L.png;1562324476727;tkalbitz;NoBall
RC2019_4th_game_vs_berlin_G1A_Sputnik_00675618_L.png;1562324477127;tkalbitz;NoBall
RC2019_4th_game_vs_berlin_G1A_Sputnik_00681464_L.png;1562324477475;tkalbitz;NoBall
RC2019_4th_game_vs_berlin_G1A_Sputnik_00704754_L.png;1562324477836;tkalbitz;NoBall
RC2019_4th_game_vs_berlin_G1A_Sputnik_00716402_L.png;1562324478248;tkalbitz;NoBall
RC2019_4th_game_vs_berlin_G1A_Sputnik_00722237_L.png;1562324478594;tkalbitz;NoBall
RC2019_4th_game_vs_berlin_G1A_Sputnik_00728069_L.png;1562324478998;tkalbitz;NoBall
RC2019_4th_game_vs_berlin_G1A_Sputnik_00733903_L.png;1562324479753;tkalbitz;NoBall
RC2019_4th_game_vs_berlin_G1A_Sputnik_00739738_L.png;1562324480297;tkalbitz;NoBall
RC2019_4th_game_vs_berlin_G1A_Stardust_00162851_L.png;1562324480688;tkalbitz;NoBall
RC2019_4th_game_vs_berlin_G1A_Stardust_00168689_L.png;1562324481138;tkalbitz;NoBall
RC2019_4th_game_vs_berlin_G1A_Stardust_00174516_L.png;1562324481596;tkalbitz;NoBall
RC2019_4th_game_vs_berlin_G1A_Stardust_00192008_L.png;1562324482495;tkalbitz;NoBall
RC2019_4th_game_vs_berlin_G1A_Stardust_00197842_L.png;1562324482956;tkalbitz;NoBall
RC2019_4th_game_vs_berlin_G1A_Stardust_00203683_L.png;1562324483446;tkalbitz;NoBall
RC2019_4th_game_vs_berlin_G1A_Stardust_00209487_L.png;1562324483890;tkalbitz;NoBall
RC2019_4th_game_vs_berlin_G1A_Stardust_00215315_L.png;1562324484430;tkalbitz;NoBall
RC2019_4th_game_vs_berlin_G1A_Stardust_00221138_L.png;1562324484841;tkalbitz;NoBall
RC2019_4th_game_vs_berlin_G1A_Stardust_00226977_L.png;1562324485292;tkalbitz;NoBall
RC2019_4th_game_vs_berlin_G1A_Stardust_00232811_L.png;1562324485707;tkalbitz;NoBall
RC2019_4th_game_vs_berlin_G1A_Stardust_00238632_L.png;1562324486114;tkalbitz;NoBall
RC2019_4th_game_vs_berlin_G1A_Stardust_00244474_L.png;1562324486483;tkalbitz;NoBall
RC2019_4th_game_vs_berlin_G1A_Stardust_00250293_L.png;1562324486856;tkalbitz;NoBall
RC2019_4th_game_vs_berlin_G1A_Stardust_00256120_L.png;1562324487249;tkalbitz;NoBall
RC2019_4th_game_vs_berlin_G1A_Stardust_00297748_L.png;1562324498117;tkalbitz;NoBall
RC2019_4th_game_vs_berlin_G1A_Stardust_00303586_L.png;1562324498706;tkalbitz;NoBall
RC2019_4th_game_vs_berlin_G1A_Stardust_00314337_L.png;1562324499327;tkalbitz;NoBall
RC2019_4th_game_vs_berlin_G1A_Stardust_00316297_L.png;1562324500558;tkalbitz;NoBall
RC2019_4th_game_vs_berlin_G1A_Stardust_00351344_L.png;1562324518147;tkalbitz;NoBall
RC2019_4th_game_vs_berlin_G1A_Stardust_00354717_L.png;1562324519266;tkalbitz;NoBall
RC2019_4th_game_vs_berlin_G1A_Stardust_00360554_L.png;1562324519827;tkalbitz;NoBall
RC2019_4th_game_vs_berlin_G1A_Stardust_00366388_L.png;1562324520351;tkalbitz;NoBall
RC2019_4th_game_vs_berlin_G1A_Stardust_00372222_L.png;1562324520751;tkalbitz;NoBall
RC2019_4th_game_vs_berlin_G1A_Stardust_00386230_L.png;1562324521221;tkalbitz;NoBall
RC2019_4th_game_vs_berlin_G1B_DeepImpact_00064521_L.png;1562324521607;tkalbitz;NoBall
RC2019_4th_game_vs_berlin_G1B_DeepImpact_00070354_L.png;1562324521980;tkalbitz;NoBall
RC2019_4th_game_vs_berlin_G1B_DeepImpact_00076196_L.png;1562324522348;tkalbitz;NoBall
RC2019_4th_game_vs_berlin_G1B_DeepImpact_00082021_L.png;1562324522730;tkalbitz;NoBall
RC2019_4th_game_vs_berlin_G1B_DeepImpact_00087858_L.png;1562324523074;tkalbitz;NoBall
RC2019_4th_game_vs_berlin_G1B_DeepImpact_00093690_L.png;1562324523380;tkalbitz;NoBall
RC2019_4th_game_vs_berlin_G1B_DeepImpact_00099527_L.png;1562324523695;tkalbitz;NoBall
RC2019_4th_game_vs_berlin_G1B_DeepImpact_00105324_L.png;1562324524026;tkalbitz;NoBall
RC2019_4th_game_vs_berlin_G1B_DeepImpact_00146141_L.png;1562324524301;tkalbitz;NoBall
RC2019_4th_game_vs_berlin_G1B_DeepImpact_00151983_L.png;1562324524817;tkalbitz;NoBall
RC2019_4th_game_vs_berlin_G1B_DeepImpact_00157813_L.png;1562324525100;tkalbitz;NoBall
RC2019_4th_game_vs_berlin_G1B_DeepImpact_00163648_L.png;1562324525487;tkalbitz;NoBall
RC2019_4th_game_vs_berlin_G1B_DeepImpact_00169468_L.png;1562324525761;tkalbitz;NoBall
RC2019_4th_game_vs_berlin_G1B_DeepImpact_00175290_L.png;1562324526010;tkalbitz;NoBall
RC2019_4th_game_vs_berlin_G1B_DeepImpact_00186914_L.png;1562324526241;tkalbitz;NoBall
RC2019_4th_game_vs_berlin_G1B_DeepImpact_00192747_L.png;1562324526518;tkalbitz;NoBall
RC2019_4th_game_vs_berlin_G1B_DeepImpact_00198575_L.png;1562324526821;tkalbitz;NoBall
RC2019_4th_game_vs_berlin_G1B_DeepImpact_00221871_L.png;1562324527165;tkalbitz;NoBall
RC2019_4th_game_vs_berlin_G1B_DeepImpact_00235638_L.png;1562324527794;tkalbitz;NoBall
RC2019_4th_game_vs_berlin_G1B_DeepImpact_00247298_L.png;1562324528146;tkalbitz;NoBall
RC2019_4th_game_vs_berlin_G1B_DeepImpact_00264771_L.png;1562324528684;tkalbitz;NoBall
RC2019_4th_game_vs_berlin_G1B_DeepImpact_00270606_L.png;1562324529015;tkalbitz;NoBall
RC2019_4th_game_vs_berlin_G1B_DeepImpact_00276448_L.png;1562324531740;tkalbitz;NoBall
RC2019_4th_game_vs_berlin_G1B_DeepImpact_00293902_L.png;1562324532394;tkalbitz;NoBall
RC2019_4th_game_vs_berlin_G1B_DeepImpact_00305542_L.png;1562324532901;tkalbitz;NoBall
RC2019_4th_game_vs_berlin_G1B_DeepImpact_00317204_L.png;1562324533379;tkalbitz;NoBall
RC2019_4th_game_vs_berlin_G1B_DeepImpact_00322935_L.png;1562324533874;tkalbitz;NoBall
RC2019_4th_game_vs_berlin_G1B_DeepImpact_00326837_L.png;1562324534307;tkalbitz;NoBall
RC2019_4th_game_vs_berlin_G1B_DeepImpact_00332682_L.png;1562324534713;tkalbitz;NoBall
RC2019_4th_game_vs_berlin_G1B_DeepImpact_00338515_L.png;1562324535074;tkalbitz;NoBall
RC2019_4th_game_vs_berlin_G1B_DeepImpact_00344346_L.png;1562324535426;tkalbitz;NoBall
RC2019_4th_game_vs_berlin_G1B_DeepImpact_00350180_L.png;1562324535839;tkalbitz;NoBall
RC2019_4th_game_vs_berlin_G1B_DeepImpact_00356017_L.png;1562324536291;tkalbitz;NoBall
RC2019_4th_game_vs_berlin_G1B_DeepImpact_00361864_L.png;1562324536706;tkalbitz;NoBall
RC2019_4th_game_vs_berlin_G1B_DeepImpact_00367695_L.png;1562324537076;tkalbitz;NoBall
RC2019_4th_game_vs_berlin_G1B_DeepImpact_00373518_L.png;1562324537477;tkalbitz;NoBall
RC2019_4th_game_vs_berlin_G1B_DeepImpact_00379342_L.png;1562324537811;tkalbitz;NoBall
RC2019_4th_game_vs_berlin_G1B_DeepImpact_00385184_L.png;1562324538151;tkalbitz;NoBall
RC2019_4th_game_vs_berlin_G1B_DeepImpact_00391015_L.png;1562324538700;tkalbitz;NoBall
RC2019_4th_game_vs_berlin_G1B_DeepImpact_00506931_L.png;1562324646981;tkalbitz;NoBall
RC2019_4th_game_vs_berlin_G1B_DeepImpact_00512755_L.png;1562324647454;tkalbitz;NoBall
RC2019_4th_game_vs_berlin_G1B_DeepImpact_00518581_L.png;1562324647820;tkalbitz;NoBall
RC2019_4th_game_vs_berlin_G1B_DeepImpact_00559371_L.png;1562324648236;tkalbitz;NoBall
RC2019_4th_game_vs_berlin_G1B_DeepImpact_00601438_L.png;1562324670919;tkalbitz;NoBall
RC2019_4th_game_vs_berlin_G1B_DeepImpact_00607272_L.png;1562324671444;tkalbitz;NoBall
RC2019_4th_game_vs_berlin_G1B_DeepImpact_00665538_L.png;1562324672232;tkalbitz;NoBall
RC2019_4th_game_vs_berlin_G1B_DeepImpact_00677196_L.png;1562324672767;tkalbitz;NoBall
RC2019_4th_game_vs_berlin_G1B_Pathfinder_00087513_L.png;1562324673365;tkalbitz;NoBall
RC2019_4th_game_vs_berlin_G1B_Pathfinder_00093347_L.png;1562324673850;tkalbitz;NoBall
RC2019_4th_game_vs_berlin_G1B_Pathfinder_00099170_L.png;1562324674330;tkalbitz;NoBall
RC2019_4th_game_vs_berlin_G1B_Pathfinder_00148801_L.png;1562324685881;tkalbitz;NoBall
RC2019_4th_game_vs_berlin_G1B_Pathfinder_00180747_L.png;1562324686701;tkalbitz;NoBall
RC2019_4th_game_vs_berlin_G1B_Pathfinder_00186575_L.png;1562324687246;tkalbitz;NoBall
RC2019_4th_game_vs_berlin_G1B_Pathfinder_00192405_L.png;1562324687677;tkalbitz;NoBall
RC2019_4th_game_vs_berlin_G1B_Pathfinder_00198243_L.png;1562324688224;tkalbitz;NoBall
RC2019_4th_game_vs_berlin_G1B_Pathfinder_00268777_L.png;1562324706593;tkalbitz;NoBall
RC2019_4th_game_vs_berlin_G1B_Pathfinder_00274616_L.png;1562324709242;tkalbitz;NoBall
RC2019_4th_game_vs_berlin_G1B_Pathfinder_00288950_L.png;1562324710244;tkalbitz;NoBall
RC2019_4th_game_vs_berlin_G1B_Pathfinder_00319642_L.png;1562324735181;tkalbitz;NoBall
RC2019_4th_game_vs_berlin_G1B_Pathfinder_00331309_L.png;1562324735768;tkalbitz;NoBall
RC2019_4th_game_vs_berlin_G1B_Pathfinder_00342970_L.png;1562324736462;tkalbitz;NoBall
RC2019_4th_game_vs_berlin_G1B_Pathfinder_00348780_L.png;1562324736952;tkalbitz;NoBall
RC2019_4th_game_vs_berlin_G1B_Pathfinder_00354591_L.png;1562324737391;tkalbitz;NoBall
RC2019_4th_game_vs_berlin_G1B_Pathfinder_00372994_L.png;1562324737984;tkalbitz;NoBall
RC2019_4th_game_vs_berlin_G1B_Pathfinder_00378826_L.png;1562324738461;tkalbitz;NoBall
RC2019_4th_game_vs_berlin_G1B_Pathfinder_00384642_L.png;1562324738894;tkalbitz;NoBall
RC2019_4th_game_vs_berlin_G1B_Pathfinder_00437106_L.png;1562324739462;tkalbitz;NoBall
RC2019_4th_game_vs_berlin_G1B_Pathfinder_00442907_L.png;1562324740072;tkalbitz;NoBall
RC2019_4th_game_vs_berlin_G1B_Pathfinder_00467576_L.png;1562324740634;tkalbitz;NoBall
RC2019_4th_game_vs_berlin_G1B_Pathfinder_00473400_L.png;1562324741665;tkalbitz;NoBall
RC2019_4th_game_vs_berlin_G1B_Pathfinder_00502549_L.png;1562324742176;tkalbitz;NoBall
RC2019_4th_game_vs_berlin_G1B_Pathfinder_00508366_L.png;1562324742669;tkalbitz;NoBall
RC2019_4th_game_vs_berlin_G1B_Pathfinder_00514180_L.png;1562324743243;tkalbitz;NoBall
RC2019_4th_game_vs_berlin_G1B_Pathfinder_00520015_L.png;1562324743756;tkalbitz;NoBall
RC2019_4th_game_vs_berlin_G1B_Pathfinder_00525846_L.png;1562324744327;tkalbitz;NoBall
RC2019_4th_game_vs_berlin_G1B_Pathfinder_00531680_L.png;1562324744877;tkalbitz;NoBall
RC2019_4th_game_vs_berlin_G1B_Pathfinder_00537512_L.png;1562324745354;tkalbitz;NoBall
RC2019_4th_game_vs_berlin_G1B_Pathfinder_00566609_L.png;1562324745823;tkalbitz;NoBall
RC2019_4th_game_vs_berlin_G1B_Pathfinder_00572404_L.png;1562324746308;tkalbitz;NoBall
RC2019_4th_game_vs_berlin_G1B_Pathfinder_00578233_L.png;1562324747445;tkalbitz;NoBall
RC2019_4th_game_vs_berlin_G1B_Pathfinder_00589902_L.png;1562324748142;tkalbitz;NoBall
RC2019_4th_game_vs_berlin_G1B_Pathfinder_00595732_L.png;1562324748607;tkalbitz;NoBall
RC2019_4th_game_vs_berlin_G1B_Pathfinder_00601561_L.png;1562324749100;tkalbitz;NoBall
RC2019_4th_game_vs_berlin_G1B_Pathfinder_00619036_L.png;1562324749621;tkalbitz;NoBall
RC2019_4th_game_vs_berlin_G1B_Pathfinder_00640516_L.png;1562324757752;tkalbitz;NoBall
RC2019_4th_game_vs_berlin_G1B_Pathfinder_00650311_L.png;1562324758520;tkalbitz;NoBall
RC2019_4th_game_vs_berlin_G1B_Pathfinder_00661982_L.png;1562324759181;tkalbitz;NoBall
RC2019_4th_game_vs_berlin_G1B_Pathfinder_00675771_L.png;1562324759637;tkalbitz;NoBall
RC2019_4th_game_vs_berlin_G1B_Pathfinder_00681583_L.png;1562324760101;tkalbitz;NoBall
RC2019_4th_game_vs_berlin_G1B_Pathfinder_00693235_L.png;1562324760540;tkalbitz;NoBall
RC2019_4th_game_vs_berlin_G1B_Phoenix_00080191_L.png;1562324761060;tkalbitz;NoBall
RC2019_4th_game_vs_berlin_G1B_Phoenix_00085990_L.png;1562324761681;tkalbitz;NoBall
RC2019_4th_game_vs_berlin_G1B_Phoenix_00091812_L.png;1562324762088;tkalbitz;NoBall
RC2019_4th_game_vs_berlin_G1B_Phoenix_00097635_L.png;1562324762451;tkalbitz;NoBall
RC2019_4th_game_vs_berlin_G1B_Phoenix_00103455_L.png;1562324762827;tkalbitz;NoBall
RC2019_4th_game_vs_berlin_G1B_Phoenix_00120962_L.png;1562324763270;tkalbitz;NoBall
RC2019_4th_game_vs_berlin_G1B_Phoenix_00126798_L.png;1562324763795;tkalbitz;NoBall
RC2019_4th_game_vs_berlin_G1B_Phoenix_00132621_L.png;1562324764193;tkalbitz;NoBall
RC2019_4th_game_vs_berlin_G1B_Phoenix_00138443_L.png;1562324764594;tkalbitz;NoBall
RC2019_4th_game_vs_berlin_G1B_Phoenix_00144258_L.png;1562324764999;tkalbitz;NoBall
RC2019_4th_game_vs_berlin_G1B_Phoenix_00150096_L.png;1562324765380;tkalbitz;NoBall
RC2019_4th_game_vs_berlin_G1B_Phoenix_00155935_L.png;1562324766935;tkalbitz;NoBall
RC2019_4th_game_vs_berlin_G1B_Phoenix_00185075_L.png;1562324767586;tkalbitz;NoBall
RC2019_4th_game_vs_berlin_G1B_Phoenix_00190909_L.png;1562324768035;tkalbitz;NoBall
RC2019_4th_game_vs_berlin_G1B_Phoenix_00196741_L.png;1562324768464;tkalbitz;NoBall
RC2019_4th_game_vs_berlin_G1B_Phoenix_00266610_L.png;1562324769063;tkalbitz;NoBall
RC2019_4th_game_vs_berlin_G1B_Phoenix_00272443_L.png;1562324769514;tkalbitz;NoBall
RC2019_4th_game_vs_berlin_G1B_Phoenix_00289947_L.png;1562324770173;tkalbitz;NoBall
RC2019_4th_game_vs_berlin_G1B_Phoenix_00295779_L.png;1562324770626;tkalbitz;NoBall
RC2019_4th_game_vs_berlin_G1B_Phoenix_00301617_L.png;1562324771064;tkalbitz;NoBall
RC2019_4th_game_vs_berlin_G1B_Phoenix_00313294_L.png;1562324771449;tkalbitz;NoBall
RC2019_4th_game_vs_berlin_G1B_Phoenix_00319115_L.png;1562324771937;tkalbitz;NoBall
RC2019_4th_game_vs_berlin_G1B_Phoenix_00324921_L.png;1562324772340;tkalbitz;NoBall
RC2019_4th_game_vs_berlin_G1B_Phoenix_00330753_L.png;1562324772759;tkalbitz;NoBall
RC2019_4th_game_vs_berlin_G1B_Phoenix_00336557_L.png;1562324773172;tkalbitz;NoBall
RC2019_4th_game_vs_berlin_G1B_Phoenix_00342393_L.png;1562324773662;tkalbitz;NoBall
RC2019_4th_game_vs_berlin_G1B_Phoenix_00348229_L.png;1562324774094;tkalbitz;NoBall
RC2019_4th_game_vs_berlin_G1B_Phoenix_00359879_L.png;1562324774433;tkalbitz;NoBall
RC2019_4th_game_vs_berlin_G1B_Phoenix_00365711_L.png;1562324774832;tkalbitz;NoBall
RC2019_4th_game_vs_berlin_G1B_Phoenix_00377365_L.png;1562324775230;tkalbitz;NoBall
RC2019_4th_game_vs_berlin_G1B_Phoenix_00383184_L.png;1562324775635;tkalbitz;NoBall
RC2019_4th_game_vs_berlin_G1B_Phoenix_00453026_L.png;1562324776060;tkalbitz;NoBall
RC2019_4th_game_vs_berlin_G1B_Phoenix_00470516_L.png;1562324776457;tkalbitz;NoBall
RC2019_4th_game_vs_berlin_G1B_Phoenix_00499622_L.png;1562324776832;tkalbitz;NoBall
RC2019_4th_game_vs_berlin_G1B_Phoenix_00505450_L.png;1562324777209;tkalbitz;NoBall
RC2019_4th_game_vs_berlin_G1B_Phoenix_00511274_L.png;1562324777588;tkalbitz;NoBall
RC2019_4th_game_vs_berlin_G1B_Phoenix_00517112_L.png;1562324777954;tkalbitz;NoBall
RC2019_4th_game_vs_berlin_G1B_Phoenix_00522938_L.png;1562324778314;tkalbitz;NoBall
RC2019_4th_game_vs_berlin_G1B_Phoenix_00528752_L.png;1562324778631;tkalbitz;NoBall
RC2019_4th_game_vs_berlin_G1B_Phoenix_00534557_L.png;1562324778983;tkalbitz;NoBall
RC2019_4th_game_vs_berlin_G1B_Phoenix_00569504_L.png;1562324779369;tkalbitz;NoBall
RC2019_4th_game_vs_berlin_G1B_Phoenix_00586978_L.png;1562324779743;tkalbitz;NoBall
RC2019_4th_game_vs_berlin_G1B_Phoenix_00592781_L.png;1562324780107;tkalbitz;NoBall
RC2019_4th_game_vs_berlin_G1B_Phoenix_00598611_L.png;1562324780605;tkalbitz;NoBall
RC2019_4th_game_vs_berlin_G1B_Phoenix_00604441_L.png;1562324780928;tkalbitz;NoBall
RC2019_4th_game_vs_berlin_G1B_Phoenix_00609376_L.png;1562324783144;tkalbitz;NoBall
RC2019_4th_game_vs_berlin_G1B_Phoenix_00633402_L.png;1562324783596;tkalbitz;NoBall
RC2019_4th_game_vs_berlin_G1B_Phoenix_00683491_L.png;1562324784016;tkalbitz;NoBall
RC2019_4th_game_vs_berlin_G1B_Phoenix_00689329_L.png;1562324784493;tkalbitz;NoBall
RC2019_4th_game_vs_berlin_G1B_Phoenix_00695168_L.png;1562324784893;tkalbitz;NoBall
RC2019_4th_game_vs_berlin_G1B_Sputnik_00098632_L.png;1562324785275;tkalbitz;NoBall
RC2019_4th_game_vs_berlin_G1B_Sputnik_00104464_L.png;1562324785766;tkalbitz;NoBall
RC2019_4th_game_vs_berlin_G1B_Sputnik_00116133_L.png;1562324787930;tkalbitz;NoBall
RC2019_4th_game_vs_berlin_G1B_Sputnik_00139423_L.png;1562324788658;tkalbitz;NoBall
RC2019_4th_game_vs_berlin_G1B_Sputnik_00220556_L.png;1562324813865;tkalbitz;NoBall
RC2019_4th_game_vs_berlin_G1B_Sputnik_00226393_L.png;1562324814404;tkalbitz;NoBall
RC2019_4th_game_vs_berlin_G1B_Sputnik_00232230_L.png;1562324814869;tkalbitz;NoBall
RC2019_4th_game_vs_berlin_G1B_Sputnik_00238057_L.png;1562324815494;tkalbitz;NoBall
RC2019_4th_game_vs_berlin_G1B_Sputnik_00267205_L.png;1562324815972;tkalbitz;NoBall
RC2019_4th_game_vs_berlin_G1B_Sputnik_00278858_L.png;1562324816900;tkalbitz;NoBall
RC2019_4th_game_vs_berlin_G1B_Sputnik_00284680_L.png;1562324817416;tkalbitz;NoBall
RC2019_4th_game_vs_berlin_G1B_Sputnik_00307184_L.png;1562324821033;tkalbitz;NoBall
RC2019_4th_game_vs_berlin_G1B_Sputnik_00336471_L.png;1562324841172;tkalbitz;NoBall
RC2019_4th_game_vs_berlin_G1B_Sputnik_00351298_L.png;1562324846461;tkalbitz;NoBall
RC2019_4th_game_vs_berlin_G1B_Sputnik_00362954_L.png;1562324850095;tkalbitz;NoBall
RC2019_4th_game_vs_berlin_G1B_Sputnik_00368778_L.png;1562324850625;tkalbitz;NoBall
RC2019_4th_game_vs_berlin_G1B_Sputnik_00374600_L.png;1562324851125;tkalbitz;NoBall
RC2019_4th_game_vs_berlin_G1B_Sputnik_00380429_L.png;1562324851564;tkalbitz;NoBall
RC2019_4th_game_vs_berlin_G1B_Sputnik_00386269_L.png;1562324852017;tkalbitz;NoBall
RC2019_4th_game_vs_berlin_G1B_Sputnik_00483652_L.png;1562324852610;tkalbitz;NoBall
RC2019_4th_game_vs_berlin_G1B_Sputnik_00489459_L.png;1562324853186;tkalbitz;NoBall
RC2019_4th_game_vs_berlin_G1B_Sputnik_00495275_L.png;1562324853848;tkalbitz;NoBall
RC2019_4th_game_vs_berlin_G1B_Sputnik_00498327_L.png;1562324854339;tkalbitz;NoBall
RC2019_4th_game_vs_berlin_G1B_Sputnik_00505794_L.png;1562324854931;tkalbitz;NoBall
RC2019_4th_game_vs_berlin_G1B_Sputnik_00511619_L.png;1562324855417;tkalbitz;NoBall
RC2019_4th_game_vs_berlin_G1B_Sputnik_00517415_L.png;1562324855898;tkalbitz;NoBall
RC2019_4th_game_vs_berlin_G1B_Sputnik_00523250_L.png;1562324856386;tkalbitz;NoBall
RC2019_4th_game_vs_berlin_G1B_Sputnik_00529075_L.png;1562324856926;tkalbitz;NoBall
RC2019_4th_game_vs_berlin_G1B_Sputnik_00563997_L.png;1562324857467;tkalbitz;NoBall
RC2019_4th_game_vs_berlin_G1B_Sputnik_00575648_L.png;1562324858107;tkalbitz;NoBall
RC2019_4th_game_vs_berlin_G1B_Sputnik_00587271_L.png;1562324858594;tkalbitz;NoBall
RC2019_4th_game_vs_berlin_G1B_Sputnik_00598920_L.png;1562324859085;tkalbitz;NoBall
RC2019_4th_game_vs_berlin_G1B_Sputnik_00601750_L.png;1562324859616;tkalbitz;NoBall
RC2019_4th_game_vs_berlin_G1B_Sputnik_00607568_L.png;1562324860132;tkalbitz;NoBall
RC2019_4th_game_vs_berlin_G1B_Sputnik_00613405_L.png;1562324860599;tkalbitz;NoBall
RC2019_4th_game_vs_berlin_G1B_Sputnik_00619230_L.png;1562324861042;tkalbitz;NoBall
RC2019_4th_game_vs_berlin_G1B_Sputnik_00625056_L.png;1562324861459;tkalbitz;NoBall
RC2019_4th_game_vs_berlin_G1B_Sputnik_00654160_L.png;1562324861867;tkalbitz;NoBall
RC2019_4th_game_vs_berlin_G1A_Dawn_00316300_L.png;1652357106471;tkalbitz;NoCenterCirclePoints
RC2019_4th_game_vs_berlin_G1A_Dawn_00410028_L.png;1652354496197;tkalbitz;NoCenterCirclePoints
RC2019_4th_game_vs_berlin_G1A_Dawn_00485240_L.png;1652772528399;FalseGenerator;NoCenterCirclePoints
RC2019_4th_game_vs_berlin_G1A_DeepImpact_00173559_L.png;1652772528399;FalseGenerator;NoCenterCirclePoints
RC2019_4th_game_vs_berlin_G1A_DeepImpact_00180044_L.png;1652772528399;FalseGenerator;NoCenterCirclePoints
RC2019_4th_game_vs_berlin_G1A_DeepImpact_00198808_L.png;1652367636305;tkalbitz;NoCenterCirclePoints
RC2019_4th_game_vs_berlin_G1A_DeepImpact_00204640_L.png;1652355383013;tkalbitz;NoCenterCirclePoints
RC2019_4th_game_vs_berlin_G1A_DeepImpact_00347249_L.png;1652772528399;FalseGenerator;NoCenterCirclePoints
RC2019_4th_game_vs_berlin_G1A_DeepImpact_00415312_L.png;1652356410684;tkalbitz;NoCenterCirclePoints
RC2019_4th_game_vs_berlin_G1A_DeepImpact_00431520_L.png;1652371901914;tkalbitz;NoCenterCirclePoints
RC2019_4th_game_vs_berlin_G1A_DeepImpact_00462726_L.png;1652571343869;tkalbitz;NoCenterCirclePoints
RC2019_4th_game_vs_berlin_G1A_DeepImpact_00465982_L.png;1652772528399;FalseGenerator;NoCenterCirclePoints
RC2019_4th_game_vs_berlin_G1A_DeepImpact_00569494_L.png;1652571344740;tkalbitz;NoCenterCirclePoints
RC2019_4th_game_vs_berlin_G1A_DeepImpact_00696289_L.png;1652571345935;tkalbitz;NoCenterCirclePoints
RC2019_4th_game_vs_berlin_G1A_Pathfinder_00211235_L.png;1652772528399;FalseGenerator;NoCenterCirclePoints
RC2019_4th_game_vs_berlin_G1A_Phoenix_00387165_L.png;1652356411309;tkalbitz;NoCenterCirclePoints
RC2019_4th_game_vs_berlin_G1A_Phoenix_00422108_L.png;1652772528399;FalseGenerator;NoCenterCirclePoints
RC2019_4th_game_vs_berlin_G1A_Phoenix_00663281_L.png;1652356411911;tkalbitz;NoCenterCirclePoints
RC2019_4th_game_vs_berlin_G1A_Phoenix_00674928_L.png;1652356412472;tkalbitz;NoCenterCirclePoints
RC2019_4th_game_vs_berlin_G1A_Phoenix_00680756_L.png;1652356413005;tkalbitz;NoCenterCirclePoints
RC2019_4th_game_vs_berlin_G1A_Sputnik_00200669_L.png;1652367636980;tkalbitz;NoCenterCirclePoints
RC2019_4th_game_vs_berlin_G1A_Sputnik_00363038_L.png;1652808650549;tkalbitz;NoCenterCirclePoints
RC2019_4th_game_vs_berlin_G1A_Sputnik_00492991_L.png;1652735939906;tkalbitz;NoCenterCirclePoints
RC2019_4th_game_vs_berlin_G1A_Sputnik_00543910_L.png;1652356413493;tkalbitz;NoCenterCirclePoints
RC2019_4th_game_vs_berlin_G1A_Sputnik_00640691_L.png;1652353529043;tkalbitz;NoCenterCirclePoints
RC2019_4th_game_vs_berlin_G1A_Sputnik_00733903_L.png;1652808651241;tkalbitz;NoCenterCirclePoints
RC2019_4th_game_vs_berlin_G1A_Stardust_00168689_L.png;1652356414113;tkalbitz;NoCenterCirclePoints
RC2019_4th_game_vs_berlin_G1A_Stardust_00316297_L.png;1652356414752;tkalbitz;NoCenterCirclePoints
RC2019_4th_game_vs_berlin_G1A_Stardust_00320104_L.png;1652354509136;tkalbitz;NoCenterCirclePoints
RC2019_4th_game_vs_berlin_G1A_Stardust_00372222_L.png;1652311202011;tkalbitz;NoCenterCirclePoints
RC2019_4th_game_vs_berlin_G1B_DeepImpact_00470057_L.png;1652356418933;tkalbitz;NoCenterCirclePoints
RC2019_4th_game_vs_berlin_G1B_DeepImpact_00492869_L.png;1652355386624;tkalbitz;NoCenterCirclePoints
RC2019_4th_game_vs_berlin_G1B_DeepImpact_00495671_L.png;1652355387278;tkalbitz;NoCenterCirclePoints
RC2019_4th_game_vs_berlin_G1B_DeepImpact_00501118_L.png;1652352611611;tkalbitz;NoCenterCirclePoints
RC2019_4th_game_vs_berlin_G1B_DeepImpact_00506931_L.png;1652356419590;tkalbitz;NoCenterCirclePoints
RC2019_4th_game_vs_berlin_G1B_DeepImpact_00595638_L.png;1652356420258;tkalbitz;NoCenterCirclePoints
RC2019_4th_game_vs_berlin_G1B_Pathfinder_00119193_L.png;1652356420941;tkalbitz;NoCenterCirclePoints
RC2019_4th_game_vs_berlin_G1B_Pathfinder_00120924_L.png;1652352612429;tkalbitz;NoCenterCirclePoints
RC2019_4th_game_vs_berlin_G1B_Pathfinder_00229046_L.png;1652571356463;tkalbitz;NoCenterCirclePoints
RC2019_4th_game_vs_berlin_G1B_Pathfinder_00245899_L.png;1652571357485;tkalbitz;NoCenterCirclePoints
RC2019_4th_game_vs_berlin_G1B_Pathfinder_00310400_L.png;1652571358508;tkalbitz;NoCenterCirclePoints
RC2019_4th_game_vs_berlin_G1B_Pathfinder_00342970_L.png;1652571359357;tkalbitz;NoCenterCirclePoints
RC2019_4th_game_vs_berlin_G1B_Pathfinder_00372994_L.png;1652356421592;tkalbitz;NoCenterCirclePoints
RC2019_4th_game_vs_berlin_G1B_Pathfinder_00378826_L.png;1652356422379;tkalbitz;NoCenterCirclePoints
RC2019_4th_game_vs_berlin_G1B_Pathfinder_00520015_L.png;1652354515319;tkalbitz;NoCenterCirclePoints
RC2019_4th_game_vs_berlin_G1B_Phoenix_00080191_L.png;1652483378279;tkalbitz;NoCenterCirclePoints
RC2019_4th_game_vs_berlin_G1B_Phoenix_00103455_L.png;1652356423179;tkalbitz;NoCenterCirclePoints
RC2019_4th_game_vs_berlin_G1B_Phoenix_00132621_L.png;1652356423770;tkalbitz;NoCenterCirclePoints
RC2019_4th_game_vs_berlin_G1B_Phoenix_00138443_L.png;1652356424343;tkalbitz;NoCenterCirclePoints
RC2019_4th_game_vs_berlin_G1B_Phoenix_00185075_L.png;1652356424939;tkalbitz;NoCenterCirclePoints
RC2019_4th_game_vs_berlin_G1B_Phoenix_00359879_L.png;1652356425509;tkalbitz;NoCenterCirclePoints
RC2019_4th_game_vs_berlin_G1B_Phoenix_00377365_L.png;1652356426053;tkalbitz;NoCenterCirclePoints
RC2019_4th_game_vs_berlin_G1B_Phoenix_00453026_L.png;1652356426689;tkalbitz;NoCenterCirclePoints
RC2019_4th_game_vs_berlin_G1B_Phoenix_00609376_L.png;1652772528399;FalseGenerator;NoCenterCirclePoints
RC2019_4th_game_vs_berlin_G1B_Phoenix_00683491_L.png;1652772528399;FalseGenerator;NoCenterCirclePoints
RC2019_4th_game_vs_berlin_G1B_Sputnik_00104464_L.png;1652483379662;tkalbitz;NoCenterCirclePoints
RC2019_4th_game_vs_berlin_G1B_Sputnik_00344915_L.png;1652356428026;tkalbitz;NoCenterCirclePoints
RC2019_4th_game_vs_berlin_G1B_Sputnik_00362954_L.png;1652353539038;tkalbitz;NoCenterCirclePoints
RC2019_4th_game_vs_berlin_G1B_Sputnik_00498327_L.png;1652367637659;tkalbitz;NoCenterCirclePoints
RC2019_4th_game_vs_berlin_G1B_Sputnik_00598920_L.png;1652356429051;tkalbitz;NoCenterCirclePoints
RC2019_4th_game_vs_berlin_G1B_Sputnik_00601750_L.png;1652772528399;FalseGenerator;NoCenterCirclePoints
RC2019_4th_game_vs_berlin_G1B_Sputnik_00613405_L.png;1652772528399;FalseGenerator;NoCenterCirclePoints
RC2019_4th_game_vs_berlin_G1A_Dawn_00104439_L.png;1587497520002;tkalbitz;NoPenaltySpot
RC2019_4th_game_vs_berlin_G1A_Dawn_00110275_L.png;1587497520429;tkalbitz;NoPenaltySpot
RC2019_4th_game_vs_berlin_G1A_Dawn_00116114_L.png;1587497520630;tkalbitz;NoPenaltySpot
RC2019_4th_game_vs_berlin_G1A_Dawn_00121941_L.png;1587497520872;tkalbitz;NoPenaltySpot
RC2019_4th_game_vs_berlin_G1A_Dawn_00127762_L.png;1587497521066;tkalbitz;NoPenaltySpot
RC2019_4th_game_vs_berlin_G1A_Dawn_00133593_L.png;1587497521286;tkalbitz;NoPenaltySpot
RC2019_4th_game_vs_berlin_G1A_Dawn_00139415_L.png;1587497521472;tkalbitz;NoPenaltySpot
RC2019_4th_game_vs_berlin_G1A_Dawn_00199311_L.png;1587497521662;tkalbitz;NoPenaltySpot
RC2019_4th_game_vs_berlin_G1A_Dawn_00205125_L.png;1587497521904;tkalbitz;NoPenaltySpot
RC2019_4th_game_vs_berlin_G1A_Dawn_00212961_L.png;1587497522319;tkalbitz;NoPenaltySpot
RC2019_4th_game_vs_berlin_G1A_Dawn_00218797_L.png;1587497522540;tkalbitz;NoPenaltySpot
RC2019_4th_game_vs_berlin_G1A_Dawn_00224624_L.png;1587497522762;tkalbitz;NoPenaltySpot
RC2019_4th_game_vs_berlin_G1A_Dawn_00230456_L.png;1587497522962;tkalbitz;NoPenaltySpot
RC2019_4th_game_vs_berlin_G1A_Dawn_00236269_L.png;1587497523164;tkalbitz;NoPenaltySpot
RC2019_4th_game_vs_berlin_G1A_Dawn_00242094_L.png;1587497523405;tkalbitz;NoPenaltySpot
RC2019_4th_game_vs_berlin_G1A_Dawn_00247930_L.png;1587497523628;tkalbitz;NoPenaltySpot
RC2019_4th_game_vs_berlin_G1A_Dawn_00271250_L.png;1587497524919;tkalbitz;NoPenaltySpot
RC2019_4th_game_vs_berlin_G1A_Dawn_00277089_L.png;1587497525085;tkalbitz;NoPenaltySpot
RC2019_4th_game_vs_berlin_G1A_Dawn_00282913_L.png;1587497525316;tkalbitz;NoPenaltySpot
RC2019_4th_game_vs_berlin_G1A_Dawn_00300376_L.png;1587497525498;tkalbitz;NoPenaltySpot
RC2019_4th_game_vs_berlin_G1A_Dawn_00312028_L.png;1587497525719;tkalbitz;NoPenaltySpot
RC2019_4th_game_vs_berlin_G1A_Dawn_00316300_L.png;1587406824770;tkalbitz;NoPenaltySpot
RC2019_4th_game_vs_berlin_G1A_Dawn_00346242_L.png;1587497525954;tkalbitz;NoPenaltySpot
RC2019_4th_game_vs_berlin_G1A_Dawn_00349402_L.png;1587497526155;tkalbitz;NoPenaltySpot
RC2019_4th_game_vs_berlin_G1A_Dawn_00359493_L.png;1587497526374;tkalbitz;NoPenaltySpot
RC2019_4th_game_vs_berlin_G1A_Dawn_00361907_L.png;1587497526595;tkalbitz;NoPenaltySpot
RC2019_4th_game_vs_berlin_G1A_Dawn_00367729_L.png;1587497526796;tkalbitz;NoPenaltySpot
RC2019_4th_game_vs_berlin_G1A_Dawn_00378110_L.png;1587406825172;tkalbitz;NoPenaltySpot
RC2019_4th_game_vs_berlin_G1A_Dawn_00383838_L.png;1587406825530;tkalbitz;NoPenaltySpot
RC2019_4th_game_vs_berlin_G1A_Dawn_00393308_L.png;1587497527017;tkalbitz;NoPenaltySpot
RC2019_4th_game_vs_berlin_G1A_Dawn_00410028_L.png;1587406825854;tkalbitz;NoPenaltySpot
RC2019_4th_game_vs_berlin_G1A_Dawn_00418653_L.png;1587406826180;tkalbitz;NoPenaltySpot
RC2019_4th_game_vs_berlin_G1A_Dawn_00424458_L.png;1587497527219;tkalbitz;NoPenaltySpot
RC2019_4th_game_vs_berlin_G1A_Dawn_00430293_L.png;1587497527440;tkalbitz;NoPenaltySpot
RC2019_4th_game_vs_berlin_G1A_Dawn_00436133_L.png;1587497527641;tkalbitz;NoPenaltySpot
RC2019_4th_game_vs_berlin_G1A_Dawn_00441970_L.png;1587497527840;tkalbitz;NoPenaltySpot
RC2019_4th_game_vs_berlin_G1A_Dawn_00456074_L.png;1587497528054;tkalbitz;NoPenaltySpot
RC2019_4th_game_vs_berlin_G1A_Dawn_00473568_L.png;1587497528281;tkalbitz;NoPenaltySpot
RC2019_4th_game_vs_berlin_G1A_Dawn_00479403_L.png;1587497528515;tkalbitz;NoPenaltySpot
RC2019_4th_game_vs_berlin_G1A_Dawn_00495676_L.png;1587497528979;tkalbitz;NoPenaltySpot
RC2019_4th_game_vs_berlin_G1A_Dawn_00501512_L.png;1587497535814;tkalbitz;NoPenaltySpot
RC2019_4th_game_vs_berlin_G1A_Dawn_00507322_L.png;1587497536026;tkalbitz;NoPenaltySpot
RC2019_4th_game_vs_berlin_G1A_Dawn_00513151_L.png;1587497536244;tkalbitz;NoPenaltySpot
RC2019_4th_game_vs_berlin_G1A_Dawn_00536443_L.png;1587497536425;tkalbitz;NoPenaltySpot
RC2019_4th_game_vs_berlin_G1A_Dawn_00542263_L.png;1587497536627;tkalbitz;NoPenaltySpot
RC2019_4th_game_vs_berlin_G1A_Dawn_00562026_L.png;1587497536835;tkalbitz;NoPenaltySpot
RC2019_4th_game_vs_berlin_G1A_Dawn_00564055_L.png;1587497537037;tkalbitz;NoPenaltySpot
RC2019_4th_game_vs_berlin_G1A_Dawn_00569882_L.png;1587497537377;tkalbitz;NoPenaltySpot
RC2019_4th_game_vs_berlin_G1A_Dawn_00575713_L.png;1587497537579;tkalbitz;NoPenaltySpot
RC2019_4th_game_vs_berlin_G1A_Dawn_00581551_L.png;1587497537781;tkalbitz;NoPenaltySpot
RC2019_4th_game_vs_berlin_G1A_DeepImpact_00104475_L.png;1587497538023;tkalbitz;NoPenaltySpot
RC2019_4th_game_vs_berlin_G1A_DeepImpact_00162774_L.png;1587497538223;tkalbitz;NoPenaltySpot
RC2019_4th_game_vs_berlin_G1A_DeepImpact_00196199_L.png;1587497545312;tkalbitz;NoPenaltySpot
RC2019_4th_game_vs_berlin_G1A_DeepImpact_00204640_L.png;1587497548490;tkalbitz;NoPenaltySpot
RC2019_4th_game_vs_berlin_G1A_DeepImpact_00210471_L.png;1587497548936;tkalbitz;NoPenaltySpot
RC2019_4th_game_vs_berlin_G1A_DeepImpact_00216297_L.png;1587497549378;tkalbitz;NoPenaltySpot
RC2019_4th_game_vs_berlin_G1A_DeepImpact_00222127_L.png;1587497549591;tkalbitz;NoPenaltySpot
RC2019_4th_game_vs_berlin_G1A_DeepImpact_00227945_L.png;1587497549879;tkalbitz;NoPenaltySpot
RC2019_4th_game_vs_berlin_G1A_DeepImpact_00233784_L.png;1587497550072;tkalbitz;NoPenaltySpot
RC2019_4th_game_vs_berlin_G1A_DeepImpact_00239627_L.png;1587497550485;tkalbitz;NoPenaltySpot
RC2019_4th_game_vs_berlin_G1A_DeepImpact_00245450_L.png;1587497550727;tkalbitz;NoPenaltySpot
RC2019_4th_game_vs_berlin_G1A_DeepImpact_00344510_L.png;1587497551150;tkalbitz;NoPenaltySpot
RC2019_4th_game_vs_berlin_G1A_DeepImpact_00353132_L.png;1587497555925;tkalbitz;NoPenaltySpot
RC2019_4th_game_vs_berlin_G1A_DeepImpact_00361902_L.png;1587497556433;tkalbitz;NoPenaltySpot
RC2019_4th_game_vs_berlin_G1A_DeepImpact_00379383_L.png;1587497556655;tkalbitz;NoPenaltySpot
RC2019_4th_game_vs_berlin_G1A_DeepImpact_00396829_L.png;1587497557028;tkalbitz;NoPenaltySpot
RC2019_4th_game_vs_berlin_G1A_DeepImpact_00415312_L.png;1587406826522;tkalbitz;NoPenaltySpot
RC2019_4th_game_vs_berlin_G1A_DeepImpact_00431520_L.png;1587406826816;tkalbitz;NoPenaltySpot
RC2019_4th_game_vs_berlin_G1A_DeepImpact_00442227_L.png;1587406827180;tkalbitz;NoPenaltySpot
RC2019_4th_game_vs_berlin_G1A_DeepImpact_00448047_L.png;1587497557222;tkalbitz;NoPenaltySpot
RC2019_4th_game_vs_berlin_G1A_DeepImpact_00453889_L.png;1587497557617;tkalbitz;NoPenaltySpot
RC2019_4th_game_vs_berlin_G1A_DeepImpact_00459701_L.png;1587497557818;tkalbitz;NoPenaltySpot
RC2019_4th_game_vs_berlin_G1A_DeepImpact_00461511_L.png;1587406827530;tkalbitz;NoPenaltySpot
RC2019_4th_game_vs_berlin_G1A_DeepImpact_00462726_L.png;1587406828060;tkalbitz;NoPenaltySpot
RC2019_4th_game_vs_berlin_G1A_DeepImpact_00469108_L.png;1587497563216;tkalbitz;NoPenaltySpot
RC2019_4th_game_vs_berlin_G1A_DeepImpact_00489692_L.png;1587497563760;tkalbitz;NoPenaltySpot
RC2019_4th_game_vs_berlin_G1A_DeepImpact_00495525_L.png;1587497564010;tkalbitz;NoPenaltySpot
RC2019_4th_game_vs_berlin_G1A_DeepImpact_00521681_L.png;1587497564268;tkalbitz;NoPenaltySpot
RC2019_4th_game_vs_berlin_G1A_DeepImpact_00523066_L.png;1587406828394;tkalbitz;NoPenaltySpot
RC2019_4th_game_vs_berlin_G1A_DeepImpact_00529314_L.png;1587406828836;tkalbitz;NoPenaltySpot
RC2019_4th_game_vs_berlin_G1A_DeepImpact_00533460_L.png;1587406829208;tkalbitz;NoPenaltySpot
RC2019_4th_game_vs_berlin_G1A_DeepImpact_00541230_L.png;1587406829566;tkalbitz;NoPenaltySpot
RC2019_4th_game_vs_berlin_G1A_DeepImpact_00546645_L.png;1587406830114;tkalbitz;NoPenaltySpot
RC2019_4th_game_vs_berlin_G1A_DeepImpact_00550742_L.png;1587406830410;tkalbitz;NoPenaltySpot
RC2019_4th_game_vs_berlin_G1A_DeepImpact_00562421_L.png;1587497564612;tkalbitz;NoPenaltySpot
RC2019_4th_game_vs_berlin_G1A_DeepImpact_00567464_L.png;1587406830790;tkalbitz;NoPenaltySpot
RC2019_4th_game_vs_berlin_G1A_DeepImpact_00569494_L.png;1587406831062;tkalbitz;NoPenaltySpot
RC2019_4th_game_vs_berlin_G1A_DeepImpact_00574911_L.png;1587406831396;tkalbitz;NoPenaltySpot
RC2019_4th_game_vs_berlin_G1A_DeepImpact_00581330_L.png;1587497567138;tkalbitz;NoPenaltySpot
RC2019_4th_game_vs_berlin_G1A_DeepImpact_00593010_L.png;1587497567340;tkalbitz;NoPenaltySpot
RC2019_4th_game_vs_berlin_G1A_DeepImpact_00638035_L.png;1587497567738;tkalbitz;NoPenaltySpot
RC2019_4th_game_vs_berlin_G1A_DeepImpact_00661324_L.png;1587497568112;tkalbitz;NoPenaltySpot
RC2019_4th_game_vs_berlin_G1A_DeepImpact_00667157_L.png;1587497568362;tkalbitz;NoPenaltySpot
RC2019_4th_game_vs_berlin_G1A_DeepImpact_00678821_L.png;1587497568583;tkalbitz;NoPenaltySpot
RC2019_4th_game_vs_berlin_G1A_DeepImpact_00696289_L.png;1587497568826;tkalbitz;NoPenaltySpot
RC2019_4th_game_vs_berlin_G1A_DeepImpact_00718389_L.png;1587497569170;tkalbitz;NoPenaltySpot
RC2019_4th_game_vs_berlin_G1A_DeepImpact_00730068_L.png;1587497569391;tkalbitz;NoPenaltySpot
RC2019_4th_game_vs_berlin_G1A_Pathfinder_00066940_L.png;1587497569661;tkalbitz;NoPenaltySpot
RC2019_4th_game_vs_berlin_G1A_Pathfinder_00090229_L.png;1587497569881;tkalbitz;NoPenaltySpot
RC2019_4th_game_vs_berlin_G1A_Pathfinder_00096064_L.png;1587497570079;tkalbitz;NoPenaltySpot
RC2019_4th_game_vs_berlin_G1A_Pathfinder_00107731_L.png;1587497570301;tkalbitz;NoPenaltySpot
RC2019_4th_game_vs_berlin_G1A_Pathfinder_00125211_L.png;1587497570522;tkalbitz;NoPenaltySpot
RC2019_4th_game_vs_berlin_G1A_Pathfinder_00160206_L.png;1587497570743;tkalbitz;NoPenaltySpot
RC2019_4th_game_vs_berlin_G1A_Pathfinder_00166028_L.png;1587497570986;tkalbitz;NoPenaltySpot
RC2019_4th_game_vs_berlin_G1A_Pathfinder_00171866_L.png;1587497571187;tkalbitz;NoPenaltySpot
RC2019_4th_game_vs_berlin_G1A_Pathfinder_00177702_L.png;1587497571379;tkalbitz;NoPenaltySpot
RC2019_4th_game_vs_berlin_G1A_Pathfinder_00183543_L.png;1587497571589;tkalbitz;NoPenaltySpot
RC2019_4th_game_vs_berlin_G1A_Pathfinder_00217700_L.png;1587497576080;tkalbitz;NoPenaltySpot
RC2019_4th_game_vs_berlin_G1A_Pathfinder_00223522_L.png;1587497576436;tkalbitz;NoPenaltySpot
RC2019_4th_game_vs_berlin_G1A_Pathfinder_00229351_L.png;1587497576617;tkalbitz;NoPenaltySpot
RC2019_4th_game_vs_berlin_G1A_Pathfinder_00235183_L.png;1587497576839;tkalbitz;NoPenaltySpot
RC2019_4th_game_vs_berlin_G1A_Phoenix_00110379_L.png;1587497577228;tkalbitz;NoPenaltySpot
RC2019_4th_game_vs_berlin_G1A_Phoenix_00116219_L.png;1587497577445;tkalbitz;NoPenaltySpot
RC2019_4th_game_vs_berlin_G1A_Phoenix_00122055_L.png;1587497577687;tkalbitz;NoPenaltySpot
RC2019_4th_game_vs_berlin_G1A_Phoenix_00180357_L.png;1587497577909;tkalbitz;NoPenaltySpot
RC2019_4th_game_vs_berlin_G1A_Phoenix_00252872_L.png;1587497578129;tkalbitz;NoPenaltySpot
RC2019_4th_game_vs_berlin_G1A_Phoenix_00282032_L.png;1587497578347;tkalbitz;NoPenaltySpot
RC2019_4th_game_vs_berlin_G1A_Phoenix_00287861_L.png;1587497578590;tkalbitz;NoPenaltySpot
RC2019_4th_game_vs_berlin_G1A_Phoenix_00340537_L.png;1587497578815;tkalbitz;NoPenaltySpot
RC2019_4th_game_vs_berlin_G1A_Phoenix_00346379_L.png;1587497579035;tkalbitz;NoPenaltySpot
RC2019_4th_game_vs_berlin_G1A_Phoenix_00352210_L.png;1587497579258;tkalbitz;NoPenaltySpot
RC2019_4th_game_vs_berlin_G1A_Phoenix_00358044_L.png;1587497579499;tkalbitz;NoPenaltySpot
RC2019_4th_game_vs_berlin_G1A_Phoenix_00381334_L.png;1587497579701;tkalbitz;NoPenaltySpot
RC2019_4th_game_vs_berlin_G1A_Phoenix_00387165_L.png;1587497579944;tkalbitz;NoPenaltySpot
RC2019_4th_game_vs_berlin_G1A_Phoenix_00398825_L.png;1587497580185;tkalbitz;NoPenaltySpot
RC2019_4th_game_vs_berlin_G1A_Phoenix_00433762_L.png;1587497580652;tkalbitz;NoPenaltySpot
RC2019_4th_game_vs_berlin_G1A_Phoenix_00439596_L.png;1587497586351;tkalbitz;NoPenaltySpot
RC2019_4th_game_vs_berlin_G1A_Phoenix_00462946_L.png;1587497586848;tkalbitz;NoPenaltySpot
RC2019_4th_game_vs_berlin_G1A_Phoenix_00488515_L.png;1587497587411;tkalbitz;NoPenaltySpot
RC2019_4th_game_vs_berlin_G1A_Phoenix_00494351_L.png;1587497587660;tkalbitz;NoPenaltySpot
RC2019_4th_game_vs_berlin_G1A_Phoenix_00506007_L.png;1587497588073;tkalbitz;NoPenaltySpot
RC2019_4th_game_vs_berlin_G1A_Phoenix_00511835_L.png;1587497588364;tkalbitz;NoPenaltySpot
RC2019_4th_game_vs_berlin_G1A_Phoenix_00540947_L.png;1587497588645;tkalbitz;NoPenaltySpot
RC2019_4th_game_vs_berlin_G1A_Phoenix_00552607_L.png;1587497588855;tkalbitz;NoPenaltySpot
RC2019_4th_game_vs_berlin_G1A_Phoenix_00564282_L.png;1587497589143;tkalbitz;NoPenaltySpot
RC2019_4th_game_vs_berlin_G1A_Phoenix_00575924_L.png;1587497589413;tkalbitz;NoPenaltySpot
RC2019_4th_game_vs_berlin_G1A_Phoenix_00599243_L.png;1587497589645;tkalbitz;NoPenaltySpot
RC2019_4th_game_vs_berlin_G1A_Phoenix_00622521_L.png;1587497589885;tkalbitz;NoPenaltySpot
RC2019_4th_game_vs_berlin_G1A_Phoenix_00663281_L.png;1587497590106;tkalbitz;NoPenaltySpot
RC2019_4th_game_vs_berlin_G1A_Phoenix_00669085_L.png;1587497590496;tkalbitz;NoPenaltySpot
RC2019_4th_game_vs_berlin_G1A_Phoenix_00674928_L.png;1587497590711;tkalbitz;NoPenaltySpot
RC2019_4th_game_vs_berlin_G1A_Phoenix_00680756_L.png;1587497590932;tkalbitz;NoPenaltySpot
RC2019_4th_game_vs_berlin_G1A_Phoenix_00698255_L.png;1587497591172;tkalbitz;NoPenaltySpot
RC2019_4th_game_vs_berlin_G1A_Phoenix_00709879_L.png;1587497591395;tkalbitz;NoPenaltySpot
RC2019_4th_game_vs_berlin_G1A_Phoenix_00715709_L.png;1587497591612;tkalbitz;NoPenaltySpot
RC2019_4th_game_vs_berlin_G1A_Phoenix_00723259_L.png;1587497591874;tkalbitz;NoPenaltySpot
RC2019_4th_game_vs_berlin_G1A_Phoenix_00729100_L.png;1587497592105;tkalbitz;NoPenaltySpot
RC2019_4th_game_vs_berlin_G1A_Phoenix_00740769_L.png;1587497592378;tkalbitz;NoPenaltySpot
RC2019_4th_game_vs_berlin_G1A_Sputnik_00104510_L.png;1587497592580;tkalbitz;NoPenaltySpot
RC2019_4th_game_vs_berlin_G1A_Sputnik_00110340_L.png;1587497592803;tkalbitz;NoPenaltySpot
RC2019_4th_game_vs_berlin_G1A_Sputnik_00116076_L.png;1587497593022;tkalbitz;NoPenaltySpot
RC2019_4th_game_vs_berlin_G1A_Sputnik_00121888_L.png;1587497593325;tkalbitz;NoPenaltySpot
RC2019_4th_game_vs_berlin_G1A_Sputnik_00127724_L.png;1587497593667;tkalbitz;NoPenaltySpot
RC2019_4th_game_vs_berlin_G1A_Sputnik_00133558_L.png;1587497593908;tkalbitz;NoPenaltySpot
RC2019_4th_game_vs_berlin_G1A_Sputnik_00139399_L.png;1587497594573;tkalbitz;NoPenaltySpot
RC2019_4th_game_vs_berlin_G1A_Sputnik_00170658_L.png;1587497594808;tkalbitz;NoPenaltySpot
RC2019_4th_game_vs_berlin_G1A_Sputnik_00175052_L.png;1587406831846;tkalbitz;NoPenaltySpot
RC2019_4th_game_vs_berlin_G1A_Sputnik_00180890_L.png;1587406832224;tkalbitz;NoPenaltySpot
RC2019_4th_game_vs_berlin_G1A_Sputnik_00185313_L.png;1587406832590;tkalbitz;NoPenaltySpot
RC2019_4th_game_vs_berlin_G1A_Sputnik_00193585_L.png;1587406832924;tkalbitz;NoPenaltySpot
RC2019_4th_game_vs_berlin_G1A_Sputnik_00199410_L.png;1587497595028;tkalbitz;NoPenaltySpot
RC2019_4th_game_vs_berlin_G1A_Sputnik_00207879_L.png;1587497599683;tkalbitz;NoPenaltySpot
RC2019_4th_game_vs_berlin_G1A_Sputnik_00219552_L.png;1587497600120;tkalbitz;NoPenaltySpot
RC2019_4th_game_vs_berlin_G1A_Sputnik_00225381_L.png;1587497600342;tkalbitz;NoPenaltySpot
RC2019_4th_game_vs_berlin_G1A_Sputnik_00231218_L.png;1587497600832;tkalbitz;NoPenaltySpot
RC2019_4th_game_vs_berlin_G1A_Sputnik_00237044_L.png;1587497601075;tkalbitz;NoPenaltySpot
RC2019_4th_game_vs_berlin_G1A_Sputnik_00242885_L.png;1587497601407;tkalbitz;NoPenaltySpot
RC2019_4th_game_vs_berlin_G1A_Sputnik_00248718_L.png;1587497601624;tkalbitz;NoPenaltySpot
RC2019_4th_game_vs_berlin_G1A_Sputnik_00254509_L.png;1587497601886;tkalbitz;NoPenaltySpot
RC2019_4th_game_vs_berlin_G1A_Sputnik_00277838_L.png;1587497602117;tkalbitz;NoPenaltySpot
RC2019_4th_game_vs_berlin_G1A_Sputnik_00293852_L.png;1587497602350;tkalbitz;NoPenaltySpot
RC2019_4th_game_vs_berlin_G1A_Sputnik_00328187_L.png;1587497602592;tkalbitz;NoPenaltySpot
RC2019_4th_game_vs_berlin_G1A_Sputnik_00334017_L.png;1587497602815;tkalbitz;NoPenaltySpot
RC2019_4th_game_vs_berlin_G1A_Sputnik_00344031_L.png;1587406833260;tkalbitz;NoPenaltySpot
RC2019_4th_game_vs_berlin_G1A_Sputnik_00350439_L.png;1587406833542;tkalbitz;NoPenaltySpot
RC2019_4th_game_vs_berlin_G1A_Sputnik_00360849_L.png;1587406833784;tkalbitz;NoPenaltySpot
RC2019_4th_game_vs_berlin_G1A_Sputnik_00363038_L.png;1587406834114;tkalbitz;NoPenaltySpot
RC2019_4th_game_vs_berlin_G1A_Sputnik_00422705_L.png;1587497603042;tkalbitz;NoPenaltySpot
RC2019_4th_game_vs_berlin_G1A_Sputnik_00440214_L.png;1587497603304;tkalbitz;NoPenaltySpot
RC2019_4th_game_vs_berlin_G1A_Sputnik_00446043_L.png;1587497604254;tkalbitz;NoPenaltySpot
RC2019_4th_game_vs_berlin_G1A_Sputnik_00451867_L.png;1587497604820;tkalbitz;NoPenaltySpot
RC2019_4th_game_vs_berlin_G1A_Sputnik_00463537_L.png;1587497605504;tkalbitz;NoPenaltySpot
RC2019_4th_game_vs_berlin_G1A_Sputnik_00481000_L.png;1587497607105;tkalbitz;NoPenaltySpot
RC2019_4th_game_vs_berlin_G1A_Sputnik_00483478_L.png;1587406834376;tkalbitz;NoPenaltySpot
RC2019_4th_game_vs_berlin_G1A_Sputnik_00485843_L.png;1587406834638;tkalbitz;NoPenaltySpot
RC2019_4th_game_vs_berlin_G1A_Sputnik_00492991_L.png;1587406834906;tkalbitz;NoPenaltySpot
RC2019_4th_game_vs_berlin_G1A_Sputnik_00499308_L.png;1587406835217;tkalbitz;NoPenaltySpot
RC2019_4th_game_vs_berlin_G1A_Sputnik_00518807_L.png;1587497607325;tkalbitz;NoPenaltySpot
RC2019_4th_game_vs_berlin_G1A_Sputnik_00524652_L.png;1587497607504;tkalbitz;NoPenaltySpot
RC2019_4th_game_vs_berlin_G1A_Sputnik_00530479_L.png;1587497607969;tkalbitz;NoPenaltySpot
RC2019_4th_game_vs_berlin_G1A_Sputnik_00532245_L.png;1587497608181;tkalbitz;NoPenaltySpot
RC2019_4th_game_vs_berlin_G1A_Sputnik_00543910_L.png;1587497608462;tkalbitz;NoPenaltySpot
RC2019_4th_game_vs_berlin_G1A_Sputnik_00549756_L.png;1587497608711;tkalbitz;NoPenaltySpot
RC2019_4th_game_vs_berlin_G1A_Sputnik_00555581_L.png;1587497608950;tkalbitz;NoPenaltySpot
RC2019_4th_game_vs_berlin_G1A_Sputnik_00561412_L.png;1587497609192;tkalbitz;NoPenaltySpot
RC2019_4th_game_vs_berlin_G1A_Sputnik_00571118_L.png;1587497609390;tkalbitz;NoPenaltySpot
RC2019_4th_game_vs_berlin_G1A_Sputnik_00576949_L.png;1587497609592;tkalbitz;NoPenaltySpot
RC2019_4th_game_vs_berlin_G1A_Sputnik_00588600_L.png;1587497609812;tkalbitz;NoPenaltySpot
RC2019_4th_game_vs_berlin_G1A_Sputnik_00600232_L.png;1587497610014;tkalbitz;NoPenaltySpot
RC2019_4th_game_vs_berlin_G1A_Sputnik_00625303_L.png;1587497610191;tkalbitz;NoPenaltySpot
RC2019_4th_game_vs_berlin_G1A_Sputnik_00631137_L.png;1587497610384;tkalbitz;NoPenaltySpot
RC2019_4th_game_vs_berlin_G1A_Sputnik_00634876_L.png;1587497610598;tkalbitz;NoPenaltySpot
RC2019_4th_game_vs_berlin_G1A_Sputnik_00640691_L.png;1587497610819;tkalbitz;NoPenaltySpot
RC2019_4th_game_vs_berlin_G1A_Sputnik_00646509_L.png;1587497611021;tkalbitz;NoPenaltySpot
RC2019_4th_game_vs_berlin_G1A_Sputnik_00652305_L.png;1587497611182;tkalbitz;NoPenaltySpot
RC2019_4th_game_vs_berlin_G1A_Sputnik_00658142_L.png;1587497611380;tkalbitz;NoPenaltySpot
RC2019_4th_game_vs_berlin_G1A_Sputnik_00663963_L.png;1587497611621;tkalbitz;NoPenaltySpot
RC2019_4th_game_vs_berlin_G1A_Sputnik_00669790_L.png;1587497611818;tkalbitz;NoPenaltySpot
RC2019_4th_game_vs_berlin_G1A_Sputnik_00675618_L.png;1587497612015;tkalbitz;NoPenaltySpot
RC2019_4th_game_vs_berlin_G1A_Sputnik_00681464_L.png;1587497612214;tkalbitz;NoPenaltySpot
RC2019_4th_game_vs_berlin_G1A_Sputnik_00704754_L.png;1587497612410;tkalbitz;NoPenaltySpot
RC2019_4th_game_vs_berlin_G1A_Sputnik_00716402_L.png;1587497612599;tkalbitz;NoPenaltySpot
RC2019_4th_game_vs_berlin_G1A_Sputnik_00722237_L.png;1587497612797;tkalbitz;NoPenaltySpot
RC2019_4th_game_vs_berlin_G1A_Sputnik_00728069_L.png;1587497612994;tkalbitz;NoPenaltySpot
RC2019_4th_game_vs_berlin_G1A_Sputnik_00733903_L.png;1587497613187;tkalbitz;NoPenaltySpot
RC2019_4th_game_vs_berlin_G1A_Sputnik_00739738_L.png;1587497613389;tkalbitz;NoPenaltySpot
RC2019_4th_game_vs_berlin_G1A_Stardust_00162851_L.png;1587497613610;tkalbitz;NoPenaltySpot
RC2019_4th_game_vs_berlin_G1A_Stardust_00168689_L.png;1587497613808;tkalbitz;NoPenaltySpot
RC2019_4th_game_vs_berlin_G1A_Stardust_00174516_L.png;1587497614029;tkalbitz;NoPenaltySpot
RC2019_4th_game_vs_berlin_G1A_Stardust_00192008_L.png;1587497614231;tkalbitz;NoPenaltySpot
RC2019_4th_game_vs_berlin_G1A_Stardust_00197842_L.png;1587497614431;tkalbitz;NoPenaltySpot
RC2019_4th_game_vs_berlin_G1A_Stardust_00203683_L.png;1587497614633;tkalbitz;NoPenaltySpot
RC2019_4th_game_vs_berlin_G1A_Stardust_00209487_L.png;1587497614836;tkalbitz;NoPenaltySpot
RC2019_4th_game_vs_berlin_G1A_Stardust_00215315_L.png;1587497615037;tkalbitz;NoPenaltySpot
RC2019_4th_game_vs_berlin_G1A_Stardust_00221138_L.png;1587497615237;tkalbitz;NoPenaltySpot
RC2019_4th_game_vs_berlin_G1A_Stardust_00226977_L.png;1587497615439;tkalbitz;NoPenaltySpot
RC2019_4th_game_vs_berlin_G1A_Stardust_00232811_L.png;1587497615615;tkalbitz;NoPenaltySpot
RC2019_4th_game_vs_berlin_G1A_Stardust_00238632_L.png;1587497615815;tkalbitz;NoPenaltySpot
RC2019_4th_game_vs_berlin_G1A_Stardust_00244474_L.png;1587497616016;tkalbitz;NoPenaltySpot
RC2019_4th_game_vs_berlin_G1A_Stardust_00250293_L.png;1587497616219;tkalbitz;NoPenaltySpot
RC2019_4th_game_vs_berlin_G1A_Stardust_00256120_L.png;1587497616463;tkalbitz;NoPenaltySpot
RC2019_4th_game_vs_berlin_G1A_Stardust_00287565_L.png;1587406835500;tkalbitz;NoPenaltySpot
RC2019_4th_game_vs_berlin_G1A_Stardust_00291916_L.png;1587406835879;tkalbitz;NoPenaltySpot
RC2019_4th_game_vs_berlin_G1A_Stardust_00297748_L.png;1587497616663;tkalbitz;NoPenaltySpot
RC2019_4th_game_vs_berlin_G1A_Stardust_00303586_L.png;1587497616845;tkalbitz;NoPenaltySpot
RC2019_4th_game_vs_berlin_G1A_Stardust_00314337_L.png;1587497617045;tkalbitz;NoPenaltySpot
RC2019_4th_game_vs_berlin_G1A_Stardust_00316297_L.png;1587497617227;tkalbitz;NoPenaltySpot
RC2019_4th_game_vs_berlin_G1A_Stardust_00320104_L.png;1587406836211;tkalbitz;NoPenaltySpot
RC2019_4th_game_vs_berlin_G1A_Stardust_00339071_L.png;1587406836597;tkalbitz;NoPenaltySpot
RC2019_4th_game_vs_berlin_G1A_Stardust_00341847_L.png;1587406837132;tkalbitz;NoPenaltySpot
RC2019_4th_game_vs_berlin_G1A_Stardust_00345506_L.png;1587406837381;tkalbitz;NoPenaltySpot
RC2019_4th_game_vs_berlin_G1A_Stardust_00351344_L.png;1587497617431;tkalbitz;NoPenaltySpot
RC2019_4th_game_vs_berlin_G1A_Stardust_00354717_L.png;1587497617651;tkalbitz;NoPenaltySpot
RC2019_4th_game_vs_berlin_G1A_Stardust_00360554_L.png;1587497617848;tkalbitz;NoPenaltySpot
RC2019_4th_game_vs_berlin_G1A_Stardust_00366388_L.png;1587497618089;tkalbitz;NoPenaltySpot
RC2019_4th_game_vs_berlin_G1A_Stardust_00372222_L.png;1587497618263;tkalbitz;NoPenaltySpot
RC2019_4th_game_vs_berlin_G1A_Stardust_00386230_L.png;1587497618444;tkalbitz;NoPenaltySpot
RC2019_4th_game_vs_berlin_G1B_DeepImpact_00064521_L.png;1587497618941;tkalbitz;NoPenaltySpot
RC2019_4th_game_vs_berlin_G1B_DeepImpact_00070354_L.png;1587497619123;tkalbitz;NoPenaltySpot
RC2019_4th_game_vs_berlin_G1B_DeepImpact_00076196_L.png;1587497619305;tkalbitz;NoPenaltySpot
RC2019_4th_game_vs_berlin_G1B_DeepImpact_00082021_L.png;1587497619479;tkalbitz;NoPenaltySpot
RC2019_4th_game_vs_berlin_G1B_DeepImpact_00087858_L.png;1587497619679;tkalbitz;NoPenaltySpot
RC2019_4th_game_vs_berlin_G1B_DeepImpact_00093690_L.png;1587497619901;tkalbitz;NoPenaltySpot
RC2019_4th_game_vs_berlin_G1B_DeepImpact_00099527_L.png;1587497620083;tkalbitz;NoPenaltySpot
RC2019_4th_game_vs_berlin_G1B_DeepImpact_00105324_L.png;1587497620283;tkalbitz;NoPenaltySpot
RC2019_4th_game_vs_berlin_G1B_DeepImpact_00146141_L.png;1587497620461;tkalbitz;NoPenaltySpot
RC2019_4th_game_vs_berlin_G1B_DeepImpact_00151983_L.png;1587497620663;tkalbitz;NoPenaltySpot
RC2019_4th_game_vs_berlin_G1B_DeepImpact_00157813_L.png;1587497620863;tkalbitz;NoPenaltySpot
RC2019_4th_game_vs_berlin_G1B_DeepImpact_00163648_L.png;1587497621046;tkalbitz;NoPenaltySpot
RC2019_4th_game_vs_berlin_G1B_DeepImpact_00169468_L.png;1587497621247;tkalbitz;NoPenaltySpot
RC2019_4th_game_vs_berlin_G1B_DeepImpact_00175290_L.png;1587497621447;tkalbitz;NoPenaltySpot
RC2019_4th_game_vs_berlin_G1B_DeepImpact_00186914_L.png;1587497621649;tkalbitz;NoPenaltySpot
RC2019_4th_game_vs_berlin_G1B_DeepImpact_00192747_L.png;1587497621851;tkalbitz;NoPenaltySpot
RC2019_4th_game_vs_berlin_G1B_DeepImpact_00198575_L.png;1587497622048;tkalbitz;NoPenaltySpot
RC2019_4th_game_vs_berlin_G1B_DeepImpact_00221871_L.png;1587497622271;tkalbitz;NoPenaltySpot
RC2019_4th_game_vs_berlin_G1B_DeepImpact_00235638_L.png;1587497622471;tkalbitz;NoPenaltySpot
RC2019_4th_game_vs_berlin_G1B_DeepImpact_00247298_L.png;1587497622673;tkalbitz;NoPenaltySpot
RC2019_4th_game_vs_berlin_G1B_DeepImpact_00264771_L.png;1587497622873;tkalbitz;NoPenaltySpot
RC2019_4th_game_vs_berlin_G1B_DeepImpact_00270606_L.png;1587497623095;tkalbitz;NoPenaltySpot
RC2019_4th_game_vs_berlin_G1B_DeepImpact_00276448_L.png;1587497623317;tkalbitz;NoPenaltySpot
RC2019_4th_game_vs_berlin_G1B_DeepImpact_00293902_L.png;1587497623581;tkalbitz;NoPenaltySpot
RC2019_4th_game_vs_berlin_G1B_DeepImpact_00305542_L.png;1587497623875;tkalbitz;NoPenaltySpot
RC2019_4th_game_vs_berlin_G1B_DeepImpact_00317204_L.png;1587497624033;tkalbitz;NoPenaltySpot
RC2019_4th_game_vs_berlin_G1B_DeepImpact_00322935_L.png;1587497624236;tkalbitz;NoPenaltySpot
RC2019_4th_game_vs_berlin_G1B_DeepImpact_00326837_L.png;1587497624455;tkalbitz;NoPenaltySpot
RC2019_4th_game_vs_berlin_G1B_DeepImpact_00332682_L.png;1587497624673;tkalbitz;NoPenaltySpot
RC2019_4th_game_vs_berlin_G1B_DeepImpact_00338515_L.png;1587497624891;tkalbitz;NoPenaltySpot
RC2019_4th_game_vs_berlin_G1B_DeepImpact_00344346_L.png;1587497625113;tkalbitz;NoPenaltySpot
RC2019_4th_game_vs_berlin_G1B_DeepImpact_00350180_L.png;1587497625325;tkalbitz;NoPenaltySpot
RC2019_4th_game_vs_berlin_G1B_DeepImpact_00356017_L.png;1587497625544;tkalbitz;NoPenaltySpot
RC2019_4th_game_vs_berlin_G1B_DeepImpact_00361864_L.png;1587497625753;tkalbitz;NoPenaltySpot
RC2019_4th_game_vs_berlin_G1B_DeepImpact_00367695_L.png;1587497625965;tkalbitz;NoPenaltySpot
RC2019_4th_game_vs_berlin_G1B_DeepImpact_00373518_L.png;1587497626171;tkalbitz;NoPenaltySpot
RC2019_4th_game_vs_berlin_G1B_DeepImpact_00379342_L.png;1587497626393;tkalbitz;NoPenaltySpot
RC2019_4th_game_vs_berlin_G1B_DeepImpact_00385184_L.png;1587497626591;tkalbitz;NoPenaltySpot
RC2019_4th_game_vs_berlin_G1B_DeepImpact_00391015_L.png;1587497626804;tkalbitz;NoPenaltySpot
RC2019_4th_game_vs_berlin_G1B_DeepImpact_00439212_L.png;1587406837793;tkalbitz;NoPenaltySpot
RC2019_4th_game_vs_berlin_G1B_DeepImpact_00470057_L.png;1587406838054;tkalbitz;NoPenaltySpot
RC2019_4th_game_vs_berlin_G1B_DeepImpact_00474958_L.png;1587406838296;tkalbitz;NoPenaltySpot
RC2019_4th_game_vs_berlin_G1B_DeepImpact_00482161_L.png;1587406838577;tkalbitz;NoPenaltySpot
RC2019_4th_game_vs_berlin_G1B_DeepImpact_00488778_L.png;1587406838840;tkalbitz;NoPenaltySpot
RC2019_4th_game_vs_berlin_G1B_DeepImpact_00492869_L.png;1587406839149;tkalbitz;NoPenaltySpot
RC2019_4th_game_vs_berlin_G1B_DeepImpact_00495671_L.png;1587406839419;tkalbitz;NoPenaltySpot
RC2019_4th_game_vs_berlin_G1B_DeepImpact_00501118_L.png;1587406839637;tkalbitz;NoPenaltySpot
RC2019_4th_game_vs_berlin_G1B_DeepImpact_00506931_L.png;1587497627005;tkalbitz;NoPenaltySpot
RC2019_4th_game_vs_berlin_G1B_DeepImpact_00512755_L.png;1587497627211;tkalbitz;NoPenaltySpot
RC2019_4th_game_vs_berlin_G1B_DeepImpact_00518581_L.png;1587497627418;tkalbitz;NoPenaltySpot
RC2019_4th_game_vs_berlin_G1B_DeepImpact_00559371_L.png;1587497627629;tkalbitz;NoPenaltySpot
RC2019_4th_game_vs_berlin_G1B_DeepImpact_00564737_L.png;1587406839873;tkalbitz;NoPenaltySpot
RC2019_4th_game_vs_berlin_G1B_DeepImpact_00566699_L.png;1587406840135;tkalbitz;NoPenaltySpot
RC2019_4th_game_vs_berlin_G1B_DeepImpact_00584244_L.png;1587406840398;tkalbitz;NoPenaltySpot
RC2019_4th_game_vs_berlin_G1B_DeepImpact_00595638_L.png;1587406840661;tkalbitz;NoPenaltySpot
RC2019_4th_game_vs_berlin_G1B_DeepImpact_00601438_L.png;1587497627834;tkalbitz;NoPenaltySpot
RC2019_4th_game_vs_berlin_G1B_DeepImpact_00607272_L.png;1587497628046;tkalbitz;NoPenaltySpot
RC2019_4th_game_vs_berlin_G1B_DeepImpact_00665538_L.png;1587497628259;tkalbitz;NoPenaltySpot
RC2019_4th_game_vs_berlin_G1B_DeepImpact_00677196_L.png;1587497628499;tkalbitz;NoPenaltySpot
RC2019_4th_game_vs_berlin_G1B_Pathfinder_00087513_L.png;1587497628697;tkalbitz;NoPenaltySpot
RC2019_4th_game_vs_berlin_G1B_Pathfinder_00093347_L.png;1587497628914;tkalbitz;NoPenaltySpot
RC2019_4th_game_vs_berlin_G1B_Pathfinder_00099170_L.png;1587497629129;tkalbitz;NoPenaltySpot
RC2019_4th_game_vs_berlin_G1B_Pathfinder_00119193_L.png;1587406840901;tkalbitz;NoPenaltySpot
RC2019_4th_game_vs_berlin_G1B_Pathfinder_00120924_L.png;1587406841164;tkalbitz;NoPenaltySpot
RC2019_4th_game_vs_berlin_G1B_Pathfinder_00148801_L.png;1587497629338;tkalbitz;NoPenaltySpot
RC2019_4th_game_vs_berlin_G1B_Pathfinder_00180747_L.png;1587497629546;tkalbitz;NoPenaltySpot
RC2019_4th_game_vs_berlin_G1B_Pathfinder_00186575_L.png;1587497629761;tkalbitz;NoPenaltySpot
RC2019_4th_game_vs_berlin_G1B_Pathfinder_00192405_L.png;1587497629973;tkalbitz;NoPenaltySpot
RC2019_4th_game_vs_berlin_G1B_Pathfinder_00198243_L.png;1587497630183;tkalbitz;NoPenaltySpot
RC2019_4th_game_vs_berlin_G1B_Pathfinder_00229046_L.png;1587406841434;tkalbitz;NoPenaltySpot
RC2019_4th_game_vs_berlin_G1B_Pathfinder_00245899_L.png;1587406841665;tkalbitz;NoPenaltySpot
RC2019_4th_game_vs_berlin_G1B_Pathfinder_00248257_L.png;1587406841880;tkalbitz;NoPenaltySpot
RC2019_4th_game_vs_berlin_G1B_Pathfinder_00257121_L.png;1587406842121;tkalbitz;NoPenaltySpot
RC2019_4th_game_vs_berlin_G1B_Pathfinder_00268777_L.png;1587497630389;tkalbitz;NoPenaltySpot
RC2019_4th_game_vs_berlin_G1B_Pathfinder_00274616_L.png;1587497630587;tkalbitz;NoPenaltySpot
RC2019_4th_game_vs_berlin_G1B_Pathfinder_00288950_L.png;1587497630786;tkalbitz;NoPenaltySpot
RC2019_4th_game_vs_berlin_G1B_Pathfinder_00293324_L.png;1587406842375;tkalbitz;NoPenaltySpot
RC2019_4th_game_vs_berlin_G1B_Pathfinder_00296026_L.png;1587406842617;tkalbitz;NoPenaltySpot
RC2019_4th_game_vs_berlin_G1B_Pathfinder_00305818_L.png;1587406842871;tkalbitz;NoPenaltySpot
RC2019_4th_game_vs_berlin_G1B_Pathfinder_00310400_L.png;1587406843134;tkalbitz;NoPenaltySpot
RC2019_4th_game_vs_berlin_G1B_Pathfinder_00312865_L.png;1587406843367;tkalbitz;NoPenaltySpot
RC2019_4th_game_vs_berlin_G1B_Pathfinder_00319642_L.png;1587497631009;tkalbitz;NoPenaltySpot
RC2019_4th_game_vs_berlin_G1B_Pathfinder_00331309_L.png;1587497631203;tkalbitz;NoPenaltySpot
RC2019_4th_game_vs_berlin_G1B_Pathfinder_00342970_L.png;1587497631424;tkalbitz;NoPenaltySpot
RC2019_4th_game_vs_berlin_G1B_Pathfinder_00348780_L.png;1587497631624;tkalbitz;NoPenaltySpot
RC2019_4th_game_vs_berlin_G1B_Pathfinder_00354591_L.png;1587497631826;tkalbitz;NoPenaltySpot
RC2019_4th_game_vs_berlin_G1B_Pathfinder_00372994_L.png;1587497632020;tkalbitz;NoPenaltySpot
RC2019_4th_game_vs_berlin_G1B_Pathfinder_00378826_L.png;1587497632181;tkalbitz;NoPenaltySpot
RC2019_4th_game_vs_berlin_G1B_Pathfinder_00384642_L.png;1587497632380;tkalbitz;NoPenaltySpot
RC2019_4th_game_vs_berlin_G1B_Pathfinder_00437106_L.png;1587497632592;tkalbitz;NoPenaltySpot
RC2019_4th_game_vs_berlin_G1B_Pathfinder_00442907_L.png;1587497632796;tkalbitz;NoPenaltySpot
RC2019_4th_game_vs_berlin_G1B_Pathfinder_00467576_L.png;1587497632999;tkalbitz;NoPenaltySpot
RC2019_4th_game_vs_berlin_G1B_Pathfinder_00473400_L.png;1587497633200;tkalbitz;NoPenaltySpot
RC2019_4th_game_vs_berlin_G1B_Pathfinder_00502549_L.png;1587497633422;tkalbitz;NoPenaltySpot
RC2019_4th_game_vs_berlin_G1B_Pathfinder_00508366_L.png;1587497633635;tkalbitz;NoPenaltySpot
RC2019_4th_game_vs_berlin_G1B_Pathfinder_00514180_L.png;1587497633856;tkalbitz;NoPenaltySpot
RC2019_4th_game_vs_berlin_G1B_Pathfinder_00520015_L.png;1587497634119;tkalbitz;NoPenaltySpot
RC2019_4th_game_vs_berlin_G1B_Pathfinder_00525846_L.png;1587497634341;tkalbitz;NoPenaltySpot
RC2019_4th_game_vs_berlin_G1B_Pathfinder_00531680_L.png;1587497634540;tkalbitz;NoPenaltySpot
RC2019_4th_game_vs_berlin_G1B_Pathfinder_00537512_L.png;1587497634738;tkalbitz;NoPenaltySpot
RC2019_4th_game_vs_berlin_G1B_Pathfinder_00566609_L.png;1587497634957;tkalbitz;NoPenaltySpot
RC2019_4th_game_vs_berlin_G1B_Pathfinder_00572404_L.png;1587497635154;tkalbitz;NoPenaltySpot
RC2019_4th_game_vs_berlin_G1B_Pathfinder_00578233_L.png;1587497635374;tkalbitz;NoPenaltySpot
RC2019_4th_game_vs_berlin_G1B_Pathfinder_00589902_L.png;1587497635578;tkalbitz;NoPenaltySpot
RC2019_4th_game_vs_berlin_G1B_Pathfinder_00595732_L.png;1587497635774;tkalbitz;NoPenaltySpot
RC2019_4th_game_vs_berlin_G1B_Pathfinder_00601561_L.png;1587497635990;tkalbitz;NoPenaltySpot
RC2019_4th_game_vs_berlin_G1B_Pathfinder_00619036_L.png;1587497636188;tkalbitz;NoPenaltySpot
RC2019_4th_game_vs_berlin_G1B_Pathfinder_00628546_L.png;1587406843627;tkalbitz;NoPenaltySpot
RC2019_4th_game_vs_berlin_G1B_Pathfinder_00640516_L.png;1587497636400;tkalbitz;NoPenaltySpot
RC2019_4th_game_vs_berlin_G1B_Pathfinder_00650311_L.png;1587497636620;tkalbitz;NoPenaltySpot
RC2019_4th_game_vs_berlin_G1B_Pathfinder_00661982_L.png;1587497636805;tkalbitz;NoPenaltySpot
RC2019_4th_game_vs_berlin_G1B_Pathfinder_00675771_L.png;1587497637006;tkalbitz;NoPenaltySpot
RC2019_4th_game_vs_berlin_G1B_Pathfinder_00681583_L.png;1587497637220;tkalbitz;NoPenaltySpot
RC2019_4th_game_vs_berlin_G1B_Pathfinder_00693235_L.png;1587497637421;tkalbitz;NoPenaltySpot
RC2019_4th_game_vs_berlin_G1B_Phoenix_00080191_L.png;1587497637642;tkalbitz;NoPenaltySpot
RC2019_4th_game_vs_berlin_G1B_Phoenix_00085990_L.png;1587497637824;tkalbitz;NoPenaltySpot
RC2019_4th_game_vs_berlin_G1B_Phoenix_00091812_L.png;1587497639323;tkalbitz;NoPenaltySpot
RC2019_4th_game_vs_berlin_G1B_Phoenix_00097635_L.png;1587497639504;tkalbitz;NoPenaltySpot
RC2019_4th_game_vs_berlin_G1B_Phoenix_00103455_L.png;1587497639706;tkalbitz;NoPenaltySpot
RC2019_4th_game_vs_berlin_G1B_Phoenix_00120962_L.png;1587497639908;tkalbitz;NoPenaltySpot
RC2019_4th_game_vs_berlin_G1B_Phoenix_00126798_L.png;1587497640128;tkalbitz;NoPenaltySpot
RC2019_4th_game_vs_berlin_G1B_Phoenix_00132621_L.png;1587497640326;tkalbitz;NoPenaltySpot
RC2019_4th_game_vs_berlin_G1B_Phoenix_00138443_L.png;1587497640524;tkalbitz;NoPenaltySpot
RC2019_4th_game_vs_berlin_G1B_Phoenix_00144258_L.png;1587497640742;tkalbitz;NoPenaltySpot
RC2019_4th_game_vs_berlin_G1B_Phoenix_00150096_L.png;1587497640950;tkalbitz;NoPenaltySpot
RC2019_4th_game_vs_berlin_G1B_Phoenix_00155935_L.png;1587497641180;tkalbitz;NoPenaltySpot
RC2019_4th_game_vs_berlin_G1B_Phoenix_00185075_L.png;1587497641394;tkalbitz;NoPenaltySpot
RC2019_4th_game_vs_berlin_G1B_Phoenix_00190909_L.png;1587497641736;tkalbitz;NoPenaltySpot
RC2019_4th_game_vs_berlin_G1B_Phoenix_00196741_L.png;1587497641938;tkalbitz;NoPenaltySpot
RC2019_4th_game_vs_berlin_G1B_Phoenix_00266610_L.png;1587497642160;tkalbitz;NoPenaltySpot
RC2019_4th_game_vs_berlin_G1B_Phoenix_00272443_L.png;1587497642382;tkalbitz;NoPenaltySpot
RC2019_4th_game_vs_berlin_G1B_Phoenix_00289947_L.png;1587497642590;tkalbitz;NoPenaltySpot
RC2019_4th_game_vs_berlin_G1B_Phoenix_00295779_L.png;1587497642812;tkalbitz;NoPenaltySpot
RC2019_4th_game_vs_berlin_G1B_Phoenix_00301617_L.png;1587497643034;tkalbitz;NoPenaltySpot
RC2019_4th_game_vs_berlin_G1B_Phoenix_00313294_L.png;1587497643244;tkalbitz;NoPenaltySpot
RC2019_4th_game_vs_berlin_G1B_Phoenix_00319115_L.png;1587497643464;tkalbitz;NoPenaltySpot
RC2019_4th_game_vs_berlin_G1B_Phoenix_00324921_L.png;1587497643678;tkalbitz;NoPenaltySpot
RC2019_4th_game_vs_berlin_G1B_Phoenix_00330753_L.png;1587497643897;tkalbitz;NoPenaltySpot
RC2019_4th_game_vs_berlin_G1B_Phoenix_00336557_L.png;1587497644106;tkalbitz;NoPenaltySpot
RC2019_4th_game_vs_berlin_G1B_Phoenix_00342393_L.png;1587497644306;tkalbitz;NoPenaltySpot
RC2019_4th_game_vs_berlin_G1B_Phoenix_00348229_L.png;1587497644508;tkalbitz;NoPenaltySpot
RC2019_4th_game_vs_berlin_G1B_Phoenix_00359879_L.png;1587497644726;tkalbitz;NoPenaltySpot
RC2019_4th_game_vs_berlin_G1B_Phoenix_00365711_L.png;1587497644948;tkalbitz;NoPenaltySpot
RC2019_4th_game_vs_berlin_G1B_Phoenix_00377365_L.png;1587497645170;tkalbitz;NoPenaltySpot
RC2019_4th_game_vs_berlin_G1B_Phoenix_00383184_L.png;1587497645370;tkalbitz;NoPenaltySpot
RC2019_4th_game_vs_berlin_G1B_Phoenix_00453026_L.png;1587497645612;tkalbitz;NoPenaltySpot
RC2019_4th_game_vs_berlin_G1B_Phoenix_00470516_L.png;1587497645815;tkalbitz;NoPenaltySpot
RC2019_4th_game_vs_berlin_G1B_Phoenix_00499622_L.png;1587497646024;tkalbitz;NoPenaltySpot
RC2019_4th_game_vs_berlin_G1B_Phoenix_00505450_L.png;1587497646264;tkalbitz;NoPenaltySpot
RC2019_4th_game_vs_berlin_G1B_Phoenix_00511274_L.png;1587497646466;tkalbitz;NoPenaltySpot
RC2019_4th_game_vs_berlin_G1B_Phoenix_00517112_L.png;1587497646688;tkalbitz;NoPenaltySpot
RC2019_4th_game_vs_berlin_G1B_Phoenix_00522938_L.png;1587497646884;tkalbitz;NoPenaltySpot
RC2019_4th_game_vs_berlin_G1B_Phoenix_00528752_L.png;1587497647058;tkalbitz;NoPenaltySpot
RC2019_4th_game_vs_berlin_G1B_Phoenix_00534557_L.png;1587497647252;tkalbitz;NoPenaltySpot
RC2019_4th_game_vs_berlin_G1B_Phoenix_00569504_L.png;1587497647474;tkalbitz;NoPenaltySpot
RC2019_4th_game_vs_berlin_G1B_Phoenix_00586978_L.png;1587497647674;tkalbitz;NoPenaltySpot
RC2019_4th_game_vs_berlin_G1B_Phoenix_00592781_L.png;1587497647856;tkalbitz;NoPenaltySpot
RC2019_4th_game_vs_berlin_G1B_Phoenix_00598611_L.png;1587497648054;tkalbitz;NoPenaltySpot
RC2019_4th_game_vs_berlin_G1B_Phoenix_00604441_L.png;1587497648270;tkalbitz;NoPenaltySpot
RC2019_4th_game_vs_berlin_G1B_Phoenix_00633402_L.png;1587497649228;tkalbitz;NoPenaltySpot
RC2019_4th_game_vs_berlin_G1B_Phoenix_00689329_L.png;1587497660052;tkalbitz;NoPenaltySpot
RC2019_4th_game_vs_berlin_G1B_Phoenix_00695168_L.png;1587497660492;tkalbitz;NoPenaltySpot
RC2019_4th_game_vs_berlin_G1B_Sputnik_00098632_L.png;1587497660875;tkalbitz;NoPenaltySpot
RC2019_4th_game_vs_berlin_G1B_Sputnik_00104464_L.png;1587497661286;tkalbitz;NoPenaltySpot
RC2019_4th_game_vs_berlin_G1B_Sputnik_00116133_L.png;1587497661508;tkalbitz;NoPenaltySpot
RC2019_4th_game_vs_berlin_G1B_Sputnik_00139423_L.png;1587497661919;tkalbitz;NoPenaltySpot
RC2019_4th_game_vs_berlin_G1B_Sputnik_00145600_L.png;1587406843889;tkalbitz;NoPenaltySpot
RC2019_4th_game_vs_berlin_G1B_Sputnik_00147595_L.png;1587406844147;tkalbitz;NoPenaltySpot
RC2019_4th_game_vs_berlin_G1B_Sputnik_00149822_L.png;1587406844397;tkalbitz;NoPenaltySpot
RC2019_4th_game_vs_berlin_G1B_Sputnik_00220556_L.png;1587497662117;tkalbitz;NoPenaltySpot
RC2019_4th_game_vs_berlin_G1B_Sputnik_00226393_L.png;1587497662360;tkalbitz;NoPenaltySpot
RC2019_4th_game_vs_berlin_G1B_Sputnik_00232230_L.png;1587497662577;tkalbitz;NoPenaltySpot
RC2019_4th_game_vs_berlin_G1B_Sputnik_00238057_L.png;1587497662819;tkalbitz;NoPenaltySpot
RC2019_4th_game_vs_berlin_G1B_Sputnik_00267205_L.png;1587497663040;tkalbitz;NoPenaltySpot
RC2019_4th_game_vs_berlin_G1B_Sputnik_00278858_L.png;1587497663221;tkalbitz;NoPenaltySpot
RC2019_4th_game_vs_berlin_G1B_Sputnik_00284680_L.png;1587497663463;tkalbitz;NoPenaltySpot
RC2019_4th_game_vs_berlin_G1B_Sputnik_00289737_L.png;1587406844659;tkalbitz;NoPenaltySpot
RC2019_4th_game_vs_berlin_G1B_Sputnik_00307184_L.png;1587497663905;tkalbitz;NoPenaltySpot
RC2019_4th_game_vs_berlin_G1B_Sputnik_00323593_L.png;1587406844863;tkalbitz;NoPenaltySpot
RC2019_4th_game_vs_berlin_G1B_Sputnik_00326681_L.png;1587406845086;tkalbitz;NoPenaltySpot
RC2019_4th_game_vs_berlin_G1B_Sputnik_00330710_L.png;1587406845307;tkalbitz;NoPenaltySpot
RC2019_4th_game_vs_berlin_G1B_Sputnik_00333566_L.png;1587406845569;tkalbitz;NoPenaltySpot
RC2019_4th_game_vs_berlin_G1B_Sputnik_00336471_L.png;1587497664107;tkalbitz;NoPenaltySpot
RC2019_4th_game_vs_berlin_G1B_Sputnik_00344915_L.png;1587406845777;tkalbitz;NoPenaltySpot
RC2019_4th_game_vs_berlin_G1B_Sputnik_00351298_L.png;1587497664349;tkalbitz;NoPenaltySpot
RC2019_4th_game_vs_berlin_G1B_Sputnik_00362954_L.png;1587497664591;tkalbitz;NoPenaltySpot
RC2019_4th_game_vs_berlin_G1B_Sputnik_00368778_L.png;1587497664839;tkalbitz;NoPenaltySpot
RC2019_4th_game_vs_berlin_G1B_Sputnik_00374600_L.png;1587497665101;tkalbitz;NoPenaltySpot
RC2019_4th_game_vs_berlin_G1B_Sputnik_00380429_L.png;1587497665321;tkalbitz;NoPenaltySpot
RC2019_4th_game_vs_berlin_G1B_Sputnik_00386269_L.png;1587497665563;tkalbitz;NoPenaltySpot
RC2019_4th_game_vs_berlin_G1B_Sputnik_00483652_L.png;1587497665806;tkalbitz;NoPenaltySpot
RC2019_4th_game_vs_berlin_G1B_Sputnik_00489459_L.png;1587497666028;tkalbitz;NoPenaltySpot
RC2019_4th_game_vs_berlin_G1B_Sputnik_00495275_L.png;1587497666247;tkalbitz;NoPenaltySpot
RC2019_4th_game_vs_berlin_G1B_Sputnik_00505794_L.png;1587497670542;tkalbitz;NoPenaltySpot
RC2019_4th_game_vs_berlin_G1B_Sputnik_00511619_L.png;1587497670951;tkalbitz;NoPenaltySpot
RC2019_4th_game_vs_berlin_G1B_Sputnik_00517415_L.png;1587497671149;tkalbitz;NoPenaltySpot
RC2019_4th_game_vs_berlin_G1B_Sputnik_00523250_L.png;1587497671357;tkalbitz;NoPenaltySpot
RC2019_4th_game_vs_berlin_G1B_Sputnik_00529075_L.png;1587497671578;tkalbitz;NoPenaltySpot
RC2019_4th_game_vs_berlin_G1B_Sputnik_00563997_L.png;1587497672267;tkalbitz;NoPenaltySpot
RC2019_4th_game_vs_berlin_G1B_Sputnik_00575648_L.png;1587497672488;tkalbitz;NoPenaltySpot
RC2019_4th_game_vs_berlin_G1B_Sputnik_00587271_L.png;1587497672691;tkalbitz;NoPenaltySpot
RC2019_4th_game_vs_berlin_G1B_Sputnik_00598920_L.png;1587497672929;tkalbitz;NoPenaltySpot
RC2019_4th_game_vs_berlin_G1B_Sputnik_00607568_L.png;1587497673353;tkalbitz;NoPenaltySpot
RC2019_4th_game_vs_berlin_G1B_Sputnik_00619230_L.png;1587497680641;tkalbitz;NoPenaltySpot
RC2019_4th_game_vs_berlin_G1B_Sputnik_00625056_L.png;1587497681082;tkalbitz;NoPenaltySpot
RC2019_4th_game_vs_berlin_G1B_Sputnik_00654160_L.png;1587497681281;tkalbitz;NoPenaltySpot
RC2019_4th_game_vs_berlin_G1A_Dawn_00485240_L.png;1587497533647;tkalbitz;PenaltySpot;28;110;126;185;PenaltySpot
RC2019_4th_game_vs_berlin_G1A_DeepImpact_00173559_L.png;1587497542080;tkalbitz;PenaltySpot;460;221;628;376;PenaltySpot
RC2019_4th_game_vs_berlin_G1A_DeepImpact_00180044_L.png;1587497543929;tkalbitz;PenaltySpot;0;303;120;449;PenaltySpot
RC2019_4th_game_vs_berlin_G1A_DeepImpact_00198808_L.png;1587497546936;tkalbitz;PenaltySpot;176;329;300;443;PenaltySpot
RC2019_4th_game_vs_berlin_G1A_DeepImpact_00347249_L.png;1587497554414;tkalbitz;PenaltySpot;401;160;523;275;PenaltySpot
RC2019_4th_game_vs_berlin_G1A_DeepImpact_00465982_L.png;1587497561609;tkalbitz;PenaltySpot;208;241;357;391;PenaltySpot
RC2019_4th_game_vs_berlin_G1A_Pathfinder_00211235_L.png;1587497574713;tkalbitz;PenaltySpot;298;393;438;479;PenaltySpot
RC2019_4th_game_vs_berlin_G1A_Phoenix_00422108_L.png;1587497584194;tkalbitz;PenaltySpot;93;4;171;51;PenaltySpot
RC2019_4th_game_vs_berlin_G1A_Sputnik_00200669_L.png;1587497598292;tkalbitz;PenaltySpot;0;380;106;479;PenaltySpot
RC2019_4th_game_vs_berlin_G1B_Phoenix_00609376_L.png;1587497653679;tkalbitz;PenaltySpot;0;0;71;47;PenaltySpot
RC2019_4th_game_vs_berlin_G1B_Phoenix_00683491_L.png;1587497658475;tkalbitz;PenaltySpot;104;0;180;19;PenaltySpot
RC2019_4th_game_vs_berlin_G1B_Sputnik_00498327_L.png;1587497669154;tkalbitz;PenaltySpot;378;324;528;459;PenaltySpot
RC2019_4th_game_vs_berlin_G1B_Sputnik_00601750_L.png;1587497677019;tkalbitz;PenaltySpot;222;172;337;267;PenaltySpot
RC2019_4th_game_vs_berlin_G1B_Sputnik_00613405_L.png;1587497679370;tkalbitz;PenaltySpot;374;15;472;85;PenaltySpot
RC2019_4th_game_vs_berlin_G1A_Dawn_00387483_L.png;1562324234104;tkalbitz;SkipBall
RC2019_4th_game_vs_berlin_G1A_DeepImpact_00407961_L.png;1562324271851;tkalbitz;SkipBall
RC2019_4th_game_vs_berlin_G1A_DeepImpact_00524477_L.png;1562324316695;tkalbitz;SkipBall
RC2019_4th_game_vs_berlin_G1B_Pathfinder_00142979_L.png;1562324684530;tkalbitz;SkipBall
RC2019_4th_game_vs_berlin_G1B_Pathfinder_00291546_L.png;1562324714744;tkalbitz;SkipBall
RC2019_4th_game_vs_berlin_G1B_Sputnik_00318236_L.png;1562324824312;tkalbitz;SkipBall
RC2019_4th_game_vs_berlin_G1B_DeepImpact_00326837_L.png;1652356417275;tkalbitz;SkipCenterCirclePoints
RC2019_4th_game_vs_berlin_G1B_Sputnik_00278858_L.png;1652517928431;tkalbitz;SkipCenterCirclePoints
