RC2023-G6A_Dawn_5_PLAY_00363531_BallVanishedFromLastToThisImage_U.png;1718189427833;tkalbitz;CenterCirclePoints;198;70;198;70;Right
RC2023-G6A_Dawn_5_PLAY_00365311_BallVanishedFromLastToThisImage_U.png;1718189431711;tkalbitz;CenterCirclePoints;214;126;214;126;Right
RC2023-G6A_Dawn_5_PLAY_00373225_BallVanishedFromLastToThisImage_U.png;1718189434797;tkalbitz;CenterCirclePoints;326;94;326;94;Right
RC2023-G6A_Dawn_5_PLAY_00623543_BallVanishedFromLastToThisImage_U.png;1718195178860;tkalbitz;CenterCirclePoints;248;135;248;135;Right
RC2023-G6A_Dawn_5_PLAY_00625042_BallVanishedFromLastToThisImage_U.png;1718189437946;tkalbitz;CenterCirclePoints;108;158;108;158;Right
RC2023-G6A_Dawn_5_PLAY_00662701_BallVanishedFromLastToThisImage_U.png;1718189441548;tkalbitz;CenterCirclePoints;250;194;250;194;Left
RC2023-G6A_Dawn_5_PLAY_00664156_BallVanishedFromLastToThisImage_U.png;1718189443992;tkalbitz;CenterCirclePoints;368;242;368;242;Left
RC2023-G6A_Dawn_5_PLAY_00666022_BallVanishedFromLastToThisImage_U.png;1718189446524;tkalbitz;CenterCirclePoints;234;271;234;271;Left
RC2023-G6A_Dawn_5_PLAY_00668953_BallVanishedFromLastToThisImage_U.png;1718189449476;tkalbitz;CenterCirclePoints;153;429;153;429;Left
RC2023-G6A_Dawn_5_PLAY_00790249_BallVanishedFromLastToThisImage_U.png;1718193650981;tkalbitz;CenterCirclePoints;119;221;119;221;Left
RC2023-G6A_Dawn_5_PLAY_00799245_BallVanishedFromLastToThisImage_U.png;1718192046275;tkalbitz;CenterCirclePoints;375;227;375;227;Left
RC2023-G6A_Dawn_5_PLAY_00891444_BallVanishedFromLastToThisImage_U.png;1718189452104;tkalbitz;CenterCirclePoints;163;178;163;178;Right
RC2023-G6B_Dawn_5_PLAY_00282103_BallVanishedFromLastToThisImage_U.png;1718189456884;tkalbitz;CenterCirclePoints;71;200;71;200;Right
RC2023-G6B_Dawn_5_PLAY_00401759_BallVanishedFromLastToThisImage_U.png;1718189460606;tkalbitz;CenterCirclePoints;20;83;20;83;Left
RC2023-G6B_Dawn_5_PLAY_00568328_BallVanishedFromLastToThisImage_U.png;1718189466426;tkalbitz;CenterCirclePoints;468;261;468;261;Left
RC2023-G6A_Dawn_5_PLAY_00589005_BallVanishedFromLastToThisImage_U.png;1715629590961;tkalbitz;GoalPost;348;154;375;3;Left
RC2023-G6A_Dawn_5_PLAY_00922465_BallVanishedFromLastToThisImage_U.png;1715629597418;tkalbitz;GoalPost;174;264;150;3;Left
RC2023-G6B_Dawn_5_PLAY_00169640_BallVanishedFromLastToThisImage_U.png;1715678876267;tkalbitz;GoalPost;136;118;138;2;Right
RC2023-G6B_Dawn_5_PLAY_00171612_BallVanishedFromLastToThisImage_U.png;1715678880747;tkalbitz;GoalPost;336;51;326;0;Right
RC2023-G6B_Dawn_5_PLAY_00183845_BallVanishedFromLastToThisImage_U.png;1715629601126;tkalbitz;GoalPost;291;86;290;1;Right
RC2023-G6B_Dawn_5_PLAY_00349408_BallVanishedFromLastToThisImage_U.png;1715678886807;tkalbitz;GoalPost;114;79;93;1;Left
RC2023-G6B_Dawn_5_PLAY_00530041_BallVanishedFromLastToThisImage_U.png;1715629614295;tkalbitz;GoalPost;22;45;20;0;Right
RC2023-G6B_Dawn_5_PLAY_00549476_BallVanishedFromLastToThisImage_U.png;1715678891897;tkalbitz;GoalPost;599;58;604;1;Left
RC2023-G6B_Dawn_5_PLAY_00623640_BallVanishedFromLastToThisImage_U.png;1715629621023;tkalbitz;GoalPost;355;128;347;2;Right
RC2023-G6B_Dawn_5_PLAY_00627053_BallVanishedFromLastToThisImage_U.png;1715629624239;tkalbitz;GoalPost;409;128;416;2;Right
RC2023-G6B_Dawn_5_SET_00139592_BallVanishedFromLastToThisImage_U.png;1715678902773;tkalbitz;GoalPost;266;107;270;3;Right
RC2023-G6B_Dawn_5_SET_00161277_BallVanishedFromLastToThisImage_U.png;1715629629633;tkalbitz;GoalPost;495;146;498;1;Right
RC2023-G6A_Dawn_5_PLAY_00550180_BallVanishedFromLastToThisImage_U.png;1718193648705;tkalbitz;NoCenterCirclePoints
RC2023-G6A_Dawn_5_PLAY_00589005_BallVanishedFromLastToThisImage_U.png;1718192044312;tkalbitz;NoCenterCirclePoints
RC2023-G6A_Dawn_5_PLAY_00647530_BallVanishedFromLastToThisImage_U.png;1718189439692;tkalbitz;NoCenterCirclePoints
RC2023-G6A_Dawn_5_PLAY_00904229_BallVanishedFromLastToThisImage_U.png;1718189453964;tkalbitz;NoCenterCirclePoints
RC2023-G6B_Dawn_5_PLAY_00186093_BallVanishedFromLastToThisImage_U.png;1718193652525;tkalbitz;NoCenterCirclePoints
RC2023-G6B_Dawn_5_PLAY_00342834_BallVanishedFromLastToThisImage_U.png;1718192047676;tkalbitz;NoCenterCirclePoints
RC2023-G6B_Dawn_5_PLAY_00349408_BallVanishedFromLastToThisImage_U.png;1718197491026;tkalbitz;NoCenterCirclePoints
RC2023-G6B_Dawn_5_PLAY_00359613_BallVanishedFromLastToThisImage_U.png;1718197492178;tkalbitz;NoCenterCirclePoints
RC2023-G6B_Dawn_5_PLAY_00509543_BallVanishedFromLastToThisImage_U.png;1718189463745;tkalbitz;NoCenterCirclePoints
RC2023-G6B_Dawn_5_PLAY_00534942_BallVanishedFromLastToThisImage_U.png;1718189464799;tkalbitz;NoCenterCirclePoints
RC2023-G6B_Dawn_5_PLAY_00588796_BallVanishedFromLastToThisImage_U.png;1718192049048;tkalbitz;NoCenterCirclePoints
RC2023-G6B_Dawn_5_PLAY_00623640_BallVanishedFromLastToThisImage_U.png;1718189467813;tkalbitz;NoCenterCirclePoints
RC2023-G6B_Dawn_5_PLAY_00627053_BallVanishedFromLastToThisImage_U.png;1718189468587;tkalbitz;NoCenterCirclePoints
RC2023-G6A_Dawn_5_PLAY_00661222_BallVanishedFromLastToThisImage_U.png;1715678871240;tkalbitz;NoGoalPost
RC2023-G6B_Dawn_5_PLAY_00176284_BallVanishedFromLastToThisImage_U.png;1715678884149;tkalbitz;NoGoalPost
RC2023-G6B_Dawn_5_PLAY_00282103_BallVanishedFromLastToThisImage_U.png;1715629604608;tkalbitz;NoGoalPost
RC2023-G6B_Dawn_5_PLAY_00352110_BallVanishedFromLastToThisImage_U.png;1715629607334;tkalbitz;NoGoalPost
RC2023-G6B_Dawn_5_PLAY_00401759_BallVanishedFromLastToThisImage_U.png;1715629611233;tkalbitz;NoGoalPost
RC2023-G6B_Dawn_5_PLAY_00581700_BallVanishedFromLastToThisImage_U.png;1715678896896;tkalbitz;NoGoalPost
RC2023-G6B_Dawn_5_PLAY_00585833_BallVanishedFromLastToThisImage_U.png;1715629619515;tkalbitz;NoGoalPost
RC2023-G6B_Dawn_5_PLAY_00731893_BallVanishedFromLastToThisImage_U.png;1715678899100;tkalbitz;NoGoalPost
RC2023-G6B_Dawn_5_PLAY_00826178_BallVanishedFromLastToThisImage_U.png;1715629627073;tkalbitz;NoGoalPost
RC2023-G6B_Dawn_5_SET_00815655_BallVanishedFromLastToThisImage_U.png;1715678905424;tkalbitz;NoGoalPost
