GO2024-G4A_Atlas_3_PLAY_00271402_BallAppearedFromLastToThisImage_U.png;1718106076982;tkalbitz;CenterCirclePoints;82;179;82;179;Right
GO2024-G4A_Atlas_3_PLAY_00272855_BallAppearedFromLastToThisImage_U.png;1718106088483;tkalbitz;CenterCirclePoints;29;127;29;127;Left
GO2024-G4A_Atlas_3_PLAY_00272855_BallAppearedFromLastToThisImage_U.png;1718106093105;tkalbitz;CenterCirclePoints;312;110;312;110;Right
GO2024-G4A_Atlas_3_PLAY_00281761_BallAppearedFromLastToThisImage_U.png;1718106098027;tkalbitz;CenterCirclePoints;232;166;232;166;Right
GO2024-G4A_Atlas_3_PLAY_00384245_BallAppearedFromLastToThisImage_U.png;1718106102661;tkalbitz;CenterCirclePoints;199;199;199;199;Left
GO2024-G4A_Atlas_3_PLAY_00422157_BallAppearedFromLastToThisImage_U.png;1718106106243;tkalbitz;CenterCirclePoints;63;153;64;156;Right
GO2024-G4A_Atlas_3_PLAY_00428065_BallAppearedFromLastToThisImage_U.png;1718106110527;tkalbitz;CenterCirclePoints;137;166;137;166;Left
GO2024-G4A_Atlas_3_PLAY_00428065_BallAppearedFromLastToThisImage_U.png;1718106114962;tkalbitz;CenterCirclePoints;405;160;405;160;Right
GO2024-G4A_Atlas_3_PLAY_00554431_BallAppearedFromLastToThisImage_U.png;1718106118544;tkalbitz;CenterCirclePoints;177;202;177;202;Left
GO2024-G4A_Atlas_3_PLAY_00605781_BallAppearedFromLastToThisImage_U.png;1718106127256;tkalbitz;CenterCirclePoints;538;262;538;262;Left
GO2024-G4A_Atlas_3_PLAY_00626077_BallAppearedFromLastToThisImage_U.png;1718106130728;tkalbitz;CenterCirclePoints;315;158;315;158;Left
GO2024-G4A_Atlas_3_PLAY_00626077_BallAppearedFromLastToThisImage_U.png;1718106137839;tkalbitz;CenterCirclePoints;582;175;582;175;Right
GO2024-G4A_Atlas_3_PLAY_00642116_BallAppearedFromLastToThisImage_U.png;1718106140645;tkalbitz;CenterCirclePoints;31;226;31;226;Left
GO2024-G4A_Atlas_3_PLAY_00642116_BallAppearedFromLastToThisImage_U.png;1718106142255;tkalbitz;CenterCirclePoints;495;212;495;212;Right
GO2024-G4A_Atlas_3_PLAY_00812839_BallAppearedFromLastToThisImage_U.png;1718130037216;tkalbitz;CenterCirclePoints;225;129;225;129;Right
GO2024-G4A_Atlas_3_PLAY_00822236_BallAppearedFromLastToThisImage_U.png;1718106153367;tkalbitz;CenterCirclePoints;553;207;553;207;Left
GO2024-G4A_Atlas_3_PLAY_00836725_BallAppearedFromLastToThisImage_U.png;1718106158242;tkalbitz;CenterCirclePoints;527;91;527;91;Left
GO2024-G4A_Atlas_3_PLAY_00838189_BallAppearedFromLastToThisImage_U.png;1718106163858;tkalbitz;CenterCirclePoints;166;188;166;188;Left
GO2024-G4A_Atlas_3_SET_00361127_BallAppearedFromLastToThisImage_U.png;1718130040342;tkalbitz;CenterCirclePoints;202;202;202;202;Right
GO2024-G4A_Atlas_3_SET_00363512_BallAppearedFromLastToThisImage_U.png;1718106174258;tkalbitz;CenterCirclePoints;242;153;242;153;Right
GO2024-G4A_Atlas_3_SET_00365974_BallAppearedFromLastToThisImage_U.png;1718106177218;tkalbitz;CenterCirclePoints;247;152;247;152;Right
GO2024-G4A_Atlas_3_SET_00534905_BallAppearedFromLastToThisImage_U.png;1718106197167;tkalbitz;CenterCirclePoints;260;150;260;150;Left
GO2024-G4A_Atlas_3_SET_00539322_BallAppearedFromLastToThisImage_U.png;1718106198883;tkalbitz;CenterCirclePoints;260;150;260;150;Left
GO2024-G4A_Atlas_3_SET_00540785_BallAppearedFromLastToThisImage_U.png;1718106200101;tkalbitz;CenterCirclePoints;260;150;260;150;Left
GO2024-G4A_Atlas_3_SET_00545458_BallAppearedFromLastToThisImage_U.png;1718106201187;tkalbitz;CenterCirclePoints;260;150;260;150;Left
GO2024-G4B_Atlas_3_PLAY_00207586_BallAppearedFromLastToThisImage_U.png;1718106204743;tkalbitz;CenterCirclePoints;94;117;94;117;Left
GO2024-G4B_Atlas_3_PLAY_00232320_BallAppearedFromLastToThisImage_U.png;1718106208238;tkalbitz;CenterCirclePoints;224;131;224;131;Right
GO2024-G4B_Atlas_3_PLAY_00233923_BallAppearedFromLastToThisImage_U.png;1718106211514;tkalbitz;CenterCirclePoints;236;129;236;129;Right
GO2024-G4B_Atlas_3_PLAY_00457116_BallAppearedFromLastToThisImage_U.png;1718106215108;tkalbitz;CenterCirclePoints;231;194;231;194;Left
GO2024-G4B_Atlas_3_PLAY_00457116_BallAppearedFromLastToThisImage_U.png;1718106219794;tkalbitz;CenterCirclePoints;481;202;481;202;Right
GO2024-G4B_Atlas_3_PLAY_00589217_BallAppearedFromLastToThisImage_U.png;1718134176671;tkalbitz;CenterCirclePoints;494;199;494;199;Left
GO2024-G4B_Atlas_3_PLAY_00590688_BallAppearedFromLastToThisImage_U.png;1718106226620;tkalbitz;CenterCirclePoints;596;220;596;220;Left
GO2024-G4B_Atlas_3_PLAY_00595636_BallAppearedFromLastToThisImage_U.png;1718106229839;tkalbitz;CenterCirclePoints;564;333;565;333;Left
GO2024-G4B_Atlas_3_SET_00186951_BallAppearedFromLastToThisImage_U.png;1718106238203;tkalbitz;CenterCirclePoints;196;202;196;202;Right
GO2024-G4B_Atlas_3_SET_00202166_BallAppearedFromLastToThisImage_U.png;1718106243189;tkalbitz;CenterCirclePoints;239;158;239;158;Left
GO2024-G4B_Atlas_3_SET_00202166_BallAppearedFromLastToThisImage_U.png;1718106245795;tkalbitz;CenterCirclePoints;509;159;509;159;Right
GO2024-G4A_Atlas_3_PLAY_00384245_BallAppearedFromLastToThisImage_U.png;1715675651240;tkalbitz;GoalPost;264;143;261;73;Left
GO2024-G4A_Atlas_3_PLAY_00669989_BallAppearedFromLastToThisImage_U.png;1715633028172;tkalbitz;GoalPost;38;41;35;2;Left
GO2024-G4A_Atlas_3_PLAY_00683620_BallAppearedFromLastToThisImage_U.png;1715633032062;tkalbitz;GoalPost;396;219;399;1;Left
GO2024-G4A_Atlas_3_PLAY_00693937_BallAppearedFromLastToThisImage_U.png;1715469927873;tkalbitz;GoalPost;266;293;273;2;Left
GO2024-G4A_Atlas_3_PLAY_00693937_BallAppearedFromLastToThisImage_U.png;1715469931919;tkalbitz;GoalPost;637;25;271;-9;Middle
GO2024-G4A_Atlas_3_PLAY_00839904_BallAppearedFromLastToThisImage_U.png;1715469942382;tkalbitz;GoalPost;317;50;321;0;Right
GO2024-G4A_Atlas_3_SET_00252916_BallAppearedFromLastToThisImage_U.png;1715469946934;tkalbitz;GoalPost;40;138;34;62;Right
GO2024-G4A_Atlas_3_SET_00252916_BallAppearedFromLastToThisImage_U.png;1715469948826;tkalbitz;GoalPost;34;62;-1;62;Middle
GO2024-G4A_Atlas_3_SET_00539322_BallAppearedFromLastToThisImage_U.png;1715675658389;tkalbitz;GoalPost;317;97;317;23;Left
GO2024-G4B_Atlas_3_PLAY_00232320_BallAppearedFromLastToThisImage_U.png;1715469956518;tkalbitz;GoalPost;69;100;46;25;Right
GO2024-G4B_Atlas_3_PLAY_00232320_BallAppearedFromLastToThisImage_U.png;1715469958006;tkalbitz;GoalPost;46;25;-1;27;Middle
GO2024-G4B_Atlas_3_PLAY_00480620_BallAppearedFromLastToThisImage_U.png;1715469966067;tkalbitz;GoalPost;431;87;440;13;Right
GO2024-G4B_Atlas_3_PLAY_00480620_BallAppearedFromLastToThisImage_U.png;1715469968009;tkalbitz;GoalPost;440;13;306;13;Middle
GO2024-G4B_Atlas_3_PLAY_00704356_BallAppearedFromLastToThisImage_U.png;1715633046233;tkalbitz;GoalPost;106;153;95;2;Left
GO2024-G4B_Atlas_3_PLAY_00706016_BallAppearedFromLastToThisImage_U.png;1715675666769;tkalbitz;GoalPost;302;67;299;-1;Right
GO2024-G4B_Atlas_3_PLAY_00715971_BallAppearedFromLastToThisImage_U.png;1715633051351;tkalbitz;GoalPost;433;166;478;-1;Left
GO2024-G4A_Atlas_3_PLAY_00552461_BallAppearedFromLastToThisImage_U.png;1718132450171;tkalbitz;NoCenterCirclePoints
GO2024-G4A_Atlas_3_PLAY_00583420_BallAppearedFromLastToThisImage_U.png;1718191246834;tkalbitz;NoCenterCirclePoints
GO2024-G4A_Atlas_3_PLAY_00683620_BallAppearedFromLastToThisImage_U.png;1718106148480;tkalbitz;NoCenterCirclePoints
GO2024-G4A_Atlas_3_PLAY_00844602_BallAppearedFromLastToThisImage_U.png;1718106168396;tkalbitz;NoCenterCirclePoints
GO2024-G4B_Atlas_3_PLAY_00670279_BallAppearedFromLastToThisImage_U.png;1718138374703;tkalbitz;NoCenterCirclePoints
GO2024-G4B_Atlas_3_PLAY_00674698_BallAppearedFromLastToThisImage_U.png;1718132451948;tkalbitz;NoCenterCirclePoints
GO2024-G4B_Atlas_3_PLAY_00724409_BallAppearedFromLastToThisImage_U.png;1718106233711;tkalbitz;NoCenterCirclePoints
GO2024-G4A_Atlas_3_PLAY_00803804_BallAppearedFromLastToThisImage_U.png;1715469936662;tkalbitz;NoGoalPost
GO2024-G4A_Atlas_3_PLAY_00822236_BallAppearedFromLastToThisImage_U.png;1715469938420;tkalbitz;NoGoalPost
GO2024-G4A_Atlas_3_SET_00363512_BallAppearedFromLastToThisImage_U.png;1715469951696;tkalbitz;NoGoalPost
GO2024-G4A_Atlas_3_SET_00365974_BallAppearedFromLastToThisImage_U.png;1715469952964;tkalbitz;NoGoalPost
GO2024-G4B_Atlas_3_PLAY_00439805_BallAppearedFromLastToThisImage_U.png;1715469961913;tkalbitz;NoGoalPost
GO2024-G4B_Atlas_3_PLAY_00527817_BallAppearedFromLastToThisImage_U.png;1715675662089;tkalbitz;NoGoalPost
GO2024-G4B_Atlas_3_PLAY_00589217_BallAppearedFromLastToThisImage_U.png;1715675663851;tkalbitz;NoGoalPost
GO2024-G4B_Atlas_3_PLAY_00595636_BallAppearedFromLastToThisImage_U.png;1715469971379;tkalbitz;NoGoalPost
GO2024-G4B_Atlas_3_PLAY_00621103_BallAppearedFromLastToThisImage_U.png;1715469973685;tkalbitz;NoGoalPost
GO2024-G4B_Atlas_3_PLAY_00622580_BallAppearedFromLastToThisImage_U.png;1715469974801;tkalbitz;NoGoalPost
GO2024-G4B_Atlas_3_PLAY_00667822_BallAppearedFromLastToThisImage_U.png;1715469977185;tkalbitz;NoGoalPost
GO2024-G4B_Atlas_3_PLAY_00679089_BallAppearedFromLastToThisImage_U.png;1715469978341;tkalbitz;NoGoalPost
GO2024-G4B_Atlas_3_PLAY_00724409_BallAppearedFromLastToThisImage_U.png;1715469980476;tkalbitz;NoGoalPost
GO2024-G4B_Atlas_3_SET_00200655_BallAppearedFromLastToThisImage_U.png;1715469981674;tkalbitz;NoGoalPost
