GO2019_G1A_PenaltySpots_00000688_U.png;1556904498682;tkalbitz;Ignore
GO2019_G1A_PenaltySpots_00000819_U.png;1556904510415;tkalbitz;Ignore
GO2019_G1A_PenaltySpots_00000877_U.png;1556904511254;tkalbitz;Ignore
GO2019_G1A_PenaltySpots_00001199_U.png;1556904511760;tkalbitz;Ignore
GO2019_G1A_PenaltySpots_00001257_U.png;1556904512330;tkalbitz;Ignore
GO2019_G1A_PenaltySpots_00001325_U.png;1556904512995;tkalbitz;Ignore
GO2019_G1A_PenaltySpots_00001391_U.png;1556904514263;tkalbitz;Ignore
GO2019_G1A_PenaltySpots_00001453_U.png;1556904514810;tkalbitz;Ignore
GO2019_G1A_PenaltySpots_00001524_U.png;1556904515249;tkalbitz;Ignore
GO2019_G1A_PenaltySpots_00001575_U.png;1556904515661;tkalbitz;Ignore
GO2019_G1A_PenaltySpots_00002350_U.png;1556904530663;tkalbitz;Ignore
GO2019_G1A_PenaltySpots_00007412_U.png;1556904540505;tkalbitz;Ignore
GO2019_G1A_PenaltySpots_00008400_U.png;1556904544560;tkalbitz;Ignore
GO2019_G1A_PenaltySpots_00008474_U.png;1556904545125;tkalbitz;Ignore
GO2019_G1A_PenaltySpots_00008794_U.png;1556904545721;tkalbitz;Ignore
GO2019_G1A_PenaltySpots_00008919_U.png;1556904546345;tkalbitz;Ignore
GO2019_G1A_PenaltySpots_00016828_U.png;1556904547230;tkalbitz;Ignore
GO2019_G1A_PenaltySpots_00016887_U.png;1556904547799;tkalbitz;Ignore
GO2019_G1A_PenaltySpots_00016961_U.png;1556904548325;tkalbitz;Ignore
GO2019_G1A_PenaltySpots_00017018_U.png;1556904548801;tkalbitz;Ignore
GO2019_G1A_PenaltySpots_00017087_U.png;1556904549315;tkalbitz;Ignore
GO2019_G1A_PenaltySpots_00017333_U.png;1556904550503;tkalbitz;Ignore
GO2019_G1A_PenaltySpots_00017391_U.png;1556904551174;tkalbitz;Ignore
GO2019_G1A_PenaltySpots_00017455_U.png;1556904551772;tkalbitz;Ignore
GO2019_G1A_PenaltySpots_00024981_U.png;1556904571646;tkalbitz;Ignore
GO2019_G1A_PenaltySpots_00025115_U.png;1556904572254;tkalbitz;Ignore
GO2019_G1A_PenaltySpots_00026002_U.png;1556904576070;tkalbitz;Ignore
GO2019_G1A_PenaltySpots_00026066_U.png;1556904576636;tkalbitz;Ignore
GO2019_G1A_PenaltySpots_00026266_U.png;1556904577306;tkalbitz;Ignore
GO2019_G1A_PenaltySpots_00026316_U.png;1556904577836;tkalbitz;Ignore
GO2019_G1A_PenaltySpots_00026390_U.png;1556904578453;tkalbitz;Ignore
GO2019_G1A_PenaltySpots_00048249_U.png;1556897899483;Thomas;Ignore
GO2019_G1A_PenaltySpots_00048489_U.png;1556897900933;Thomas;Ignore
GO2019_G1A_PenaltySpots_00048796_U.png;1556897902366;Thomas;Ignore
GO2019_G1A_PenaltySpots_00048868_U.png;1556897903118;Thomas;Ignore
GO2019_G1A_PenaltySpots_00048921_U.png;1556897903659;Thomas;Ignore
GO2019_G1A_PenaltySpots_00049114_U.png;1556897904267;Thomas;Ignore
GO2019_G1A_PenaltySpots_00049191_U.png;1556897904775;Thomas;Ignore
GO2019_G1A_PenaltySpots_00049320_U.png;1556897905260;Thomas;Ignore
GO2019_G1A_PenaltySpots_00049374_U.png;1556897905699;Thomas;Ignore
GO2019_G1A_PenaltySpots_00049497_U.png;1556897906057;Thomas;Ignore
GO2019_G1A_PenaltySpots_00049570_U.png;1556897906462;Thomas;Ignore
GO2019_G1A_PenaltySpots_00049630_U.png;1556897906855;Thomas;Ignore
GO2019_G1A_PenaltySpots_00049763_U.png;1556897907239;Thomas;Ignore
GO2019_G1A_PenaltySpots_00049960_U.png;1556897907636;Thomas;Ignore
GO2019_G1A_PenaltySpots_00050080_U.png;1556897907979;Thomas;Ignore
GO2019_G1A_PenaltySpots_00050151_U.png;1556897908352;Thomas;Ignore
GO2019_G1A_PenaltySpots_00050281_U.png;1556897908763;Thomas;Ignore
GO2019_G1A_PenaltySpots_00050475_U.png;1556897909125;Thomas;Ignore
GO2019_G1A_PenaltySpots_00050535_U.png;1556897909490;Thomas;Ignore
GO2019_G1A_PenaltySpots_00050598_U.png;1556897909798;Thomas;Ignore
GO2019_G1A_PenaltySpots_00050737_U.png;1556897910143;Thomas;Ignore
GO2019_G1A_PenaltySpots_00050849_U.png;1556897910512;Thomas;Ignore
GO2019_G1A_PenaltySpots_00050982_U.png;1556897910834;Thomas;Ignore
GO2019_G1A_PenaltySpots_00051174_U.png;1556897911289;Thomas;Ignore
GO2019_G1A_PenaltySpots_00051355_U.png;1556897911926;Thomas;Ignore
GO2019_G1A_PenaltySpots_00051430_U.png;1556897912361;Thomas;Ignore
GO2019_G1A_PenaltySpots_00051566_U.png;1556897912719;Thomas;Ignore
GO2019_G1A_PenaltySpots_00051807_U.png;1556897913103;Thomas;Ignore
GO2019_G1A_PenaltySpots_00052004_U.png;1556897913458;Thomas;Ignore
GO2019_G1A_PenaltySpots_00052072_U.png;1556897913845;Thomas;Ignore
GO2019_G1A_PenaltySpots_00052129_U.png;1556897914194;Thomas;Ignore
GO2019_G1A_PenaltySpots_00052199_U.png;1556897914542;Thomas;Ignore
GO2019_G1A_PenaltySpots_00052264_U.png;1556897914849;Thomas;Ignore
GO2019_G1A_PenaltySpots_00052324_U.png;1556897915192;Thomas;Ignore
GO2019_G1A_PenaltySpots_00052386_U.png;1556897915538;Thomas;Ignore
GO2019_G1A_PenaltySpots_00052453_U.png;1556897915876;Thomas;Ignore
GO2019_G1A_PenaltySpots_00052583_U.png;1556897916237;Thomas;Ignore
GO2019_G1A_PenaltySpots_00052707_U.png;1556897916651;Thomas;Ignore
GO2019_G1A_PenaltySpots_00052768_U.png;1556897917081;Thomas;Ignore
GO2019_G1A_PenaltySpots_00052897_U.png;1556897917456;Thomas;Ignore
GO2019_G1A_PenaltySpots_00053035_U.png;1556897917805;Thomas;Ignore
GO2019_G1A_PenaltySpots_00053095_U.png;1556897918164;Thomas;Ignore
GO2019_G1A_PenaltySpots_00053157_U.png;1556897918509;Thomas;Ignore
GO2019_G1A_PenaltySpots_00053215_U.png;1556897918839;Thomas;Ignore
GO2019_G1A_PenaltySpots_00053289_U.png;1556897919191;Thomas;Ignore
GO2019_G1A_PenaltySpots_00053418_U.png;1556897919526;Thomas;Ignore
GO2019_G1A_PenaltySpots_00053672_U.png;1556897919889;Thomas;Ignore
GO2019_G1A_PenaltySpots_00053792_U.png;1556897920250;Thomas;Ignore
GO2019_G1A_PenaltySpots_00053928_U.png;1556897920620;Thomas;Ignore
GO2019_G1A_PenaltySpots_00054058_U.png;1556897920996;Thomas;Ignore
GO2019_G1A_PenaltySpots_00054130_U.png;1556897921329;Thomas;Ignore
GO2019_G1A_PenaltySpots_00054193_U.png;1556897921676;Thomas;Ignore
GO2019_G1A_PenaltySpots_00054308_U.png;1556897921970;Thomas;Ignore
GO2019_G1A_PenaltySpots_00054383_U.png;1556897922307;Thomas;Ignore
GO2019_G1A_PenaltySpots_00054437_U.png;1556897922637;Thomas;Ignore
GO2019_G1A_PenaltySpots_00054574_U.png;1556897922972;Thomas;Ignore
GO2019_G1A_PenaltySpots_00054636_U.png;1556897923309;Thomas;Ignore
GO2019_G1A_PenaltySpots_00054714_U.png;1556897923676;Thomas;Ignore
GO2019_G1A_PenaltySpots_00054764_U.png;1556897924020;Thomas;Ignore
GO2019_G1A_PenaltySpots_00054836_U.png;1556897924386;Thomas;Ignore
GO2019_G1A_PenaltySpots_00054885_U.png;1556897924736;Thomas;Ignore
GO2019_G1A_PenaltySpots_00055016_U.png;1556897925102;Thomas;Ignore
GO2019_G1A_PenaltySpots_00055086_U.png;1556897925430;Thomas;Ignore
GO2019_G1A_PenaltySpots_00055158_U.png;1556897925779;Thomas;Ignore
GO2019_G1A_PenaltySpots_00055210_U.png;1556897926091;Thomas;Ignore
GO2019_G1A_PenaltySpots_00055340_U.png;1556897926449;Thomas;Ignore
GO2019_G1A_PenaltySpots_00055413_U.png;1556897926774;Thomas;Ignore
GO2019_G1A_PenaltySpots_00055686_U.png;1556897927054;Thomas;Ignore
GO2019_G1A_PenaltySpots_00055733_U.png;1556897927264;Thomas;Ignore
GO2019_G1A_PenaltySpots_00055792_U.png;1556897927448;Thomas;Ignore
GO2019_G1A_PenaltySpots_00056120_U.png;1556897927637;Thomas;Ignore
GO2019_G1A_PenaltySpots_00056193_U.png;1556897927818;Thomas;Ignore
GO2019_G1A_PenaltySpots_00020218_U.png;1652272694252;tkalbitz;NoCenterCirclePoints
GO2019_G1A_PenaltySpots_00020338_U.png;1652272694490;tkalbitz;NoCenterCirclePoints
GO2019_G1A_PenaltySpots_00020397_U.png;1652272694701;tkalbitz;NoCenterCirclePoints
GO2019_G1A_PenaltySpots_00001702_U.png;1556904523945;tkalbitz;PenaltySpot;365;405;395;412;PenaltySpot
GO2019_G1A_PenaltySpots_00001833_U.png;1556897603759;Thomas;PenaltySpot;371;374;399;381;PenaltySpot
GO2019_G1A_PenaltySpots_00001901_U.png;1556897604631;Thomas;PenaltySpot;370;378;396;387;PenaltySpot
GO2019_G1A_PenaltySpots_00002022_U.png;1556897605736;Thomas;PenaltySpot;370;408;396;413;PenaltySpot
GO2019_G1A_PenaltySpots_00002090_U.png;1556897607504;Thomas;PenaltySpot;372;412;400;420;PenaltySpot
GO2019_G1A_PenaltySpots_00002272_U.png;1556897609064;Thomas;PenaltySpot;373;427;399;433;PenaltySpot
GO2019_G1A_PenaltySpots_00002528_U.png;1556897611456;Thomas;PenaltySpot;375;385;399;394;PenaltySpot
GO2019_G1A_PenaltySpots_00002596_U.png;1556897612887;Thomas;PenaltySpot;372;396;397;404;PenaltySpot
GO2019_G1A_PenaltySpots_00002978_U.png;1556897615024;Thomas;PenaltySpot;366;359;392;367;PenaltySpot
GO2019_G1A_PenaltySpots_00003109_U.png;1556897615841;Thomas;PenaltySpot;366;362;394;369;PenaltySpot
GO2019_G1A_PenaltySpots_00003172_U.png;1556897616975;Thomas;PenaltySpot;365;361;391;367;PenaltySpot
GO2019_G1A_PenaltySpots_00003423_U.png;1556897618000;Thomas;PenaltySpot;366;358;393;367;PenaltySpot
GO2019_G1A_PenaltySpots_00003622_U.png;1556897619936;Thomas;PenaltySpot;363;359;389;365;PenaltySpot
GO2019_G1A_PenaltySpots_00003679_U.png;1556897621176;Thomas;PenaltySpot;364;360;390;368;PenaltySpot
GO2019_G1A_PenaltySpots_00003933_U.png;1556897621743;Thomas;PenaltySpot;367;359;395;368;PenaltySpot
GO2019_G1A_PenaltySpots_00003998_U.png;1556897622976;Thomas;PenaltySpot;360;352;388;361;PenaltySpot
GO2019_G1A_PenaltySpots_00004062_U.png;1556897624491;Thomas;PenaltySpot;357;351;384;359;PenaltySpot
GO2019_G1A_PenaltySpots_00004139_U.png;1556897625319;Thomas;PenaltySpot;356;349;384;357;PenaltySpot
GO2019_G1A_PenaltySpots_00004192_U.png;1556897626744;Thomas;PenaltySpot;360;343;387;355;PenaltySpot
GO2019_G1A_PenaltySpots_00004354_U.png;1556897628024;Thomas;PenaltySpot;364;355;392;364;PenaltySpot
GO2019_G1A_PenaltySpots_00004405_U.png;1556897628847;Thomas;PenaltySpot;359;354;385;362;PenaltySpot
GO2019_G1A_PenaltySpots_00004531_U.png;1556897629775;Thomas;PenaltySpot;354;348;381;355;PenaltySpot
GO2019_G1A_PenaltySpots_00004646_U.png;1556897631543;Thomas;PenaltySpot;356;341;384;349;PenaltySpot
GO2019_G1A_PenaltySpots_00004845_U.png;1556897632479;Thomas;PenaltySpot;341;339;372;345;PenaltySpot
GO2019_G1A_PenaltySpots_00004908_U.png;1556897633079;Thomas;PenaltySpot;338;324;368;348;PenaltySpot
GO2019_G1A_PenaltySpots_00005098_U.png;1556897634519;Thomas;PenaltySpot;374;355;401;363;PenaltySpot
GO2019_G1A_PenaltySpots_00005164_U.png;1556897636400;Thomas;PenaltySpot;395;368;421;377;PenaltySpot
GO2019_G1A_PenaltySpots_00005290_U.png;1556897637576;Thomas;PenaltySpot;367;365;396;372;PenaltySpot
GO2019_G1A_PenaltySpots_00005347_U.png;1556897638960;Thomas;PenaltySpot;345;371;373;379;PenaltySpot
GO2019_G1A_PenaltySpots_00005419_U.png;1556897640128;Thomas;PenaltySpot;330;374;358;381;PenaltySpot
GO2019_G1A_PenaltySpots_00005683_U.png;1556897641704;Thomas;PenaltySpot;354;375;385;386;PenaltySpot
GO2019_G1A_PenaltySpots_00005752_U.png;1556897642769;Thomas;PenaltySpot;337;375;365;383;PenaltySpot
GO2019_G1A_PenaltySpots_00006320_U.png;1556897643863;Thomas;PenaltySpot;335;398;367;407;PenaltySpot
GO2019_G1A_PenaltySpots_00006457_U.png;1556897645033;Thomas;PenaltySpot;317;386;345;398;PenaltySpot
GO2019_G1A_PenaltySpots_00006524_U.png;1556897646848;Thomas;PenaltySpot;291;357;323;367;PenaltySpot
GO2019_G1A_PenaltySpots_00006577_U.png;1556897648032;Thomas;PenaltySpot;302;360;335;372;PenaltySpot
GO2019_G1A_PenaltySpots_00006635_U.png;1556897649048;Thomas;PenaltySpot;332;359;366;370;PenaltySpot
GO2019_G1A_PenaltySpots_00006710_U.png;1556897649809;Thomas;PenaltySpot;336;364;369;374;PenaltySpot
GO2019_G1A_PenaltySpots_00006841_U.png;1556897650992;Thomas;PenaltySpot;260;348;295;360;PenaltySpot
GO2019_G1A_PenaltySpots_00006892_U.png;1556897652664;Thomas;PenaltySpot;274;339;311;352;PenaltySpot
GO2019_G1A_PenaltySpots_00007087_U.png;1556897654288;Thomas;PenaltySpot;332;355;368;366;PenaltySpot
GO2019_G1A_PenaltySpots_00007158_U.png;1556897655776;Thomas;PenaltySpot;285;372;321;384;PenaltySpot
GO2019_G1A_PenaltySpots_00007643_U.png;1556897658232;Thomas;PenaltySpot;322;372;363;386;PenaltySpot
GO2019_G1A_PenaltySpots_00007701_U.png;1556897659264;Thomas;PenaltySpot;345;381;385;397;PenaltySpot
GO2019_G1A_PenaltySpots_00007825_U.png;1556897660216;Thomas;PenaltySpot;304;371;345;385;PenaltySpot
GO2019_G1A_PenaltySpots_00007905_U.png;1556897661239;Thomas;PenaltySpot;316;351;357;365;PenaltySpot
GO2019_G1A_PenaltySpots_00007952_U.png;1556897662215;Thomas;PenaltySpot;331;352;372;367;PenaltySpot
GO2019_G1A_PenaltySpots_00008027_U.png;1556897663001;Thomas;PenaltySpot;324;363;367;379;PenaltySpot
GO2019_G1A_PenaltySpots_00008206_U.png;1556897664104;Thomas;PenaltySpot;256;352;300;367;PenaltySpot
GO2019_G1A_PenaltySpots_00017275_U.png;1556897676584;Thomas;PenaltySpot;281;397;334;422;PenaltySpot
GO2019_G1A_PenaltySpots_00017585_U.png;1556897699377;Thomas;PenaltySpot;282;403;333;424;PenaltySpot
GO2019_G1A_PenaltySpots_00017653_U.png;1556897700361;Thomas;PenaltySpot;304;393;353;413;PenaltySpot
GO2019_G1A_PenaltySpots_00017906_U.png;1556897701417;Thomas;PenaltySpot;205;415;255;434;PenaltySpot
GO2019_G1A_PenaltySpots_00017975_U.png;1556897702529;Thomas;PenaltySpot;201;401;249;419;PenaltySpot
GO2019_G1A_PenaltySpots_00018092_U.png;1556897703569;Thomas;PenaltySpot;225;356;273;373;PenaltySpot
GO2019_G1A_PenaltySpots_00018233_U.png;1556897704608;Thomas;PenaltySpot;159;339;206;356;PenaltySpot
GO2019_G1A_PenaltySpots_00018420_U.png;1556897705793;Thomas;PenaltySpot;269;394;312;408;PenaltySpot
GO2019_G1A_PenaltySpots_00018489_U.png;1556897706729;Thomas;PenaltySpot;272;380;314;394;PenaltySpot
GO2019_G1A_PenaltySpots_00018548_U.png;1556897707785;Thomas;PenaltySpot;297;350;339;364;PenaltySpot
GO2019_G1A_PenaltySpots_00018613_U.png;1556897708705;Thomas;PenaltySpot;298;379;339;395;PenaltySpot
GO2019_G1A_PenaltySpots_00018679_U.png;1556897709594;Thomas;PenaltySpot;270;402;311;417;PenaltySpot
GO2019_G1A_PenaltySpots_00018737_U.png;1556897710225;Thomas;PenaltySpot;257;405;298;419;PenaltySpot
GO2019_G1A_PenaltySpots_00018803_U.png;1556897711193;Thomas;PenaltySpot;292;392;332;405;PenaltySpot
GO2019_G1A_PenaltySpots_00018998_U.png;1556897712153;Thomas;PenaltySpot;248;383;289;396;PenaltySpot
GO2019_G1A_PenaltySpots_00019199_U.png;1556897713025;Thomas;PenaltySpot;240;407;281;420;PenaltySpot
GO2019_G1A_PenaltySpots_00019320_U.png;1556897713962;Thomas;PenaltySpot;181;403;222;417;PenaltySpot
GO2019_G1A_PenaltySpots_00019455_U.png;1556897715049;Thomas;PenaltySpot;254;372;292;385;PenaltySpot
GO2019_G1A_PenaltySpots_00019511_U.png;1556897715896;Thomas;PenaltySpot;210;361;251;373;PenaltySpot
GO2019_G1A_PenaltySpots_00019573_U.png;1556897716937;Thomas;PenaltySpot;167;347;205;358;PenaltySpot
GO2019_G1A_PenaltySpots_00019891_U.png;1556897718010;Thomas;PenaltySpot;204;316;240;325;PenaltySpot
GO2019_G1A_PenaltySpots_00020024_U.png;1556897719337;Thomas;PenaltySpot;324;341;358;352;PenaltySpot
GO2019_G1A_PenaltySpots_00020218_U.png;1556897726729;Thomas;PenaltySpot;331;331;363;341;PenaltySpot
GO2019_G1A_PenaltySpots_00020338_U.png;1556897729825;Thomas;PenaltySpot;284;299;318;307;PenaltySpot
GO2019_G1A_PenaltySpots_00020397_U.png;1556897730977;Thomas;PenaltySpot;233;292;265;299;PenaltySpot
GO2019_G1A_PenaltySpots_00020532_U.png;1556897732073;Thomas;PenaltySpot;277;297;307;307;PenaltySpot
GO2019_G1A_PenaltySpots_00020615_U.png;1556897733192;Thomas;PenaltySpot;240;317;270;327;PenaltySpot
GO2019_G1A_PenaltySpots_00020728_U.png;1556897734089;Thomas;PenaltySpot;267;346;297;355;PenaltySpot
GO2019_G1A_PenaltySpots_00020848_U.png;1556897735483;Thomas;PenaltySpot;358;337;386;344;PenaltySpot
GO2019_G1A_PenaltySpots_00021107_U.png;1556897736529;Thomas;PenaltySpot;384;321;413;331;PenaltySpot
GO2019_G1A_PenaltySpots_00021183_U.png;1556897738025;Thomas;PenaltySpot;406;336;434;346;PenaltySpot
GO2019_G1A_PenaltySpots_00021238_U.png;1556897744473;Thomas;PenaltySpot;435;332;463;338;PenaltySpot
GO2019_G1A_PenaltySpots_00021306_U.png;1556897745657;Thomas;PenaltySpot;416;314;448;324;PenaltySpot
GO2019_G1A_PenaltySpots_00021359_U.png;1556897747122;Thomas;PenaltySpot;369;315;401;322;PenaltySpot
GO2019_G1A_PenaltySpots_00021494_U.png;1556897748560;Thomas;PenaltySpot;357;308;389;319;PenaltySpot
GO2019_G1A_PenaltySpots_00021575_U.png;1556897749745;Thomas;PenaltySpot;403;299;431;306;PenaltySpot
GO2019_G1A_PenaltySpots_00021619_U.png;1556897750769;Thomas;PenaltySpot;362;293;392;300;PenaltySpot
GO2019_G1A_PenaltySpots_00021754_U.png;1556897752241;Thomas;PenaltySpot;266;301;294;307;PenaltySpot
GO2019_G1A_PenaltySpots_00021824_U.png;1556897753505;Thomas;PenaltySpot;303;298;330;307;PenaltySpot
GO2019_G1A_PenaltySpots_00021886_U.png;1556897754625;Thomas;PenaltySpot;281;301;310;307;PenaltySpot
GO2019_G1A_PenaltySpots_00021952_U.png;1556897755938;Thomas;PenaltySpot;235;304;264;311;PenaltySpot
GO2019_G1A_PenaltySpots_00022069_U.png;1556897757257;Thomas;PenaltySpot;276;280;303;287;PenaltySpot
GO2019_G1A_PenaltySpots_00022387_U.png;1556897758418;Thomas;PenaltySpot;343;306;373;314;PenaltySpot
GO2019_G1A_PenaltySpots_00022453_U.png;1556897759489;Thomas;PenaltySpot;332;296;360;303;PenaltySpot
GO2019_G1A_PenaltySpots_00022526_U.png;1556897760297;Thomas;PenaltySpot;297;295;327;303;PenaltySpot
GO2019_G1A_PenaltySpots_00022601_U.png;1556897761065;Thomas;PenaltySpot;291;288;320;296;PenaltySpot
GO2019_G1A_PenaltySpots_00022722_U.png;1556897762240;Thomas;PenaltySpot;294;257;324;264;PenaltySpot
GO2019_G1A_PenaltySpots_00022852_U.png;1556897763177;Thomas;PenaltySpot;314;260;343;268;PenaltySpot
GO2019_G1A_PenaltySpots_00022973_U.png;1556897764305;Thomas;PenaltySpot;284;320;314;330;PenaltySpot
GO2019_G1A_PenaltySpots_00023027_U.png;1556897765330;Thomas;PenaltySpot;284;348;314;356;PenaltySpot
GO2019_G1A_PenaltySpots_00023292_U.png;1556897782426;Thomas;PenaltySpot;303;380;339;392;PenaltySpot
GO2019_G1A_PenaltySpots_00023441_U.png;1556897783538;Thomas;PenaltySpot;312;355;343;363;PenaltySpot
GO2019_G1A_PenaltySpots_00023493_U.png;1556897784442;Thomas;PenaltySpot;316;344;349;354;PenaltySpot
GO2019_G1A_PenaltySpots_00023562_U.png;1556897785450;Thomas;PenaltySpot;303;339;335;350;PenaltySpot
GO2019_G1A_PenaltySpots_00023616_U.png;1556897786202;Thomas;PenaltySpot;300;344;333;353;PenaltySpot
GO2019_G1A_PenaltySpots_00023819_U.png;1556897786938;Thomas;PenaltySpot;317;343;351;355;PenaltySpot
GO2019_G1A_PenaltySpots_00024025_U.png;1556897803793;Thomas;PenaltySpot;325;348;360;360;PenaltySpot
GO2019_G1A_PenaltySpots_00024080_U.png;1556897804642;Thomas;PenaltySpot;321;368;357;381;PenaltySpot
GO2019_G1A_PenaltySpots_00024145_U.png;1556897805762;Thomas;PenaltySpot;331;392;367;407;PenaltySpot
GO2019_G1A_PenaltySpots_00024282_U.png;1556897806619;Thomas;PenaltySpot;302;397;338;412;PenaltySpot
GO2019_G1A_PenaltySpots_00024328_U.png;1556897807947;Thomas;PenaltySpot;284;376;320;391;PenaltySpot
GO2019_G1A_PenaltySpots_00024458_U.png;1556897808953;Thomas;PenaltySpot;267;362;307;377;PenaltySpot
GO2019_G1A_PenaltySpots_00024668_U.png;1556897809690;Thomas;PenaltySpot;249;367;288;382;PenaltySpot
GO2019_G1A_PenaltySpots_00024798_U.png;1556897810457;Thomas;PenaltySpot;281;371;321;386;PenaltySpot
GO2019_G1A_PenaltySpots_00025373_U.png;1556897814018;Thomas;PenaltySpot;274;371;320;387;PenaltySpot
GO2019_G1A_PenaltySpots_00025496_U.png;1556897815418;Thomas;PenaltySpot;240;344;286;360;PenaltySpot
GO2019_G1A_PenaltySpots_00025566_U.png;1556897816002;Thomas;PenaltySpot;227;352;274;370;PenaltySpot
GO2019_G1A_PenaltySpots_00025745_U.png;1556897816738;Thomas;PenaltySpot;258;347;305;366;PenaltySpot
GO2019_G1A_PenaltySpots_00025813_U.png;1556897817378;Thomas;PenaltySpot;248;367;295;388;PenaltySpot
GO2019_G1A_PenaltySpots_00025936_U.png;1556897818187;Thomas;PenaltySpot;266;415;316;436;PenaltySpot
GO2019_G1A_PenaltySpots_00056391_U.png;1556897932200;Thomas;PenaltySpot;240;320;259;326;PenaltySpot
GO2019_G1A_PenaltySpots_00056667_U.png;1556897933593;Thomas;PenaltySpot;338;329;354;334;PenaltySpot
GO2019_G1A_PenaltySpots_00056768_U.png;1556897935288;Thomas;PenaltySpot;395;331;414;337;PenaltySpot
GO2019_G1A_PenaltySpots_00056895_U.png;1556897937073;Thomas;PenaltySpot;468;309;488;314;PenaltySpot
GO2019_G1A_PenaltySpots_00057025_U.png;1556897939496;Thomas;PenaltySpot;571;319;591;326;PenaltySpot
GO2019_G1A_PenaltySpots_00057094_U.png;1556897940720;Thomas;PenaltySpot;604;332;623;337;PenaltySpot
GO2019_G1A_PenaltySpots_00057163_U.png;1556897942584;Thomas;PenaltySpot;521;328;545;333;PenaltySpot
GO2019_G1A_PenaltySpots_00057220_U.png;1556897943656;Thomas;PenaltySpot;375;318;396;323;PenaltySpot
GO2019_G1A_PenaltySpots_00057354_U.png;1556897944952;Thomas;PenaltySpot;270;312;287;317;PenaltySpot
GO2019_G1A_PenaltySpots_00057476_U.png;1556897946280;Thomas;PenaltySpot;258;313;274;318;PenaltySpot
GO2019_G1A_PenaltySpots_00057540_U.png;1556897947496;Thomas;PenaltySpot;220;319;242;324;PenaltySpot
GO2019_G1A_PenaltySpots_00057668_U.png;1556897949416;Thomas;PenaltySpot;53;328;79;334;PenaltySpot
GO2019_G1A_PenaltySpots_00058298_U.png;1556897951160;Thomas;PenaltySpot;42;231;62;236;PenaltySpot
GO2019_G1A_PenaltySpots_00058433_U.png;1556897952744;Thomas;PenaltySpot;138;263;155;268;PenaltySpot
GO2019_G1A_PenaltySpots_00058620_U.png;1556897954016;Thomas;PenaltySpot;99;285;120;290;PenaltySpot
GO2019_G1A_PenaltySpots_00058700_U.png;1556897955145;Thomas;PenaltySpot;66;278;87;283;PenaltySpot
GO2019_G1A_PenaltySpots_00058825_U.png;1556897957336;Thomas;PenaltySpot;5;272;25;278;PenaltySpot
GO2019_G1A_PenaltySpots_00058882_U.png;1556897958439;Thomas;PenaltySpot;11;289;34;294;PenaltySpot
GO2019_G1A_PenaltySpots_00058940_U.png;1556897959288;Thomas;PenaltySpot;8;290;33;295;PenaltySpot
GO2019_G1A_PenaltySpots_00059520_U.png;1556897960280;Thomas;PenaltySpot;0;278;23;287;PenaltySpot
GO2019_G1A_PenaltySpots_00059644_U.png;1556897961912;Thomas;PenaltySpot;39;311;56;316;PenaltySpot
GO2019_G1A_PenaltySpots_00059839_U.png;1556897965352;Thomas;PenaltySpot;54;305;70;310;PenaltySpot
GO2019_G1A_PenaltySpots_00059971_U.png;1556897966872;Thomas;PenaltySpot;38;284;55;290;PenaltySpot
GO2019_G1A_PenaltySpots_00060025_U.png;1556897968016;Thomas;PenaltySpot;28;283;50;288;PenaltySpot
GO2019_G1A_PenaltySpots_00060159_U.png;1556897968992;Thomas;PenaltySpot;48;298;67;303;PenaltySpot
GO2019_G1A_PenaltySpots_00060224_U.png;1556897969977;Thomas;PenaltySpot;38;287;55;292;PenaltySpot
GO2019_G1A_PenaltySpots_00060288_U.png;1556897971384;Thomas;PenaltySpot;22;274;44;281;PenaltySpot
GO2019_G1A_PenaltySpots_00060424_U.png;1556897972562;Thomas;PenaltySpot;30;261;47;266;PenaltySpot
GO2019_G1A_PenaltySpots_00060475_U.png;1556897973672;Thomas;PenaltySpot;29;259;45;264;PenaltySpot
GO2019_G1A_PenaltySpots_00060659_U.png;1556897975319;Thomas;PenaltySpot;78;297;96;302;PenaltySpot
GO2019_G1A_PenaltySpots_00060867_U.png;1556897976168;Thomas;PenaltySpot;89;297;105;302;PenaltySpot
GO2019_G1A_PenaltySpots_00060983_U.png;1556897977152;Thomas;PenaltySpot;103;302;120;307;PenaltySpot
GO2019_G1A_PenaltySpots_00061050_U.png;1556897978416;Thomas;PenaltySpot;105;310;122;315;PenaltySpot
GO2019_G1A_PenaltySpots_00061251_U.png;1556897979679;Thomas;PenaltySpot;127;269;143;274;PenaltySpot
GO2019_G1A_PenaltySpots_00061302_U.png;1556897980649;Thomas;PenaltySpot;132;272;151;277;PenaltySpot
GO2019_G1A_PenaltySpots_00061529_U.png;1556897981624;Thomas;PenaltySpot;88;262;105;267;PenaltySpot
GO2019_G1A_PenaltySpots_00061828_U.png;1556897982776;Thomas;PenaltySpot;116;261;131;266;PenaltySpot
GO2019_G1A_PenaltySpots_00061944_U.png;1556897984848;Thomas;PenaltySpot;112;274;125;279;PenaltySpot
GO2019_G1A_PenaltySpots_00062012_U.png;1556897986192;Thomas;PenaltySpot;126;287;143;292;PenaltySpot
GO2019_G1A_PenaltySpots_00062272_U.png;1556897987720;Thomas;PenaltySpot;98;307;115;312;PenaltySpot
GO2019_G1A_PenaltySpots_00062346_U.png;1556897988640;Thomas;PenaltySpot;95;304;109;309;PenaltySpot
GO2019_G1A_PenaltySpots_00062398_U.png;1556897990032;Thomas;PenaltySpot;110;291;127;298;PenaltySpot
GO2019_G1A_PenaltySpots_00062477_U.png;1556897991207;Thomas;PenaltySpot;121;277;141;285;PenaltySpot
GO2019_G1A_PenaltySpots_00062601_U.png;1556897992624;Thomas;PenaltySpot;214;283;229;288;PenaltySpot
GO2019_G1A_PenaltySpots_00062934_U.png;1556897993912;Thomas;PenaltySpot;337;278;352;283;PenaltySpot
GO2019_G1A_PenaltySpots_00063069_U.png;1556897995336;Thomas;PenaltySpot;418;292;434;297;PenaltySpot
GO2019_G1A_PenaltySpots_00063117_U.png;1556897996977;Thomas;PenaltySpot;456;295;475;300;PenaltySpot
GO2019_G1A_PenaltySpots_00063190_U.png;1556897998560;Thomas;PenaltySpot;509;300;527;305;PenaltySpot
GO2019_G1A_PenaltySpots_00063314_U.png;1556898000440;Thomas;PenaltySpot;609;297;623;302;PenaltySpot
GO2019_G1A_PenaltySpots_00063384_U.png;1556898001801;Thomas;PenaltySpot;627;308;640;315;PenaltySpot
GO2019_G1A_PenaltySpots_00063846_U.png;1556898003609;Thomas;PenaltySpot;498;288;521;293;PenaltySpot
GO2019_G1A_PenaltySpots_00064041_U.png;1556898004799;Thomas;PenaltySpot;390;278;408;283;PenaltySpot
GO2019_G1A_PenaltySpots_00064304_U.png;1556898006327;Thomas;PenaltySpot;278;295;295;300;PenaltySpot
GO2019_G1A_PenaltySpots_00064372_U.png;1556898007473;Thomas;PenaltySpot;261;291;277;296;PenaltySpot
GO2019_G1A_PenaltySpots_00064498_U.png;1556898008848;Thomas;PenaltySpot;169;287;185;292;PenaltySpot
GO2019_G1A_PenaltySpots_00064617_U.png;1556898010592;Thomas;PenaltySpot;140;293;157;298;PenaltySpot
GO2019_G1A_PenaltySpots_00064677_U.png;1556898012001;Thomas;PenaltySpot;149;286;162;291;PenaltySpot
GO2019_G1A_PenaltySpots_00064745_U.png;1556898013224;Thomas;PenaltySpot;179;278;194;283;PenaltySpot
GO2019_G1A_PenaltySpots_00064808_U.png;1556898014688;Thomas;PenaltySpot;207;273;225;278;PenaltySpot
GO2019_G1A_PenaltySpots_00064874_U.png;1556898015640;Thomas;PenaltySpot;237;277;253;282;PenaltySpot
GO2019_G1A_PenaltySpots_00064938_U.png;1556898016575;Thomas;PenaltySpot;260;280;278;285;PenaltySpot
GO2019_G1A_PenaltySpots_00065006_U.png;1556898017665;Thomas;PenaltySpot;276;285;297;293;PenaltySpot
GO2019_G1A_PenaltySpots_00065068_U.png;1556898018808;Thomas;PenaltySpot;288;292;302;297;PenaltySpot
GO2019_G1A_PenaltySpots_00065200_U.png;1556898019920;Thomas;PenaltySpot;335;308;351;313;PenaltySpot
GO2019_G1A_PenaltySpots_00065389_U.png;1556898021000;Thomas;PenaltySpot;372;309;390;314;PenaltySpot
GO2019_G1A_PenaltySpots_00065518_U.png;1556898022312;Thomas;PenaltySpot;422;327;437;332;PenaltySpot
GO2019_G1A_PenaltySpots_00065780_U.png;1556898023658;Thomas;PenaltySpot;434;311;451;316;PenaltySpot
GO2019_G1A_PenaltySpots_00065906_U.png;1556898025488;Thomas;PenaltySpot;331;301;346;306;PenaltySpot
GO2019_G1A_PenaltySpots_00065966_U.png;1556898026465;Thomas;PenaltySpot;280;299;295;304;PenaltySpot
GO2019_G1A_PenaltySpots_00066097_U.png;1556898028223;Thomas;PenaltySpot;277;304;291;309;PenaltySpot
GO2019_G1A_PenaltySpots_00066154_U.png;1556898029296;Thomas;PenaltySpot;289;306;305;311;PenaltySpot
GO2019_G1A_PenaltySpots_00066216_U.png;1556898030648;Thomas;PenaltySpot;307;301;323;306;PenaltySpot
GO2019_G1A_PenaltySpots_00066283_U.png;1556898032784;Thomas;PenaltySpot;345;294;362;299;PenaltySpot
GO2019_G1A_PenaltySpots_00066351_U.png;1556898033856;Thomas;PenaltySpot;392;290;405;295;PenaltySpot
GO2019_G1A_PenaltySpots_00066416_U.png;1556898035896;Thomas;PenaltySpot;436;292;453;297;PenaltySpot
GO2019_G1A_PenaltySpots_00066536_U.png;1556898037281;Thomas;PenaltySpot;422;306;440;311;PenaltySpot
GO2019_G1A_PenaltySpots_00066665_U.png;1556898038560;Thomas;PenaltySpot;289;309;310;318;PenaltySpot
GO2019_G1A_PenaltySpots_00066735_U.png;1556898039799;Thomas;PenaltySpot;254;290;273;296;PenaltySpot
GO2019_G1A_PenaltySpots_00066910_U.png;1556898041760;Thomas;PenaltySpot;6;289;28;294;PenaltySpot
GO2019_G1A_PenaltySpots_00067885_U.png;1556898043225;Thomas;PenaltySpot;366;304;386;309;PenaltySpot
GO2019_G1A_PenaltySpots_00067944_U.png;1556898045105;Thomas;PenaltySpot;340;310;355;315;PenaltySpot
GO2019_G1A_PenaltySpots_00068065_U.png;1556898046336;Thomas;PenaltySpot;340;301;359;307;PenaltySpot
GO2019_G1A_PenaltySpots_00068145_U.png;1556898047136;Thomas;PenaltySpot;352;302;367;307;PenaltySpot
GO2019_G1A_PenaltySpots_00068206_U.png;1556898048312;Thomas;PenaltySpot;360;301;379;306;PenaltySpot
GO2019_G1A_PenaltySpots_00068265_U.png;1556898049432;Thomas;PenaltySpot;398;297;412;302;PenaltySpot
GO2019_G1A_PenaltySpots_00068524_U.png;1556898050904;Thomas;PenaltySpot;358;267;377;272;PenaltySpot
GO2019_G1A_PenaltySpots_00068721_U.png;1556898052153;Thomas;PenaltySpot;290;293;309;299;PenaltySpot
GO2019_G1A_PenaltySpots_00068908_U.png;1556898054144;Thomas;PenaltySpot;201;276;215;281;PenaltySpot
GO2019_G1A_PenaltySpots_00069043_U.png;1556898055384;Thomas;PenaltySpot;185;263;206;269;PenaltySpot
GO2019_G1A_PenaltySpots_00069174_U.png;1556898056705;Thomas;PenaltySpot;143;279;160;284;PenaltySpot
GO2019_G1A_PenaltySpots_00069305_U.png;1556898058008;Thomas;PenaltySpot;141;293;160;298;PenaltySpot
GO2019_G1A_PenaltySpots_00069441_U.png;1556898059881;Thomas;PenaltySpot;270;306;291;311;PenaltySpot
GO2019_G1A_PenaltySpots_00069495_U.png;1556898061200;Thomas;PenaltySpot;356;307;372;312;PenaltySpot
GO2019_G1A_PenaltySpots_00069811_U.png;1556898062528;Thomas;PenaltySpot;467;303;487;309;PenaltySpot
GO2019_G1A_PenaltySpots_00069884_U.png;1556898063392;Thomas;PenaltySpot;487;299;503;304;PenaltySpot
GO2019_G1A_PenaltySpots_00069940_U.png;1556898064760;Thomas;PenaltySpot;464;295;483;300;PenaltySpot
GO2019_G1A_PenaltySpots_00070148_U.png;1556898066088;Thomas;PenaltySpot;298;280;314;285;PenaltySpot
GO2019_G1A_PenaltySpots_00070204_U.png;1556898067200;Thomas;PenaltySpot;314;272;330;277;PenaltySpot
GO2019_G1A_PenaltySpots_00070276_U.png;1556898068272;Thomas;PenaltySpot;326;255;343;260;PenaltySpot
GO2019_G1A_PenaltySpots_00070331_U.png;1556898070328;Thomas;PenaltySpot;312;253;328;258;PenaltySpot
GO2019_G1A_PenaltySpots_00070530_U.png;1556898071584;Thomas;PenaltySpot;223;276;241;282;PenaltySpot
GO2019_G1A_PenaltySpots_00070725_U.png;1556898072753;Thomas;PenaltySpot;193;301;210;306;PenaltySpot
GO2019_G1A_PenaltySpots_00070850_U.png;1556898073840;Thomas;PenaltySpot;231;295;260;302;PenaltySpot
GO2019_G1A_PenaltySpots_00072857_U.png;1556898075257;Thomas;PenaltySpot;87;328;114;333;PenaltySpot
GO2019_G1A_PenaltySpots_00073052_U.png;1556898076761;Thomas;PenaltySpot;236;314;254;319;PenaltySpot
GO2019_G1A_PenaltySpots_00073183_U.png;1556898078032;Thomas;PenaltySpot;287;310;305;315;PenaltySpot
GO2019_G1A_PenaltySpots_00073385_U.png;1556898078976;Thomas;PenaltySpot;265;329;285;335;PenaltySpot
GO2019_G1A_PenaltySpots_00073453_U.png;1556898079984;Thomas;PenaltySpot;253;339;271;344;PenaltySpot
GO2019_G1A_PenaltySpots_00073589_U.png;1556898081487;Thomas;PenaltySpot;198;293;218;299;PenaltySpot
GO2019_G1A_PenaltySpots_00073766_U.png;1556898082536;Thomas;PenaltySpot;221;282;241;287;PenaltySpot
GO2019_G1A_PenaltySpots_00073842_U.png;1556898084047;Thomas;PenaltySpot;207;278;226;283;PenaltySpot
GO2019_G1A_PenaltySpots_00073969_U.png;1556898085569;Thomas;PenaltySpot;279;311;300;318;PenaltySpot
GO2019_G1A_PenaltySpots_00074023_U.png;1556898086439;Thomas;PenaltySpot;307;312;328;318;PenaltySpot
GO2019_G1A_PenaltySpots_00074100_U.png;1556898087634;Thomas;PenaltySpot;333;324;352;329;PenaltySpot
GO2019_G1A_PenaltySpots_00074155_U.png;1556898088641;Thomas;PenaltySpot;396;333;422;339;PenaltySpot
GO2019_G1A_PenaltySpots_00074462_U.png;1556898089872;Thomas;PenaltySpot;500;340;521;345;PenaltySpot
GO2019_G1A_PenaltySpots_00074538_U.png;1556898090952;Thomas;PenaltySpot;451;336;466;341;PenaltySpot
GO2019_G1A_PenaltySpots_00074586_U.png;1556898092073;Thomas;PenaltySpot;367;328;386;333;PenaltySpot
GO2019_G1A_PenaltySpots_00074654_U.png;1556898093008;Thomas;PenaltySpot;305;324;319;329;PenaltySpot
GO2019_G1A_PenaltySpots_00074793_U.png;1556898094128;Thomas;PenaltySpot;156;317;182;322;PenaltySpot
GO2019_G1A_PenaltySpots_00075043_U.png;1556898097833;Thomas;PenaltySpot;25;305;48;310;PenaltySpot
GO2019_G1A_PenaltySpots_00075163_U.png;1556898098985;Thomas;PenaltySpot;70;306;99;311;PenaltySpot
GO2019_G1A_PenaltySpots_00075243_U.png;1556898100184;Thomas;PenaltySpot;106;315;127;320;PenaltySpot
