GO2024-G3A_Hubble_5_PLAY_00535696_BallVanishedFromLastToThisImage_U.png;1718132391466;tkalbitz;CenterCirclePoints;425;205;425;205;Left
GO2024-G3A_Hubble_5_PLAY_00535696_BallVanishedFromLastToThisImage_U.png;1718132394323;tkalbitz;CenterCirclePoints;398;267;398;267;Right
GO2024-G3A_Hubble_5_SET_00441523_BallVanishedFromLastToThisImage_U.png;1718125426312;tkalbitz;CenterCirclePoints;101;225;101;225;Left
GO2024-G3A_Hubble_5_SET_00441523_BallVanishedFromLastToThisImage_U.png;1718125430032;tkalbitz;CenterCirclePoints;365;140;365;140;Right
GO2024-G3A_Hubble_5_SET_00446312_BallVanishedFromLastToThisImage_U.png;1718125435586;tkalbitz;CenterCirclePoints;206;174;206;174;Left
GO2024-G3A_Hubble_5_SET_00446312_BallVanishedFromLastToThisImage_U.png;1718125438201;tkalbitz;CenterCirclePoints;461;88;461;88;Right
GO2024-G3B_Hubble_5_PLAY_00236986_BallVanishedFromLastToThisImage_U.png;1718129830257;tkalbitz;CenterCirclePoints;108;145;108;145;Right
GO2024-G3B_Hubble_5_PLAY_00238452_BallVanishedFromLastToThisImage_U.png;1718129833613;tkalbitz;CenterCirclePoints;266;204;266;204;Right
GO2024-G3B_Hubble_5_PLAY_00287344_BallVanishedFromLastToThisImage_U.png;1718194683822;tkalbitz;CenterCirclePoints;212;168;212;168;Right
GO2024-G3B_Hubble_5_PLAY_00288970_BallVanishedFromLastToThisImage_U.png;1718125449069;tkalbitz;CenterCirclePoints;214;164;214;164;Right
GO2024-G3B_Hubble_5_PLAY_00366375_BallVanishedFromLastToThisImage_U.png;1718129837951;tkalbitz;CenterCirclePoints;49;176;49;176;Right
GO2024-G3B_Hubble_5_PLAY_00419390_BallVanishedFromLastToThisImage_U.png;1718129843037;tkalbitz;CenterCirclePoints;189;118;189;118;Left
GO2024-G3B_Hubble_5_PLAY_00421325_BallVanishedFromLastToThisImage_U.png;1718125452923;tkalbitz;CenterCirclePoints;77;150;77;150;Left
GO2024-G3B_Hubble_5_PLAY_00421325_BallVanishedFromLastToThisImage_U.png;1718125455361;tkalbitz;CenterCirclePoints;561;149;561;149;Right
GO2024-G3B_Hubble_5_SET_00188866_BallVanishedFromLastToThisImage_U.png;1718129852161;tkalbitz;CenterCirclePoints;330;308;330;308;Left
GO2024-G3B_Hubble_5_SET_00193492_BallVanishedFromLastToThisImage_U.png;1718129856176;tkalbitz;CenterCirclePoints;272;305;272;305;Left
GO2024-G3B_Hubble_5_SET_00193492_BallVanishedFromLastToThisImage_U.png;1718129858946;tkalbitz;CenterCirclePoints;610;187;610;187;Right
GO2024-G3B_Hubble_5_SET_00194957_BallVanishedFromLastToThisImage_U.png;1718125462570;tkalbitz;CenterCirclePoints;232;357;232;357;Left
GO2024-G3B_Hubble_5_SET_00194957_BallVanishedFromLastToThisImage_U.png;1718125464898;tkalbitz;CenterCirclePoints;457;200;457;200;Right
GO2024-G3A_Hubble_5_PLAY_00620722_BallVanishedFromLastToThisImage_U.png;1715469689984;tkalbitz;GoalPost;124;165;102;56;Left
GO2024-G3A_Hubble_5_PLAY_00620722_BallVanishedFromLastToThisImage_U.png;1715469692214;tkalbitz;GoalPost;103;56;271;50;Middle
GO2024-G3A_Hubble_5_SET_00443296_BallVanishedFromLastToThisImage_U.png;1715469700652;tkalbitz;GoalPost;285;145;281;58;Right
GO2024-G3A_Hubble_5_SET_00443296_BallVanishedFromLastToThisImage_U.png;1715469702706;tkalbitz;GoalPost;281;58;112;60;Middle
GO2024-G3B_Hubble_5_PLAY_00266949_BallVanishedFromLastToThisImage_U.png;1715632930434;tkalbitz;GoalPost;36;94;26;11;Right
GO2024-G3B_Hubble_5_PLAY_00288970_BallVanishedFromLastToThisImage_U.png;1715469710469;tkalbitz;GoalPost;241;106;237;30;Right
GO2024-G3B_Hubble_5_PLAY_00288970_BallVanishedFromLastToThisImage_U.png;1715469713253;tkalbitz;GoalPost;237;30;101;33;Left
GO2024-G3B_Hubble_5_PLAY_00366375_BallVanishedFromLastToThisImage_U.png;1715469717089;tkalbitz;GoalPost;87;107;78;29;Right
GO2024-G3B_Hubble_5_PLAY_00366375_BallVanishedFromLastToThisImage_U.png;1715469718737;tkalbitz;GoalPost;78;29;-1;29;Middle
GO2024-G3B_Hubble_5_PLAY_00570680_BallVanishedFromLastToThisImage_U.png;1715469727948;tkalbitz;GoalPost;217;94;209;16;Left
GO2024-G3B_Hubble_5_PLAY_00570680_BallVanishedFromLastToThisImage_U.png;1715469731912;tkalbitz;GoalPost;209;16;343;4;Middle
GO2024-G3A_Hubble_5_PLAY_00483709_BallVanishedFromLastToThisImage_U.png;1718125422390;tkalbitz;NoCenterCirclePoints
GO2024-G3A_Hubble_5_PLAY_00620722_BallVanishedFromLastToThisImage_U.png;1718134106755;tkalbitz;NoCenterCirclePoints
GO2024-G3B_Hubble_5_PLAY_00249357_BallVanishedFromLastToThisImage_U.png;1718125440201;tkalbitz;NoCenterCirclePoints
GO2024-G3B_Hubble_5_PLAY_00266949_BallVanishedFromLastToThisImage_U.png;1718129835877;tkalbitz;NoCenterCirclePoints
GO2024-G3B_Hubble_5_PLAY_00441191_BallVanishedFromLastToThisImage_U.png;1718129845003;tkalbitz;NoCenterCirclePoints
GO2024-G3B_Hubble_5_PLAY_00480353_BallVanishedFromLastToThisImage_U.png;1718195592599;tkalbitz;NoCenterCirclePoints
GO2024-G3B_Hubble_5_PLAY_00492716_BallVanishedFromLastToThisImage_U.png;1718125458120;tkalbitz;NoCenterCirclePoints
GO2024-G3B_Hubble_5_PLAY_00538785_BallVanishedFromLastToThisImage_U.png;1718191233985;tkalbitz;NoCenterCirclePoints
GO2024-G3B_Hubble_5_PLAY_00542619_BallVanishedFromLastToThisImage_U.png;1718129845761;tkalbitz;NoCenterCirclePoints
GO2024-G3A_Hubble_5_PLAY_00609123_BallVanishedFromLastToThisImage_U.png;1715632924138;tkalbitz;NoGoalPost
GO2024-G3B_Hubble_5_PLAY_00256555_BallVanishedFromLastToThisImage_U.png;1715469705245;tkalbitz;NoGoalPost
GO2024-G3B_Hubble_5_PLAY_00258987_BallVanishedFromLastToThisImage_U.png;1715469706741;tkalbitz;NoGoalPost
GO2024-G3B_Hubble_5_PLAY_00538785_BallVanishedFromLastToThisImage_U.png;1715675606126;tkalbitz;NoGoalPost
GO2024-G3B_Hubble_5_PLAY_00540625_BallVanishedFromLastToThisImage_U.png;1715675606777;tkalbitz;NoGoalPost
GO2024-G3B_Hubble_5_PLAY_00542619_BallVanishedFromLastToThisImage_U.png;1715469722031;tkalbitz;NoGoalPost
GO2024-G3B_Hubble_5_PLAY_00548970_BallVanishedFromLastToThisImage_U.png;1715675608082;tkalbitz;NoGoalPost
GO2024-G3B_Hubble_5_SET_00185696_BallVanishedFromLastToThisImage_U.png;1715632941061;tkalbitz;NoGoalPost
