GO2019_G1C_PenaltySpots2_00102473_U.png;1556904066476;tkalbitz;Ignore
GO2019_G1C_PenaltySpots2_00106671_U.png;1556904082954;tkalbitz;Ignore
GO2019_G1C_PenaltySpots2_00110553_U.png;1556904093032;tkalbitz;Ignore
GO2019_G1C_PenaltySpots2_00112176_U.png;1556904103732;tkalbitz;Ignore
GO2019_G1C_PenaltySpots2_00112486_U.png;1556904105079;tkalbitz;Ignore
GO2019_G1C_PenaltySpots2_00112817_U.png;1556904106621;tkalbitz;Ignore
GO2019_G1C_PenaltySpots2_00113133_U.png;1556904108694;tkalbitz;Ignore
GO2019_G1C_PenaltySpots2_00113456_U.png;1556904109260;tkalbitz;Ignore
GO2019_G1C_PenaltySpots2_00114764_U.png;1556904109789;tkalbitz;Ignore
GO2019_G1C_PenaltySpots2_00115076_U.png;1556904110257;tkalbitz;Ignore
GO2019_G1C_PenaltySpots2_00115397_U.png;1556904110660;tkalbitz;Ignore
GO2019_G1C_PenaltySpots2_00164192_U.png;1556904124456;tkalbitz;Ignore
GO2019_G1C_PenaltySpots2_00187477_U.png;1556904135718;tkalbitz;Ignore
GO2019_G1C_PenaltySpots2_00187800_U.png;1556904136497;tkalbitz;Ignore
GO2019_G1C_PenaltySpots2_00188181_U.png;1556904137128;tkalbitz;Ignore
GO2019_G1C_PenaltySpots2_00188800_U.png;1556904137619;tkalbitz;Ignore
GO2019_G1C_PenaltySpots2_00189117_U.png;1556904138100;tkalbitz;Ignore
GO2019_G1C_PenaltySpots2_00189429_U.png;1556904138713;tkalbitz;Ignore
GO2019_G1C_PenaltySpots2_00191706_U.png;1556904145043;tkalbitz;Ignore
GO2019_G1C_PenaltySpots2_00193311_U.png;1556904151408;tkalbitz;Ignore
GO2019_G1C_PenaltySpots2_00298025_U.png;1556904178754;tkalbitz;Ignore
GO2019_G1C_PenaltySpots2_00298350_U.png;1556904179421;tkalbitz;Ignore
GO2019_G1C_PenaltySpots2_00299315_U.png;1556904180012;tkalbitz;Ignore
GO2019_G1C_PenaltySpots2_00302232_U.png;1556904187553;tkalbitz;Ignore
GO2019_G1C_PenaltySpots2_00303521_U.png;1556904191509;tkalbitz;Ignore
GO2019_G1C_PenaltySpots2_00048447_U.png;1556903917370;tkalbitz;PenaltySpot;597;344;627;350;PenaltySpot
GO2019_G1C_PenaltySpots2_00049090_U.png;1556903918736;tkalbitz;PenaltySpot;593;373;627;379;PenaltySpot
GO2019_G1C_PenaltySpots2_00049726_U.png;1556903920300;tkalbitz;PenaltySpot;500;345;527;352;PenaltySpot
GO2019_G1C_PenaltySpots2_00050050_U.png;1556903922292;tkalbitz;PenaltySpot;402;343;427;350;PenaltySpot
GO2019_G1C_PenaltySpots2_00050392_U.png;1556903923576;tkalbitz;PenaltySpot;376;353;400;358;PenaltySpot
GO2019_G1C_PenaltySpots2_00051030_U.png;1556903924682;tkalbitz;PenaltySpot;377;361;402;366;PenaltySpot
GO2019_G1C_PenaltySpots2_00052637_U.png;1556903927876;tkalbitz;PenaltySpot;373;294;399;306;PenaltySpot
GO2019_G1C_PenaltySpots2_00052958_U.png;1556903931988;tkalbitz;PenaltySpot;465;296;498;306;PenaltySpot
GO2019_G1C_PenaltySpots2_00053270_U.png;1556903938280;tkalbitz;PenaltySpot;475;292;503;303;PenaltySpot
GO2019_G1C_PenaltySpots2_00054566_U.png;1556903943166;tkalbitz;PenaltySpot;329;299;357;307;PenaltySpot
GO2019_G1C_PenaltySpots2_00065953_U.png;1556903947904;tkalbitz;PenaltySpot;346;333;372;339;PenaltySpot
GO2019_G1C_PenaltySpots2_00068204_U.png;1556903949658;tkalbitz;PenaltySpot;418;315;448;325;PenaltySpot
GO2019_G1C_PenaltySpots2_00069211_U.png;1556903951204;tkalbitz;PenaltySpot;299;318;320;325;PenaltySpot
GO2019_G1C_PenaltySpots2_00070506_U.png;1556903952443;tkalbitz;PenaltySpot;305;304;329;311;PenaltySpot
GO2019_G1C_PenaltySpots2_00072098_U.png;1556903953640;tkalbitz;PenaltySpot;295;297;317;303;PenaltySpot
GO2019_G1C_PenaltySpots2_00072428_U.png;1556903955162;tkalbitz;PenaltySpot;365;296;386;303;PenaltySpot
GO2019_G1C_PenaltySpots2_00073387_U.png;1556903956437;tkalbitz;PenaltySpot;367;300;390;306;PenaltySpot
GO2019_G1C_PenaltySpots2_00073711_U.png;1556903957914;tkalbitz;PenaltySpot;327;312;345;317;PenaltySpot
GO2019_G1C_PenaltySpots2_00074036_U.png;1556903959034;tkalbitz;PenaltySpot;313;315;333;320;PenaltySpot
GO2019_G1C_PenaltySpots2_00074680_U.png;1556903960620;tkalbitz;PenaltySpot;218;307;237;312;PenaltySpot
GO2019_G1C_PenaltySpots2_00075326_U.png;1556903961902;tkalbitz;PenaltySpot;183;306;202;311;PenaltySpot
GO2019_G1C_PenaltySpots2_00075639_U.png;1556903963464;tkalbitz;PenaltySpot;244;309;263;314;PenaltySpot
GO2019_G1C_PenaltySpots2_00076607_U.png;1556903967941;tkalbitz;PenaltySpot;477;312;500;318;PenaltySpot
GO2019_G1C_PenaltySpots2_00077597_U.png;1556903970305;tkalbitz;PenaltySpot;479;341;500;347;PenaltySpot
GO2019_G1C_PenaltySpots2_00077912_U.png;1556903971866;tkalbitz;PenaltySpot;389;310;407;316;PenaltySpot
GO2019_G1C_PenaltySpots2_00079204_U.png;1556903973242;tkalbitz;PenaltySpot;367;346;387;351;PenaltySpot
GO2019_G1C_PenaltySpots2_00079526_U.png;1556903975105;tkalbitz;PenaltySpot;350;360;368;365;PenaltySpot
GO2019_G1C_PenaltySpots2_00079884_U.png;1556903977702;tkalbitz;PenaltySpot;351;365;372;372;PenaltySpot
GO2019_G1C_PenaltySpots2_00080524_U.png;1556903979737;tkalbitz;PenaltySpot;516;344;543;352;PenaltySpot
GO2019_G1C_PenaltySpots2_00081174_U.png;1556903982341;tkalbitz;PenaltySpot;364;358;381;363;PenaltySpot
GO2019_G1C_PenaltySpots2_00082463_U.png;1556903984251;tkalbitz;PenaltySpot;253;395;276;403;PenaltySpot
GO2019_G1C_PenaltySpots2_00082781_U.png;1556903985915;tkalbitz;PenaltySpot;181;368;202;374;PenaltySpot
GO2019_G1C_PenaltySpots2_00083110_U.png;1556903988301;tkalbitz;PenaltySpot;159;375;182;380;PenaltySpot
GO2019_G1C_PenaltySpots2_00083433_U.png;1556903991510;tkalbitz;PenaltySpot;114;366;134;371;PenaltySpot
GO2019_G1C_PenaltySpots2_00083752_U.png;1556903993426;tkalbitz;PenaltySpot;154;355;174;360;PenaltySpot
GO2019_G1C_PenaltySpots2_00085360_U.png;1556903995458;tkalbitz;PenaltySpot;442;356;461;363;PenaltySpot
GO2019_G1C_PenaltySpots2_00085683_U.png;1556904001480;tkalbitz;PenaltySpot;423;335;443;341;PenaltySpot
GO2019_G1C_PenaltySpots2_00086016_U.png;1556904003112;tkalbitz;PenaltySpot;432;367;453;375;PenaltySpot
GO2019_G1C_PenaltySpots2_00086648_U.png;1556904004866;tkalbitz;PenaltySpot;310;356;330;363;PenaltySpot
GO2019_G1C_PenaltySpots2_00086970_U.png;1556904006990;tkalbitz;PenaltySpot;229;317;251;324;PenaltySpot
GO2019_G1C_PenaltySpots2_00089243_U.png;1556904010277;tkalbitz;PenaltySpot;445;367;471;375;PenaltySpot
GO2019_G1C_PenaltySpots2_00089570_U.png;1556904011963;tkalbitz;PenaltySpot;514;329;537;338;PenaltySpot
GO2019_G1C_PenaltySpots2_00090214_U.png;1556904013493;tkalbitz;PenaltySpot;424;380;442;385;PenaltySpot
GO2019_G1C_PenaltySpots2_00091160_U.png;1556904015735;tkalbitz;PenaltySpot;313;378;331;383;PenaltySpot
GO2019_G1C_PenaltySpots2_00091483_U.png;1556904018642;tkalbitz;PenaltySpot;386;383;404;389;PenaltySpot
GO2019_G1C_PenaltySpots2_00092139_U.png;1556904020217;tkalbitz;PenaltySpot;468;373;490;379;PenaltySpot
GO2019_G1C_PenaltySpots2_00092453_U.png;1556904022543;tkalbitz;PenaltySpot;414;365;435;371;PenaltySpot
GO2019_G1C_PenaltySpots2_00093101_U.png;1556904024600;tkalbitz;PenaltySpot;400;396;422;403;PenaltySpot
GO2019_G1C_PenaltySpots2_00093438_U.png;1556904026000;tkalbitz;PenaltySpot;294;373;315;379;PenaltySpot
GO2019_G1C_PenaltySpots2_00093754_U.png;1556904027322;tkalbitz;PenaltySpot;206;352;226;358;PenaltySpot
GO2019_G1C_PenaltySpots2_00095042_U.png;1556904029162;tkalbitz;PenaltySpot;412;348;432;355;PenaltySpot
GO2019_G1C_PenaltySpots2_00095368_U.png;1556904030660;tkalbitz;PenaltySpot;354;384;373;390;PenaltySpot
GO2019_G1C_PenaltySpots2_00095694_U.png;1556904033358;tkalbitz;PenaltySpot;285;340;305;345;PenaltySpot
GO2019_G1C_PenaltySpots2_00096009_U.png;1556904035600;tkalbitz;PenaltySpot;317;373;336;378;PenaltySpot
GO2019_G1C_PenaltySpots2_00096660_U.png;1556904037276;tkalbitz;PenaltySpot;242;376;264;383;PenaltySpot
GO2019_G1C_PenaltySpots2_00096970_U.png;1556904038984;tkalbitz;PenaltySpot;279;380;299;387;PenaltySpot
GO2019_G1C_PenaltySpots2_00097298_U.png;1556904040909;tkalbitz;PenaltySpot;303;378;322;384;PenaltySpot
GO2019_G1C_PenaltySpots2_00097628_U.png;1556904042384;tkalbitz;PenaltySpot;334;383;353;388;PenaltySpot
GO2019_G1C_PenaltySpots2_00098252_U.png;1556904043752;tkalbitz;PenaltySpot;407;374;427;380;PenaltySpot
GO2019_G1C_PenaltySpots2_00098580_U.png;1556904045353;tkalbitz;PenaltySpot;335;355;354;360;PenaltySpot
GO2019_G1C_PenaltySpots2_00098899_U.png;1556904046875;tkalbitz;PenaltySpot;253;376;272;381;PenaltySpot
GO2019_G1C_PenaltySpots2_00099259_U.png;1556904049010;tkalbitz;PenaltySpot;194;358;215;363;PenaltySpot
GO2019_G1C_PenaltySpots2_00099565_U.png;1556904050407;tkalbitz;PenaltySpot;145;360;167;367;PenaltySpot
GO2019_G1C_PenaltySpots2_00100540_U.png;1556904055909;tkalbitz;PenaltySpot;325;349;347;355;PenaltySpot
GO2019_G1C_PenaltySpots2_00100855_U.png;1556904057604;tkalbitz;PenaltySpot;393;375;417;380;PenaltySpot
GO2019_G1C_PenaltySpots2_00101196_U.png;1556904058901;tkalbitz;PenaltySpot;398;353;418;359;PenaltySpot
GO2019_G1C_PenaltySpots2_00101521_U.png;1556904060184;tkalbitz;PenaltySpot;371;359;392;366;PenaltySpot
GO2019_G1C_PenaltySpots2_00102158_U.png;1556904064550;tkalbitz;PenaltySpot;455;386;480;392;PenaltySpot
GO2019_G1C_PenaltySpots2_00103113_U.png;1556904068485;tkalbitz;PenaltySpot;427;354;452;364;PenaltySpot
GO2019_G1C_PenaltySpots2_00103772_U.png;1556904069944;tkalbitz;PenaltySpot;349;404;369;409;PenaltySpot
GO2019_G1C_PenaltySpots2_00104098_U.png;1556904072540;tkalbitz;PenaltySpot;336;350;362;356;PenaltySpot
GO2019_G1C_PenaltySpots2_00104413_U.png;1556904073956;tkalbitz;PenaltySpot;348;392;373;399;PenaltySpot
GO2019_G1C_PenaltySpots2_00104742_U.png;1556904075292;tkalbitz;PenaltySpot;352;361;379;368;PenaltySpot
GO2019_G1C_PenaltySpots2_00105073_U.png;1556904077117;tkalbitz;PenaltySpot;356;367;385;376;PenaltySpot
GO2019_G1C_PenaltySpots2_00105379_U.png;1556904078687;tkalbitz;PenaltySpot;254;386;282;394;PenaltySpot
GO2019_G1C_PenaltySpots2_00106033_U.png;1556904079815;tkalbitz;PenaltySpot;280;391;307;397;PenaltySpot
GO2019_G1C_PenaltySpots2_00106364_U.png;1556904081353;tkalbitz;PenaltySpot;265;352;292;358;PenaltySpot
GO2019_G1C_PenaltySpots2_00107002_U.png;1556904084922;tkalbitz;PenaltySpot;418;385;448;393;PenaltySpot
GO2019_G1C_PenaltySpots2_00107654_U.png;1556904085920;tkalbitz;PenaltySpot;415;370;446;381;PenaltySpot
GO2019_G1C_PenaltySpots2_00107963_U.png;1556904088307;tkalbitz;PenaltySpot;176;388;210;398;PenaltySpot
GO2019_G1C_PenaltySpots2_00108617_U.png;1556904089667;tkalbitz;PenaltySpot;236;392;267;400;PenaltySpot
GO2019_G1C_PenaltySpots2_00109269_U.png;1556904090897;tkalbitz;PenaltySpot;384;398;419;410;PenaltySpot
GO2019_G1C_PenaltySpots2_00111200_U.png;1556904094675;tkalbitz;PenaltySpot;502;394;549;408;PenaltySpot
GO2019_G1C_PenaltySpots2_00161182_U.png;1556904118915;tkalbitz;PenaltySpot;328;403;391;436;PenaltySpot
GO2019_G1C_PenaltySpots2_00161829_U.png;1556904119873;tkalbitz;PenaltySpot;345;368;409;401;PenaltySpot
GO2019_G1C_PenaltySpots2_00163876_U.png;1556904120993;tkalbitz;PenaltySpot;337;401;402;438;PenaltySpot
GO2019_G1C_PenaltySpots2_00164512_U.png;1556904126188;tkalbitz;PenaltySpot;330;383;396;418;PenaltySpot
GO2019_G1C_PenaltySpots2_00172450_U.png;1556904127577;tkalbitz;PenaltySpot;264;313;317;335;PenaltySpot
GO2019_G1C_PenaltySpots2_00173340_U.png;1556904128559;tkalbitz;PenaltySpot;265;322;315;344;PenaltySpot
GO2019_G1C_PenaltySpots2_00173654_U.png;1556904129418;tkalbitz;PenaltySpot;245;330;295;352;PenaltySpot
GO2019_G1C_PenaltySpots2_00174307_U.png;1556904130569;tkalbitz;PenaltySpot;233;338;285;363;PenaltySpot
GO2019_G1C_PenaltySpots2_00174623_U.png;1556904131597;tkalbitz;PenaltySpot;233;377;285;400;PenaltySpot
GO2019_G1C_PenaltySpots2_00189764_U.png;1556904143290;tkalbitz;PenaltySpot;129;371;180;391;PenaltySpot
GO2019_G1C_PenaltySpots2_00192023_U.png;1556904146708;tkalbitz;PenaltySpot;177;375;228;396;PenaltySpot
GO2019_G1C_PenaltySpots2_00192341_U.png;1556904148176;tkalbitz;PenaltySpot;249;399;297;418;PenaltySpot
GO2019_G1C_PenaltySpots2_00192989_U.png;1556904149716;tkalbitz;PenaltySpot;407;353;457;371;PenaltySpot
GO2019_G1C_PenaltySpots2_00287057_U.png;1556904153673;tkalbitz;PenaltySpot;286;319;303;324;PenaltySpot
GO2019_G1C_PenaltySpots2_00287378_U.png;1556904155473;tkalbitz;PenaltySpot;273;326;291;331;PenaltySpot
GO2019_G1C_PenaltySpots2_00288346_U.png;1556904157413;tkalbitz;PenaltySpot;447;330;466;335;PenaltySpot
GO2019_G1C_PenaltySpots2_00288670_U.png;1556904159137;tkalbitz;PenaltySpot;347;346;365;351;PenaltySpot
GO2019_G1C_PenaltySpots2_00288998_U.png;1556904160776;tkalbitz;PenaltySpot;240;368;263;376;PenaltySpot
GO2019_G1C_PenaltySpots2_00290291_U.png;1556904163109;tkalbitz;PenaltySpot;173;335;193;340;PenaltySpot
GO2019_G1C_PenaltySpots2_00290605_U.png;1556904164525;tkalbitz;PenaltySpot;146;336;169;342;PenaltySpot
GO2019_G1C_PenaltySpots2_00291895_U.png;1556904166379;tkalbitz;PenaltySpot;366;410;390;419;PenaltySpot
GO2019_G1C_PenaltySpots2_00292218_U.png;1556904167586;tkalbitz;PenaltySpot;344;389;368;397;PenaltySpot
GO2019_G1C_PenaltySpots2_00293181_U.png;1556904169008;tkalbitz;PenaltySpot;349;384;374;391;PenaltySpot
GO2019_G1C_PenaltySpots2_00293510_U.png;1556904170785;tkalbitz;PenaltySpot;317;351;341;360;PenaltySpot
GO2019_G1C_PenaltySpots2_00294473_U.png;1556904172116;tkalbitz;PenaltySpot;287;400;310;408;PenaltySpot
GO2019_G1C_PenaltySpots2_00294802_U.png;1556904173870;tkalbitz;PenaltySpot;346;382;374;392;PenaltySpot
GO2019_G1C_PenaltySpots2_00296744_U.png;1556904175247;tkalbitz;PenaltySpot;358;389;392;397;PenaltySpot
GO2019_G1C_PenaltySpots2_00297061_U.png;1556904177116;tkalbitz;PenaltySpot;379;397;412;405;PenaltySpot
GO2019_G1C_PenaltySpots2_00300281_U.png;1556904184415;tkalbitz;PenaltySpot;175;379;214;391;PenaltySpot
GO2019_G1C_PenaltySpots2_00301261_U.png;1556904186045;tkalbitz;PenaltySpot;421;406;462;419;PenaltySpot
GO2019_G1C_PenaltySpots2_00302545_U.png;1556904189036;tkalbitz;PenaltySpot;394;385;437;399;PenaltySpot
GO2019_G1C_PenaltySpots2_00303196_U.png;1556904190405;tkalbitz;PenaltySpot;271;373;315;389;PenaltySpot
