2016WMLeipzigG10A_20160702_1_Testspiel_00111845_U.png
2016WMLeipzigG10A_20160702_1_Testspiel_00117971_U.png
2016WMLeipzigG10A_20160702_1_Testspiel_00119919_U.png
2016WMLeipzigG10A_20160702_1_Testspiel_00122130_U.png
2016WMLeipzigG10A_20160702_1_Testspiel_00123917_U.png
2016WMLeipzigG10A_20160702_1_Testspiel_00125734_U.png
2016WMLeipzigG10A_20160702_1_Testspiel_00127593_U.png
2016WMLeipzigG10A_20160702_1_Testspiel_00133945_U.png
2016WMLeipzigG10A_20160702_1_Testspiel_00140523_U.png
2016WMLeipzigG10A_20160702_1_Testspiel_00148691_U.png
2016WMLeipzigG10A_20160702_1_Testspiel_00164161_U.png
2016WMLeipzigG10A_20160702_1_Testspiel_00198547_U.png
2016WMLeipzigG10A_20160702_1_Testspiel_00206060_U.png
2016WMLeipzigG10A_20160702_1_Testspiel_00215133_U.png
2016WMLeipzigG10A_20160702_1_Testspiel_00219418_U.png
2016WMLeipzigG10A_20160702_1_Testspiel_00228755_U.png
2016WMLeipzigG10A_20160702_1_Testspiel_00320807_U.png
2016WMLeipzigG10A_20160702_1_Testspiel_00332127_U.png
2016WMLeipzigG10A_20160702_1_Testspiel_00336065_U.png
2016WMLeipzigG12A_GLaDOS_00017003_U.png
2016WMLeipzigG12A_GLaDOS_00020236_U.png
2016WMLeipzigG12A_GLaDOS_00021863_U.png
2016WMLeipzigG12A_GLaDOS_00062582_U.png
2016WMLeipzigG12A_GLaDOS_00065127_U.png
2016WMLeipzigG12A_GLaDOS_00068666_U.png
2016WMLeipzigG12A_GLaDOS_00081388_U.png
2016WMLeipzigG12A_GLaDOS_00083302_U.png
2016WMLeipzigG12A_GLaDOS_00085748_U.png
2016WMLeipzigG12A_GLaDOS_00124859_U.png
2016WMLeipzigG12A_GLaDOS_00146445_U.png
2016WMLeipzigG12A_GLaDOS_00246206_U.png
2016WMLeipzigG12A_GLaDOS_00248532_U.png
2016WMLeipzigG12A_GLaDOS_00249956_U.png
2016WMLeipzigG12A_GLaDOS_00256801_U.png
2016WMLeipzigG12A_GLaDOS_00258059_U.png
2016WMLeipzigG12A_GLaDOS_00259895_U.png
2016WMLeipzigG12A_GLaDOS_00262223_U.png
2016WMLeipzigG12A_GLaDOS_00273526_U.png
2016WMLeipzigG12A_GLaDOS_00276939_U.png
2016WMLeipzigG12A_GLaDOS_00284358_U.png
2016WMLeipzigG12A_GLaDOS_00288425_U.png
2016WMLeipzigG12A_GLaDOS_00290108_U.png
2016WMLeipzigG12A_GLaDOS_00295443_U.png
2016WMLeipzigG12A_GLaDOS_00301774_U.png
2016WMLeipzigG12A_GLaDOS_00306542_U.png
2016WMLeipzigG12A_GLaDOS_00308333_U.png
2016WMLeipzigG12A_GLaDOS_00310231_U.png
2016WMLeipzigG12A_GLaDOS_00312767_U.png
2016WMLeipzigG12A_GLaDOS_00331467_U.png
2016WMLeipzigG12A_GLaDOS_00335021_U.png
2016WMLeipzigG12A_GLaDOS_00338728_U.png
2016WMLeipzigG12A_GLaDOS_00341115_U.png
2016WMLeipzigG12A_GLaDOS_00343315_U.png
2016WMLeipzigG12A_GLaDOS_00348980_U.png
2016WMLeipzigG12A_GLaDOS_00351171_U.png
2016WMLeipzigG12A_GLaDOS_00353501_U.png
2016WMLeipzigG12A_GLaDOS_00355541_U.png
2016WMLeipzigG12A_GLaDOS_00358580_U.png
2016WMLeipzigG12A_GLaDOS_00360345_U.png
2016WMLeipzigG12A_GLaDOS_00366340_U.png
2016WMLeipzigG12A_GLaDOS_00370008_U.png
2016WMLeipzigG12A_GLaDOS_00372480_U.png
2016WMLeipzigG12A_GLaDOS_00375165_U.png
2016WMLeipzigG12A_GLaDOS_00377162_U.png
2016WMLeipzigG12A_GLaDOS_00386659_U.png
2016WMLeipzigG12A_GLaDOS_00388595_U.png
2016WMLeipzigG12A_GLaDOS_00393291_U.png
2016WMLeipzigG12A_GLaDOS_00395773_U.png
2016WMLeipzigG12A_GLaDOS_00397659_U.png
2016WMLeipzigG12A_GLaDOS_00399852_U.png
2016WMLeipzigG12A_GLaDOS_00401578_U.png
2016WMLeipzigG12A_GLaDOS_00403256_U.png
2016WMLeipzigG12A_GLaDOS_00405060_U.png
2016WMLeipzigG12A_GLaDOS_00415573_U.png
2016WMLeipzigG12A_GLaDOS_00417478_U.png
2016WMLeipzigG12A_GLaDOS_00419334_U.png
2016WMLeipzigG12A_GLaDOS_00421276_U.png
2016WMLeipzigG12A_GLaDOS_00424871_U.png
2016WMLeipzigG12A_GLaDOS_00429698_U.png
2016WMLeipzigG12A_GLaDOS_00434747_U.png
2016WMLeipzigG12A_GLaDOS_00440069_U.png
2016WMLeipzigG12A_GLaDOS_00444249_U.png
2016WMLeipzigG12A_GLaDOS_00446708_U.png
2016WMLeipzigG12A_GLaDOS_00448699_U.png
2016WMLeipzigG12A_GLaDOS_00450457_U.png
2016WMLeipzigG12A_GLaDOS_00452393_U.png
2016WMLeipzigG12A_GLaDOS_00454492_U.png
2016WMLeipzigG12A_GLaDOS_00456102_U.png
2016WMLeipzigG12A_GLaDOS_00458388_U.png
2016WMLeipzigG12A_GLaDOS_00460266_U.png
2016WMLeipzigG12A_GLaDOS_00462168_U.png
2016WMLeipzigG12A_GLaDOS_00465158_U.png
2016WMLeipzigG12A_GLaDOS_00466992_U.png
2016WMLeipzigG12A_GLaDOS_00469266_U.png
2016WMLeipzigG12A_GLaDOS_00471140_U.png
2016WMLeipzigG12A_GLaDOS_00474948_U.png
2016WMLeipzigG12A_GLaDOS_00476489_U.png
2016WMLeipzigG12A_GLaDOS_00478455_U.png
2016WMLeipzigG12A_GLaDOS_00480269_U.png
2016WMLeipzigG12A_GLaDOS_00482240_U.png
2016WMLeipzigG12A_GLaDOS_00485808_U.png
2016WMLeipzigG12A_GLaDOS_00488499_U.png
2016WMLeipzigG12A_GLaDOS_00490206_U.png
2016WMLeipzigG12A_GLaDOS_00492193_U.png
2016WMLeipzigG12A_GLaDOS_00564764_U.png
2016WMLeipzigG12A_GLaDOS_00566615_U.png
2016WMLeipzigG12A_GLaDOS_00568600_U.png
2016WMLeipzigG12A_GLaDOS_00572595_U.png
2016WMLeipzigG12A_GLaDOS_00574837_U.png
2016WMLeipzigG12A_GLaDOS_00576579_U.png
2016WMLeipzigG12A_GLaDOS_00592205_U.png
2016WMLeipzigG12A_GLaDOS_00604778_U.png
2016WMLeipzigG12A_GLaDOS_00662908_U.png
2016WMLeipzigG12A_GLaDOS_00664959_U.png
2016WMLeipzigG12A_GLaDOS_00672325_U.png
2016WMLeipzigG12A_GLaDOS_00674378_U.png
2016WMLeipzigG12A_GLaDOS_00676488_U.png
2016WMLeipzigG12A_GLaDOS_00679457_U.png
2016WMLeipzigG12A_Gargamel_00012312_U.png
2016WMLeipzigG12A_Gargamel_00039404_U.png
2016WMLeipzigG12A_Gargamel_00069480_U.png
2016WMLeipzigG12A_Gargamel_00160056_U.png
2016WMLeipzigG12A_Gargamel_00188553_U.png
2016WMLeipzigG12A_Gargamel_00190304_U.png
2016WMLeipzigG12A_Gargamel_00192474_U.png
2016WMLeipzigG12A_Gargamel_00194762_U.png
2016WMLeipzigG12A_Gargamel_00196625_U.png
2016WMLeipzigG12A_Gargamel_00198801_U.png
2016WMLeipzigG12A_Gargamel_00200679_U.png
2016WMLeipzigG12A_Gargamel_00202352_U.png
2016WMLeipzigG12A_Joker_00095895_U.png
2016WMLeipzigG12A_Joker_00097586_U.png
2016WMLeipzigG12A_Joker_00101294_U.png
2016WMLeipzigG12A_Joker_00213142_U.png
2016WMLeipzigG12A_Joker_00320869_U.png
2016WMLeipzigG12A_Joker_00336309_U.png
2016WMLeipzigG12A_Joker_00355856_U.png
2016WMLeipzigG12A_Joker_00361636_U.png
2016WMLeipzigG12A_Joker_00369863_U.png
2016WMLeipzigG12A_Joker_00390325_U.png
2016WMLeipzigG12A_Joker_00392127_U.png
2016WMLeipzigG12A_Joker_00461065_U.png
2016WMLeipzigG12A_Joker_00473834_U.png
2016WMLeipzigG12A_Joker_00477901_U.png
2016WMLeipzigG12A_Joker_00485294_U.png
2016WMLeipzigG12A_Joker_00491126_U.png
2016WMLeipzigG12A_Joker_00495334_U.png
2016WMLeipzigG12A_Joker_00505695_U.png
2016WMLeipzigG12A_Joker_00510160_U.png
2016WMLeipzigG12A_Joker_00511967_U.png
2016WMLeipzigG12A_Joker_00513684_U.png
2016WMLeipzigG12A_Joker_00515964_U.png
2016WMLeipzigG12A_Joker_00517842_U.png
2016WMLeipzigG12A_Joker_00522779_U.png
2016WMLeipzigG12A_Joker_00525164_U.png
2016WMLeipzigG12A_Joker_00527043_U.png
2016WMLeipzigG12A_Joker_00528782_U.png
2016WMLeipzigG12A_Joker_00530902_U.png
2016WMLeipzigG12A_Joker_00536751_U.png
2016WMLeipzigG12A_Joker_00538629_U.png
2016WMLeipzigG12A_Joker_00559603_U.png
2016WMLeipzigG12A_Joker_00568806_U.png
2016WMLeipzigG12A_Joker_00577295_U.png
2016WMLeipzigG12A_Joker_00586940_U.png
2016WMLeipzigG12A_Joker_00606297_U.png
2016WMLeipzigG12A_Joker_00617740_U.png
2016WMLeipzigG12A_Joker_00622049_U.png
2016WMLeipzigG12A_Joker_00635894_U.png
2016WMLeipzigG12A_Joker_00637742_U.png
2016WMLeipzigG12A_Joker_00639660_U.png
2016WMLeipzigG12A_Joker_00641562_U.png
2016WMLeipzigG12A_Joker_00650708_U.png
2016WMLeipzigG12A_Joker_00652649_U.png
2016WMLeipzigG12A_Joker_00654516_U.png
2016WMLeipzigG12A_Joker_00695864_U.png
2016WMLeipzigG12A_Joker_00705444_U.png
2016WMLeipzigG12A_Joker_00707840_U.png
2016WMLeipzigG12A_Joker_00710052_U.png
2016WMLeipzigG12A_Joker_00712212_U.png
2016WMLeipzigG12A_Joker_00714406_U.png
2016WMLeipzigG12A_Joker_00717261_U.png
2016WMLeipzigG12A_Joker_00719174_U.png
2016WMLeipzigG12A_Joker_00721311_U.png
2016WMLeipzigG12A_Joker_00723127_U.png
2016WMLeipzigG12A_Joker_00724903_U.png
2016WMLeipzigG12A_Joker_00735130_U.png
2016WMLeipzigG12A_Joker_00736870_U.png
2016WMLeipzigG12A_Joker_00738607_U.png
2016WMLeipzigG12A_Joker_00740475_U.png
2016WMLeipzigG12A_Joker_00742670_U.png
2016WMLeipzigG12A_Joker_00749934_U.png
2016WMLeipzigG12A_Joker_00752763_U.png
2016WMLeipzigG12A_Joker_00755285_U.png
2016WMLeipzigG12A_Joker_00765313_U.png
2016WMLeipzigG12A_Joker_00847266_U.png
2016WMLeipzigG12A_Joker_00849330_U.png
2016WMLeipzigG12A_Joker_01014535_U.png
2016WMLeipzigG12A_Joker_01019544_U.png
2016WMLeipzigG12A_Joker_01020378_U.png
2016WMLeipzigG12A_Joker_01022329_U.png
2016WMLeipzigG12A_Joker_01042737_U.png
2016WMLeipzigG12A_Joker_01044466_U.png
2016WMLeipzigG12A_Joker_01046547_U.png
2016WMLeipzigG12A_Joker_01051435_U.png
2016WMLeipzigG12A_Joker_01055813_U.png
2016WMLeipzigG12A_MisterBurns_00053756_U.png
2016WMLeipzigG12A_MisterBurns_00055746_U.png
2016WMLeipzigG12A_Shredder_00108721_U.png
2016WMLeipzigG12A_Shredder_00110173_U.png
2016WMLeipzigG12A_Shredder_00111872_U.png
2016WMLeipzigG12A_Shredder_00113543_U.png
2016WMLeipzigG12A_Shredder_00134795_U.png
2016WMLeipzigG12A_Shredder_00139760_U.png
2016WMLeipzigG12A_Shredder_00211772_U.png
2016WMLeipzigG12A_Shredder_00214943_U.png
2016WMLeipzigG12A_Shredder_00217360_U.png
2016WMLeipzigG12A_Shredder_00219054_U.png
2016WMLeipzigG12A_Shredder_00226517_U.png
2016WMLeipzigG12A_Shredder_00231964_U.png
2016WMLeipzigG12A_Shredder_00234485_U.png
2016WMLeipzigG12A_Shredder_00258626_U.png
2016WMLeipzigG12A_Shredder_00260773_U.png
2016WMLeipzigG12A_Shredder_00264865_U.png
2016WMLeipzigG12A_Shredder_00266449_U.png
2016WMLeipzigG12A_Shredder_00268099_U.png
2016WMLeipzigG12A_Shredder_00269941_U.png
2016WMLeipzigG12A_Shredder_00271798_U.png
2016WMLeipzigG12A_Shredder_00273558_U.png
2016WMLeipzigG12A_Shredder_00279323_U.png
2016WMLeipzigG12A_Shredder_00291238_U.png
2016WMLeipzigG12A_Shredder_00303016_U.png
2016WMLeipzigG12A_Shredder_00315593_U.png
2016WMLeipzigG12A_Shredder_00319533_U.png
2016WMLeipzigG12A_Shredder_00321342_U.png
2016WMLeipzigG12A_Shredder_00327068_U.png
2016WMLeipzigG12A_Shredder_00334822_U.png
2016WMLeipzigG12A_Shredder_00336594_U.png
2016WMLeipzigG12A_Shredder_00338469_U.png
2016WMLeipzigG12A_Shredder_00378446_U.png
2016WMLeipzigG12A_Shredder_00381288_U.png
2016WMLeipzigG12A_Shredder_00404012_U.png
2016WMLeipzigG12A_Shredder_00406579_U.png
2016WMLeipzigG12A_Shredder_00417472_U.png
2016WMLeipzigG12A_Shredder_00419224_U.png
2016WMLeipzigG12A_Shredder_00476285_U.png
2016WMLeipzigG12A_Shredder_00480068_U.png
2016WMLeipzigG12A_Shredder_00481939_U.png
2016WMLeipzigG12A_Shredder_00490662_U.png
2016WMLeipzigG12A_Shredder_00493192_U.png
2016WMLeipzigG12A_Shredder_00501762_U.png
2016WMLeipzigG12A_Shredder_00532120_U.png
2016WMLeipzigG12A_Shredder_00539532_U.png
2016WMLeipzigG12A_Shredder_00551064_U.png
2016WMLeipzigG12A_Shredder_00554799_U.png
2016WMLeipzigG12A_Shredder_00556545_U.png
2016WMLeipzigG12A_Shredder_00558306_U.png
2016WMLeipzigG12A_Shredder_00560009_U.png
2016WMLeipzigG12A_Shredder_00566402_U.png
2016WMLeipzigG12A_Shredder_00568572_U.png
2016WMLeipzigG12A_Shredder_00571247_U.png
2016WMLeipzigG12A_Shredder_00573045_U.png
2016WMLeipzigG12A_Shredder_00574750_U.png
2016WMLeipzigG12A_Shredder_00588745_U.png
2016WMLeipzigG12A_Shredder_00590938_U.png
2016WMLeipzigG12A_Shredder_00592964_U.png
2016WMLeipzigG12A_Shredder_00602171_U.png
2016WMLeipzigG12A_Shredder_00604541_U.png
2016WMLeipzigG12A_Shredder_00606944_U.png
2016WMLeipzigG12A_Shredder_00610204_U.png
2016WMLeipzigG12A_Shredder_00616612_U.png
2016WMLeipzigG12A_Shredder_00618262_U.png
2016WMLeipzigG12A_Shredder_00620008_U.png
2016WMLeipzigG12A_Shredder_00622003_U.png
2016WMLeipzigG12A_Shredder_00624244_U.png
2016WMLeipzigG12A_Shredder_00626164_U.png
2016WMLeipzigG12A_Shredder_00628440_U.png
2016WMLeipzigG12A_Shredder_00630799_U.png
2016WMLeipzigG12A_Shredder_00633377_U.png
2016WMLeipzigG12A_Shredder_00635740_U.png
2016WMLeipzigG12A_Shredder_00639322_U.png
2016WMLeipzigG12A_Shredder_00645109_U.png
2016WMLeipzigG12A_Shredder_00647436_U.png
2016WMLeipzigG12A_Shredder_00658197_U.png
2016WMLeipzigG12A_Shredder_00663641_U.png
2016WMLeipzigG12A_Shredder_00665878_U.png
2016WMLeipzigG12A_Shredder_00668323_U.png
2016WMLeipzigG12A_Shredder_00670933_U.png
2016WMLeipzigG12A_Shredder_00672773_U.png
2016WMLeipzigG12A_Shredder_00674884_U.png
2016WMLeipzigG12A_Shredder_00677001_U.png
2016WMLeipzigG12A_Shredder_00696941_U.png
2016WMLeipzigG12A_Shredder_00698588_U.png
2016WMLeipzigG12A_Shredder_00700316_U.png
2016WMLeipzigG12A_Shredder_00702041_U.png
2016WMLeipzigG12A_Shredder_00705839_U.png
2016WMLeipzigG12A_Shredder_00707513_U.png
2016WMLeipzigG12A_Shredder_00710556_U.png
2016WMLeipzigG12A_Shredder_00726478_U.png
2016WMLeipzigG12A_Shredder_00753545_U.png
2016WMLeipzigG12A_Shredder_00755841_U.png
2016WMLeipzigG12A_Shredder_00757710_U.png
2016WMLeipzigG12A_Shredder_00759434_U.png
2016WMLeipzigG12A_Shredder_00761097_U.png
2016WMLeipzigG12A_Shredder_00762783_U.png
2016WMLeipzigG12A_Shredder_00764757_U.png
2016WMLeipzigG12A_Shredder_00766610_U.png
2016WMLeipzigG12A_Shredder_00830834_U.png
2016WMLeipzigG12A_Shredder_00834499_U.png
2016WMLeipzigG12A_Shredder_00836255_U.png
2016WMLeipzigG12A_Shredder_00841506_U.png
2016WMLeipzigG12A_Shredder_01011864_U.png
2016WMLeipzigG12A_Shredder_01019252_U.png
2016WMLeipzigG12B_GLaDOS_00149350_U.png
2016WMLeipzigG12B_GLaDOS_00155418_U.png
2016WMLeipzigG12B_GLaDOS_00161041_U.png
2016WMLeipzigG12B_GLaDOS_00166768_U.png
2016WMLeipzigG12B_GLaDOS_00172543_U.png
2016WMLeipzigG12B_GLaDOS_00175439_U.png
2016WMLeipzigG12B_GLaDOS_00181587_U.png
2016WMLeipzigG12B_GLaDOS_00186556_U.png
2016WMLeipzigG12B_GLaDOS_00192495_U.png
2016WMLeipzigG12B_GLaDOS_00194392_U.png
2016WMLeipzigG12B_GLaDOS_00197809_U.png
2016WMLeipzigG12B_GLaDOS_00207831_U.png
2016WMLeipzigG12B_GLaDOS_00210070_U.png
2016WMLeipzigG12B_GLaDOS_00211813_U.png
2016WMLeipzigG12B_GLaDOS_00232682_U.png
2016WMLeipzigG12B_GLaDOS_00323019_U.png
2016WMLeipzigG12B_GLaDOS_00325213_U.png
2016WMLeipzigG12B_GLaDOS_00336895_U.png
2016WMLeipzigG12B_GLaDOS_00338835_U.png
2016WMLeipzigG12B_GLaDOS_00340677_U.png
2016WMLeipzigG12B_GLaDOS_00343219_U.png
2016WMLeipzigG12B_GLaDOS_00345154_U.png
2016WMLeipzigG12B_GLaDOS_00354908_U.png
2016WMLeipzigG12B_GLaDOS_00357029_U.png
2016WMLeipzigG12B_GLaDOS_00361486_U.png
2016WMLeipzigG12B_GLaDOS_00362923_U.png
2016WMLeipzigG12B_GLaDOS_00369129_U.png
2016WMLeipzigG12B_GLaDOS_00370922_U.png
2016WMLeipzigG12B_GLaDOS_00373188_U.png
2016WMLeipzigG12B_GLaDOS_00375499_U.png
2016WMLeipzigG12B_GLaDOS_00377545_U.png
2016WMLeipzigG12B_GLaDOS_00379403_U.png
2016WMLeipzigG12B_GLaDOS_00382306_U.png
2016WMLeipzigG12B_GLaDOS_00384169_U.png
2016WMLeipzigG12B_GLaDOS_00386535_U.png
2016WMLeipzigG12B_GLaDOS_00388318_U.png
2016WMLeipzigG12B_GLaDOS_00390061_U.png
2016WMLeipzigG12B_GLaDOS_00392306_U.png
2016WMLeipzigG12B_GLaDOS_00394348_U.png
2016WMLeipzigG12B_GLaDOS_00396036_U.png
2016WMLeipzigG12B_GLaDOS_00398643_U.png
2016WMLeipzigG12B_GLaDOS_00401179_U.png
2016WMLeipzigG12B_GLaDOS_00404687_U.png
2016WMLeipzigG12B_GLaDOS_00406361_U.png
2016WMLeipzigG12B_GLaDOS_00408078_U.png
2016WMLeipzigG12B_GLaDOS_00410963_U.png
2016WMLeipzigG12B_GLaDOS_00413218_U.png
2016WMLeipzigG12B_GLaDOS_00415732_U.png
2016WMLeipzigG12B_GLaDOS_00418102_U.png
2016WMLeipzigG12B_GLaDOS_00421767_U.png
2016WMLeipzigG12B_GLaDOS_00423851_U.png
2016WMLeipzigG12B_GLaDOS_00425736_U.png
2016WMLeipzigG12B_GLaDOS_00427448_U.png
2016WMLeipzigG12B_GLaDOS_00429381_U.png
2016WMLeipzigG12B_GLaDOS_00431351_U.png
2016WMLeipzigG12B_GLaDOS_00440209_U.png
2016WMLeipzigG12B_GLaDOS_00448174_U.png
2016WMLeipzigG12B_GLaDOS_00450004_U.png
2016WMLeipzigG12B_GLaDOS_00453752_U.png
2016WMLeipzigG12B_GLaDOS_00458236_U.png
2016WMLeipzigG12B_GLaDOS_00543967_U.png
2016WMLeipzigG12B_GLaDOS_00591172_U.png
2016WMLeipzigG12B_GLaDOS_00634823_U.png
2016WMLeipzigG12B_GLaDOS_00703410_U.png
2016WMLeipzigG12B_GLaDOS_00726746_U.png
2016WMLeipzigG12B_GLaDOS_00734180_U.png
2016WMLeipzigG12B_GLaDOS_00741787_U.png
2016WMLeipzigG12B_GLaDOS_00746864_U.png
2016WMLeipzigG12B_GLaDOS_00753475_U.png
2016WMLeipzigG12B_GLaDOS_00755434_U.png
2016WMLeipzigG12B_GLaDOS_00757632_U.png
2016WMLeipzigG12B_GLaDOS_00759321_U.png
2016WMLeipzigG12B_GLaDOS_00761203_U.png
2016WMLeipzigG12B_GLaDOS_00763081_U.png
2016WMLeipzigG12B_GLaDOS_00764827_U.png
2016WMLeipzigG12B_GLaDOS_00766544_U.png
2016WMLeipzigG12B_GLaDOS_00805614_U.png
2016WMLeipzigG12B_GLaDOS_00808555_U.png
2016WMLeipzigG12B_GLaDOS_00812407_U.png
2016WMLeipzigG12B_GLaDOS_00814906_U.png
2016WMLeipzigG12B_GLaDOS_00817225_U.png
2016WMLeipzigG12B_GLaDOS_00825433_U.png
2016WMLeipzigG12B_GLaDOS_00833543_U.png
2016WMLeipzigG12B_GLaDOS_00845514_U.png
2016WMLeipzigG12B_GLaDOS_00847898_U.png
2016WMLeipzigG12B_GLaDOS_00937388_U.png
2016WMLeipzigG12B_GLaDOS_00941713_U.png
2016WMLeipzigG12B_GLaDOS_00943387_U.png
2016WMLeipzigG12B_GLaDOS_00945866_U.png
2016WMLeipzigG12B_GLaDOS_00948061_U.png
2016WMLeipzigG12B_GLaDOS_00950583_U.png
2016WMLeipzigG12B_GLaDOS_00952462_U.png
2016WMLeipzigG12B_GLaDOS_00965636_U.png
2016WMLeipzigG12B_GLaDOS_00971981_U.png
2016WMLeipzigG12B_GLaDOS_00980161_U.png
2016WMLeipzigG12B_GLaDOS_00990891_U.png
2016WMLeipzigG12B_GLaDOS_00992796_U.png
2016WMLeipzigG12B_GLaDOS_00995216_U.png
2016WMLeipzigG12B_GLaDOS_00998254_U.png
2016WMLeipzigG12B_GLaDOS_01003571_U.png
2016WMLeipzigG12B_GLaDOS_01005859_U.png
2016WMLeipzigG12B_GLaDOS_01007964_U.png
2016WMLeipzigG12B_GLaDOS_01076692_U.png
2016WMLeipzigG12B_GLaDOS_01078991_U.png
2016WMLeipzigG12B_GLaDOS_01080666_U.png
2016WMLeipzigG12B_GLaDOS_01082643_U.png
2016WMLeipzigG12B_GLaDOS_01084703_U.png
2016WMLeipzigG12B_GLaDOS_01088787_U.png
2016WMLeipzigG12B_GLaDOS_01091218_U.png
2016WMLeipzigG12B_GLaDOS_01121956_U.png
2016WMLeipzigG12B_GLaDOS_01132766_U.png
2016WMLeipzigG12B_GLaDOS_01142654_U.png
2016WMLeipzigG12B_GLaDOS_01238234_U.png
2016WMLeipzigG12B_GLaDOS_01239885_U.png
2016WMLeipzigG12B_GLaDOS_01241918_U.png
2016WMLeipzigG12B_GLaDOS_01244081_U.png
2016WMLeipzigG12B_GLaDOS_01263292_U.png
2016WMLeipzigG12B_GLaDOS_01265173_U.png
2016WMLeipzigG12B_Gargamel_00096198_U.png
2016WMLeipzigG12B_Gargamel_00114178_U.png
2016WMLeipzigG12B_Gargamel_00155473_U.png
2016WMLeipzigG12B_Gargamel_00278421_U.png
2016WMLeipzigG12B_Gargamel_00345710_U.png
2016WMLeipzigG12B_Gargamel_00347884_U.png
2016WMLeipzigG12B_Gargamel_00382624_U.png
2016WMLeipzigG12B_Gargamel_00485743_U.png
2016WMLeipzigG12B_Gargamel_00489403_U.png
2016WMLeipzigG12B_Gargamel_00491603_U.png
2016WMLeipzigG12B_Gargamel_00504189_U.png
2016WMLeipzigG12B_Gargamel_00506113_U.png
2016WMLeipzigG12B_Gargamel_00509400_U.png
2016WMLeipzigG12B_Gargamel_00511001_U.png
2016WMLeipzigG12B_Gargamel_00512916_U.png
2016WMLeipzigG12B_Gargamel_00514814_U.png
2016WMLeipzigG12B_Gargamel_00516572_U.png
2016WMLeipzigG12B_Gargamel_00518411_U.png
2016WMLeipzigG12B_Gargamel_00520951_U.png
2016WMLeipzigG12B_Gargamel_00522949_U.png
2016WMLeipzigG12B_Gargamel_00525382_U.png
2016WMLeipzigG12B_Gargamel_00527202_U.png
2016WMLeipzigG12B_Gargamel_00529905_U.png
2016WMLeipzigG12B_Gargamel_00532705_U.png
2016WMLeipzigG12B_Gargamel_00554556_U.png
2016WMLeipzigG12B_Gargamel_00595582_U.png
2016WMLeipzigG12B_Gargamel_00611129_U.png
2016WMLeipzigG12B_Gargamel_00612880_U.png
2016WMLeipzigG12B_Gargamel_00620220_U.png
2016WMLeipzigG12B_Gargamel_00623871_U.png
2016WMLeipzigG12B_Gargamel_00628108_U.png
2016WMLeipzigG12B_Gargamel_00632526_U.png
2016WMLeipzigG12B_Gargamel_00647007_U.png
2016WMLeipzigG12B_Gargamel_00651536_U.png
2016WMLeipzigG12B_Gargamel_00653246_U.png
2016WMLeipzigG12B_MisterBurns_00146942_U.png
2016WMLeipzigG12B_MisterBurns_00154613_U.png
2016WMLeipzigG12B_MisterBurns_00158259_U.png
2016WMLeipzigG12B_MisterBurns_00160748_U.png
2016WMLeipzigG12B_MisterBurns_00162982_U.png
2016WMLeipzigG12B_MisterBurns_00164958_U.png
2016WMLeipzigG12B_MisterBurns_00187452_U.png
2016WMLeipzigG12B_MisterBurns_00201014_U.png
2016WMLeipzigG12B_MisterBurns_00202784_U.png
2016WMLeipzigG12B_MisterBurns_00205140_U.png
2016WMLeipzigG12B_MisterBurns_00207369_U.png
2016WMLeipzigG12B_MisterBurns_00217831_U.png
2016WMLeipzigG12B_MisterBurns_00228686_U.png
2016WMLeipzigG12B_MisterBurns_00230834_U.png
2016WMLeipzigG12B_MisterBurns_00276226_U.png
2016WMLeipzigG12B_MisterBurns_00298179_U.png
2016WMLeipzigG12B_MisterBurns_00302156_U.png
2016WMLeipzigG12B_MisterBurns_00304423_U.png
2016WMLeipzigG12B_MisterBurns_00308977_U.png
2016WMLeipzigG12B_MisterBurns_00311386_U.png
2016WMLeipzigG12B_MisterBurns_00316714_U.png
2016WMLeipzigG12B_MisterBurns_00317500_U.png
2016WMLeipzigG12B_MisterBurns_00332567_U.png
2016WMLeipzigG12B_MisterBurns_00334274_U.png
2016WMLeipzigG12B_MisterBurns_00336000_U.png
2016WMLeipzigG12B_MisterBurns_00337697_U.png
2016WMLeipzigG12B_MisterBurns_00339443_U.png
2016WMLeipzigG12B_MisterBurns_00341247_U.png
2016WMLeipzigG12B_MisterBurns_00343513_U.png
2016WMLeipzigG12B_MisterBurns_00359025_U.png
2016WMLeipzigG12B_MisterBurns_00462477_U.png
2016WMLeipzigG12B_MisterBurns_00468802_U.png
2016WMLeipzigG12B_MisterBurns_00473738_U.png
2016WMLeipzigG12B_MisterBurns_00573945_U.png
2016WMLeipzigG12B_MisterBurns_00703819_U.png
2016WMLeipzigG12B_MisterBurns_00710132_U.png
2016WMLeipzigG12B_MisterBurns_00715767_U.png
2016WMLeipzigG12B_MisterBurns_00721302_U.png
2016WMLeipzigG12B_MisterBurns_00726239_U.png
2016WMLeipzigG12B_MisterBurns_00731893_U.png
2016WMLeipzigG12B_MisterBurns_00737931_U.png
2016WMLeipzigG12B_MisterBurns_00740447_U.png
2016WMLeipzigG12B_MisterBurns_00744535_U.png
2016WMLeipzigG12B_MisterBurns_00751596_U.png
2016WMLeipzigG12B_MisterBurns_00754401_U.png
2016WMLeipzigG12B_MisterBurns_00756385_U.png
2016WMLeipzigG12B_MisterBurns_00789139_U.png
2016WMLeipzigG12B_MisterBurns_00792639_U.png
2016WMLeipzigG12B_MisterBurns_00794466_U.png
2016WMLeipzigG12B_MisterBurns_00796184_U.png
2016WMLeipzigG12B_MisterBurns_00799854_U.png
2016WMLeipzigG12B_MisterBurns_00803940_U.png
2016WMLeipzigG12B_MisterBurns_00807752_U.png
2016WMLeipzigG12B_MisterBurns_00911664_U.png
2016WMLeipzigG12B_MisterBurns_00915609_U.png
2016WMLeipzigG12B_MisterBurns_00922653_U.png
2016WMLeipzigG12B_MisterBurns_00925152_U.png
2016WMLeipzigG12B_MisterBurns_00926710_U.png
2016WMLeipzigG12B_MisterBurns_00928868_U.png
2016WMLeipzigG12B_MisterBurns_00930716_U.png
2016WMLeipzigG12B_MisterBurns_00932493_U.png
2016WMLeipzigG12B_MisterBurns_00935261_U.png
2016WMLeipzigG12B_MisterBurns_00937363_U.png
2016WMLeipzigG12B_MisterBurns_00939375_U.png
2016WMLeipzigG12B_MisterBurns_00943669_U.png
2016WMLeipzigG12B_MisterBurns_00945825_U.png
2016WMLeipzigG12B_MisterBurns_00947723_U.png
2016WMLeipzigG12B_MisterBurns_00949451_U.png
2016WMLeipzigG12B_MisterBurns_00954750_U.png
2016WMLeipzigG12B_MisterBurns_00956461_U.png
2016WMLeipzigG12B_MisterBurns_00958177_U.png
2016WMLeipzigG12B_MisterBurns_00960014_U.png
2016WMLeipzigG12B_MisterBurns_00961813_U.png
2016WMLeipzigG12B_MisterBurns_00964105_U.png
2016WMLeipzigG12B_MisterBurns_00966190_U.png
2016WMLeipzigG12B_MisterBurns_00968436_U.png
2016WMLeipzigG12B_MisterBurns_00970165_U.png
2016WMLeipzigG12B_MisterBurns_00971895_U.png
2016WMLeipzigG12B_MisterBurns_01048081_U.png
2016WMLeipzigG12B_MisterBurns_01049792_U.png
2016WMLeipzigG12B_MisterBurns_01072803_U.png
2016WMLeipzigG12B_MisterBurns_01093240_U.png
2016WMLeipzigG12B_MisterBurns_01095107_U.png
2016WMLeipzigG12B_MisterBurns_01101105_U.png
2016WMLeipzigG12B_MisterBurns_01103293_U.png
2016WMLeipzigG12B_MisterBurns_01105364_U.png
2016WMLeipzigG12B_MisterBurns_01116508_U.png
2016WMLeipzigG12B_MisterBurns_01203918_U.png
2016WMLeipzigG12B_MisterBurns_01205869_U.png
2016WMLeipzigG12B_MisterBurns_01211540_U.png
2016WMLeipzigG12C_Joker_00153232_U.png
2016WMLeipzigG12C_Joker_00155060_U.png
2016WMLeipzigG12C_Joker_00157590_U.png
2016WMLeipzigG12C_Joker_00159653_U.png
2016WMLeipzigG12C_Joker_00162283_U.png
2016WMLeipzigG12C_Joker_00164419_U.png
2016WMLeipzigG12C_Joker_00166544_U.png
2016WMLeipzigG12C_Joker_00169166_U.png
2016WMLeipzigG12C_Joker_00171483_U.png
2016WMLeipzigG12C_Joker_00173641_U.png
2016WMLeipzigG12C_Joker_00175812_U.png
2016WMLeipzigG12C_Joker_00177554_U.png
2016WMLeipzigG12C_Joker_00199254_U.png
2016WMLeipzigG12C_Joker_00201829_U.png
2016WMLeipzigG12C_Joker_00203997_U.png
2016WMLeipzigG12C_Joker_00290629_U.png
2016WMLeipzigG12C_Joker_00294225_U.png
2016WMLeipzigG12C_Joker_00299808_U.png
2016WMLeipzigG12C_Joker_00306923_U.png
2016WMLeipzigG12C_Joker_00314345_U.png
2016WMLeipzigG12C_Joker_00327799_U.png
2016WMLeipzigG12C_Joker_00343599_U.png
2016WMLeipzigG12C_Joker_00386549_U.png
2016WMLeipzigG12C_Joker_00392339_U.png
2016WMLeipzigG12C_Joker_00399746_U.png
2016WMLeipzigG12C_Joker_00401703_U.png
2016WMLeipzigG12C_Joker_00404512_U.png
2016WMLeipzigG12C_Joker_00406490_U.png
2016WMLeipzigG12C_Joker_00408880_U.png
2016WMLeipzigG12C_Joker_00410965_U.png
2016WMLeipzigG12C_Joker_00413129_U.png
2016WMLeipzigG12C_Joker_00415917_U.png
2016WMLeipzigG12C_Joker_00436427_U.png
2016WMLeipzigG12C_Joker_00438418_U.png
2016WMLeipzigG12C_Joker_00440300_U.png
2016WMLeipzigG12C_Joker_00447938_U.png
2016WMLeipzigG12C_Joker_00449570_U.png
2016WMLeipzigG12C_Joker_00451308_U.png
2016WMLeipzigG12C_Joker_00464223_U.png
2016WMLeipzigG12C_Joker_00467056_U.png
2016WMLeipzigG12C_Joker_00472268_U.png
2016WMLeipzigG12C_Joker_00475787_U.png
2016WMLeipzigG12C_Joker_00690360_U.png
2016WMLeipzigG12C_Joker_00729580_U.png
2016WMLeipzigG12C_Joker_00733106_U.png
2016WMLeipzigG12C_Joker_00735347_U.png
2016WMLeipzigG12C_Joker_00745688_U.png
2016WMLeipzigG12C_Joker_00749394_U.png
2016WMLeipzigG12C_Joker_00751126_U.png
2016WMLeipzigG12C_Joker_00755155_U.png
2016WMLeipzigG12C_Joker_00757171_U.png
2016WMLeipzigG12C_Joker_00761286_U.png
2016WMLeipzigG12C_Joker_00924060_U.png
2016WMLeipzigG12C_Joker_00929061_U.png
2016WMLeipzigG12C_Joker_00933146_U.png
2016WMLeipzigG12C_Joker_00935082_U.png
2016WMLeipzigG12C_Joker_00937027_U.png
2016WMLeipzigG12C_Joker_00939057_U.png
2016WMLeipzigG12C_Joker_00950930_U.png
2016WMLeipzigG12C_Joker_00966588_U.png
2016WMLeipzigG12C_Joker_00968381_U.png
2016WMLeipzigG12C_Joker_00978888_U.png
2016WMLeipzigG12C_Joker_01043605_U.png
2016WMLeipzigG12C_Joker_01045451_U.png
2016WMLeipzigG12C_Joker_01049038_U.png
2016WMLeipzigG12C_Joker_01050894_U.png
2016WMLeipzigG12C_Joker_01054569_U.png
2016WMLeipzigG12C_MisterBurns_00037489_U.png
2016WMLeipzigG12C_MisterBurns_00039474_U.png
2016WMLeipzigG12C_MisterBurns_00041202_U.png
2016WMLeipzigG12C_MisterBurns_00042952_U.png
2016WMLeipzigG12C_MisterBurns_00044620_U.png
2016WMLeipzigG12C_MisterBurns_00046557_U.png
2016WMLeipzigG12C_MisterBurns_00049021_U.png
2016WMLeipzigG12C_MisterBurns_00051165_U.png
2016WMLeipzigG12C_MisterBurns_00052798_U.png
2016WMLeipzigG12C_MisterBurns_00054652_U.png
2016WMLeipzigG12C_MisterBurns_00056588_U.png
2016WMLeipzigG12C_MisterBurns_00067171_U.png
2016WMLeipzigG12C_MisterBurns_00083058_U.png
2016WMLeipzigG12C_MisterBurns_00084875_U.png
2016WMLeipzigG12C_Shredder_00144628_U.png
2016WMLeipzigG12C_Shredder_00150208_U.png
2016WMLeipzigG12C_Shredder_00172960_U.png
2016WMLeipzigG12C_Shredder_00175272_U.png
2016WMLeipzigG12C_Shredder_00177182_U.png
2016WMLeipzigG12C_Shredder_00196089_U.png
2016WMLeipzigG12C_Shredder_00198288_U.png
2016WMLeipzigG12C_Shredder_00200844_U.png
2016WMLeipzigG12C_Shredder_00202570_U.png
2016WMLeipzigG12C_Shredder_00204729_U.png
2016WMLeipzigG12C_Shredder_00207272_U.png
2016WMLeipzigG12C_Shredder_00209112_U.png
2016WMLeipzigG12C_Shredder_00211148_U.png
2016WMLeipzigG12C_Shredder_00213096_U.png
2016WMLeipzigG12C_Shredder_00215491_U.png
2016WMLeipzigG12C_Shredder_00217353_U.png
2016WMLeipzigG12C_Shredder_00219087_U.png
2016WMLeipzigG12C_Shredder_00221984_U.png
2016WMLeipzigG12C_Shredder_00223678_U.png
2016WMLeipzigG12C_Shredder_00225712_U.png
2016WMLeipzigG12C_Shredder_00228134_U.png
2016WMLeipzigG12C_Shredder_00233572_U.png
2016WMLeipzigG12C_Shredder_00325856_U.png
2016WMLeipzigG12C_Shredder_00333743_U.png
2016WMLeipzigG12C_Shredder_00340273_U.png
2016WMLeipzigG12C_Shredder_00342088_U.png
2016WMLeipzigG12C_Shredder_00344624_U.png
2016WMLeipzigG12C_Shredder_00347026_U.png
2016WMLeipzigG12C_Shredder_00349368_U.png
2016WMLeipzigG12C_Shredder_00355461_U.png
2016WMLeipzigG12C_Shredder_00375865_U.png
2016WMLeipzigG12C_Shredder_00383384_U.png
2016WMLeipzigG12C_Shredder_00385479_U.png
2016WMLeipzigG12C_Shredder_00387759_U.png
2016WMLeipzigG12C_Shredder_00389669_U.png
2016WMLeipzigG12C_Shredder_00391495_U.png
2016WMLeipzigG12C_Shredder_00393360_U.png
2016WMLeipzigG12C_Shredder_00395154_U.png
2016WMLeipzigG12C_Shredder_00405917_U.png
2016WMLeipzigG12C_Shredder_00412210_U.png
2016WMLeipzigG12C_Shredder_00420491_U.png
2016WMLeipzigG12C_Shredder_00429133_U.png
2016WMLeipzigG12C_Shredder_00431596_U.png
2016WMLeipzigG12C_Shredder_00433480_U.png
2016WMLeipzigG12C_Shredder_00435125_U.png
2016WMLeipzigG12C_Shredder_00470774_U.png
2016WMLeipzigG12C_Shredder_00473472_U.png
2016WMLeipzigG12C_Shredder_00593226_U.png
2016WMLeipzigG12C_Shredder_00595148_U.png
2016WMLeipzigG12C_Shredder_00596985_U.png
2016WMLeipzigG12C_Shredder_00601089_U.png
2016WMLeipzigG12C_Shredder_00703061_U.png
2016WMLeipzigG12C_Shredder_00720308_U.png
2016WMLeipzigG12C_Shredder_00726560_U.png
2016WMLeipzigG12C_Shredder_00734511_U.png
2016WMLeipzigG12C_Shredder_00756940_U.png
2016WMLeipzigG12C_Shredder_00759288_U.png
2016WMLeipzigG12C_Shredder_00761951_U.png
2016WMLeipzigG12C_Shredder_00763631_U.png
2016WMLeipzigG12C_Shredder_00766131_U.png
2016WMLeipzigG12C_Shredder_00767852_U.png
2016WMLeipzigG12C_Shredder_00770314_U.png
2016WMLeipzigG12C_Shredder_00772267_U.png
2016WMLeipzigG12C_Shredder_00776317_U.png
2016WMLeipzigG12C_Shredder_00788982_U.png
2016WMLeipzigG12C_Shredder_00807308_U.png
2016WMLeipzigG12C_Shredder_00809596_U.png
2016WMLeipzigG12C_Shredder_00811473_U.png
2016WMLeipzigG12C_Shredder_00813094_U.png
2016WMLeipzigG12C_Shredder_00814971_U.png
2016WMLeipzigG12C_Shredder_00817315_U.png
2016WMLeipzigG12C_Shredder_00819393_U.png
2016WMLeipzigG12C_Shredder_00821397_U.png
2016WMLeipzigG12C_Shredder_00830422_U.png
2016WMLeipzigG12C_Shredder_00832471_U.png
2016WMLeipzigG12C_Shredder_00834358_U.png
2016WMLeipzigG12C_Shredder_00845193_U.png
2016WMLeipzigG12C_Shredder_00846989_U.png
2016WMLeipzigG12C_Shredder_00934265_U.png
2016WMLeipzigG12C_Shredder_00936371_U.png
2016WMLeipzigG12C_Shredder_00940206_U.png
2016WMLeipzigG12C_Shredder_00941337_U.png
2016WMLeipzigG12C_Shredder_00949401_U.png
2016WMLeipzigG12C_Shredder_00951013_U.png
2016WMLeipzigG12C_Shredder_00954679_U.png
2016WMLeipzigG12C_Shredder_00956314_U.png
2016WMLeipzigG12C_Shredder_00958751_U.png
2016WMLeipzigG12C_Shredder_00977093_U.png
2016WMLeipzigG12C_Shredder_01057720_U.png
2016WMLeipzigG12C_Shredder_01062913_U.png
2016WMLeipzigG12C_Shredder_01067343_U.png
2016WMLeipzigG12C_Shredder_01069882_U.png
2016WMLeipzigG12C_Shredder_01072387_U.png
2016WMLeipzigG12C_Shredder_01074395_U.png
2016WMLeipzigG12C_Shredder_01110081_U.png
2016WMLeipzigG12C_Shredder_01218295_U.png
2016WMLeipzigG12C_Shredder_01221784_U.png
2016WMLeipzigG12D_GLaDOS_00120999_U.png
2016WMLeipzigG12D_GLaDOS_00143928_U.png
2016WMLeipzigG12D_Shredder_00071361_U.png
2016WMLeipzigG12D_Shredder_00076447_U.png
2016WMLeipzigG12D_Shredder_00082692_U.png
2016WMLeipzigG12D_Shredder_00088457_U.png
2016WMLeipzigG12D_Shredder_00092438_U.png
2016WMLeipzigG12D_Shredder_00096536_U.png
2016WMLeipzigG12D_Shredder_00104951_U.png
2016WMLeipzigG12D_Shredder_00112281_U.png
2016WMLeipzigG12D_Shredder_00115606_U.png
2016WMLeipzigG12D_Shredder_00117894_U.png
2016WMLeipzigG12D_Shredder_00120262_U.png
2016WMLeipzigG12D_Shredder_00128288_U.png
2016WMLeipzigG12D_Shredder_00130067_U.png
2016WMLeipzigG12D_Shredder_00131893_U.png
2016WMLeipzigG12D_Shredder_00133651_U.png
2016WMLeipzigG12D_Shredder_00153213_U.png
2016WMLeipzigG12D_Shredder_00167929_U.png
2016WMLeipzigG12D_Shredder_00171310_U.png
2016WMLeipzigG12D_Shredder_00175206_U.png
2016WMLeipzigG12D_Shredder_00181519_U.png
2016WMLeipzigG12D_Shredder_00184923_U.png
2016WMLeipzigG12D_Shredder_00186603_U.png
2016WMLeipzigG12D_Shredder_00192339_U.png
2016WMLeipzigG12D_Shredder_00196879_U.png
2016WMLeipzigG12D_Shredder_00198713_U.png
2016WMLeipzigG12D_Shredder_00202287_U.png
2016WMLeipzigG12D_Shredder_00204283_U.png
2016WMLeipzigG12D_Shredder_00227494_U.png
2016WMLeipzigG12D_Shredder_00241844_U.png
2016WMLeipzigG12D_Shredder_00243653_U.png
2016WMLeipzigG12D_Shredder_00306475_U.png
2016WMLeipzigG12D_Shredder_00325866_U.png
2016WMLeipzigG12D_Shredder_00347171_U.png
2016WMLeipzigG12D_Shredder_00349324_U.png
2016WMLeipzigG12D_Shredder_00353166_U.png
2016WMLeipzigG12D_Shredder_00357219_U.png
2016WMLeipzigG12D_Shredder_00373937_U.png
2016WMLeipzigG12D_Shredder_00375971_U.png
2016WMLeipzigG12D_Shredder_00378078_U.png
2016WMLeipzigG12D_Shredder_00379790_U.png
2016WMLeipzigG12D_Shredder_00381804_U.png
2016WMLeipzigG12D_Shredder_00383742_U.png
2016WMLeipzigG12D_Shredder_00388452_U.png
2016WMLeipzigG12D_Shredder_00390777_U.png
2016WMLeipzigG12D_Shredder_00397014_U.png
2016WMLeipzigG12D_Shredder_00407115_U.png
2016WMLeipzigG12D_Shredder_00408872_U.png
2016WMLeipzigG12D_Shredder_00411188_U.png
2016WMLeipzigG12D_Shredder_00415496_U.png
2016WMLeipzigG12D_Shredder_00417569_U.png
2016WMLeipzigG12D_Shredder_00419622_U.png
2016WMLeipzigG12D_Shredder_00421439_U.png
2016WMLeipzigG12D_Shredder_00423616_U.png
2016WMLeipzigG12D_Shredder_00425187_U.png
2016WMLeipzigG12D_Shredder_00427931_U.png
2016WMLeipzigG12D_Shredder_00436350_U.png
2016WMLeipzigG12D_Shredder_00438124_U.png
2016WMLeipzigG12D_Shredder_00440398_U.png
2016WMLeipzigG12E_Gargamel_00165709_U.png
2016WMLeipzigG12E_Gargamel_00169671_U.png
2016WMLeipzigG12E_Gargamel_00293364_U.png
2016WMLeipzigG12E_Gargamel_00299450_U.png
2016WMLeipzigG12E_Gargamel_00305750_U.png
2016WMLeipzigG12E_Gargamel_00314244_U.png
2016WMLeipzigG12E_Gargamel_00320170_U.png
2016WMLeipzigG12E_Gargamel_00321841_U.png
2016WMLeipzigG12E_Gargamel_00324150_U.png
2016WMLeipzigG12E_Gargamel_00325990_U.png
2016WMLeipzigG12E_Gargamel_00328248_U.png
2016WMLeipzigG12E_Gargamel_00380465_U.png
2016WMLeipzigG12E_Gargamel_00384406_U.png
2016WMLeipzigG12E_Gargamel_00397374_U.png
2016WMLeipzigG12E_Gargamel_00399761_U.png
2016WMLeipzigG12E_Gargamel_00420677_U.png
2016WMLeipzigG12E_Gargamel_00424840_U.png
2016WMLeipzigG12E_Gargamel_00431844_U.png
2016WMLeipzigG12E_Gargamel_00434005_U.png
2016WMLeipzigG12E_Gargamel_00436520_U.png
2016WMLeipzigG12E_Gargamel_00438462_U.png
2016WMLeipzigG12E_Gargamel_00444156_U.png
2016WMLeipzigG12E_Gargamel_00446052_U.png
2016WMLeipzigG12E_Gargamel_00447732_U.png
2016WMLeipzigG12E_Gargamel_00449510_U.png
2016WMLeipzigG12E_Gargamel_00451309_U.png
2016WMLeipzigG12E_Gargamel_00453619_U.png
2016WMLeipzigG12E_Gargamel_00456135_U.png
2016WMLeipzigG12E_Gargamel_00458240_U.png
2016WMLeipzigG12E_Gargamel_00461135_U.png
2016WMLeipzigG12E_Gargamel_00546975_U.png
2016WMLeipzigG12E_Gargamel_00549567_U.png
2016WMLeipzigG12E_Gargamel_00567158_U.png
2016WMLeipzigG12E_Gargamel_00568845_U.png
2016WMLeipzigG12E_Gargamel_00570593_U.png
2016WMLeipzigG12E_Gargamel_00572484_U.png
2016WMLeipzigG12E_Gargamel_00574289_U.png
2016WMLeipzigG12E_Gargamel_00583140_U.png
2016WMLeipzigG12E_Gargamel_00587117_U.png
2016WMLeipzigG12E_Gargamel_00588765_U.png
2016WMLeipzigG12E_Gargamel_00590540_U.png
2016WMLeipzigG12E_Gargamel_00592325_U.png
2016WMLeipzigG12E_Gargamel_00599664_U.png
2016WMLeipzigG12E_Gargamel_00600976_U.png
2016WMLeipzigG12E_Gargamel_00609939_U.png
2016WMLeipzigG12E_Gargamel_00611576_U.png
2016WMLeipzigG12E_Gargamel_00613318_U.png
2016WMLeipzigG12E_Gargamel_00622069_U.png
2016WMLeipzigG12E_Gargamel_00628298_U.png
2016WMLeipzigG12E_Gargamel_00629938_U.png
2016WMLeipzigG12E_Gargamel_00660982_U.png
2016WMLeipzigG12E_Gargamel_00717944_U.png
2016WMLeipzigG12E_Gargamel_00724537_U.png
2016WMLeipzigG12E_Gargamel_00738597_U.png
2016WMLeipzigG12E_Gargamel_00765711_U.png
2016WMLeipzigG12E_Gargamel_00778466_U.png
2016WMLeipzigG12E_Gargamel_00804947_U.png
2016WMLeipzigG12E_Gargamel_00865531_U.png
2016WMLeipzigG12E_Gargamel_00911734_U.png
2016WMLeipzigG12E_Gargamel_00931084_U.png
2016WMLeipzigG12E_Gargamel_00931721_U.png
2016WMLeipzigG12E_Gargamel_00948434_U.png
2016WMLeipzigG12E_Gargamel_00961733_U.png
2016WMLeipzigG12E_Gargamel_00963433_U.png
2016WMLeipzigG12E_Gargamel_00969553_U.png
2016WMLeipzigG12E_Gargamel_00971396_U.png
2016WMLeipzigG12E_Gargamel_00981307_U.png
2016WMLeipzigG12E_Gargamel_01038207_U.png
2016WMLeipzigG12E_Gargamel_01040534_U.png
2016WMLeipzigG12E_Gargamel_01043427_U.png
2016WMLeipzigG12E_Gargamel_01058582_U.png
2016WMLeipzigG12E_Gargamel_01078817_U.png
2016WMLeipzigG12E_Gargamel_01084973_U.png
2016WMLeipzigG12E_Gargamel_01086981_U.png
2016WMLeipzigG12E_Gargamel_01091933_U.png
2016WMLeipzigG12E_Gargamel_01093535_U.png
2016WMLeipzigG12E_Gargamel_01095829_U.png
2016WMLeipzigG12E_Gargamel_01101721_U.png
2016WMLeipzigG12E_Gargamel_01103723_U.png
2016WMLeipzigG12E_Gargamel_01105640_U.png
2016WMLeipzigG12E_Gargamel_01125758_U.png
2016WMLeipzigG12E_Gargamel_01127620_U.png
2016WMLeipzigG12E_Gargamel_01129887_U.png
2016WMLeipzigG12E_Gargamel_01131899_U.png
2016WMLeipzigG12E_MisterBurns_00094199_U.png
2016WMLeipzigG12E_MisterBurns_00099934_U.png
2016WMLeipzigG12E_MisterBurns_00101956_U.png
2016WMLeipzigG12E_MisterBurns_00103859_U.png
2016WMLeipzigG12E_MisterBurns_00106072_U.png
2016WMLeipzigG12E_MisterBurns_00107772_U.png
2016WMLeipzigG12E_MisterBurns_00109512_U.png
2016WMLeipzigG12E_MisterBurns_00111706_U.png
2016WMLeipzigG12E_MisterBurns_00118314_U.png
2016WMLeipzigG12E_MisterBurns_00121289_U.png
2016WMLeipzigG12E_MisterBurns_00216128_U.png
2016WMLeipzigG12E_MisterBurns_00226588_U.png
2016WMLeipzigG12E_MisterBurns_00265479_U.png
2016WMLeipzigG12E_MisterBurns_00286045_U.png
2016WMLeipzigG12E_MisterBurns_00289799_U.png
2016WMLeipzigG12E_MisterBurns_00340513_U.png
2016WMLeipzigG12E_MisterBurns_00349815_U.png
2016WMLeipzigG12E_MisterBurns_00353991_U.png
2016WMLeipzigG12E_MisterBurns_00357694_U.png
2016WMLeipzigG12E_MisterBurns_00359570_U.png
2016WMLeipzigG12E_MisterBurns_00361603_U.png
2016WMLeipzigG12E_MisterBurns_00389036_U.png
2016WMLeipzigG12E_MisterBurns_00396635_U.png
2016WMLeipzigG12E_MisterBurns_00467549_U.png
2016WMLeipzigG12E_MisterBurns_00473717_U.png
2016WMLeipzigG12E_MisterBurns_00479774_U.png
2016WMLeipzigG12E_MisterBurns_00483180_U.png
2016WMLeipzigG12E_MisterBurns_00484872_U.png
2016WMLeipzigG12E_MisterBurns_00486576_U.png
2016WMLeipzigG12E_MisterBurns_00488990_U.png
2016WMLeipzigG12E_MisterBurns_00498897_U.png
2016WMLeipzigG12E_MisterBurns_00500612_U.png
2016WMLeipzigG12E_MisterBurns_00502608_U.png
2016WMLeipzigG12E_MisterBurns_00504909_U.png
2016WMLeipzigG12E_MisterBurns_00506756_U.png
2016WMLeipzigG12E_MisterBurns_00509096_U.png
2016WMLeipzigG12E_MisterBurns_00511398_U.png
2016WMLeipzigG12E_MisterBurns_00513683_U.png
2016WMLeipzigG12E_MisterBurns_00516142_U.png
2016WMLeipzigG12E_MisterBurns_00518126_U.png
2016WMLeipzigG12E_MisterBurns_00520155_U.png
2016WMLeipzigG12E_MisterBurns_00522208_U.png
2016WMLeipzigG12E_MisterBurns_00524240_U.png
2016WMLeipzigG12E_MisterBurns_00525971_U.png
2016WMLeipzigG12E_MisterBurns_00530555_U.png
2016WMLeipzigG12E_MisterBurns_00553547_U.png
2016WMLeipzigG12E_MisterBurns_00558074_U.png
2016WMLeipzigG12E_MisterBurns_00562365_U.png
2016WMLeipzigG12E_MisterBurns_00574357_U.png
2016WMLeipzigG12E_MisterBurns_00613877_U.png
2016WMLeipzigG12E_MisterBurns_00615920_U.png
2016WMLeipzigG12E_MisterBurns_00617825_U.png
2016WMLeipzigG12E_MisterBurns_00619595_U.png
2016WMLeipzigG12E_MisterBurns_00620517_U.png
2016WMLeipzigG12E_MisterBurns_00623991_U.png
2016WMLeipzigG12E_MisterBurns_00625724_U.png
2016WMLeipzigG12E_MisterBurns_00627809_U.png
2016WMLeipzigG12E_MisterBurns_00629686_U.png
2016WMLeipzigG12E_MisterBurns_00631666_U.png
2016WMLeipzigG12E_MisterBurns_00633829_U.png
2016WMLeipzigG12E_MisterBurns_00636565_U.png
2016WMLeipzigG12E_MisterBurns_00638055_U.png
2016WMLeipzigG12E_MisterBurns_00639884_U.png
2016WMLeipzigG12E_MisterBurns_00641687_U.png
2016WMLeipzigG12E_MisterBurns_00644438_U.png
2016WMLeipzigG12E_MisterBurns_00646173_U.png
2016WMLeipzigG12E_MisterBurns_00648061_U.png
2016WMLeipzigG12E_MisterBurns_00650495_U.png
2016WMLeipzigG12E_MisterBurns_00652156_U.png
2016WMLeipzigG12E_MisterBurns_00653860_U.png
2016WMLeipzigG12E_MisterBurns_00656443_U.png
2016WMLeipzigG12E_MisterBurns_00658466_U.png
2016WMLeipzigG12E_MisterBurns_00660020_U.png
2016WMLeipzigG12E_MisterBurns_00672157_U.png
2016WMLeipzigG12E_MisterBurns_00673494_U.png
2016WMLeipzigG12E_MisterBurns_00675174_U.png
2016WMLeipzigG12E_MisterBurns_00676816_U.png
2016WMLeipzigG12E_MisterBurns_00678540_U.png
2016WMLeipzigG12E_MisterBurns_00684560_U.png
2016WMLeipzigG12E_MisterBurns_00686555_U.png
2016WMLeipzigG12E_MisterBurns_00711543_U.png
2016WMLeipzigG12E_MisterBurns_00730451_U.png
2016WMLeipzigG12E_MisterBurns_00738465_U.png
2016WMLeipzigG12E_MisterBurns_00742004_U.png
2016WMLeipzigG12E_Shredder_00082884_U.png
2016WMLeipzigG12E_Shredder_00147400_U.png
2016WMLeipzigG12E_Shredder_00149373_U.png
2016WMLeipzigG14A_Megamind_00029829_U.png
2016WMLeipzigG14A_Megamind_00058970_U.png
2016WMLeipzigG14A_Megamind_00060622_U.png
2016WMLeipzigG14A_Megamind_00062516_U.png
2016WMLeipzigG14A_Megamind_00064581_U.png
2016WMLeipzigG14A_Megamind_00097436_U.png
2016WMLeipzigG14A_Megamind_00100997_U.png
2016WMLeipzigG14A_Megamind_00103211_U.png
2016WMLeipzigG14A_Megamind_00105606_U.png
2016WMLeipzigG14A_Megamind_00107720_U.png
2016WMLeipzigG14A_Megamind_00120149_U.png
2016WMLeipzigG14A_Megamind_00129341_U.png
2016WMLeipzigG14A_Megamind_00131266_U.png
2016WMLeipzigG14A_Megamind_00147916_U.png
2016WMLeipzigG14A_Megamind_00149735_U.png
2016WMLeipzigG14A_Megamind_00151532_U.png
2016WMLeipzigG14A_Megamind_00210557_U.png
2016WMLeipzigG14A_Megamind_00214567_U.png
2016WMLeipzigG14A_Megamind_00218232_U.png
2016WMLeipzigG14A_Megamind_00231843_U.png
2016WMLeipzigG14A_Megamind_00233664_U.png
2016WMLeipzigG14A_Megamind_00242118_U.png
2016WMLeipzigG14A_Megamind_00244008_U.png
2016WMLeipzigG14A_Megamind_00257298_U.png
2016WMLeipzigG14A_Megamind_00260031_U.png
2016WMLeipzigG14A_Megamind_00267040_U.png
2016WMLeipzigG14A_MisterBurns_00118025_U.png
2016WMLeipzigG14A_MisterBurns_00120208_U.png
2016WMLeipzigG14A_MisterBurns_00122167_U.png
2016WMLeipzigG14A_MisterBurns_00124671_U.png
2016WMLeipzigG14A_MisterBurns_00127041_U.png
2016WMLeipzigG14A_MisterBurns_00128799_U.png
2016WMLeipzigG14A_MisterBurns_00130676_U.png
2016WMLeipzigG14A_MisterBurns_00132423_U.png
2016WMLeipzigG14A_MisterBurns_00134156_U.png
2016WMLeipzigG14A_MisterBurns_00139653_U.png
2016WMLeipzigG14A_MisterBurns_00141577_U.png
2016WMLeipzigG14A_MisterBurns_00150144_U.png
2016WMLeipzigG14A_MisterBurns_00152902_U.png
2016WMLeipzigG14A_MisterBurns_00153743_U.png
2016WMLeipzigG14A_MisterBurns_00170342_U.png
2016WMLeipzigG14A_MisterBurns_00172023_U.png
2016WMLeipzigG14A_MisterBurns_00175555_U.png
2016WMLeipzigG14A_MisterBurns_00182940_U.png
2016WMLeipzigG14A_MisterBurns_00186795_U.png
2016WMLeipzigG14A_MisterBurns_00188748_U.png
2016WMLeipzigG14A_MisterBurns_00192707_U.png
2016WMLeipzigG14A_MisterBurns_00194683_U.png
2016WMLeipzigG14A_MisterBurns_00217769_U.png
2016WMLeipzigG14A_MisterBurns_00219907_U.png
2016WMLeipzigG14A_MisterBurns_00221588_U.png
2016WMLeipzigG14A_MisterBurns_00223331_U.png
2016WMLeipzigG14A_MisterBurns_00225044_U.png
2016WMLeipzigG14A_MisterBurns_00226708_U.png
2016WMLeipzigG14A_MisterBurns_00228792_U.png
2016WMLeipzigG14A_MisterBurns_00230700_U.png
2016WMLeipzigG14A_MisterBurns_00239384_U.png
2016WMLeipzigG14A_MisterBurns_00241775_U.png
2016WMLeipzigG14A_MisterBurns_00255173_U.png
2016WMLeipzigG14A_MisterBurns_00285527_U.png
2016WMLeipzigG14A_MisterBurns_00299703_U.png
2016WMLeipzigG14A_MisterBurns_00301797_U.png
2016WMLeipzigG14A_MisterBurns_00304340_U.png
2016WMLeipzigG14A_MisterBurns_00306911_U.png
2016WMLeipzigG14A_MisterBurns_00319065_U.png
2016WMLeipzigG14A_MisterBurns_00408915_U.png
2016WMLeipzigG14A_MisterBurns_00414707_U.png
2016WMLeipzigG14A_MisterBurns_00416493_U.png
2016WMLeipzigG14A_MisterBurns_00418578_U.png
2016WMLeipzigG14A_MisterBurns_00424035_U.png
2016WMLeipzigG14A_MisterBurns_00432000_U.png
2016WMLeipzigG14A_MisterBurns_00433825_U.png
2016WMLeipzigG14A_MisterBurns_00436237_U.png
2016WMLeipzigG14A_MisterBurns_00444020_U.png
2016WMLeipzigG14A_MisterBurns_00447151_U.png
2016WMLeipzigG14A_MisterBurns_00450452_U.png
2016WMLeipzigG14A_MisterBurns_00481706_U.png
2016WMLeipzigG14A_MisterBurns_00491621_U.png
2016WMLeipzigG14A_MisterBurns_00563911_U.png
2016WMLeipzigG14A_MisterBurns_00565636_U.png
2016WMLeipzigG14A_MisterBurns_00567662_U.png
2016WMLeipzigG14A_MisterBurns_00569564_U.png
2016WMLeipzigG14A_MisterBurns_00587303_U.png
2016WMLeipzigG14A_MisterBurns_00624068_U.png
2016WMLeipzigG14A_MisterBurns_00636623_U.png
2016WMLeipzigG14A_MisterBurns_00641290_U.png
2016WMLeipzigG14A_MisterBurns_00643651_U.png
2016WMLeipzigG14A_MisterBurns_00651960_U.png
2016WMLeipzigG14A_MisterBurns_00653920_U.png
2016WMLeipzigG14A_MisterBurns_00658045_U.png
2016WMLeipzigG14A_MisterBurns_00665022_U.png
2016WMLeipzigG14A_MisterBurns_00669126_U.png
2016WMLeipzigG14A_MisterBurns_00694764_U.png
2016WMLeipzigG14A_MisterBurns_00696907_U.png
2016WMLeipzigG14A_MisterBurns_00698548_U.png
2016WMLeipzigG14A_MisterBurns_00702194_U.png
2016WMLeipzigG14A_MisterBurns_00704027_U.png
2016WMLeipzigG14A_MisterBurns_00778688_U.png
2016WMLeipzigG14A_MisterBurns_00786048_U.png
2016WMLeipzigG14A_MisterBurns_00788189_U.png
2016WMLeipzigG14A_MisterBurns_00790559_U.png
2016WMLeipzigG14A_MisterBurns_00792357_U.png
2016WMLeipzigG14A_MisterBurns_00794570_U.png
2016WMLeipzigG14A_MisterBurns_00796368_U.png
2016WMLeipzigG14A_MisterBurns_00802842_U.png
2016WMLeipzigG14A_MisterBurns_00810489_U.png
2016WMLeipzigG14A_MisterBurns_00825094_U.png
2016WMLeipzigG14A_MisterBurns_00852894_U.png
2016WMLeipzigG14A_MisterBurns_00854591_U.png
2016WMLeipzigG14A_Shredder_00126022_U.png
2016WMLeipzigG14A_Shredder_00129915_U.png
2016WMLeipzigG14A_Shredder_00131674_U.png
2016WMLeipzigG14A_Shredder_00286489_U.png
2016WMLeipzigG14A_Shredder_00288247_U.png
2016WMLeipzigG14A_Shredder_00310787_U.png
2016WMLeipzigG14A_Shredder_00312651_U.png
2016WMLeipzigG14A_Shredder_00377871_U.png
2016WMLeipzigG14A_Shredder_00385180_U.png
2016WMLeipzigG14A_Shredder_00387065_U.png
2016WMLeipzigG14A_Shredder_00389115_U.png
2016WMLeipzigG14A_Shredder_00412037_U.png
2016WMLeipzigG14A_Shredder_00425286_U.png
2016WMLeipzigG14A_Shredder_00429069_U.png
2016WMLeipzigG14A_Shredder_00432610_U.png
2016WMLeipzigG14A_Shredder_00444081_U.png
2016WMLeipzigG14A_Shredder_00445857_U.png
2016WMLeipzigG14A_Shredder_00451327_U.png
2016WMLeipzigG14A_Shredder_00453126_U.png
2016WMLeipzigG14A_Shredder_00454939_U.png
2016WMLeipzigG14A_Shredder_00470392_U.png
2016WMLeipzigG14A_Shredder_00472580_U.png
2016WMLeipzigG14A_Shredder_00476065_U.png
2016WMLeipzigG14A_Shredder_00513541_U.png
2016WMLeipzigG14A_Shredder_00526000_U.png
2016WMLeipzigG14A_Shredder_00621718_U.png
2016WMLeipzigG14A_Shredder_00627375_U.png
2016WMLeipzigG14A_Shredder_00631597_U.png
2016WMLeipzigG14A_Shredder_00635722_U.png
2016WMLeipzigG14A_Shredder_00637343_U.png
2016WMLeipzigG14A_Shredder_00639062_U.png
2016WMLeipzigG14A_Shredder_00644889_U.png
2016WMLeipzigG14A_Shredder_00672769_U.png
2016WMLeipzigG14A_Shredder_00676713_U.png
2016WMLeipzigG14A_Shredder_00678656_U.png
2016WMLeipzigG14A_Shredder_00680349_U.png
2016WMLeipzigG14A_Shredder_00682506_U.png
2016WMLeipzigG14A_Shredder_00684450_U.png
2016WMLeipzigG14A_Shredder_00690217_U.png
2016WMLeipzigG14A_Shredder_00691906_U.png
2016WMLeipzigG14A_Shredder_00693765_U.png
2016WMLeipzigG14A_Shredder_00701413_U.png
2016WMLeipzigG14A_Shredder_00703121_U.png
2016WMLeipzigG14A_Shredder_00704811_U.png
2016WMLeipzigG14A_Shredder_00717384_U.png
2016WMLeipzigG14A_Shredder_00798876_U.png
2016WMLeipzigG14A_Shredder_00807931_U.png
2016WMLeipzigG14A_Shredder_00811287_U.png
2016WMLeipzigG14A_Shredder_00823992_U.png
2016WMLeipzigG14A_Shredder_00833288_U.png
2016WMLeipzigG14A_Shredder_00835410_U.png
2016WMLeipzigG14A_Shredder_00837346_U.png
2016WMLeipzigG14A_Shredder_00839011_U.png
2016WMLeipzigG14A_Shredder_00846201_U.png
2016WMLeipzigG14A_Shredder_00847813_U.png
2016WMLeipzigG14A_Shredder_00855864_U.png
2016WMLeipzigG14A_Shredder_00861199_U.png
2016WMLeipzigG14A_Shredder_00864521_U.png
2016WMLeipzigG14A_Shredder_00872692_U.png
2016WMLeipzigG14A_Shredder_00878690_U.png
2016WMLeipzigG14A_Shredder_00886107_U.png
2016WMLeipzigG14A_Shredder_00891741_U.png
2016WMLeipzigG14A_Shredder_00893568_U.png
2016WMLeipzigG14A_Shredder_00895354_U.png
2016WMLeipzigG14A_Shredder_00896979_U.png
2016WMLeipzigG14B_Gargamel_00106216_U.png
2016WMLeipzigG14B_Gargamel_00110910_U.png
2016WMLeipzigG14B_Gargamel_00116365_U.png
2016WMLeipzigG14B_Gargamel_00122189_U.png
2016WMLeipzigG14B_Gargamel_00125737_U.png
2016WMLeipzigG14B_Gargamel_00127460_U.png
2016WMLeipzigG14B_Gargamel_00139776_U.png
2016WMLeipzigG14B_Gargamel_00154487_U.png
2016WMLeipzigG14B_Gargamel_00156791_U.png
2016WMLeipzigG14B_Gargamel_00158717_U.png
2016WMLeipzigG14B_Gargamel_00160754_U.png
2016WMLeipzigG14B_Gargamel_00165118_U.png
2016WMLeipzigG14B_Gargamel_00166790_U.png
2016WMLeipzigG14B_Gargamel_00173799_U.png
2016WMLeipzigG14B_Gargamel_00175602_U.png
2016WMLeipzigG14B_Gargamel_00187438_U.png
2016WMLeipzigG14B_Gargamel_00193491_U.png
2016WMLeipzigG14B_Gargamel_00203067_U.png
2016WMLeipzigG14B_Gargamel_00206893_U.png
2016WMLeipzigG14B_Gargamel_00208582_U.png
2016WMLeipzigG14B_Gargamel_00218245_U.png
2016WMLeipzigG14B_Gargamel_00219987_U.png
2016WMLeipzigG14B_Gargamel_00223850_U.png
2016WMLeipzigG14B_Gargamel_00385146_U.png
2016WMLeipzigG14B_Gargamel_00386962_U.png
2016WMLeipzigG14B_Gargamel_00395100_U.png
2016WMLeipzigG14B_Gargamel_00396792_U.png
2016WMLeipzigG14B_Gargamel_00398611_U.png
2016WMLeipzigG14B_Gargamel_00400736_U.png
2016WMLeipzigG14B_Gargamel_00407728_U.png
2016WMLeipzigG14B_Gargamel_00409402_U.png
2016WMLeipzigG14B_Gargamel_00411080_U.png
2016WMLeipzigG14B_Gargamel_00446074_U.png
2016WMLeipzigG14B_Gargamel_00459300_U.png
2016WMLeipzigG14B_Gargamel_00460948_U.png
2016WMLeipzigG14B_Gargamel_00462665_U.png
2016WMLeipzigG14B_Gargamel_00473503_U.png
2016WMLeipzigG14B_Gargamel_00475216_U.png
2016WMLeipzigG14B_Gargamel_00484357_U.png
2016WMLeipzigG14B_Gargamel_00486490_U.png
2016WMLeipzigG14B_Gargamel_00488507_U.png
2016WMLeipzigG14B_Gargamel_00490766_U.png
2016WMLeipzigG14B_Gargamel_00492278_U.png
2016WMLeipzigG14B_Gargamel_00501006_U.png
2016WMLeipzigG14B_Gargamel_00502708_U.png
2016WMLeipzigG14B_Gargamel_00506774_U.png
2016WMLeipzigG14B_Gargamel_00514001_U.png
2016WMLeipzigG14B_Gargamel_00515694_U.png
2016WMLeipzigG14B_Gargamel_00523118_U.png
2016WMLeipzigG14B_Gargamel_00524949_U.png
2016WMLeipzigG14B_Gargamel_00581653_U.png
2016WMLeipzigG14B_Gargamel_00583566_U.png
2016WMLeipzigG14B_Gargamel_00585345_U.png
2016WMLeipzigG14B_Gargamel_00732901_U.png
2016WMLeipzigG14B_Gargamel_00738786_U.png
2016WMLeipzigG14B_Gargamel_00740545_U.png
2016WMLeipzigG14B_Gargamel_00745778_U.png
2016WMLeipzigG14B_Gargamel_00747428_U.png
2016WMLeipzigG14B_Gargamel_00749168_U.png
2016WMLeipzigG14B_Gargamel_00751057_U.png
2016WMLeipzigG14B_Gargamel_00781312_U.png
2016WMLeipzigG14B_Gargamel_00782965_U.png
2016WMLeipzigG14B_Gargamel_00787151_U.png
2016WMLeipzigG14B_Gargamel_00795540_U.png
2016WMLeipzigG14B_Gargamel_00799065_U.png
2016WMLeipzigG14B_Joker_00107294_U.png
2016WMLeipzigG14B_Joker_00113473_U.png
2016WMLeipzigG14B_Joker_00118985_U.png
2016WMLeipzigG14B_Joker_00123066_U.png
2016WMLeipzigG14B_Joker_00124950_U.png
2016WMLeipzigG14B_Joker_00127486_U.png
2016WMLeipzigG14B_Joker_00129510_U.png
2016WMLeipzigG14B_Joker_00131386_U.png
2016WMLeipzigG14B_Joker_00166197_U.png
2016WMLeipzigG14B_Joker_00175545_U.png
2016WMLeipzigG14B_Joker_00216600_U.png
2016WMLeipzigG14B_Joker_00387781_U.png
2016WMLeipzigG14B_Joker_00393025_U.png
2016WMLeipzigG14B_Joker_00395729_U.png
2016WMLeipzigG14B_Joker_00401910_U.png
2016WMLeipzigG14B_Joker_00405399_U.png
2016WMLeipzigG14B_Joker_00407062_U.png
2016WMLeipzigG14B_Joker_00463350_U.png
2016WMLeipzigG14B_Joker_00474158_U.png
2016WMLeipzigG14B_Joker_00476506_U.png
2016WMLeipzigG14B_Joker_00510424_U.png
2016WMLeipzigG14B_Joker_00515920_U.png
2016WMLeipzigG14B_Joker_00591409_U.png
2016WMLeipzigG14B_Joker_00595244_U.png
2016WMLeipzigG14B_Joker_00643469_U.png
2016WMLeipzigG14B_Joker_00647407_U.png
2016WMLeipzigG14B_Joker_00649329_U.png
2016WMLeipzigG14B_Joker_00651220_U.png
2016WMLeipzigG14B_Joker_00652998_U.png
2016WMLeipzigG14B_Joker_00654832_U.png
2016WMLeipzigG14B_Joker_00656522_U.png
2016WMLeipzigG14B_Joker_00664558_U.png
2016WMLeipzigG14B_Joker_00666660_U.png
2016WMLeipzigG14B_Joker_00668765_U.png
2016WMLeipzigG14B_Joker_00677147_U.png
2016WMLeipzigG14B_Joker_00678828_U.png
2016WMLeipzigG14B_Joker_00680907_U.png
2016WMLeipzigG14B_Joker_00690507_U.png
2016WMLeipzigG14B_Joker_00746941_U.png
2016WMLeipzigG14B_Joker_00750579_U.png
2016WMLeipzigG14B_Joker_00765372_U.png
2016WMLeipzigG14B_Joker_00771175_U.png
2016WMLeipzigG14B_Joker_00774674_U.png
2016WMLeipzigG14B_Joker_00785454_U.png
2016WMLeipzigG14B_Joker_00802000_U.png
2016WMLeipzigG14B_Joker_00804629_U.png
2016WMLeipzigG14B_Joker_00806706_U.png
2016WMLeipzigG14B_Megamind_00124946_U.png
2016WMLeipzigG14B_Megamind_00130950_U.png
2016WMLeipzigG14B_Megamind_00134283_U.png
2016WMLeipzigG14B_Megamind_00308414_U.png
2016WMLeipzigG14B_Megamind_00377948_U.png
2016WMLeipzigG14B_Megamind_00385865_U.png
2016WMLeipzigG14B_Megamind_00387786_U.png
2016WMLeipzigG14B_Megamind_00417170_U.png
2016WMLeipzigG14B_Megamind_00421162_U.png
2016WMLeipzigG14B_Megamind_00423325_U.png
2016WMLeipzigG14B_Megamind_00425508_U.png
2016WMLeipzigG14B_Megamind_00427833_U.png
2016WMLeipzigG14B_Megamind_00429545_U.png
2016WMLeipzigG14B_Megamind_00431690_U.png
2016WMLeipzigG14B_Megamind_00438651_U.png
2016WMLeipzigG14B_Megamind_00440533_U.png
2016WMLeipzigG14B_Megamind_00442436_U.png
2016WMLeipzigG14B_Megamind_00444729_U.png
2016WMLeipzigG14B_Megamind_00446483_U.png
2016WMLeipzigG14B_Megamind_00496567_U.png
2016WMLeipzigG14B_Megamind_00506109_U.png
2016WMLeipzigG14B_Megamind_00524355_U.png
2016WMLeipzigG14B_Megamind_00618614_U.png
2016WMLeipzigG14B_Megamind_00628757_U.png
2016WMLeipzigG14B_Megamind_00643365_U.png
2016WMLeipzigG14B_Megamind_00683118_U.png
2016WMLeipzigG14B_Megamind_00832743_U.png
2016WMLeipzigG14B_Megamind_00834389_U.png
2016WMLeipzigG14B_Megamind_00903897_U.png
2016WMLeipzigG14B_MisterBurns_00134399_U.png
2016WMLeipzigG14B_MisterBurns_00136179_U.png
2016WMLeipzigG14B_MisterBurns_00138417_U.png
2016WMLeipzigG14B_MisterBurns_00182018_U.png
2016WMLeipzigG14B_MisterBurns_00183768_U.png
2016WMLeipzigG14B_MisterBurns_00186109_U.png
2016WMLeipzigG14B_MisterBurns_00305117_U.png
2016WMLeipzigG14B_MisterBurns_00307052_U.png
2016WMLeipzigG14B_MisterBurns_00311366_U.png
2016WMLeipzigG14B_MisterBurns_00313132_U.png
2016WMLeipzigG14B_MisterBurns_00394139_U.png
2016WMLeipzigG14B_MisterBurns_00399682_U.png
2016WMLeipzigG14B_MisterBurns_00402481_U.png
2016WMLeipzigG14B_MisterBurns_00406703_U.png
2016WMLeipzigG14B_MisterBurns_00408617_U.png
2016WMLeipzigG14B_MisterBurns_00417674_U.png
2016WMLeipzigG14B_MisterBurns_00424081_U.png
2016WMLeipzigG14B_MisterBurns_00426452_U.png
2016WMLeipzigG14B_MisterBurns_00430079_U.png
2016WMLeipzigG14B_MisterBurns_00432030_U.png
2016WMLeipzigG14B_MisterBurns_00433791_U.png
2016WMLeipzigG14B_MisterBurns_00441137_U.png
2016WMLeipzigG14B_MisterBurns_00442816_U.png
2016WMLeipzigG14B_MisterBurns_00445228_U.png
2016WMLeipzigG14B_MisterBurns_00446991_U.png
2016WMLeipzigG14B_MisterBurns_00448844_U.png
2016WMLeipzigG14B_MisterBurns_00450508_U.png
2016WMLeipzigG14B_MisterBurns_00452331_U.png
2016WMLeipzigG14B_MisterBurns_00453993_U.png
2016WMLeipzigG14B_MisterBurns_00455944_U.png
2016WMLeipzigG14B_MisterBurns_00461072_U.png
2016WMLeipzigG14B_MisterBurns_00462747_U.png
2016WMLeipzigG14B_MisterBurns_00464680_U.png
2016WMLeipzigG14B_MisterBurns_00493811_U.png
2016WMLeipzigG14B_MisterBurns_00646305_U.png
2016WMLeipzigG14B_MisterBurns_00648599_U.png
2016WMLeipzigG14B_MisterBurns_00650658_U.png
2016WMLeipzigG14B_MisterBurns_00652664_U.png
2016WMLeipzigG14B_MisterBurns_00654376_U.png
2016WMLeipzigG14B_MisterBurns_00656077_U.png
2016WMLeipzigG14B_MisterBurns_00674349_U.png
2016WMLeipzigG14B_MisterBurns_00676047_U.png
2016WMLeipzigG14B_MisterBurns_00678745_U.png
2016WMLeipzigG14B_MisterBurns_00741603_U.png
2016WMLeipzigG14B_MisterBurns_00743707_U.png
2016WMLeipzigG14B_MisterBurns_00845789_U.png
2016WMLeipzigG14B_MisterBurns_00847751_U.png
2016WMLeipzigG14B_MisterBurns_00849449_U.png
2016WMLeipzigG14B_MisterBurns_00867183_U.png
2016WMLeipzigG14B_MisterBurns_00869266_U.png
2016WMLeipzigG14B_MisterBurns_00871091_U.png
2016WMLeipzigG14B_MisterBurns_00872922_U.png
2016WMLeipzigG14B_MisterBurns_00877372_U.png
2016WMLeipzigG14B_MisterBurns_00883348_U.png
2016WMLeipzigG14B_MisterBurns_00885611_U.png
2016WMLeipzigG14B_MisterBurns_00889058_U.png
2016WMLeipzigG14B_MisterBurns_00891076_U.png
2016WMLeipzigG14B_MisterBurns_00892998_U.png
2016WMLeipzigG14B_MisterBurns_00897537_U.png
2016WMLeipzigG14B_MisterBurns_00901566_U.png
2016WMLeipzigG14B_MisterBurns_00908410_U.png
2016WMLeipzigG14B_MisterBurns_00910224_U.png
2016WMLeipzigG14B_MisterBurns_00912635_U.png
2016WMLeipzigG14B_MisterBurns_00921052_U.png
2016WMLeipzigG14B_MisterBurns_00923100_U.png
2016WMLeipzigG14B_MisterBurns_00928450_U.png
2016WMLeipzigG14B_MisterBurns_00930308_U.png
2016WMLeipzigG14B_MisterBurns_00931942_U.png
2016WMLeipzigG14B_MisterBurns_00934308_U.png
2016WMLeipzigG14B_MisterBurns_00937796_U.png
2016WMLeipzigG14B_Shredder_00107291_U.png
2016WMLeipzigG14B_Shredder_00110936_U.png
2016WMLeipzigG14B_Shredder_00125309_U.png
2016WMLeipzigG14B_Shredder_00127938_U.png
2016WMLeipzigG14B_Shredder_00148384_U.png
2016WMLeipzigG14B_Shredder_00152483_U.png
2016WMLeipzigG14B_Shredder_00156475_U.png
2016WMLeipzigG14B_Shredder_00158355_U.png
2016WMLeipzigG14B_Shredder_00162657_U.png
2016WMLeipzigG14B_Shredder_00165644_U.png
2016WMLeipzigG14B_Shredder_00167951_U.png
2016WMLeipzigG14B_Shredder_00241379_U.png
2016WMLeipzigG14B_Shredder_00261505_U.png
2016WMLeipzigG14B_Shredder_00265426_U.png
2016WMLeipzigG14B_Shredder_00267448_U.png
2016WMLeipzigG14B_Shredder_00291365_U.png
2016WMLeipzigG14B_Shredder_00389841_U.png
2016WMLeipzigG14B_Shredder_00396487_U.png
2016WMLeipzigG14B_Shredder_00403679_U.png
2016WMLeipzigG14B_Shredder_00409386_U.png
2016WMLeipzigG14B_Shredder_00415935_U.png
2016WMLeipzigG14B_Shredder_00417767_U.png
2016WMLeipzigG14B_Shredder_00419622_U.png
2016WMLeipzigG14B_Shredder_00421381_U.png
2016WMLeipzigG14B_Shredder_00423495_U.png
2016WMLeipzigG14B_Shredder_00425319_U.png
2016WMLeipzigG14B_Shredder_00427187_U.png
2016WMLeipzigG14B_Shredder_00429297_U.png
2016WMLeipzigG14B_Shredder_00473379_U.png
2016WMLeipzigG14B_Shredder_00475080_U.png
2016WMLeipzigG14B_Shredder_00521504_U.png
2016WMLeipzigG14B_Shredder_00526879_U.png
2016WMLeipzigG14B_Shredder_00542140_U.png
2016WMLeipzigG14B_Shredder_00561235_U.png
2016WMLeipzigG14B_Shredder_00661834_U.png
2016WMLeipzigG14B_Shredder_00665262_U.png
2016WMLeipzigG14B_Shredder_00760914_U.png
2016WMLeipzigG14B_Shredder_00763141_U.png
2016WMLeipzigG14B_Shredder_00781201_U.png
2016WMLeipzigG14B_Shredder_00783206_U.png
2016WMLeipzigG14B_Shredder_00797409_U.png
2016WMLeipzigG14B_Shredder_00810865_U.png
2016WMLeipzigG14C_Gargamel_00134704_U.png
2016WMLeipzigG14C_Gargamel_00139642_U.png
2016WMLeipzigG14C_Gargamel_00183765_U.png
2016WMLeipzigG14C_Gargamel_00209415_U.png
2016WMLeipzigG14C_Gargamel_00232482_U.png
2016WMLeipzigG14C_Gargamel_00236222_U.png
2016WMLeipzigG14C_Gargamel_00280288_U.png
2016WMLeipzigG14C_Gargamel_00304074_U.png
2016WMLeipzigG14C_Gargamel_00380880_U.png
2016WMLeipzigG14C_Gargamel_00384598_U.png
2016WMLeipzigG14C_Gargamel_00388313_U.png
2016WMLeipzigG14C_Gargamel_00392582_U.png
2016WMLeipzigG14C_Gargamel_00405375_U.png
2016WMLeipzigG14C_Gargamel_00407795_U.png
2016WMLeipzigG14C_Gargamel_00410250_U.png
2016WMLeipzigG14C_Gargamel_00555070_U.png
2016WMLeipzigG14C_Gargamel_00631027_U.png
2016WMLeipzigG14C_Gargamel_00632733_U.png
2016WMLeipzigG14C_Gargamel_00634694_U.png
2016WMLeipzigG14C_Gargamel_00636536_U.png
2016WMLeipzigG14C_Gargamel_00638594_U.png
2016WMLeipzigG14C_Gargamel_00641164_U.png
2016WMLeipzigG14C_Gargamel_00642410_U.png
2016WMLeipzigG14C_Gargamel_00644501_U.png
2016WMLeipzigG14C_Gargamel_00646691_U.png
2016WMLeipzigG14C_Gargamel_00649058_U.png
2016WMLeipzigG14C_Gargamel_00652060_U.png
2016WMLeipzigG14C_Gargamel_00653726_U.png
2016WMLeipzigG14C_Gargamel_00657301_U.png
2016WMLeipzigG14C_Gargamel_00693477_U.png
2016WMLeipzigG14C_Gargamel_00822422_U.png
2016WMLeipzigG14C_Gargamel_00824198_U.png
2016WMLeipzigG14C_Gargamel_00863780_U.png
2016WMLeipzigG14C_Gargamel_00865403_U.png
2016WMLeipzigG14C_Joker_00136162_U.png
2016WMLeipzigG14C_Joker_00151692_U.png
2016WMLeipzigG14C_Joker_00171937_U.png
2016WMLeipzigG14C_Joker_00173891_U.png
2016WMLeipzigG14C_Joker_00176093_U.png
2016WMLeipzigG14C_Joker_00184025_U.png
2016WMLeipzigG14C_Joker_00195563_U.png
2016WMLeipzigG14C_Joker_00211733_U.png
2016WMLeipzigG14C_Joker_00240690_U.png
2016WMLeipzigG14C_Joker_00249519_U.png
2016WMLeipzigG14C_Joker_00269096_U.png
2016WMLeipzigG14C_Joker_00281779_U.png
2016WMLeipzigG14C_Joker_00283395_U.png
2016WMLeipzigG14C_Joker_00285100_U.png
2016WMLeipzigG14C_Joker_00287030_U.png
2016WMLeipzigG14C_Joker_00288956_U.png
2016WMLeipzigG14C_Joker_00304972_U.png
2016WMLeipzigG14C_Joker_00305897_U.png
2016WMLeipzigG14C_Joker_00309758_U.png
2016WMLeipzigG14C_Joker_00376777_U.png
2016WMLeipzigG14C_Joker_00382340_U.png
2016WMLeipzigG14C_Joker_00387058_U.png
2016WMLeipzigG14C_Joker_00388653_U.png
2016WMLeipzigG14C_Joker_00393695_U.png
2016WMLeipzigG14C_Joker_00399385_U.png
2016WMLeipzigG14C_Joker_00403037_U.png
2016WMLeipzigG14C_Joker_00406773_U.png
2016WMLeipzigG14C_Joker_00408644_U.png
2016WMLeipzigG14C_Joker_00410704_U.png
2016WMLeipzigG14C_Joker_00412508_U.png
2016WMLeipzigG14C_Joker_00422946_U.png
2016WMLeipzigG14C_Joker_00424135_U.png
2016WMLeipzigG14C_Joker_00426731_U.png
2016WMLeipzigG14C_Joker_00446151_U.png
2016WMLeipzigG14C_Joker_00448113_U.png
2016WMLeipzigG14C_Joker_00449763_U.png
2016WMLeipzigG14C_Joker_00451538_U.png
2016WMLeipzigG14C_Joker_00459575_U.png
2016WMLeipzigG14C_Joker_00461601_U.png
2016WMLeipzigG14C_Joker_00465221_U.png
2016WMLeipzigG14C_Joker_00467019_U.png
2016WMLeipzigG14C_Joker_00468695_U.png
2016WMLeipzigG14C_Joker_00493721_U.png
2016WMLeipzigG14C_Joker_00495862_U.png
2016WMLeipzigG14C_Joker_00539445_U.png
2016WMLeipzigG14C_Joker_00541291_U.png
2016WMLeipzigG14C_Joker_00543015_U.png
2016WMLeipzigG14C_Joker_00546446_U.png
2016WMLeipzigG14C_Joker_00554478_U.png
2016WMLeipzigG14C_Joker_00556372_U.png
2016WMLeipzigG14C_Joker_00629825_U.png
2016WMLeipzigG14C_Joker_00635468_U.png
2016WMLeipzigG14C_Joker_00638860_U.png
2016WMLeipzigG14C_Joker_00642769_U.png
2016WMLeipzigG14C_Joker_00646886_U.png
2016WMLeipzigG14C_Joker_00655396_U.png
2016WMLeipzigG14C_Joker_00658079_U.png
2016WMLeipzigG14C_Joker_00676970_U.png
2016WMLeipzigG14C_Joker_00678918_U.png
2016WMLeipzigG14C_Joker_00680831_U.png
2016WMLeipzigG14C_Joker_00827318_U.png
2016WMLeipzigG14C_Joker_00829131_U.png
2016WMLeipzigG14C_Joker_00831025_U.png
2016WMLeipzigG14C_Joker_00833126_U.png
2016WMLeipzigG14C_Joker_00836547_U.png
2016WMLeipzigG14C_Joker_00853755_U.png
2016WMLeipzigG14C_Joker_00855594_U.png
2016WMLeipzigG14C_Joker_00869770_U.png
2016WMLeipzigG14C_Joker_00871486_U.png
2016WMLeipzigG14C_Megamind_00119263_U.png
2016WMLeipzigG14C_Megamind_00121404_U.png
2016WMLeipzigG14C_Megamind_00125629_U.png
2016WMLeipzigG14C_Megamind_00130003_U.png
2016WMLeipzigG14C_Megamind_00131537_U.png
2016WMLeipzigG14C_Megamind_00133228_U.png
2016WMLeipzigG14C_Megamind_00139782_U.png
2016WMLeipzigG14C_Megamind_00142031_U.png
2016WMLeipzigG14C_Megamind_00143868_U.png
2016WMLeipzigG14C_Megamind_00155964_U.png
2016WMLeipzigG14C_Megamind_00223106_U.png
2016WMLeipzigG14C_Megamind_00224918_U.png
2016WMLeipzigG14C_Megamind_00232608_U.png
2016WMLeipzigG14C_Megamind_00237992_U.png
2016WMLeipzigG14C_Megamind_00258458_U.png
2016WMLeipzigG14C_Megamind_00266374_U.png
2016WMLeipzigG14C_Megamind_00268110_U.png
2016WMLeipzigG14C_Megamind_00297506_U.png
2016WMLeipzigG14C_Megamind_00299524_U.png
2016WMLeipzigG14C_Megamind_00303939_U.png
2016WMLeipzigG14C_Megamind_00306041_U.png
2016WMLeipzigG14C_Megamind_00308259_U.png
2016WMLeipzigG14C_Megamind_00310151_U.png
2016WMLeipzigG14C_Megamind_00311950_U.png
2016WMLeipzigG14C_Megamind_00318388_U.png
2016WMLeipzigG2A_GLaDOS_00156451_U.png
2016WMLeipzigG2A_GLaDOS_00158416_U.png
2016WMLeipzigG2A_GLaDOS_00160613_U.png
2016WMLeipzigG2A_GLaDOS_00168957_U.png
2016WMLeipzigG2A_GLaDOS_00202918_U.png
2016WMLeipzigG2A_GLaDOS_00204712_U.png
2016WMLeipzigG2A_GLaDOS_00208992_U.png
2016WMLeipzigG2A_GLaDOS_00297495_U.png
2016WMLeipzigG2A_GLaDOS_00301659_U.png
2016WMLeipzigG2A_GLaDOS_00303800_U.png
2016WMLeipzigG2A_GLaDOS_00311122_U.png
2016WMLeipzigG2A_GLaDOS_00400637_U.png
2016WMLeipzigG2A_MisterBurns_00007962_U.png
2016WMLeipzigG2A_MisterBurns_00009988_U.png
2016WMLeipzigG2A_MisterBurns_00011763_U.png
2016WMLeipzigG2B_GLaDOS_00058148_U.png
2016WMLeipzigG2B_GLaDOS_00117656_U.png
2016WMLeipzigG2B_GLaDOS_00133682_U.png
2016WMLeipzigG2B_MisterBurns_00048699_U.png
2016WMLeipzigG2B_Shredder_00146147_U.png
2016WMLeipzigG2B_Shredder_00150446_U.png
2016WMLeipzigG2B_Shredder_00152170_U.png
2016WMLeipzigG2B_Shredder_00156943_U.png
2016WMLeipzigG2B_Shredder_00158899_U.png
2016WMLeipzigG2B_Shredder_00161144_U.png
2016WMLeipzigG2B_Shredder_00174142_U.png
2016WMLeipzigG2B_Shredder_00176536_U.png
2016WMLeipzigG2B_Shredder_00178689_U.png
2016WMLeipzigG2B_Shredder_00181015_U.png
2016WMLeipzigG2B_Shredder_00183541_U.png
2016WMLeipzigG2B_Shredder_00186122_U.png
2016WMLeipzigG2C_GLaDOS_00058106_U.png
2016WMLeipzigG2C_GLaDOS_00377510_U.png
2016WMLeipzigG2C_GLaDOS_00390757_U.png
2016WMLeipzigG2C_GLaDOS_00423907_U.png
2016WMLeipzigG2C_GLaDOS_00425805_U.png
2016WMLeipzigG2C_GLaDOS_00427665_U.png
2016WMLeipzigG2C_GLaDOS_00436021_U.png
2016WMLeipzigG2C_GLaDOS_00437503_U.png
2016WMLeipzigG2C_Joker_00081940_U.png
2016WMLeipzigG2C_Joker_00089202_U.png
2016WMLeipzigG2C_Joker_00094768_U.png
2016WMLeipzigG2C_Joker_00096527_U.png
2016WMLeipzigG2C_Joker_00098477_U.png
2016WMLeipzigG2C_Joker_00120077_U.png
2016WMLeipzigG2C_Joker_00123744_U.png
2016WMLeipzigG2C_Joker_00129021_U.png
2016WMLeipzigG2C_Joker_00135067_U.png
2016WMLeipzigG2C_Joker_00167377_U.png
2016WMLeipzigG2C_Joker_00282044_U.png
2016WMLeipzigG2C_Joker_00289409_U.png
2016WMLeipzigG2C_Joker_00294708_U.png
2016WMLeipzigG2C_Joker_00296765_U.png
2016WMLeipzigG2C_Joker_00300940_U.png
2016WMLeipzigG2C_Joker_00303665_U.png
2016WMLeipzigG2C_Joker_00307495_U.png
2016WMLeipzigG2C_Joker_00313094_U.png
2016WMLeipzigG2C_Joker_00335012_U.png
2016WMLeipzigG2C_Joker_00341156_U.png
2016WMLeipzigG2C_Joker_00343018_U.png
2016WMLeipzigG2C_Joker_00350545_U.png
2016WMLeipzigG2C_Joker_00352522_U.png
2016WMLeipzigG2C_Joker_00354309_U.png
2016WMLeipzigG2C_Joker_00356074_U.png
2016WMLeipzigG2C_Joker_00358407_U.png
2016WMLeipzigG2C_Joker_00360554_U.png
2016WMLeipzigG2C_Joker_00362379_U.png
2016WMLeipzigG2C_Joker_00364733_U.png
2016WMLeipzigG2C_Joker_00382592_U.png
2016WMLeipzigG2C_Joker_00455565_U.png
2016WMLeipzigG2C_Joker_00483525_U.png
2016WMLeipzigG2C_Joker_00506574_U.png
2016WMLeipzigG2C_Joker_00513100_U.png
2016WMLeipzigG2C_Joker_00612085_U.png
2016WMLeipzigG2C_Joker_00614466_U.png
2016WMLeipzigG2C_Joker_00616283_U.png
2016WMLeipzigG2C_MisterBurns_00019119_U.png
2016WMLeipzigG2C_MisterBurns_00067291_U.png
2016WMLeipzigG2C_MisterBurns_00069353_U.png
2016WMLeipzigG2C_MisterBurns_00071315_U.png
2016WMLeipzigG2C_MisterBurns_00073160_U.png
2016WMLeipzigG2C_MisterBurns_00074981_U.png
2016WMLeipzigG2C_MisterBurns_00076744_U.png
2016WMLeipzigG2C_MisterBurns_00079822_U.png
2016WMLeipzigG2C_MisterBurns_00242408_U.png
2016WMLeipzigG2C_MisterBurns_00352059_U.png
2016WMLeipzigG2C_MisterBurns_00353807_U.png
2016WMLeipzigG2C_MisterBurns_00366306_U.png
2016WMLeipzigG2C_MisterBurns_00392629_U.png
2016WMLeipzigG2D_MisterBurns_00154351_U.png
2016WMLeipzigG2D_MisterBurns_00162419_U.png
2016WMLeipzigG2D_MisterBurns_00165057_U.png
2016WMLeipzigG2D_MisterBurns_00167241_U.png
2016WMLeipzigG2D_MisterBurns_00183220_U.png
2016WMLeipzigG2D_MisterBurns_00205593_U.png
2016WMLeipzigG2D_MisterBurns_00216441_U.png
2016WMLeipzigG2D_MisterBurns_00221088_U.png
2016WMLeipzigG2D_MisterBurns_00221998_U.png
2016WMLeipzigG2D_MisterBurns_00224959_U.png
2016WMLeipzigG2D_MisterBurns_00228705_U.png
2016WMLeipzigG2D_MisterBurns_00230455_U.png
2016WMLeipzigG2D_MisterBurns_00238325_U.png
2016WMLeipzigG2D_MisterBurns_00241847_U.png
2016WMLeipzigG2D_MisterBurns_00244777_U.png
2016WMLeipzigG2D_MisterBurns_00246524_U.png
2016WMLeipzigG2D_MisterBurns_00248853_U.png
2016WMLeipzigG2D_MisterBurns_00351735_U.png
2016WMLeipzigG2D_MisterBurns_00354094_U.png
2016WMLeipzigG2D_MisterBurns_00356234_U.png
2016WMLeipzigG2D_MisterBurns_00358615_U.png
2016WMLeipzigG2D_MisterBurns_00360411_U.png
2016WMLeipzigG2D_MisterBurns_00363181_U.png
2016WMLeipzigG2D_MisterBurns_00365490_U.png
2016WMLeipzigG2D_MisterBurns_00368093_U.png
2016WMLeipzigG2D_MisterBurns_00369135_U.png
2016WMLeipzigG2D_MisterBurns_00371473_U.png
2016WMLeipzigG2D_MisterBurns_00373325_U.png
2016WMLeipzigG2D_MisterBurns_00379956_U.png
2016WMLeipzigG2D_MisterBurns_00382042_U.png
2016WMLeipzigG2D_MisterBurns_00384138_U.png
2016WMLeipzigG2D_MisterBurns_00385998_U.png
2016WMLeipzigG2D_MisterBurns_00387902_U.png
2016WMLeipzigG2D_MisterBurns_00389963_U.png
2016WMLeipzigG2D_MisterBurns_00392271_U.png
2016WMLeipzigG2D_MisterBurns_00395011_U.png
2016WMLeipzigG2D_MisterBurns_00398064_U.png
2016WMLeipzigG2D_MisterBurns_00399802_U.png
2016WMLeipzigG2D_MisterBurns_00402409_U.png
2016WMLeipzigG2D_MisterBurns_00404683_U.png
2016WMLeipzigG2D_MisterBurns_00406974_U.png
2016WMLeipzigG2D_MisterBurns_00409907_U.png
2016WMLeipzigG2D_MisterBurns_00412082_U.png
2016WMLeipzigG2D_MisterBurns_00413928_U.png
2016WMLeipzigG2D_MisterBurns_00416187_U.png
2016WMLeipzigG2D_MisterBurns_00419213_U.png
2016WMLeipzigG2D_MisterBurns_00436248_U.png
2016WMLeipzigG2D_MisterBurns_00458257_U.png
2016WMLeipzigG2D_MisterBurns_00461071_U.png
2016WMLeipzigG2D_MisterBurns_00463343_U.png
2016WMLeipzigG2D_MisterBurns_00464778_U.png
2016WMLeipzigG2D_MisterBurns_00466603_U.png
2016WMLeipzigG2D_MisterBurns_00468382_U.png
2016WMLeipzigG2D_MisterBurns_00490196_U.png
2016WMLeipzigG2D_MisterBurns_00492589_U.png
2016WMLeipzigG2D_MisterBurns_00494545_U.png
2016WMLeipzigG2D_MisterBurns_00496549_U.png
2016WMLeipzigG2D_MisterBurns_00499372_U.png
2016WMLeipzigG2D_MisterBurns_00502294_U.png
2016WMLeipzigG2D_MisterBurns_00503111_U.png
2016WMLeipzigG2D_MisterBurns_00505770_U.png
2016WMLeipzigG2D_MisterBurns_00507727_U.png
2016WMLeipzigG2D_MisterBurns_00509491_U.png
2016WMLeipzigG2D_MisterBurns_00522862_U.png
2016WMLeipzigG2D_MisterBurns_00524813_U.png
2016WMLeipzigG2E_Joker_00157455_U.png
2016WMLeipzigG2G_Joker_00006930_U.png
2016WMLeipzigG2G_Joker_00015886_U.png
2016WMLeipzigG2G_Joker_00017651_U.png
2016WMLeipzigG2G_Joker_00019783_U.png
2016WMLeipzigG2G_Joker_00021965_U.png
2016WMLeipzigG2K_Shredder_00043655_U.png
2016WMLeipzigG2K_Shredder_00053353_U.png
2016WMLeipzigG4A_GLaDOS_00033214_U.png
2016WMLeipzigG4A_GLaDOS_00038443_U.png
2016WMLeipzigG4A_GLaDOS_00040859_U.png
2016WMLeipzigG4A_GLaDOS_00047370_U.png
2016WMLeipzigG4A_GLaDOS_00054231_U.png
2016WMLeipzigG4A_GLaDOS_00060793_U.png
2016WMLeipzigG4A_GLaDOS_00068103_U.png
2016WMLeipzigG4A_GLaDOS_00080566_U.png
2016WMLeipzigG4A_GLaDOS_00087342_U.png
2016WMLeipzigG4A_GLaDOS_00089463_U.png
2016WMLeipzigG4A_GLaDOS_00093172_U.png
2016WMLeipzigG4A_GLaDOS_00095222_U.png
2016WMLeipzigG4A_GLaDOS_00099692_U.png
2016WMLeipzigG4A_GLaDOS_00107543_U.png
2016WMLeipzigG4A_GLaDOS_00160768_U.png
2016WMLeipzigG4A_GLaDOS_00162843_U.png
2016WMLeipzigG4A_GLaDOS_00164938_U.png
2016WMLeipzigG4A_GLaDOS_00167798_U.png
2016WMLeipzigG4A_GLaDOS_00179630_U.png
2016WMLeipzigG4A_GLaDOS_00183977_U.png
2016WMLeipzigG4A_GLaDOS_00286836_U.png
2016WMLeipzigG4A_GLaDOS_00298959_U.png
2016WMLeipzigG4A_GLaDOS_00315059_U.png
2016WMLeipzigG4A_GLaDOS_00378201_U.png
2016WMLeipzigG4A_GLaDOS_00382095_U.png
2016WMLeipzigG4A_GLaDOS_00384186_U.png
2016WMLeipzigG4A_GLaDOS_00386083_U.png
2016WMLeipzigG4A_GLaDOS_00388220_U.png
2016WMLeipzigG4A_GLaDOS_00390439_U.png
2016WMLeipzigG4A_GLaDOS_00392516_U.png
2016WMLeipzigG4A_GLaDOS_00394594_U.png
2016WMLeipzigG4A_GLaDOS_00396845_U.png
2016WMLeipzigG4A_GLaDOS_00404885_U.png
2016WMLeipzigG4A_GLaDOS_00406628_U.png
2016WMLeipzigG4A_GLaDOS_00447529_U.png
2016WMLeipzigG4A_GLaDOS_00470448_U.png
2016WMLeipzigG4A_GLaDOS_00503166_U.png
2016WMLeipzigG4A_GLaDOS_00505526_U.png
2016WMLeipzigG4A_GLaDOS_00658930_U.png
2016WMLeipzigG4A_GLaDOS_00725127_U.png
2016WMLeipzigG4A_Gargamel_00129685_U.png
2016WMLeipzigG4A_Gargamel_00137384_U.png
2016WMLeipzigG4A_Gargamel_00139568_U.png
2016WMLeipzigG4A_Gargamel_00142497_U.png
2016WMLeipzigG4A_Gargamel_00172544_U.png
2016WMLeipzigG4A_Gargamel_00174754_U.png
2016WMLeipzigG4A_Gargamel_00177410_U.png
2016WMLeipzigG4A_Gargamel_00179702_U.png
2016WMLeipzigG4A_Gargamel_00182048_U.png
2016WMLeipzigG4A_Gargamel_00212925_U.png
2016WMLeipzigG4A_Gargamel_00239933_U.png
2016WMLeipzigG4A_Gargamel_00244530_U.png
2016WMLeipzigG4A_Gargamel_00333878_U.png
2016WMLeipzigG4A_Gargamel_00340950_U.png
2016WMLeipzigG4A_Gargamel_00347599_U.png
2016WMLeipzigG4A_Gargamel_00362954_U.png
2016WMLeipzigG4A_Gargamel_00365224_U.png
2016WMLeipzigG4A_Gargamel_00387862_U.png
2016WMLeipzigG4A_Gargamel_00390594_U.png
2016WMLeipzigG4A_Gargamel_00428731_U.png
2016WMLeipzigG4A_Gargamel_00430541_U.png
2016WMLeipzigG4A_Gargamel_00433246_U.png
2016WMLeipzigG4A_Gargamel_00459042_U.png
2016WMLeipzigG4A_Gargamel_00507086_U.png
2016WMLeipzigG4A_Gargamel_00519403_U.png
2016WMLeipzigG4B_Gargamel_00094497_U.png
2016WMLeipzigG4B_Gargamel_00115732_U.png
2016WMLeipzigG4B_Gargamel_00118025_U.png
2016WMLeipzigG4B_Gargamel_00122290_U.png
2016WMLeipzigG4B_Gargamel_00124215_U.png
2016WMLeipzigG4B_Gargamel_00126130_U.png
2016WMLeipzigG4B_Gargamel_00127909_U.png
2016WMLeipzigG4B_Gargamel_00130409_U.png
2016WMLeipzigG4B_Gargamel_00133071_U.png
2016WMLeipzigG4B_Gargamel_00135170_U.png
2016WMLeipzigG4B_Gargamel_00219021_U.png
2016WMLeipzigG4B_Gargamel_00287143_U.png
2016WMLeipzigG4B_Gargamel_00291356_U.png
2016WMLeipzigG4B_Gargamel_00297695_U.png
2016WMLeipzigG4B_Gargamel_00304555_U.png
2016WMLeipzigG4B_Gargamel_00306498_U.png
2016WMLeipzigG4B_Gargamel_00348161_U.png
2016WMLeipzigG4B_Gargamel_00350062_U.png
2016WMLeipzigG4B_Gargamel_00351851_U.png
2016WMLeipzigG4B_Gargamel_00354391_U.png
2016WMLeipzigG4B_Gargamel_00374023_U.png
2016WMLeipzigG4B_Gargamel_00376966_U.png
2016WMLeipzigG4B_Gargamel_00396392_U.png
2016WMLeipzigG4B_Gargamel_00411133_U.png
2016WMLeipzigG4B_Gargamel_00480453_U.png
2016WMLeipzigG4B_Gargamel_00497737_U.png
2016WMLeipzigG4B_Gargamel_00563980_U.png
2016WMLeipzigG4B_Gargamel_00619362_U.png
2016WMLeipzigG4B_Gargamel_00735915_U.png
2016WMLeipzigG4B_MisterBurns_00127322_U.png
2016WMLeipzigG4B_MisterBurns_00133762_U.png
2016WMLeipzigG4B_MisterBurns_00160404_U.png
2016WMLeipzigG4B_MisterBurns_00162067_U.png
2016WMLeipzigG4B_MisterBurns_00179640_U.png
2016WMLeipzigG4B_MisterBurns_00193985_U.png
2016WMLeipzigG4B_MisterBurns_00226085_U.png
2016WMLeipzigG4B_MisterBurns_00227952_U.png
2016WMLeipzigG4B_MisterBurns_00259075_U.png
2016WMLeipzigG4B_MisterBurns_00429153_U.png
2016WMLeipzigG4B_MisterBurns_00438995_U.png
2016WMLeipzigG4B_MisterBurns_00460509_U.png
2016WMLeipzigG4B_MisterBurns_00484205_U.png
2016WMLeipzigG4B_MisterBurns_00486906_U.png
2016WMLeipzigG4B_MisterBurns_00492830_U.png
2016WMLeipzigG4B_MisterBurns_00557714_U.png
2016WMLeipzigG4B_MisterBurns_00562059_U.png
2016WMLeipzigG4B_MisterBurns_00569105_U.png
2016WMLeipzigG4B_MisterBurns_00613089_U.png
2016WMLeipzigG4B_MisterBurns_00616449_U.png
2016WMLeipzigG4B_MisterBurns_00618687_U.png
2016WMLeipzigG4B_MisterBurns_00622182_U.png
2016WMLeipzigG4B_MisterBurns_00624519_U.png
2016WMLeipzigG4B_MisterBurns_00637235_U.png
2016WMLeipzigG4B_MisterBurns_00639546_U.png
2016WMLeipzigG4B_MisterBurns_00643917_U.png
2016WMLeipzigG4B_MisterBurns_00645954_U.png
2016WMLeipzigG4B_MisterBurns_00659011_U.png
2016WMLeipzigG4B_MisterBurns_00660888_U.png
2016WMLeipzigG4B_MisterBurns_00664860_U.png
2016WMLeipzigG4B_MisterBurns_00667798_U.png
2016WMLeipzigG4B_MisterBurns_00673259_U.png
2016WMLeipzigG4B_MisterBurns_00675078_U.png
2016WMLeipzigG4B_MisterBurns_00682925_U.png
2016WMLeipzigG4B_MisterBurns_00690846_U.png
2016WMLeipzigG4B_MisterBurns_00693643_U.png
2016WMLeipzigG4B_MisterBurns_00696279_U.png
2016WMLeipzigG4B_MisterBurns_00710482_U.png
2016WMLeipzigG4B_MisterBurns_00722782_U.png
2016WMLeipzigG4C_GLaDOS_00144856_U.png
2016WMLeipzigG4C_GLaDOS_00148664_U.png
2016WMLeipzigG4C_GLaDOS_00156927_U.png
2016WMLeipzigG4C_GLaDOS_00161409_U.png
2016WMLeipzigG4C_GLaDOS_00198125_U.png
2016WMLeipzigG4C_GLaDOS_00210251_U.png
2016WMLeipzigG4C_GLaDOS_00216462_U.png
2016WMLeipzigG4C_GLaDOS_00222962_U.png
2016WMLeipzigG4C_GLaDOS_00225690_U.png
2016WMLeipzigG4C_GLaDOS_00227857_U.png
2016WMLeipzigG4C_GLaDOS_00229971_U.png
2016WMLeipzigG4C_GLaDOS_00232698_U.png
2016WMLeipzigG4C_GLaDOS_00234789_U.png
2016WMLeipzigG4C_GLaDOS_00236692_U.png
2016WMLeipzigG4C_GLaDOS_00244654_U.png
2016WMLeipzigG4C_GLaDOS_00250814_U.png
2016WMLeipzigG4C_GLaDOS_00252887_U.png
2016WMLeipzigG4C_GLaDOS_00278940_U.png
2016WMLeipzigG4C_GLaDOS_00330254_U.png
2016WMLeipzigG4C_GLaDOS_00332420_U.png
2016WMLeipzigG4C_GLaDOS_00337541_U.png
2016WMLeipzigG4C_GLaDOS_00377959_U.png
2016WMLeipzigG4C_GLaDOS_00379910_U.png
2016WMLeipzigG4C_GLaDOS_00411030_U.png
2016WMLeipzigG4C_GLaDOS_00455500_U.png
2016WMLeipzigG4C_GLaDOS_00458312_U.png
2016WMLeipzigG4C_GLaDOS_00461758_U.png
2016WMLeipzigG4C_GLaDOS_00470702_U.png
2016WMLeipzigG4C_GLaDOS_00500819_U.png
2016WMLeipzigG4C_GLaDOS_00512394_U.png
2016WMLeipzigG4C_GLaDOS_00519580_U.png
2016WMLeipzigG4C_GLaDOS_00523565_U.png
2016WMLeipzigG4C_GLaDOS_00591544_U.png
2016WMLeipzigG4C_GLaDOS_00594134_U.png
2016WMLeipzigG4C_GLaDOS_00597925_U.png
2016WMLeipzigG4C_GLaDOS_00604190_U.png
2016WMLeipzigG4C_GLaDOS_00605890_U.png
2016WMLeipzigG4C_GLaDOS_00608397_U.png
2016WMLeipzigG4C_GLaDOS_00610467_U.png
2016WMLeipzigG4C_GLaDOS_00612865_U.png
2016WMLeipzigG4C_GLaDOS_00658924_U.png
2016WMLeipzigG4C_GLaDOS_00668972_U.png
2016WMLeipzigG4C_GLaDOS_00671236_U.png
2016WMLeipzigG4C_GLaDOS_00677142_U.png
2016WMLeipzigG4C_GLaDOS_00680488_U.png
2016WMLeipzigG4C_GLaDOS_00684272_U.png
2016WMLeipzigG4C_GLaDOS_00688954_U.png
2016WMLeipzigG4C_GLaDOS_00691046_U.png
2016WMLeipzigG4C_GLaDOS_00752900_U.png
2016WMLeipzigG4C_GLaDOS_00755514_U.png
2016WMLeipzigG4C_GLaDOS_00758367_U.png
2016WMLeipzigG4C_GLaDOS_00760338_U.png
2016WMLeipzigG4C_GLaDOS_00762444_U.png
2016WMLeipzigG4C_GLaDOS_00764284_U.png
2016WMLeipzigG4C_GLaDOS_00766090_U.png
2016WMLeipzigG4C_GLaDOS_00768915_U.png
2016WMLeipzigG4C_GLaDOS_00770605_U.png
2016WMLeipzigG4C_GLaDOS_00776943_U.png
2016WMLeipzigG4C_GLaDOS_00779848_U.png
2016WMLeipzigG4C_GLaDOS_00781686_U.png
2016WMLeipzigG4C_GLaDOS_00784093_U.png
2016WMLeipzigG4C_GLaDOS_00789753_U.png
2016WMLeipzigG4C_MisterBurns_00015479_U.png
2016WMLeipzigG4C_MisterBurns_00017201_U.png
2016WMLeipzigG4C_MisterBurns_00019058_U.png
2016WMLeipzigG4C_MisterBurns_00023111_U.png
2016WMLeipzigG4C_MisterBurns_00042386_U.png
2016WMLeipzigG4C_MisterBurns_00085407_U.png
2016WMLeipzigG4C_MisterBurns_00095150_U.png
2016WMLeipzigG4C_MisterBurns_00180929_U.png
2016WMLeipzigG4C_MisterBurns_00182958_U.png
2016WMLeipzigG4C_MisterBurns_00186901_U.png
2016WMLeipzigG4C_MisterBurns_00188918_U.png
2016WMLeipzigG4C_MisterBurns_00191380_U.png
2016WMLeipzigG4C_MisterBurns_00197422_U.png
2016WMLeipzigG4C_MisterBurns_00207728_U.png
2016WMLeipzigG4C_MisterBurns_00209889_U.png
2016WMLeipzigG4C_MisterBurns_00212226_U.png
2016WMLeipzigG4C_MisterBurns_00213959_U.png
2016WMLeipzigG4C_MisterBurns_00215824_U.png
2016WMLeipzigG4C_MisterBurns_00220173_U.png
2016WMLeipzigG4C_MisterBurns_00263201_U.png
2016WMLeipzigG4C_MisterBurns_00266451_U.png
2016WMLeipzigG4C_MisterBurns_00268818_U.png
2016WMLeipzigG4C_MisterBurns_00270582_U.png
2016WMLeipzigG4C_MisterBurns_00272369_U.png
2016WMLeipzigG4C_MisterBurns_00275442_U.png
2016WMLeipzigG4C_MisterBurns_00286271_U.png
2016WMLeipzigG4C_MisterBurns_00288355_U.png
2016WMLeipzigG4C_MisterBurns_00298024_U.png
2016WMLeipzigG4C_MisterBurns_00303950_U.png
2016WMLeipzigG4C_MisterBurns_00305823_U.png
2016WMLeipzigG4C_MisterBurns_00308778_U.png
2016WMLeipzigG4C_MisterBurns_00312886_U.png
2016WMLeipzigG4C_MisterBurns_00315180_U.png
2016WMLeipzigG4C_MisterBurns_00317442_U.png
2016WMLeipzigG4C_MisterBurns_00320028_U.png
2016WMLeipzigG4C_MisterBurns_00322717_U.png
2016WMLeipzigG8A_MisterBurns_00102198_U.png
2016WMLeipzigG8A_MisterBurns_00104331_U.png
2016WMLeipzigG8A_MisterBurns_00108853_U.png
2016WMLeipzigG8A_MisterBurns_00116969_U.png
2016WMLeipzigG8A_MisterBurns_00119815_U.png
2016WMLeipzigG8A_MisterBurns_00121677_U.png
2016WMLeipzigG8A_MisterBurns_00125507_U.png
2016WMLeipzigG8A_MisterBurns_00127886_U.png
2016WMLeipzigG8A_MisterBurns_00141557_U.png
2016WMLeipzigG8A_MisterBurns_00192686_U.png
2016WMLeipzigG8A_MisterBurns_00216604_U.png
2016WMLeipzigG8A_MisterBurns_00229891_U.png
2016WMLeipzigG8A_MisterBurns_00238297_U.png
2016WMLeipzigG8A_MisterBurns_00246277_U.png
2016WMLeipzigG8A_MisterBurns_00251124_U.png
2016WMLeipzigG8A_MisterBurns_00269692_U.png
2016WMLeipzigG8A_MisterBurns_00271828_U.png
2016WMLeipzigG8A_MisterBurns_00311281_U.png
2016WMLeipzigG8A_MisterBurns_00313167_U.png
2016WMLeipzigG8A_MisterBurns_00315417_U.png
2016WMLeipzigG8A_MisterBurns_00317026_U.png
2016WMLeipzigG8A_MisterBurns_00325628_U.png
2016WMLeipzigG8A_MisterBurns_00327547_U.png
2016WMLeipzigG8A_MisterBurns_00329176_U.png
2016WMLeipzigG8A_MisterBurns_00330836_U.png
2016WMLeipzigG8A_MisterBurns_00332746_U.png
2016WMLeipzigG8A_MisterBurns_00334507_U.png
2016WMLeipzigG8A_MisterBurns_00347095_U.png
2016WMLeipzigG8A_MisterBurns_00349366_U.png
2016WMLeipzigG8A_MisterBurns_00351157_U.png
2016WMLeipzigG8A_MisterBurns_00353088_U.png
2016WMLeipzigG8A_MisterBurns_00355095_U.png
2016WMLeipzigG8A_MisterBurns_00357480_U.png
2016WMLeipzigG8A_MisterBurns_00359843_U.png
2016WMLeipzigG8A_Shredder_00118032_U.png
2016WMLeipzigG8A_Shredder_00123298_U.png
2016WMLeipzigG8A_Shredder_00125581_U.png
2016WMLeipzigG8A_Shredder_00127367_U.png
2016WMLeipzigG8A_Shredder_00129281_U.png
2016WMLeipzigG8A_Shredder_00131167_U.png
2016WMLeipzigG8A_Shredder_00151972_U.png
2016WMLeipzigG8A_Shredder_00153714_U.png
2016WMLeipzigG8A_Shredder_00155977_U.png
2016WMLeipzigG8A_Shredder_00157855_U.png
2016WMLeipzigG8A_Shredder_00159538_U.png
2016WMLeipzigG8A_Shredder_00161308_U.png
2016WMLeipzigG8A_Shredder_00163140_U.png
2016WMLeipzigG8A_Shredder_00164807_U.png
2016WMLeipzigG8A_Shredder_00166877_U.png
2016WMLeipzigG8A_Shredder_00179608_U.png
2016WMLeipzigG8A_Shredder_00181694_U.png
2016WMLeipzigG8A_Shredder_00183489_U.png
2016WMLeipzigG8A_Shredder_00268789_U.png
2016WMLeipzigG8A_Shredder_00270802_U.png
2016WMLeipzigG8A_Shredder_00272779_U.png
2016WMLeipzigG8A_Shredder_00274641_U.png
2016WMLeipzigG8A_Shredder_00277820_U.png
2016WMLeipzigG8A_Shredder_00278284_U.png
2016WMLeipzigG8A_Shredder_00280915_U.png
2016WMLeipzigG8A_Shredder_00283236_U.png
2016WMLeipzigG8A_Shredder_00285389_U.png
2016WMLeipzigG8A_Shredder_00289581_U.png
2016WMLeipzigG8A_Shredder_00292279_U.png
2016WMLeipzigG8A_Shredder_00294008_U.png
2016WMLeipzigG8A_Shredder_00295988_U.png
2016WMLeipzigG8A_Shredder_00302688_U.png
2016WMLeipzigG8A_Shredder_00304486_U.png
2016WMLeipzigG8A_Shredder_00306676_U.png
2016WMLeipzigG8A_Shredder_00308578_U.png
2016WMLeipzigG8A_Shredder_00315535_U.png
2016WMLeipzigG8A_Shredder_00317556_U.png
2016WMLeipzigG8A_Shredder_00321324_U.png
2016WMLeipzigG8A_Shredder_00323038_U.png
2016WMLeipzigG8A_Shredder_00324898_U.png
2016WMLeipzigG8A_Shredder_00326724_U.png
2016WMLeipzigG8A_Shredder_00328741_U.png
2016WMLeipzigG8A_Shredder_00330928_U.png
2016WMLeipzigG8A_Shredder_00332401_U.png
2016WMLeipzigG8A_Shredder_00344894_U.png
2016WMLeipzigG8A_Shredder_00346709_U.png
2016WMLeipzigG8A_Shredder_00348455_U.png
2016WMLeipzigG8A_Shredder_00358473_U.png
2016WMLeipzigG8A_Shredder_00448053_U.png
2016WMLeipzigG8A_Shredder_00454454_U.png
2016WMLeipzigG8A_Shredder_00464181_U.png
2016WMLeipzigG8A_Shredder_00465971_U.png
2016WMLeipzigG8A_Shredder_00467994_U.png
2016WMLeipzigG8A_Shredder_00470293_U.png
2016WMLeipzigG8A_Shredder_00474829_U.png
2016WMLeipzigG8A_Shredder_00484018_U.png
2016WMLeipzigG8A_Shredder_00485742_U.png
2016WMLeipzigG8A_Shredder_00488045_U.png
2016WMLeipzigG8A_Shredder_00490167_U.png
2016WMLeipzigG8A_Shredder_00492607_U.png
2016WMLeipzigG8A_Shredder_00494600_U.png
2016WMLeipzigG8A_Shredder_00496715_U.png
2016WMLeipzigG8A_Shredder_00500388_U.png
2016WMLeipzigG8A_Shredder_00502191_U.png
2016WMLeipzigG8A_Shredder_00504329_U.png
2016WMLeipzigG8A_Shredder_00526641_U.png
2016WMLeipzigG8A_Shredder_00528922_U.png
2016WMLeipzigG8A_Shredder_00619262_U.png
2016WMLeipzigG8A_Shredder_00620952_U.png
2016WMLeipzigG8A_Shredder_00622919_U.png
2016WMLeipzigG8A_Shredder_00625032_U.png
2016WMLeipzigG8A_Shredder_00627117_U.png
2016WMLeipzigG8A_Shredder_00629077_U.png
2016WMLeipzigG8A_Shredder_00631298_U.png
2016WMLeipzigG8A_Shredder_00633551_U.png
2016WMLeipzigG8A_Shredder_00657351_U.png
2016WMLeipzigG8A_Shredder_00659468_U.png
2016WMLeipzigG8A_Shredder_00664592_U.png
2016WMLeipzigG8A_Shredder_00666338_U.png
2016WMLeipzigG8A_Shredder_00668569_U.png
2016WMLeipzigG8A_Shredder_00686623_U.png
2016WMLeipzigG8A_Shredder_00689530_U.png
2016WMLeipzigG8A_Shredder_00691373_U.png
2016WMLeipzigG8A_Shredder_00695542_U.png
2016WMLeipzigG8A_Shredder_00713897_U.png
2016WMLeipzigG8A_Shredder_00715778_U.png
2016WMLeipzigG8B_Gargamel_00093253_U.png
2016WMLeipzigG8B_Gargamel_00104066_U.png
2016WMLeipzigG8B_Gargamel_00105703_U.png
2016WMLeipzigG8B_Gargamel_00109916_U.png
2016WMLeipzigG8B_Gargamel_00111646_U.png
2016WMLeipzigG8B_Gargamel_00115608_U.png
2016WMLeipzigG8B_Gargamel_00122223_U.png
2016WMLeipzigG8B_Gargamel_00143088_U.png
2016WMLeipzigG8B_Gargamel_00165967_U.png
2016WMLeipzigG8B_Gargamel_00170099_U.png
2016WMLeipzigG8B_Gargamel_00194849_U.png
2016WMLeipzigG8B_Gargamel_00199929_U.png
2016WMLeipzigG8B_Gargamel_00203998_U.png
2016WMLeipzigG8B_Gargamel_00210247_U.png
2016WMLeipzigG8B_Gargamel_00225308_U.png
2016WMLeipzigG8B_Gargamel_00227393_U.png
2016WMLeipzigG8B_Gargamel_00255106_U.png
2016WMLeipzigG8B_Gargamel_00297802_U.png
2016WMLeipzigG8B_Gargamel_00315481_U.png
2016WMLeipzigG8B_Gargamel_00355822_U.png
2016WMLeipzigG8B_MisterBurns_00014515_U.png
2016WMLeipzigG8B_MisterBurns_00028152_U.png
2016WMLeipzigG8B_MisterBurns_00031780_U.png
2016WMLeipzigG8B_MisterBurns_00033450_U.png
2016WMLeipzigG8B_MisterBurns_00035101_U.png
2016WMLeipzigG8B_MisterBurns_00063523_U.png
2016WMLeipzigG8B_MisterBurns_00068698_U.png
2016WMLeipzigG8B_MisterBurns_00103745_U.png
2016WMLeipzigG8B_Shredder_00109974_U.png
2016WMLeipzigG8B_Shredder_00111295_U.png
2016WMLeipzigG8B_Shredder_00114993_U.png
2016WMLeipzigG8B_Shredder_00117688_U.png
2016WMLeipzigG8B_Shredder_00119653_U.png
2016WMLeipzigG8B_Shredder_00124439_U.png
2016WMLeipzigG8B_Shredder_00125437_U.png
2016WMLeipzigG8B_Shredder_00128995_U.png
2016WMLeipzigG8B_Shredder_00131112_U.png
2016WMLeipzigG8B_Shredder_00137269_U.png
2016WMLeipzigG8B_Shredder_00140210_U.png
2016WMLeipzigG8B_Shredder_00142433_U.png
2016WMLeipzigG8B_Shredder_00159117_U.png
2016WMLeipzigG8B_Shredder_00161506_U.png
2016WMLeipzigG8B_Shredder_00165489_U.png
2016WMLeipzigG8B_Shredder_00167561_U.png
2016WMLeipzigG8B_Shredder_00169173_U.png
2016WMLeipzigG8B_Shredder_00171321_U.png
2016WMLeipzigG8B_Shredder_00175674_U.png
2016WMLeipzigG8B_Shredder_00175760_U.png
2016WMLeipzigG8B_Shredder_00178746_U.png
2016WMLeipzigG8B_Shredder_00201951_U.png
2016WMLeipzigG8B_Shredder_00203746_U.png
2016WMLeipzigG8B_Shredder_00207568_U.png
2016WMLeipzigG8B_Shredder_00212339_U.png
2016WMLeipzigG8B_Shredder_00214384_U.png
2016WMLeipzigG8B_Shredder_00221982_U.png
2016WMLeipzigG8B_Shredder_00223675_U.png
2016WMLeipzigG8B_Shredder_00225497_U.png
2016WMLeipzigG8B_Shredder_00227421_U.png
2016WMLeipzigG8B_Shredder_00229221_U.png
2016WMLeipzigG8B_Shredder_00231523_U.png
2016WMLeipzigG8B_Shredder_00233651_U.png
2016WMLeipzigG8B_Shredder_00261527_U.png
2016WMLeipzigG8B_Shredder_00263451_U.png
2016WMLeipzigG8B_Shredder_00266003_U.png
2016WMLeipzigG8B_Shredder_00268284_U.png
2016WMLeipzigG8B_Shredder_00270191_U.png
2016WMLeipzigG8B_Shredder_00271893_U.png
2016WMLeipzigG8B_Shredder_00274132_U.png
2016WMLeipzigG8B_Shredder_00277233_U.png
2016WMLeipzigG8B_Shredder_00278516_U.png
2016WMLeipzigG8B_Shredder_00290079_U.png
2016WMLeipzigG8B_Shredder_00297287_U.png
2016WMLeipzigG8B_Shredder_00301085_U.png
2016WMLeipzigG8B_Shredder_00310993_U.png
2016WMLeipzigG8B_Shredder_00312877_U.png
2016WMLeipzigG8B_Shredder_00316854_U.png
2016WMLeipzigG8B_Shredder_00319232_U.png
2016WMLeipzigG8B_Shredder_00320710_U.png
2016WMLeipzigG8B_Shredder_00323004_U.png
2016WMLeipzigG8B_Shredder_00325332_U.png
2016WMLeipzigG8B_Shredder_00329007_U.png
2016WMLeipzigG8B_Shredder_00331577_U.png
2016WMLeipzigG8B_Shredder_00333509_U.png
2016WMLeipzigG8B_Shredder_00335427_U.png
2016WMLeipzigG8B_Shredder_00337169_U.png
2016WMLeipzigG8B_Shredder_00339626_U.png
2016WMLeipzigG8B_Shredder_00341842_U.png
2016WMLeipzigG8B_Shredder_00343891_U.png
2016WMLeipzigG8B_Shredder_00345931_U.png
2016WMLeipzigG8B_Shredder_00423572_U.png
2016WMLeipzigG8B_Shredder_00429475_U.png
2016WMLeipzigG8B_Shredder_00448027_U.png
2016WMLeipzigG8B_Shredder_00449980_U.png
2016WMLeipzigG8B_Shredder_00453469_U.png
2016WMLeipzigG8B_Shredder_00455913_U.png
2016WMLeipzigG8B_Shredder_00465757_U.png
2016WMLeipzigG8B_Shredder_00638341_U.png
2016WMLeipzigG8B_Shredder_00640737_U.png
2016WMLeipzigG8B_Shredder_00643572_U.png
2016WMLeipzigG8B_Shredder_00645515_U.png
2016WMLeipzigG8B_Shredder_00651818_U.png
2016WMLeipzigG8B_Shredder_00653908_U.png
2016WMLeipzigG8B_Shredder_00658237_U.png
2016WMLeipzigG8B_Shredder_00664963_U.png
2016WMLeipzigG8B_Shredder_00666672_U.png
2016WMLeipzigG8B_Shredder_00668681_U.png
2016WMLeipzigG8B_Shredder_00671690_U.png
2016WMLeipzigG8B_Shredder_00674117_U.png
2016WMLeipzigG8B_Shredder_00675876_U.png
2016WMLeipzigG8B_Shredder_00679740_U.png
2016WMLeipzigG8B_Shredder_00683905_U.png
2016WMLeipzigG8B_Shredder_00687318_U.png
2016WMLeipzigG8B_Shredder_00689144_U.png
2016WMLeipzigG8B_Shredder_00690939_U.png
2016WMLeipzigG8B_Shredder_00692824_U.png
2016WMLeipzigG8B_Shredder_00697155_U.png
2016WMLeipzigG8B_Shredder_00701373_U.png
2016WMLeipzigG8B_Shredder_00725257_U.png
2016WMLeipzigG8B_Shredder_00727331_U.png
2016WMLeipzigG8B_Shredder_00729259_U.png
2016WMLeipzigG8C_Joker_00099406_U.png
2016WMLeipzigG8C_Joker_00129138_U.png
2016WMLeipzigG8C_Joker_00130795_U.png
2016WMLeipzigG8C_Joker_00176474_U.png
2016WMLeipzigG8C_Joker_00182385_U.png
2016WMLeipzigG8C_Joker_00202152_U.png
2016WMLeipzigG8C_Joker_00220237_U.png
2016WMLeipzigG8C_Joker_00272802_U.png
2016WMLeipzigG8C_Joker_00278121_U.png
2016WMLeipzigG8C_Joker_00294529_U.png
2016WMLeipzigG8C_Joker_00348169_U.png
2016WMLeipzigG8C_Joker_00351943_U.png
2016WMLeipzigG8C_Joker_00433027_U.png
2016WMLeipzigG8C_Joker_00445755_U.png
2016WMLeipzigG8C_Joker_00450560_U.png
2016WMLeipzigG8C_Joker_00458144_U.png
2016WMLeipzigG8C_Joker_00459817_U.png
2016WMLeipzigG8C_Joker_00461459_U.png
2016WMLeipzigG8C_Joker_00463095_U.png
2016WMLeipzigG8C_Joker_00465075_U.png
2016WMLeipzigG8C_Joker_00467111_U.png
2016WMLeipzigG8C_Joker_00485453_U.png
2016WMLeipzigG8C_Joker_00494996_U.png
2016WMLeipzigG8C_Joker_00498146_U.png
2016WMLeipzigG8C_Joker_00500332_U.png
2016WMLeipzigG8C_Joker_00502561_U.png
2016WMLeipzigG8C_Joker_00505823_U.png
2016WMLeipzigG8C_Joker_00507920_U.png
2016WMLeipzigG8C_Joker_00510410_U.png
2016WMLeipzigG8C_Joker_00512296_U.png
2016WMLeipzigG8C_Joker_00526770_U.png
2016WMLeipzigG8C_Joker_00580613_U.png
2016WMLeipzigG8C_Joker_00587208_U.png
2016WMLeipzigG8C_Joker_00594031_U.png
2016WMLeipzigG8C_Joker_00600820_U.png
2016WMLeipzigG8C_Joker_00608243_U.png
2016WMLeipzigG8C_Joker_00611852_U.png
2016WMLeipzigG8C_Joker_00618314_U.png
2016WMLeipzigG8C_Joker_00700087_U.png
2016WMLeipzigG8C_Joker_00702787_U.png
2016WMLeipzigG8C_Joker_00717395_U.png
2016WMLeipzigG8C_Joker_00719155_U.png
2016WMLeipzigG8D_Joker_00116432_U.png
2016WMLeipzigG8D_Joker_00121194_U.png
2016WMLeipzigG8D_Joker_00123348_U.png
2016WMLeipzigG8D_Joker_00127209_U.png
2016WMLeipzigG8D_Joker_00128929_U.png
2016WMLeipzigG8D_Joker_00132272_U.png
2016WMLeipzigG8D_Joker_00139071_U.png
2016WMLeipzigG8D_Joker_00141077_U.png
2016WMLeipzigG8D_Joker_00142952_U.png
2016WMLeipzigG8D_Joker_00154860_U.png
2016WMLeipzigG8D_Joker_00156884_U.png
2016WMLeipzigG8D_Joker_00159158_U.png
2016WMLeipzigG8D_Joker_00161488_U.png
2016WMLeipzigG8D_Joker_00163895_U.png
2016WMLeipzigG8D_Joker_00165629_U.png
2016WMLeipzigG8D_Joker_00167447_U.png
2016WMLeipzigG8D_Joker_00261740_U.png
2016WMLeipzigG8D_Joker_00267201_U.png
2016WMLeipzigG8D_Joker_00269444_U.png
2016WMLeipzigG8D_Joker_00274206_U.png
2016WMLeipzigG8D_Joker_00276126_U.png
2016WMLeipzigG8D_Joker_00289897_U.png
2016WMLeipzigG8D_Joker_00292029_U.png
2016WMLeipzigG8D_Joker_00326168_U.png
2016WMLeipzigG8D_Joker_00337551_U.png
2016WMLeipzigG8D_Joker_00351907_U.png
2016WMLeipzigG8D_Joker_00355563_U.png
2016WMLeipzigG8D_Joker_00360453_U.png
2016WMLeipzigG8D_Joker_00362259_U.png
2016WMLeipzigG8D_Joker_00373087_U.png
2016WMLeipzigG8D_Joker_00374782_U.png
2016WMLeipzigG8D_Joker_00376644_U.png
2016WMLeipzigG8D_Joker_00378408_U.png
2016WMLeipzigG8D_Joker_00380223_U.png
2016WMLeipzigG8D_Joker_00384446_U.png
2016WMLeipzigG8D_Joker_00446097_U.png
2016WMLeipzigG8D_Joker_00455221_U.png
2016WMLeipzigG8D_Joker_00458633_U.png
2016WMLeipzigG8D_Joker_00607533_U.png
2016WMLeipzigG8D_Joker_00610207_U.png
2016WMLeipzigG8D_Joker_00614001_U.png
2016WMLeipzigG8D_Joker_00616092_U.png
2016WMLeipzigG8D_Joker_00619817_U.png
2016WMLeipzigG8D_Joker_00621975_U.png
2016WMLeipzigG8D_Joker_00632485_U.png
2016WMLeipzigG8D_Joker_00634913_U.png
2016WMLeipzigG8D_Joker_00635926_U.png
2016WMLeipzigG8D_Joker_00637866_U.png
2016WMLeipzigG8D_Joker_00656652_U.png
2016WMLeipzigG8D_Joker_00658380_U.png
2016WMLeipzigG8D_Joker_00660914_U.png
2016WMLeipzigG8D_Joker_00664173_U.png
2016WMLeipzigG8D_Joker_00666548_U.png
2016WMLeipzigG8D_Joker_00668264_U.png
2016WMLeipzigG8D_Joker_00695933_U.png
2016WMLeipzigG8D_Joker_00730812_U.png
2016WMLeipzigG8E_Gargamel_00047167_U.png
2016WMLeipzigG8E_Gargamel_00049497_U.png
2016WMLeipzigG8E_Gargamel_00050776_U.png
2016WMLeipzigG8E_Gargamel_00121348_U.png
2016WMLeipzigG8E_Gargamel_00129047_U.png
2016WMLeipzigG8E_Gargamel_00134759_U.png
2016WMLeipzigG8E_Gargamel_00140930_U.png
2016WMLeipzigG8E_Gargamel_00153844_U.png
2016WMLeipzigG8E_Gargamel_00155554_U.png
2016WMLeipzigG8E_Gargamel_00157376_U.png
2016WMLeipzigG8E_Gargamel_00159120_U.png
2016WMLeipzigG8E_Gargamel_00184220_U.png
2016WMLeipzigG8E_Gargamel_00234043_U.png
2016WMLeipzigG8E_Gargamel_00308234_U.png
2016WMLeipzigG8E_Gargamel_00320779_U.png
2016WMLeipzigG8E_Gargamel_00326859_U.png
2016WMLeipzigG8E_Gargamel_00332361_U.png
2016WMLeipzigG8E_Gargamel_00341010_U.png
2016WMLeipzigG8E_Gargamel_00342640_U.png
2016WMLeipzigG8E_Gargamel_00374257_U.png
2016WMLeipzigG8E_Gargamel_00375950_U.png
2016WMLeipzigG8E_Gargamel_00377586_U.png
2016WMLeipzigG8E_Gargamel_00388296_U.png
2016WMLeipzigG8E_Gargamel_00410961_U.png
2016WMLeipzigG8E_Gargamel_00412903_U.png
2016WMLeipzigG8E_MisterBurns_00111827_U.png
2016WMLeipzigG8E_MisterBurns_00117767_U.png
2016WMLeipzigG8E_MisterBurns_00121991_U.png
2016WMLeipzigG8E_MisterBurns_00147965_U.png
2016WMLeipzigG8E_MisterBurns_00150049_U.png
2016WMLeipzigG8E_MisterBurns_00152421_U.png
2016WMLeipzigG8E_MisterBurns_00154729_U.png
2016WMLeipzigG8E_MisterBurns_00157486_U.png
2016WMLeipzigG8E_MisterBurns_00159193_U.png
2016WMLeipzigG8E_MisterBurns_00173570_U.png
2016WMLeipzigG8E_MisterBurns_00175241_U.png
2016WMLeipzigG8E_MisterBurns_00176881_U.png
2016WMLeipzigG8E_MisterBurns_00178521_U.png
2016WMLeipzigG8E_MisterBurns_00186553_U.png
2016WMLeipzigG8E_MisterBurns_00245700_U.png
2016WMLeipzigG8E_MisterBurns_00251344_U.png
2016WMLeipzigG8E_MisterBurns_00261228_U.png
2016WMLeipzigG8E_MisterBurns_00317785_U.png
2016WMLeipzigG8E_MisterBurns_00321854_U.png
2016WMLeipzigG8E_MisterBurns_00325600_U.png
2016WMLeipzigG8E_MisterBurns_00333209_U.png
2016WMLeipzigG8E_MisterBurns_00418335_U.png
2016WMLeipzigG8E_MisterBurns_00420653_U.png
2016WMLeipzigG8E_MisterBurns_00424861_U.png
2016WMLeipzigG8E_MisterBurns_00430329_U.png
2016WMLeipzigG8E_MisterBurns_00434186_U.png
2016WMLeipzigG8E_MisterBurns_00447282_U.png
2016WMLeipzigG8E_MisterBurns_00449475_U.png
2016WMLeipzigG8E_MisterBurns_00451696_U.png
2016WMLeipzigG8E_MisterBurns_00454117_U.png
2016WMLeipzigG8E_MisterBurns_00455380_U.png
2016WMLeipzigG8E_MisterBurns_00459111_U.png
2016WMLeipzigG8E_MisterBurns_00461322_U.png
2016WMLeipzigG8E_MisterBurns_00475373_U.png
2016WMLeipzigG8E_MisterBurns_00506971_U.png
2016WMLeipzigG8E_MisterBurns_00509544_U.png
2016WMLeipzigG8E_MisterBurns_00511691_U.png
2016WMLeipzigG8E_MisterBurns_00530261_U.png
2016WMLeipzigG8E_MisterBurns_00593667_U.png
2016WMLeipzigG8E_MisterBurns_00597991_U.png
2016WMLeipzigG8E_MisterBurns_00687779_U.png
2016WMLeipzigG8F_Gargamel_00118405_U.png
2016WMLeipzigG8F_Gargamel_00124792_U.png
2016WMLeipzigG8F_Gargamel_00139609_U.png
2016WMLeipzigG8F_Gargamel_00195816_U.png
2016WMLeipzigG8F_Gargamel_00197834_U.png
2016WMLeipzigG8F_Gargamel_00206543_U.png
2016WMLeipzigG8F_Gargamel_00208318_U.png
2016WMLeipzigG8F_Gargamel_00210322_U.png
2016WMLeipzigG8F_Gargamel_00212122_U.png
2016WMLeipzigG8F_Gargamel_00213788_U.png
2016WMLeipzigG8F_Gargamel_00215516_U.png
2016WMLeipzigG8F_Gargamel_00217128_U.png
2016WMLeipzigG8F_Gargamel_00228847_U.png
2016WMLeipzigG8F_Gargamel_00230495_U.png
2016WMLeipzigG8F_Gargamel_00232372_U.png
2016WMLeipzigG8G_Gargamel_00019777_U.png
2016WMLeipzigG8G_Gargamel_00043701_U.png
2016WMLeipzigG8G_Gargamel_00048475_U.png
2016WMLeipzigG8G_Gargamel_00086229_U.png
2016WMLeipzigG8G_Gargamel_00088506_U.png
2016WMLeipzigG8G_Gargamel_00089753_U.png
2016WMLeipzigG8G_Gargamel_00092475_U.png
2016WMLeipzigG8G_Gargamel_00094296_U.png
2016WMLeipzigG8G_Gargamel_00095931_U.png
2016WMLeipzigG8G_Gargamel_00097623_U.png
2016WMLeipzigG8G_Gargamel_00099588_U.png
2016WMLeipzigG8G_Gargamel_00133651_U.png
2016WMLeipzigG8G_Gargamel_00136092_U.png
2016WMLeipzigG8G_Gargamel_00147970_U.png
2016WMLeipzigG8G_Gargamel_00154622_U.png
2016WMLeipzigG8G_Gargamel_00156560_U.png
2016WMLeipzigG8G_Gargamel_00165637_U.png
