RC2022_4th-Game-vsBHuman-G1A_Sputnik_INITIAL_00028295_TimeLoggedImagedA_L.png;1688515529895;tkalbitz;Ball;374;274;359;382;Ball
RC2022_4th-Game-vsBHuman-G1A_Sputnik_INITIAL_00035408_TimeLoggedImagedA_L.png;1688515537761;tkalbitz;Ball;360;364;321;478;Ball
RC2022_4th-Game-vsBHuman-G1A_Sputnik_INITIAL_00049585_TimeLoggedImagedA_L.png;1688510219124;benedikt;Ball;341;456;376;578;Ball
RC2022_4th-Game-vsBHuman-G1A_Sputnik_INITIAL_00063737_TimeLoggedImagedA_L.png;1688510222622;benedikt;Ball;296;427;374;540;Ball
RC2022_4th-Game-vsBHuman-G1A_Sputnik_INITIAL_00098816_TimeLoggedImagedA_L.png;1688510225820;benedikt;Ball;394;423;461;529;Ball
RC2022_4th-Game-vsBHuman-G1A_Sputnik_INITIAL_00134140_TimeLoggedImagedA_L.png;1688510228413;benedikt;Ball;400;272;445;346;Ball
RC2022_4th-Game-vsBHuman-G1A_Sputnik_INITIAL_00141228_TimeLoggedImagedA_L.png;1688510232187;benedikt;Ball;279;289;356;354;Ball
RC2022_4th-Game-vsBHuman-G1A_Sputnik_INITIAL_00148302_TimeLoggedImagedA_L.png;1688510235874;benedikt;Ball;257;199;340;261;Ball
RC2022_4th-Game-vsBHuman-G1A_Sputnik_INITIAL_00163165_TimeLoggedImagedA_L.png;1688510242684;benedikt;Ball;352;441;344;547;Ball
RC2022_4th-Game-vsBHuman-G1A_Sputnik_INITIAL_00177394_TimeLoggedImagedA_L.png;1688510249130;benedikt;Ball;366;420;361;575;Ball
RC2022_4th-Game-vsBHuman-G1A_Sputnik_INITIAL_00184460_TimeLoggedImagedA_L.png;1688510255678;benedikt;Ball;425;163;507;156;Ball
RC2022_4th-Game-vsBHuman-G1A_Sputnik_INITIAL_00156116_TimeLoggedImagedA_L.png;1688510240695;benedikt;Ignore
