GO2024-G4A_Hubble_5_PLAY_00302589_TimeLoggedImaged_U.png;1718107566748;tkalbitz;CenterCirclePoints;365;193;365;193;Right
GO2024-G4A_Hubble_5_PLAY_00487894_TimeLoggedImaged_U.png;1718107569728;tkalbitz;CenterCirclePoints;7;182;7;182;Right
GO2024-G4A_Hubble_5_PLAY_00620955_TimeLoggedImaged_U.png;1718107572226;tkalbitz;CenterCirclePoints;571;291;571;291;Right
GO2024-G4A_Hubble_5_PLAY_00809523_TimeLoggedImaged_U.png;1718107575092;tkalbitz;CenterCirclePoints;373;235;373;235;Left
GO2024-G4A_Hubble_5_PLAY_00830688_TimeLoggedImaged_U.png;1718107578210;tkalbitz;CenterCirclePoints;16;181;16;181;Left
GO2024-G4A_Hubble_5_PLAY_00830688_TimeLoggedImaged_U.png;1718107581532;tkalbitz;CenterCirclePoints;559;179;559;179;Right
GO2024-G4A_Hubble_5_READY_00233412_TimeLoggedImaged_U.png;1718107584864;tkalbitz;CenterCirclePoints;197;258;200;257;Left
GO2024-G4A_Hubble_5_READY_00233412_TimeLoggedImaged_U.png;1718107586065;tkalbitz;CenterCirclePoints;425;202;425;202;Right
GO2024-G4A_Hubble_5_READY_00240679_TimeLoggedImaged_U.png;1718107590137;tkalbitz;CenterCirclePoints;231;304;231;304;Left
GO2024-G4A_Hubble_5_READY_00240679_TimeLoggedImaged_U.png;1718107591701;tkalbitz;CenterCirclePoints;501;219;501;219;Right
GO2024-G4A_Hubble_5_READY_00502448_TimeLoggedImaged_U.png;1718107594217;tkalbitz;CenterCirclePoints;12;363;12;363;Left
GO2024-G4A_Hubble_5_READY_00502448_TimeLoggedImaged_U.png;1718107595743;tkalbitz;CenterCirclePoints;579;241;579;241;Right
GO2024-G4A_Hubble_5_READY_00509748_TimeLoggedImaged_U.png;1718107599047;tkalbitz;CenterCirclePoints;203;375;203;375;Right
GO2024-G4A_Hubble_5_READY_00517039_TimeLoggedImaged_U.png;1718130297511;tkalbitz;CenterCirclePoints;143;421;143;421;Left
GO2024-G4A_Hubble_5_READY_00726755_TimeLoggedImaged_U.png;1718107601571;tkalbitz;CenterCirclePoints;186;238;186;238;Right
GO2024-G4A_Hubble_5_READY_00734046_TimeLoggedImaged_U.png;1718107603701;tkalbitz;CenterCirclePoints;232;244;232;244;Left
GO2024-G4A_Hubble_5_READY_00734046_TimeLoggedImaged_U.png;1718107605790;tkalbitz;CenterCirclePoints;622;237;622;237;Right
GO2024-G4A_Hubble_5_SET_00247991_TimeLoggedImaged_U.png;1718130301144;tkalbitz;CenterCirclePoints;228;307;228;307;Left
GO2024-G4A_Hubble_5_SET_00247991_TimeLoggedImaged_U.png;1718130302991;tkalbitz;CenterCirclePoints;489;219;489;219;Right
GO2024-G4A_Hubble_5_SET_00365098_TimeLoggedImaged_U.png;1718107608375;tkalbitz;CenterCirclePoints;558;236;558;236;Right
GO2024-G4A_Hubble_5_SET_00524329_TimeLoggedImaged_U.png;1718107611407;tkalbitz;CenterCirclePoints;241;309;241;309;Left
GO2024-G4A_Hubble_5_SET_00537698_TimeLoggedImaged_U.png;1718107614114;tkalbitz;CenterCirclePoints;102;230;102;230;Left
GO2024-G4A_Hubble_5_SET_00544976_TimeLoggedImaged_U.png;1718107617018;tkalbitz;CenterCirclePoints;100;229;100;229;Left
GO2024-G4B_Hubble_5_PLAY_00225984_TimeLoggedImaged_U.png;1718107621046;tkalbitz;CenterCirclePoints;223;172;223;172;Left
GO2024-G4B_Hubble_5_PLAY_00237769_TimeLoggedImaged_U.png;1718130305824;tkalbitz;CenterCirclePoints;238;257;238;257;Left
GO2024-G4B_Hubble_5_PLAY_00356636_TimeLoggedImaged_U.png;1718107623886;tkalbitz;CenterCirclePoints;585;448;585;448;Right
GO2024-G4B_Hubble_5_PLAY_00483083_TimeLoggedImaged_U.png;1718107626734;tkalbitz;CenterCirclePoints;219;396;219;396;Left
GO2024-G4B_Hubble_5_READY_00167639_TimeLoggedImaged_U.png;1718107629982;tkalbitz;CenterCirclePoints;228;280;228;280;Left
GO2024-G4B_Hubble_5_READY_00167639_TimeLoggedImaged_U.png;1718107632197;tkalbitz;CenterCirclePoints;511;245;511;245;Right
GO2024-G4B_Hubble_5_READY_00174909_TimeLoggedImaged_U.png;1718107634767;tkalbitz;CenterCirclePoints;439;242;439;242;Right
GO2024-G4B_Hubble_5_READY_00378469_TimeLoggedImaged_U.png;1718107638273;tkalbitz;CenterCirclePoints;507;386;507;386;Right
GO2024-G4B_Hubble_5_READY_00392404_TimeLoggedImaged_U.png;1718107641779;tkalbitz;CenterCirclePoints;244;306;244;306;Left
GO2024-G4B_Hubble_5_READY_00399676_TimeLoggedImaged_U.png;1718107643929;tkalbitz;CenterCirclePoints;392;324;392;324;Right
GO2024-G4B_Hubble_5_READY_00748019_TimeLoggedImaged_U.png;1718132598823;tkalbitz;CenterCirclePoints;314;238;314;238;Left
GO2024-G4B_Hubble_5_SET_00182187_TimeLoggedImaged_U.png;1718107645793;tkalbitz;CenterCirclePoints;567;372;567;372;Left
GO2024-G4B_Hubble_5_SET_00406982_TimeLoggedImaged_U.png;1718107648393;tkalbitz;CenterCirclePoints;242;309;242;309;Left
GO2024-G4B_Hubble_5_SET_00419707_TimeLoggedImaged_U.png;1718107652563;tkalbitz;CenterCirclePoints;584;247;584;247;Right
GO2024-G4B_Hubble_5_SET_00427010_TimeLoggedImaged_U.png;1718107655333;tkalbitz;CenterCirclePoints;586;247;586;247;Right
GO2024-G4A_Hubble_5_PLAY_00302589_TimeLoggedImaged_U.png;1718552125485;flopp;FieldFeature;439;99;439;99;TMiddleLine
GO2024-G4A_Hubble_5_PLAY_00302589_TimeLoggedImaged_U.png;1718552128301;flopp;FieldFeature;392;346;392;346;NoCornerField
GO2024-G4A_Hubble_5_PLAY_00302589_TimeLoggedImaged_U.png;1718552129033;flopp;FieldFeature;403;362;403;362;NoTGoalArea
GO2024-G4A_Hubble_5_PLAY_00302589_TimeLoggedImaged_U.png;1718552129657;flopp;FieldFeature;409;378;409;378;NoCornerGoalArea
GO2024-G4A_Hubble_5_PLAY_00302589_TimeLoggedImaged_U.png;1718552130233;flopp;FieldFeature;414;391;414;391;NoTPenaltyArea
GO2024-G4A_Hubble_5_PLAY_00302589_TimeLoggedImaged_U.png;1718552130801;flopp;FieldFeature;423;399;423;399;NoCornerPenaltyArea
GO2024-G4A_Hubble_5_PLAY_00385983_TimeLoggedImaged_U.png;1718552405210;flopp;FieldFeature;542;145;542;145;TMiddleLine
GO2024-G4A_Hubble_5_PLAY_00385983_TimeLoggedImaged_U.png;1718552407623;flopp;FieldFeature;491;356;491;356;NoCornerField
GO2024-G4A_Hubble_5_PLAY_00385983_TimeLoggedImaged_U.png;1718552408438;flopp;FieldFeature;502;367;502;367;NoTGoalArea
GO2024-G4A_Hubble_5_PLAY_00385983_TimeLoggedImaged_U.png;1718552409162;flopp;FieldFeature;507;387;507;387;NoCornerGoalArea
GO2024-G4A_Hubble_5_PLAY_00385983_TimeLoggedImaged_U.png;1718552409786;flopp;FieldFeature;515;407;515;407;NoTPenaltyArea
GO2024-G4A_Hubble_5_PLAY_00385983_TimeLoggedImaged_U.png;1718552410346;flopp;FieldFeature;523;431;523;431;NoCornerPenaltyArea
GO2024-G4A_Hubble_5_PLAY_00393243_TimeLoggedImaged_U.png;1718552416159;flopp;FieldFeature;189;60;189;60;NoTMiddleLine
GO2024-G4A_Hubble_5_PLAY_00393243_TimeLoggedImaged_U.png;1718552416703;flopp;FieldFeature;197;76;197;76;NoCornerField
GO2024-G4A_Hubble_5_PLAY_00393243_TimeLoggedImaged_U.png;1718552417198;flopp;FieldFeature;211;97;211;97;NoTGoalArea
GO2024-G4A_Hubble_5_PLAY_00393243_TimeLoggedImaged_U.png;1718552417678;flopp;FieldFeature;223;114;223;114;NoCornerGoalArea
GO2024-G4A_Hubble_5_PLAY_00393243_TimeLoggedImaged_U.png;1718552418191;flopp;FieldFeature;230;125;230;125;NoTPenaltyArea
GO2024-G4A_Hubble_5_PLAY_00393243_TimeLoggedImaged_U.png;1718552418707;flopp;FieldFeature;257;130;257;130;NoCornerPenaltyArea
GO2024-G4A_Hubble_5_PLAY_00400549_TimeLoggedImaged_U.png;1718552421655;flopp;FieldFeature;274;63;274;63;NoTMiddleLine
GO2024-G4A_Hubble_5_PLAY_00400549_TimeLoggedImaged_U.png;1718552422054;flopp;FieldFeature;283;92;283;92;NoCornerField
GO2024-G4A_Hubble_5_PLAY_00400549_TimeLoggedImaged_U.png;1718552422518;flopp;FieldFeature;302;116;302;116;NoTGoalArea
GO2024-G4A_Hubble_5_PLAY_00400549_TimeLoggedImaged_U.png;1718552422966;flopp;FieldFeature;320;135;320;135;NoCornerGoalArea
GO2024-G4A_Hubble_5_PLAY_00400549_TimeLoggedImaged_U.png;1718552423434;flopp;FieldFeature;363;151;363;151;NoTPenaltyArea
GO2024-G4A_Hubble_5_PLAY_00400549_TimeLoggedImaged_U.png;1718552423930;flopp;FieldFeature;427;171;427;171;NoCornerPenaltyArea
GO2024-G4A_Hubble_5_PLAY_00407834_TimeLoggedImaged_U.png;1718552432631;flopp;FieldFeature;273;38;273;38;NoTMiddleLine
GO2024-G4A_Hubble_5_PLAY_00407834_TimeLoggedImaged_U.png;1718552433082;flopp;FieldFeature;286;76;286;76;NoCornerField
GO2024-G4A_Hubble_5_PLAY_00407834_TimeLoggedImaged_U.png;1718552433835;flopp;FieldFeature;303;91;303;91;NoTGoalArea
GO2024-G4A_Hubble_5_PLAY_00407834_TimeLoggedImaged_U.png;1718552434330;flopp;FieldFeature;334;108;334;108;NoCornerGoalArea
GO2024-G4A_Hubble_5_PLAY_00407834_TimeLoggedImaged_U.png;1718552434811;flopp;FieldFeature;384;128;384;128;NoTPenaltyArea
GO2024-G4A_Hubble_5_PLAY_00407834_TimeLoggedImaged_U.png;1718552435450;flopp;FieldFeature;458;151;458;151;NoCornerPenaltyArea
GO2024-G4A_Hubble_5_PLAY_00415115_TimeLoggedImaged_U.png;1718552440759;flopp;FieldFeature;88;245;88;245;NoTMiddleLine
GO2024-G4A_Hubble_5_PLAY_00415115_TimeLoggedImaged_U.png;1718552441543;flopp;FieldFeature;104;261;104;261;NoCornerField
GO2024-G4A_Hubble_5_PLAY_00415115_TimeLoggedImaged_U.png;1718552442168;flopp;FieldFeature;116;273;116;273;NoTGoalArea
GO2024-G4A_Hubble_5_PLAY_00415115_TimeLoggedImaged_U.png;1718552442667;flopp;FieldFeature;131;289;131;289;NoCornerGoalArea
GO2024-G4A_Hubble_5_PLAY_00415115_TimeLoggedImaged_U.png;1718552443179;flopp;FieldFeature;146;300;146;300;NoTPenaltyArea
GO2024-G4A_Hubble_5_PLAY_00415115_TimeLoggedImaged_U.png;1718552443707;flopp;FieldFeature;164;320;164;320;NoCornerPenaltyArea
GO2024-G4A_Hubble_5_PLAY_00422426_TimeLoggedImaged_U.png;1718552451927;flopp;FieldFeature;568;113;568;113;CornerField
GO2024-G4A_Hubble_5_PLAY_00422426_TimeLoggedImaged_U.png;1718552461648;flopp;FieldFeature;369;128;369;128;TGoalArea
GO2024-G4A_Hubble_5_PLAY_00422426_TimeLoggedImaged_U.png;1718552466008;flopp;FieldFeature;462;122;462;122;TPenaltyArea
GO2024-G4A_Hubble_5_PLAY_00422426_TimeLoggedImaged_U.png;1718552467896;flopp;FieldFeature;476;136;476;136;CornerPenaltyArea
GO2024-G4A_Hubble_5_PLAY_00422426_TimeLoggedImaged_U.png;1718552471552;flopp;FieldFeature;502;267;502;267;NoTMiddleLine
GO2024-G4A_Hubble_5_PLAY_00422426_TimeLoggedImaged_U.png;1718552484792;flopp;FieldFeature;365;132;365;132;CornerGoalArea
GO2024-G4A_Hubble_5_PLAY_00480589_TimeLoggedImaged_U.png;1718552490500;flopp;FieldFeature;430;221;430;221;NoTMiddleLine
GO2024-G4A_Hubble_5_PLAY_00480589_TimeLoggedImaged_U.png;1718552491096;flopp;FieldFeature;430;233;430;233;NoCornerField
GO2024-G4A_Hubble_5_PLAY_00480589_TimeLoggedImaged_U.png;1718552491624;flopp;FieldFeature;434;250;434;250;NoTGoalArea
GO2024-G4A_Hubble_5_PLAY_00480589_TimeLoggedImaged_U.png;1718552492200;flopp;FieldFeature;434;267;434;267;NoCornerGoalArea
GO2024-G4A_Hubble_5_PLAY_00480589_TimeLoggedImaged_U.png;1718552492760;flopp;FieldFeature;434;272;434;272;NoTPenaltyArea
GO2024-G4A_Hubble_5_PLAY_00480589_TimeLoggedImaged_U.png;1718552493304;flopp;FieldFeature;438;282;438;282;NoCornerPenaltyArea
GO2024-G4A_Hubble_5_PLAY_00487894_TimeLoggedImaged_U.png;1718552497632;flopp;FieldFeature;75;261;75;260;NoTMiddleLine
GO2024-G4A_Hubble_5_PLAY_00487894_TimeLoggedImaged_U.png;1718552498288;flopp;FieldFeature;77;273;77;273;NoCornerField
GO2024-G4A_Hubble_5_PLAY_00487894_TimeLoggedImaged_U.png;1718552498836;flopp;FieldFeature;77;286;77;286;NoTGoalArea
GO2024-G4A_Hubble_5_PLAY_00487894_TimeLoggedImaged_U.png;1718552499412;flopp;FieldFeature;81;307;81;307;NoCornerGoalArea
GO2024-G4A_Hubble_5_PLAY_00487894_TimeLoggedImaged_U.png;1718552500180;flopp;FieldFeature;81;323;81;323;NoTPenaltyArea
GO2024-G4A_Hubble_5_PLAY_00487894_TimeLoggedImaged_U.png;1718552500756;flopp;FieldFeature;81;338;81;338;NoCornerPenaltyArea
GO2024-G4A_Hubble_5_PLAY_00573333_TimeLoggedImaged_U.png;1718552504052;flopp;FieldFeature;75;318;75;318;NoTMiddleLine
GO2024-G4A_Hubble_5_PLAY_00573333_TimeLoggedImaged_U.png;1718552504732;flopp;FieldFeature;75;330;75;330;NoCornerField
GO2024-G4A_Hubble_5_PLAY_00573333_TimeLoggedImaged_U.png;1718552505228;flopp;FieldFeature;75;338;75;338;NoTGoalArea
GO2024-G4A_Hubble_5_PLAY_00573333_TimeLoggedImaged_U.png;1718552505853;flopp;FieldFeature;77;350;77;350;NoCornerGoalArea
GO2024-G4A_Hubble_5_PLAY_00573333_TimeLoggedImaged_U.png;1718552506413;flopp;FieldFeature;77;363;77;363;NoTPenaltyArea
GO2024-G4A_Hubble_5_PLAY_00573333_TimeLoggedImaged_U.png;1718552506976;flopp;FieldFeature;80;389;80;389;NoCornerPenaltyArea
GO2024-G4A_Hubble_5_PLAY_00597165_TimeLoggedImaged_U.png;1718552513153;flopp;FieldFeature;480;42;480;42;CornerField
GO2024-G4A_Hubble_5_PLAY_00597165_TimeLoggedImaged_U.png;1718552517193;flopp;FieldFeature;566;125;566;125;CornerPenaltyArea
GO2024-G4A_Hubble_5_PLAY_00597165_TimeLoggedImaged_U.png;1718552519304;flopp;FieldFeature;435;244;435;244;NoTMiddleLine
GO2024-G4A_Hubble_5_PLAY_00597165_TimeLoggedImaged_U.png;1718552521021;flopp;FieldFeature;438;260;438;260;NoTGoalArea
GO2024-G4A_Hubble_5_PLAY_00597165_TimeLoggedImaged_U.png;1718552521773;flopp;FieldFeature;442;274;442;274;NoCornerGoalArea
GO2024-G4A_Hubble_5_PLAY_00597165_TimeLoggedImaged_U.png;1718552522365;flopp;FieldFeature;449;288;449;288;NoTPenaltyArea
GO2024-G4A_Hubble_5_PLAY_00620955_TimeLoggedImaged_U.png;1718552531509;flopp;FieldFeature;34;137;34;137;CornerPenaltyArea
GO2024-G4A_Hubble_5_PLAY_00620955_TimeLoggedImaged_U.png;1718552536789;flopp;FieldFeature;606;107;606;107;TMiddleLine
GO2024-G4A_Hubble_5_PLAY_00620955_TimeLoggedImaged_U.png;1718552539481;flopp;FieldFeature;172;358;172;358;NoCornerField
GO2024-G4A_Hubble_5_PLAY_00620955_TimeLoggedImaged_U.png;1718552540585;flopp;FieldFeature;182;374;182;374;NoTGoalArea
GO2024-G4A_Hubble_5_PLAY_00620955_TimeLoggedImaged_U.png;1718552541165;flopp;FieldFeature;190;389;190;389;NoCornerGoalArea
GO2024-G4A_Hubble_5_PLAY_00620955_TimeLoggedImaged_U.png;1718552542245;flopp;FieldFeature;206;403;206;403;NoTPenaltyArea
GO2024-G4A_Hubble_5_PLAY_00635391_TimeLoggedImaged_U.png;1718552547525;flopp;FieldFeature;241;138;241;138;CornerField
GO2024-G4A_Hubble_5_PLAY_00635391_TimeLoggedImaged_U.png;1718552552782;flopp;FieldFeature;321;172;321;172;CornerPenaltyArea
GO2024-G4A_Hubble_5_PLAY_00635391_TimeLoggedImaged_U.png;1718552556994;flopp;FieldFeature;27;159;27;159;TGoalArea
GO2024-G4A_Hubble_5_PLAY_00635391_TimeLoggedImaged_U.png;1718552558678;flopp;FieldFeature;66;167;66;167;CornerGoalArea
GO2024-G4A_Hubble_5_PLAY_00635391_TimeLoggedImaged_U.png;1718552561850;flopp;FieldFeature;134;338;134;338;NoTMiddleLine
GO2024-G4A_Hubble_5_PLAY_00635391_TimeLoggedImaged_U.png;1718552564725;flopp;FieldFeature;150;351;150;351;NoTPenaltyArea
GO2024-G4A_Hubble_5_PLAY_00651854_TimeLoggedImaged_U.png;1718552570098;flopp;FieldFeature;191;236;191;236;NoTMiddleLine
GO2024-G4A_Hubble_5_PLAY_00651854_TimeLoggedImaged_U.png;1718552570594;flopp;FieldFeature;197;252;197;252;NoCornerField
GO2024-G4A_Hubble_5_PLAY_00651854_TimeLoggedImaged_U.png;1718552571077;flopp;FieldFeature;206;266;206;266;NoTGoalArea
GO2024-G4A_Hubble_5_PLAY_00651854_TimeLoggedImaged_U.png;1718552571509;flopp;FieldFeature;212;281;212;281;NoCornerGoalArea
GO2024-G4A_Hubble_5_PLAY_00651854_TimeLoggedImaged_U.png;1718552571926;flopp;FieldFeature;232;293;232;293;NoTPenaltyArea
GO2024-G4A_Hubble_5_PLAY_00651854_TimeLoggedImaged_U.png;1718552572373;flopp;FieldFeature;247;315;247;315;NoCornerPenaltyArea
GO2024-G4A_Hubble_5_PLAY_00681869_TimeLoggedImaged_U.png;1718552624415;flopp;FieldFeature;338;225;338;225;CornerPenaltyArea
GO2024-G4A_Hubble_5_PLAY_00681869_TimeLoggedImaged_U.png;1718552627195;flopp;FieldFeature;262;359;262;359;NoTMiddleLine
GO2024-G4A_Hubble_5_PLAY_00681869_TimeLoggedImaged_U.png;1718552628147;flopp;FieldFeature;288;378;288;378;NoCornerField
GO2024-G4A_Hubble_5_PLAY_00681869_TimeLoggedImaged_U.png;1718552628723;flopp;FieldFeature;299;390;299;390;NoTGoalArea
GO2024-G4A_Hubble_5_PLAY_00681869_TimeLoggedImaged_U.png;1718552629355;flopp;FieldFeature;309;403;309;403;NoCornerGoalArea
GO2024-G4A_Hubble_5_PLAY_00681869_TimeLoggedImaged_U.png;1718552632603;flopp;FieldFeature;332;414;332;414;NoTPenaltyArea
GO2024-G4A_Hubble_5_PLAY_00693200_TimeLoggedImaged_U.png;1718552638691;flopp;FieldFeature;163;338;163;338;CornerPenaltyArea
GO2024-G4A_Hubble_5_PLAY_00693200_TimeLoggedImaged_U.png;1718552640359;flopp;FieldFeature;425;365;425;365;NoTMiddleLine
GO2024-G4A_Hubble_5_PLAY_00693200_TimeLoggedImaged_U.png;1718552641143;flopp;FieldFeature;433;380;433;380;NoCornerField
GO2024-G4A_Hubble_5_PLAY_00693200_TimeLoggedImaged_U.png;1718552642032;flopp;FieldFeature;446;389;446;389;NoTGoalArea
GO2024-G4A_Hubble_5_PLAY_00693200_TimeLoggedImaged_U.png;1718552643811;flopp;FieldFeature;456;401;456;401;NoCornerGoalArea
GO2024-G4A_Hubble_5_PLAY_00693200_TimeLoggedImaged_U.png;1718552644712;flopp;FieldFeature;463;416;463;416;NoTPenaltyArea
GO2024-G4A_Hubble_5_PLAY_00719487_TimeLoggedImaged_U.png;1718552651036;flopp;FieldFeature;140;377;140;377;NoTMiddleLine
GO2024-G4A_Hubble_5_PLAY_00719487_TimeLoggedImaged_U.png;1718552651788;flopp;FieldFeature;144;390;144;390;NoCornerField
GO2024-G4A_Hubble_5_PLAY_00719487_TimeLoggedImaged_U.png;1718552652575;flopp;FieldFeature;146;401;146;401;NoTGoalArea
GO2024-G4A_Hubble_5_PLAY_00719487_TimeLoggedImaged_U.png;1718552653200;flopp;FieldFeature;148;420;148;420;NoCornerGoalArea
GO2024-G4A_Hubble_5_PLAY_00719487_TimeLoggedImaged_U.png;1718552653928;flopp;FieldFeature;154;432;154;432;NoTPenaltyArea
GO2024-G4A_Hubble_5_PLAY_00719487_TimeLoggedImaged_U.png;1718552654551;flopp;FieldFeature;157;448;157;448;NoCornerPenaltyArea
GO2024-G4A_Hubble_5_PLAY_00809523_TimeLoggedImaged_U.png;1718552660092;flopp;FieldFeature;199;337;199;337;NoTMiddleLine
GO2024-G4A_Hubble_5_PLAY_00809523_TimeLoggedImaged_U.png;1718552660723;flopp;FieldFeature;214;347;214;347;NoCornerField
GO2024-G4A_Hubble_5_PLAY_00809523_TimeLoggedImaged_U.png;1718552661252;flopp;FieldFeature;231;366;231;366;NoTGoalArea
GO2024-G4A_Hubble_5_PLAY_00809523_TimeLoggedImaged_U.png;1718552661828;flopp;FieldFeature;247;380;247;380;NoCornerGoalArea
GO2024-G4A_Hubble_5_PLAY_00809523_TimeLoggedImaged_U.png;1718552662375;flopp;FieldFeature;266;396;266;396;NoTPenaltyArea
GO2024-G4A_Hubble_5_PLAY_00809523_TimeLoggedImaged_U.png;1718552662919;flopp;FieldFeature;290;405;290;405;NoCornerPenaltyArea
GO2024-G4A_Hubble_5_PLAY_00809523_TimeLoggedImaged_U.png;1718552663511;flopp;FieldFeature;321;416;321;416;NoCornerPenaltyArea
GO2024-G4A_Hubble_5_PLAY_00816805_TimeLoggedImaged_U.png;1718552669056;flopp;FieldFeature;168;339;168;339;CornerField
GO2024-G4A_Hubble_5_PLAY_00816805_TimeLoggedImaged_U.png;1718552672680;flopp;FieldFeature;285;356;285;356;TPenaltyArea
GO2024-G4A_Hubble_5_PLAY_00816805_TimeLoggedImaged_U.png;1718552677944;flopp;FieldFeature;457;379;457;379;TGoalArea
GO2024-G4A_Hubble_5_PLAY_00816805_TimeLoggedImaged_U.png;1718552679961;flopp;FieldFeature;371;411;371;411;CornerGoalArea
GO2024-G4A_Hubble_5_PLAY_00816805_TimeLoggedImaged_U.png;1718552682612;flopp;FieldFeature;117;439;117;439;NoTMiddleLine
GO2024-G4A_Hubble_5_PLAY_00816805_TimeLoggedImaged_U.png;1718552689220;flopp;FieldFeature;146;450;145;450;NoCornerPenaltyArea
GO2024-G4A_Hubble_5_PLAY_00830688_TimeLoggedImaged_U.png;1718552698588;flopp;FieldFeature;531;38;531;38;TPenaltyArea
GO2024-G4A_Hubble_5_PLAY_00830688_TimeLoggedImaged_U.png;1718552700552;flopp;FieldFeature;600;58;600;58;CornerPenaltyArea
GO2024-G4A_Hubble_5_PLAY_00830688_TimeLoggedImaged_U.png;1718552704725;flopp;FieldFeature;202;40;202;40;TGoalArea
GO2024-G4A_Hubble_5_PLAY_00830688_TimeLoggedImaged_U.png;1718552707065;flopp;FieldFeature;190;45;190;45;CornerGoalArea
GO2024-G4A_Hubble_5_PLAY_00830688_TimeLoggedImaged_U.png;1718552711137;flopp;FieldFeature;433;355;433;355;NoTMiddleLine
GO2024-G4A_Hubble_5_PLAY_00830688_TimeLoggedImaged_U.png;1718552712137;flopp;FieldFeature;446;374;446;374;NoCornerField
GO2024-G4A_Hubble_5_READY_00233412_TimeLoggedImaged_U.png;1718552720153;flopp;FieldFeature;333;342;333;342;NoTMiddleLine
GO2024-G4A_Hubble_5_READY_00233412_TimeLoggedImaged_U.png;1718552720761;flopp;FieldFeature;343;354;343;354;NoCornerField
GO2024-G4A_Hubble_5_READY_00233412_TimeLoggedImaged_U.png;1718552721465;flopp;FieldFeature;361;373;361;373;NoTGoalArea
GO2024-G4A_Hubble_5_READY_00233412_TimeLoggedImaged_U.png;1718552722189;flopp;FieldFeature;377;391;377;391;NoCornerGoalArea
GO2024-G4A_Hubble_5_READY_00233412_TimeLoggedImaged_U.png;1718552722733;flopp;FieldFeature;394;408;394;408;NoTPenaltyArea
GO2024-G4A_Hubble_5_READY_00233412_TimeLoggedImaged_U.png;1718552723532;flopp;FieldFeature;411;418;413;420;NoCornerPenaltyArea
GO2024-G4A_Hubble_5_READY_00240679_TimeLoggedImaged_U.png;1718552730697;flopp;FieldFeature;85;158;85;158;TGoalArea
GO2024-G4A_Hubble_5_READY_00240679_TimeLoggedImaged_U.png;1718552733277;flopp;FieldFeature;115;163;115;163;CornerGoalArea
GO2024-G4A_Hubble_5_READY_00240679_TimeLoggedImaged_U.png;1718552738078;flopp;FieldFeature;168;154;168;154;TPenaltyArea
GO2024-G4A_Hubble_5_READY_00240679_TimeLoggedImaged_U.png;1718552741609;flopp;FieldFeature;266;161;266;161;CornerPenaltyArea
GO2024-G4A_Hubble_5_READY_00240679_TimeLoggedImaged_U.png;1718552744813;flopp;FieldFeature;118;386;118;386;NoTMiddleLine
GO2024-G4A_Hubble_5_READY_00240679_TimeLoggedImaged_U.png;1718552745505;flopp;FieldFeature;140;415;140;415;NoCornerField
GO2024-G4A_Hubble_5_READY_00318744_TimeLoggedImaged_U.png;1718552756262;flopp;FieldFeature;168;154;168;154;CornerField
GO2024-G4A_Hubble_5_READY_00318744_TimeLoggedImaged_U.png;1718552761798;flopp;FieldFeature;247;184;247;184;CornerPenaltyArea
GO2024-G4A_Hubble_5_READY_00318744_TimeLoggedImaged_U.png;1718552763994;flopp;FieldFeature;348;312;348;312;NoTMiddleLine
GO2024-G4A_Hubble_5_READY_00318744_TimeLoggedImaged_U.png;1718552765534;flopp;FieldFeature;360;326;360;326;NoTGoalArea
GO2024-G4A_Hubble_5_READY_00318744_TimeLoggedImaged_U.png;1718552766526;flopp;FieldFeature;366;338;366;338;NoCornerGoalArea
GO2024-G4A_Hubble_5_READY_00318744_TimeLoggedImaged_U.png;1718552767454;flopp;FieldFeature;373;346;373;346;NoTPenaltyArea
GO2024-G4A_Hubble_5_READY_00495181_TimeLoggedImaged_U.png;1718552776846;flopp;FieldFeature;170;224;170;224;TMiddleLine
GO2024-G4A_Hubble_5_READY_00495181_TimeLoggedImaged_U.png;1718552782970;flopp;FieldFeature;493;193;493;193;CornerPenaltyArea
GO2024-G4A_Hubble_5_READY_00495181_TimeLoggedImaged_U.png;1718552787859;flopp;FieldFeature;524;181;524;181;TPenaltyArea
GO2024-G4A_Hubble_5_READY_00495181_TimeLoggedImaged_U.png;1718552792779;flopp;FieldFeature;286;316;286;316;NoCornerField
GO2024-G4A_Hubble_5_READY_00495181_TimeLoggedImaged_U.png;1718552794506;flopp;FieldFeature;299;329;299;329;NoTGoalArea
GO2024-G4A_Hubble_5_READY_00495181_TimeLoggedImaged_U.png;1718552795495;flopp;FieldFeature;310;339;310;339;NoCornerGoalArea
GO2024-G4A_Hubble_5_READY_00502448_TimeLoggedImaged_U.png;1718552803323;flopp;FieldFeature;370;119;370;119;CornerField
GO2024-G4A_Hubble_5_READY_00502448_TimeLoggedImaged_U.png;1718552808803;flopp;FieldFeature;292;126;292;126;TPenaltyArea
GO2024-G4A_Hubble_5_READY_00502448_TimeLoggedImaged_U.png;1718552810583;flopp;FieldFeature;372;137;372;137;CornerPenaltyArea
GO2024-G4A_Hubble_5_READY_00502448_TimeLoggedImaged_U.png;1718552813635;flopp;FieldFeature;444;355;444;355;NoTMiddleLine
GO2024-G4A_Hubble_5_READY_00502448_TimeLoggedImaged_U.png;1718552815783;flopp;FieldFeature;464;371;464;371;NoTGoalArea
GO2024-G4A_Hubble_5_READY_00502448_TimeLoggedImaged_U.png;1718552816599;flopp;FieldFeature;478;384;478;384;NoCornerGoalArea
GO2024-G4A_Hubble_5_READY_00509748_TimeLoggedImaged_U.png;1718552822996;flopp;FieldFeature;258;205;258;205;TMiddleLine
GO2024-G4A_Hubble_5_READY_00509748_TimeLoggedImaged_U.png;1718552826551;flopp;FieldFeature;233;402;233;402;NoCornerField
GO2024-G4A_Hubble_5_READY_00509748_TimeLoggedImaged_U.png;1718552827223;flopp;FieldFeature;242;418;242;418;NoTGoalArea
GO2024-G4A_Hubble_5_READY_00509748_TimeLoggedImaged_U.png;1718552827843;flopp;FieldFeature;254;437;254;437;NoCornerGoalArea
GO2024-G4A_Hubble_5_READY_00509748_TimeLoggedImaged_U.png;1718552828595;flopp;FieldFeature;265;449;265;449;NoTPenaltyArea
GO2024-G4A_Hubble_5_READY_00509748_TimeLoggedImaged_U.png;1718552829587;flopp;FieldFeature;282;461;282;461;NoCornerPenaltyArea
GO2024-G4A_Hubble_5_READY_00517039_TimeLoggedImaged_U.png;1718552835152;flopp;FieldFeature;629;171;629;171;TGoalArea
GO2024-G4A_Hubble_5_READY_00517039_TimeLoggedImaged_U.png;1718552838284;flopp;FieldFeature;612;178;612;178;CornerGoalArea
GO2024-G4A_Hubble_5_READY_00517039_TimeLoggedImaged_U.png;1718552842711;flopp;FieldFeature;513;167;513;167;TPenaltyArea
GO2024-G4A_Hubble_5_READY_00517039_TimeLoggedImaged_U.png;1718552845876;flopp;FieldFeature;319;269;319;269;NoTMiddleLine
GO2024-G4A_Hubble_5_READY_00517039_TimeLoggedImaged_U.png;1718552846848;flopp;FieldFeature;326;280;326;280;NoCornerField
GO2024-G4A_Hubble_5_READY_00517039_TimeLoggedImaged_U.png;1718552853088;flopp;FieldFeature;344;294;344;294;NoCornerPenaltyArea
GO2024-G4A_Hubble_5_READY_00726755_TimeLoggedImaged_U.png;1718552859032;flopp;FieldFeature;575;203;575;203;TMiddleLine
GO2024-G4A_Hubble_5_READY_00726755_TimeLoggedImaged_U.png;1718552863404;flopp;FieldFeature;313;163;313;163;CornerField
GO2024-G4A_Hubble_5_READY_00726755_TimeLoggedImaged_U.png;1718552869504;flopp;FieldFeature;244;167;244;167;TPenaltyArea
GO2024-G4A_Hubble_5_READY_00726755_TimeLoggedImaged_U.png;1718552871908;flopp;FieldFeature;279;178;279;178;CornerPenaltyArea
GO2024-G4A_Hubble_5_READY_00726755_TimeLoggedImaged_U.png;1718552877405;flopp;FieldFeature;415;284;415;284;NoTGoalArea
GO2024-G4A_Hubble_5_READY_00726755_TimeLoggedImaged_U.png;1718552878061;flopp;FieldFeature;422;298;422;298;NoCornerGoalArea
GO2024-G4A_Hubble_5_READY_00734046_TimeLoggedImaged_U.png;1718552885461;flopp;FieldFeature;189;158;189;158;TPenaltyArea
GO2024-G4A_Hubble_5_READY_00734046_TimeLoggedImaged_U.png;1718552887793;flopp;FieldFeature;145;174;145;174;CornerPenaltyArea
GO2024-G4A_Hubble_5_READY_00734046_TimeLoggedImaged_U.png;1718552890397;flopp;FieldFeature;549;151;549;151;TPenaltyArea
GO2024-G4A_Hubble_5_READY_00734046_TimeLoggedImaged_U.png;1718552893584;flopp;FieldFeature;615;165;615;165;CornerPenaltyArea
GO2024-G4A_Hubble_5_READY_00734046_TimeLoggedImaged_U.png;1718552902765;flopp;FieldFeature;469;154;469;154;TGoalArea
GO2024-G4A_Hubble_5_READY_00734046_TimeLoggedImaged_U.png;1718552905025;flopp;FieldFeature;479;158;479;158;CornerGoalArea
GO2024-G4A_Hubble_5_READY_00734046_TimeLoggedImaged_U.png;1718552910465;flopp;FieldFeature;127;374;127;374;NoTMiddleLine
GO2024-G4A_Hubble_5_READY_00734046_TimeLoggedImaged_U.png;1718552911142;flopp;FieldFeature;162;397;162;397;NoCornerField
GO2024-G4A_Hubble_5_SET_00247991_TimeLoggedImaged_U.png;1718552924609;flopp;FieldFeature;636;173;636;173;TMiddleLine
GO2024-G4A_Hubble_5_SET_00247991_TimeLoggedImaged_U.png;1718552928518;flopp;FieldFeature;76;158;76;158;TGoalArea
GO2024-G4A_Hubble_5_SET_00247991_TimeLoggedImaged_U.png;1718552931298;flopp;FieldFeature;100;162;100;162;CornerGoalArea
GO2024-G4A_Hubble_5_SET_00247991_TimeLoggedImaged_U.png;1718552936834;flopp;FieldFeature;254;161;254;161;CornerPenaltyArea
GO2024-G4A_Hubble_5_SET_00247991_TimeLoggedImaged_U.png;1718552939934;flopp;FieldFeature;155;394;155;394;NoTMiddleLine
GO2024-G4A_Hubble_5_SET_00247991_TimeLoggedImaged_U.png;1718552940758;flopp;FieldFeature;167;408;167;408;NoCornerField
GO2024-G4A_Hubble_5_SET_00247991_TimeLoggedImaged_U.png;1718552943774;flopp;FieldFeature;186;424;184;424;NoTPenaltyArea
GO2024-G4A_Hubble_5_SET_00365098_TimeLoggedImaged_U.png;1718552954378;flopp;FieldFeature;595;59;595;59;CornerField
GO2024-G4A_Hubble_5_SET_00365098_TimeLoggedImaged_U.png;1718552958590;flopp;FieldFeature;151;63;151;63;TGoalArea
GO2024-G4A_Hubble_5_SET_00365098_TimeLoggedImaged_U.png;1718552961738;flopp;FieldFeature;395;62;395;62;TGoalArea
GO2024-G4A_Hubble_5_SET_00365098_TimeLoggedImaged_U.png;1718552963670;flopp;FieldFeature;404;67;404;67;CornerGoalArea
GO2024-G4A_Hubble_5_SET_00365098_TimeLoggedImaged_U.png;1718552966002;flopp;FieldFeature;138;69;138;69;CornerGoalArea
GO2024-G4A_Hubble_5_SET_00365098_TimeLoggedImaged_U.png;1718552967682;flopp;FieldFeature;51;64;51;64;TPenaltyArea
GO2024-G4A_Hubble_5_SET_00365098_TimeLoggedImaged_U.png;1718552971946;flopp;FieldFeature;96;334;96;334;NoTMiddleLine
GO2024-G4A_Hubble_5_SET_00365098_TimeLoggedImaged_U.png;1718552987439;flopp;FieldFeature;566;82;566;82;CornerPenaltyArea
GO2024-G4A_Hubble_5_SET_00524329_TimeLoggedImaged_U.png;1718552996803;flopp;FieldFeature;580;142;580;142;TPenaltyArea
GO2024-G4A_Hubble_5_SET_00524329_TimeLoggedImaged_U.png;1718552999415;flopp;FieldFeature;190;358;190;357;NoTMiddleLine
GO2024-G4A_Hubble_5_SET_00524329_TimeLoggedImaged_U.png;1718553000200;flopp;FieldFeature;192;381;192;381;NoCornerField
GO2024-G4A_Hubble_5_SET_00524329_TimeLoggedImaged_U.png;1718553001639;flopp;FieldFeature;201;398;201;398;NoTGoalArea
GO2024-G4A_Hubble_5_SET_00524329_TimeLoggedImaged_U.png;1718553002251;flopp;FieldFeature;213;425;213;425;NoCornerGoalArea
GO2024-G4A_Hubble_5_SET_00524329_TimeLoggedImaged_U.png;1718553005855;flopp;FieldFeature;243;448;243;448;NoCornerPenaltyArea
GO2024-G4A_Hubble_5_SET_00537698_TimeLoggedImaged_U.png;1718553013615;flopp;FieldFeature;434;47;434;47;TPenaltyArea
GO2024-G4A_Hubble_5_SET_00537698_TimeLoggedImaged_U.png;1718553017999;flopp;FieldFeature;115;338;114;338;NoTMiddleLine
GO2024-G4A_Hubble_5_SET_00537698_TimeLoggedImaged_U.png;1718553018872;flopp;FieldFeature;126;363;126;363;NoCornerField
GO2024-G4A_Hubble_5_SET_00537698_TimeLoggedImaged_U.png;1718553019968;flopp;FieldFeature;138;382;138;382;NoTGoalArea
GO2024-G4A_Hubble_5_SET_00537698_TimeLoggedImaged_U.png;1718553020948;flopp;FieldFeature;161;409;161;409;NoCornerGoalArea
GO2024-G4A_Hubble_5_SET_00537698_TimeLoggedImaged_U.png;1718553023092;flopp;FieldFeature;192;429;192;429;NoCornerPenaltyArea
GO2024-G4A_Hubble_5_SET_00544976_TimeLoggedImaged_U.png;1718553030652;flopp;FieldFeature;432;47;432;47;TPenaltyArea
GO2024-G4A_Hubble_5_SET_00544976_TimeLoggedImaged_U.png;1718553036900;flopp;FieldFeature;511;59;511;59;CornerGoalArea
GO2024-G4A_Hubble_5_SET_00544976_TimeLoggedImaged_U.png;1718553039976;flopp;FieldFeature;96;378;96;378;NoTMiddleLine
GO2024-G4A_Hubble_5_SET_00544976_TimeLoggedImaged_U.png;1718553040796;flopp;FieldFeature;102;405;102;405;NoCornerField
GO2024-G4A_Hubble_5_SET_00544976_TimeLoggedImaged_U.png;1718553043824;flopp;FieldFeature;127;424;127;424;NoTGoalArea
GO2024-G4A_Hubble_5_SET_00544976_TimeLoggedImaged_U.png;1718553048936;flopp;FieldFeature;163;436;163;436;NoCornerPenaltyArea
GO2024-G4A_Hubble_5_SET_00763740_TimeLoggedImaged_U.png;1718553058725;flopp;FieldFeature;147;342;147;342;CornerPenaltyArea
GO2024-G4A_Hubble_5_SET_00763740_TimeLoggedImaged_U.png;1718553060761;flopp;FieldFeature;322;362;322;362;NoTMiddleLine
GO2024-G4A_Hubble_5_SET_00763740_TimeLoggedImaged_U.png;1718553061337;flopp;FieldFeature;335;379;335;379;NoCornerField
GO2024-G4A_Hubble_5_SET_00763740_TimeLoggedImaged_U.png;1718553061848;flopp;FieldFeature;348;393;348;393;NoTGoalArea
GO2024-G4A_Hubble_5_SET_00763740_TimeLoggedImaged_U.png;1718553062377;flopp;FieldFeature;365;415;365;415;NoCornerGoalArea
GO2024-G4A_Hubble_5_SET_00763740_TimeLoggedImaged_U.png;1718553062872;flopp;FieldFeature;386;430;387;430;NoTPenaltyArea
GO2024-G4A_Hubble_5_SET_00771015_TimeLoggedImaged_U.png;1718553068660;flopp;FieldFeature;300;193;300;193;TMiddleLine
GO2024-G4A_Hubble_5_SET_00771015_TimeLoggedImaged_U.png;1718553072601;flopp;FieldFeature;312;323;312;323;NoCornerField
GO2024-G4A_Hubble_5_SET_00771015_TimeLoggedImaged_U.png;1718553073117;flopp;FieldFeature;321;334;321;334;NoTGoalArea
GO2024-G4A_Hubble_5_SET_00771015_TimeLoggedImaged_U.png;1718553073868;flopp;FieldFeature;335;350;335;350;NoCornerGoalArea
GO2024-G4A_Hubble_5_SET_00771015_TimeLoggedImaged_U.png;1718553074381;flopp;FieldFeature;347;363;347;363;NoTPenaltyArea
GO2024-G4A_Hubble_5_SET_00771015_TimeLoggedImaged_U.png;1718553074957;flopp;FieldFeature;362;372;362;372;NoCornerPenaltyArea
GO2024-G4B_Hubble_5_PLAY_00218691_TimeLoggedImaged_U.png;1718553080493;flopp;FieldFeature;535;78;535;78;CornerField
GO2024-G4B_Hubble_5_PLAY_00218691_TimeLoggedImaged_U.png;1718553083129;flopp;FieldFeature;465;204;465;204;CornerPenaltyArea
GO2024-G4B_Hubble_5_PLAY_00218691_TimeLoggedImaged_U.png;1718553085741;flopp;FieldFeature;93;360;93;360;NoTMiddleLine
GO2024-G4B_Hubble_5_PLAY_00218691_TimeLoggedImaged_U.png;1718553087481;flopp;FieldFeature;103;378;103;378;NoTGoalArea
GO2024-G4B_Hubble_5_PLAY_00218691_TimeLoggedImaged_U.png;1718553088265;flopp;FieldFeature;113;397;113;397;NoCornerGoalArea
GO2024-G4B_Hubble_5_PLAY_00218691_TimeLoggedImaged_U.png;1718553089478;flopp;FieldFeature;123;413;123;413;NoTPenaltyArea
GO2024-G4B_Hubble_5_PLAY_00225984_TimeLoggedImaged_U.png;1718553101562;flopp;FieldFeature;3;96;3;96;TMiddleLine
GO2024-G4B_Hubble_5_PLAY_00225984_TimeLoggedImaged_U.png;1718553107870;flopp;FieldFeature;263;294;263;294;NoCornerField
GO2024-G4B_Hubble_5_PLAY_00225984_TimeLoggedImaged_U.png;1718553108574;flopp;FieldFeature;271;305;271;305;NoTGoalArea
GO2024-G4B_Hubble_5_PLAY_00225984_TimeLoggedImaged_U.png;1718553109277;flopp;FieldFeature;271;314;270;314;NoCornerGoalArea
GO2024-G4B_Hubble_5_PLAY_00225984_TimeLoggedImaged_U.png;1718553109838;flopp;FieldFeature;288;327;288;327;NoTPenaltyArea
GO2024-G4B_Hubble_5_PLAY_00225984_TimeLoggedImaged_U.png;1718553110513;flopp;FieldFeature;302;345;302;345;NoCornerPenaltyArea
GO2024-G4B_Hubble_5_PLAY_00237769_TimeLoggedImaged_U.png;1718553115410;flopp;FieldFeature;209;184;209;184;TMiddleLine
GO2024-G4B_Hubble_5_PLAY_00237769_TimeLoggedImaged_U.png;1718553117210;flopp;FieldFeature;379;331;379;331;NoCornerField
GO2024-G4B_Hubble_5_PLAY_00237769_TimeLoggedImaged_U.png;1718553118006;flopp;FieldFeature;385;348;385;348;NoTGoalArea
GO2024-G4B_Hubble_5_PLAY_00237769_TimeLoggedImaged_U.png;1718553118694;flopp;FieldFeature;393;358;393;358;NoCornerGoalArea
GO2024-G4B_Hubble_5_PLAY_00237769_TimeLoggedImaged_U.png;1718553119318;flopp;FieldFeature;397;371;397;371;NoTPenaltyArea
GO2024-G4B_Hubble_5_PLAY_00237769_TimeLoggedImaged_U.png;1718553120006;flopp;FieldFeature;409;383;409;383;NoCornerPenaltyArea
GO2024-G4B_Hubble_5_PLAY_00268840_TimeLoggedImaged_U.png;1718553125450;flopp;FieldFeature;58;184;58;184;TMiddleLine
GO2024-G4B_Hubble_5_PLAY_00268840_TimeLoggedImaged_U.png;1718553127130;flopp;FieldFeature;310;284;310;284;NoCornerField
GO2024-G4B_Hubble_5_PLAY_00268840_TimeLoggedImaged_U.png;1718553127818;flopp;FieldFeature;310;297;310;297;NoTGoalArea
GO2024-G4B_Hubble_5_PLAY_00268840_TimeLoggedImaged_U.png;1718553128542;flopp;FieldFeature;311;306;311;306;NoCornerGoalArea
GO2024-G4B_Hubble_5_PLAY_00268840_TimeLoggedImaged_U.png;1718553129150;flopp;FieldFeature;315;316;315;316;NoTPenaltyArea
GO2024-G4B_Hubble_5_PLAY_00268840_TimeLoggedImaged_U.png;1718553129727;flopp;FieldFeature;322;328;322;328;NoCornerPenaltyArea
GO2024-G4B_Hubble_5_PLAY_00276126_TimeLoggedImaged_U.png;1718553134967;flopp;FieldFeature;502;128;502;128;CornerField
GO2024-G4B_Hubble_5_PLAY_00276126_TimeLoggedImaged_U.png;1718553137786;flopp;FieldFeature;370;278;370;278;NoTMiddleLine
GO2024-G4B_Hubble_5_PLAY_00276126_TimeLoggedImaged_U.png;1718553139191;flopp;FieldFeature;379;296;379;296;NoTGoalArea
GO2024-G4B_Hubble_5_PLAY_00276126_TimeLoggedImaged_U.png;1718553140167;flopp;FieldFeature;388;311;388;311;NoCornerGoalArea
GO2024-G4B_Hubble_5_PLAY_00276126_TimeLoggedImaged_U.png;1718553140814;flopp;FieldFeature;399;328;399;328;NoTPenaltyArea
GO2024-G4B_Hubble_5_PLAY_00276126_TimeLoggedImaged_U.png;1718553141394;flopp;FieldFeature;411;345;411;345;NoCornerPenaltyArea
GO2024-G4B_Hubble_5_PLAY_00342055_TimeLoggedImaged_U.png;1718553148718;flopp;FieldFeature;251;171;251;171;CornerField
GO2024-G4B_Hubble_5_PLAY_00342055_TimeLoggedImaged_U.png;1718553152699;flopp;FieldFeature;355;170;355;170;TPenaltyArea
GO2024-G4B_Hubble_5_PLAY_00342055_TimeLoggedImaged_U.png;1718553154703;flopp;FieldFeature;244;201;244;201;CornerPenaltyArea
GO2024-G4B_Hubble_5_PLAY_00342055_TimeLoggedImaged_U.png;1718553158867;flopp;FieldFeature;467;169;467;169;TGoalArea
GO2024-G4B_Hubble_5_PLAY_00342055_TimeLoggedImaged_U.png;1718553160887;flopp;FieldFeature;448;177;448;177;CornerGoalArea
GO2024-G4B_Hubble_5_PLAY_00342055_TimeLoggedImaged_U.png;1718553162763;flopp;FieldFeature;297;320;297;320;NoTMiddleLine
GO2024-G4B_Hubble_5_PLAY_00349343_TimeLoggedImaged_U.png;1718553172612;flopp;FieldFeature;360;199;360;199;CornerGoalArea
GO2024-G4B_Hubble_5_PLAY_00349343_TimeLoggedImaged_U.png;1718553174583;flopp;FieldFeature;396;349;396;349;NoTMiddleLine
GO2024-G4B_Hubble_5_PLAY_00349343_TimeLoggedImaged_U.png;1718553175775;flopp;FieldFeature;406;369;406;369;NoCornerField
GO2024-G4B_Hubble_5_PLAY_00349343_TimeLoggedImaged_U.png;1718553176520;flopp;FieldFeature;415;383;415;383;NoTGoalArea
GO2024-G4B_Hubble_5_PLAY_00349343_TimeLoggedImaged_U.png;1718553177443;flopp;FieldFeature;424;396;424;396;NoCornerGoalArea
GO2024-G4B_Hubble_5_PLAY_00349343_TimeLoggedImaged_U.png;1718553178051;flopp;FieldFeature;437;410;437;410;NoTPenaltyArea
GO2024-G4B_Hubble_5_PLAY_00356636_TimeLoggedImaged_U.png;1718553184504;flopp;FieldFeature;591;248;591;248;TMiddleLine
GO2024-G4B_Hubble_5_PLAY_00356636_TimeLoggedImaged_U.png;1718553187667;flopp;FieldFeature;264;304;264;304;NoCornerField
GO2024-G4B_Hubble_5_PLAY_00356636_TimeLoggedImaged_U.png;1718553188664;flopp;FieldFeature;268;318;268;318;NoTGoalArea
GO2024-G4B_Hubble_5_PLAY_00356636_TimeLoggedImaged_U.png;1718553189288;flopp;FieldFeature;275;336;275;336;NoCornerGoalArea
GO2024-G4B_Hubble_5_PLAY_00356636_TimeLoggedImaged_U.png;1718553189848;flopp;FieldFeature;289;353;289;353;NoTPenaltyArea
GO2024-G4B_Hubble_5_PLAY_00356636_TimeLoggedImaged_U.png;1718553190552;flopp;FieldFeature;302;367;302;367;NoCornerPenaltyArea
GO2024-G4B_Hubble_5_PLAY_00363915_TimeLoggedImaged_U.png;1718553197660;flopp;FieldFeature;101;180;101;180;CornerField
GO2024-G4B_Hubble_5_PLAY_00363915_TimeLoggedImaged_U.png;1718553201844;flopp;FieldFeature;115;215;115;215;CornerPenaltyArea
GO2024-G4B_Hubble_5_PLAY_00363915_TimeLoggedImaged_U.png;1718553205768;flopp;FieldFeature;335;181;335;181;TGoalArea
GO2024-G4B_Hubble_5_PLAY_00363915_TimeLoggedImaged_U.png;1718553207772;flopp;FieldFeature;325;189;325;189;CornerGoalArea
GO2024-G4B_Hubble_5_PLAY_00363915_TimeLoggedImaged_U.png;1718553211201;flopp;FieldFeature;305;337;305;337;NoTMiddleLine
GO2024-G4B_Hubble_5_PLAY_00363915_TimeLoggedImaged_U.png;1718553218673;flopp;FieldFeature;322;358;322;358;NoTPenaltyArea
GO2024-G4B_Hubble_5_PLAY_00475781_TimeLoggedImaged_U.png;1718553224517;flopp;FieldFeature;575;172;575;172;CornerField
GO2024-G4B_Hubble_5_PLAY_00475781_TimeLoggedImaged_U.png;1718553225780;flopp;FieldFeature;340;303;340;303;NoTMiddleLine
GO2024-G4B_Hubble_5_PLAY_00475781_TimeLoggedImaged_U.png;1718553227665;flopp;FieldFeature;354;322;354;322;NoTGoalArea
GO2024-G4B_Hubble_5_PLAY_00475781_TimeLoggedImaged_U.png;1718553228433;flopp;FieldFeature;358;333;358;333;NoCornerGoalArea
GO2024-G4B_Hubble_5_PLAY_00475781_TimeLoggedImaged_U.png;1718553229049;flopp;FieldFeature;365;341;365;341;NoTPenaltyArea
GO2024-G4B_Hubble_5_PLAY_00475781_TimeLoggedImaged_U.png;1718553229612;flopp;FieldFeature;370;354;370;354;NoCornerPenaltyArea
GO2024-G4B_Hubble_5_PLAY_00483083_TimeLoggedImaged_U.png;1718553233009;flopp;FieldFeature;402;304;402;304;NoTMiddleLine
GO2024-G4B_Hubble_5_PLAY_00483083_TimeLoggedImaged_U.png;1718553233909;flopp;FieldFeature;415;322;415;322;NoCornerField
GO2024-G4B_Hubble_5_PLAY_00483083_TimeLoggedImaged_U.png;1718553234453;flopp;FieldFeature;434;335;434;335;NoTGoalArea
GO2024-G4B_Hubble_5_PLAY_00483083_TimeLoggedImaged_U.png;1718553235013;flopp;FieldFeature;452;347;452;347;NoCornerGoalArea
GO2024-G4B_Hubble_5_PLAY_00483083_TimeLoggedImaged_U.png;1718553235509;flopp;FieldFeature;486;366;486;366;NoTPenaltyArea
GO2024-G4B_Hubble_5_PLAY_00483083_TimeLoggedImaged_U.png;1718553235972;flopp;FieldFeature;520;395;522;396;NoCornerPenaltyArea
GO2024-G4B_Hubble_5_PLAY_00581457_TimeLoggedImaged_U.png;1718553852216;flopp;FieldFeature;280;288;280;288;NoTMiddleLine
GO2024-G4B_Hubble_5_PLAY_00581457_TimeLoggedImaged_U.png;1718553852808;flopp;FieldFeature;297;309;297;309;NoCornerField
GO2024-G4B_Hubble_5_PLAY_00581457_TimeLoggedImaged_U.png;1718553853308;flopp;FieldFeature;308;326;308;326;NoTGoalArea
GO2024-G4B_Hubble_5_PLAY_00581457_TimeLoggedImaged_U.png;1718553853884;flopp;FieldFeature;314;344;314;344;NoCornerGoalArea
GO2024-G4B_Hubble_5_PLAY_00581457_TimeLoggedImaged_U.png;1718553854412;flopp;FieldFeature;333;360;333;360;NoTPenaltyArea
GO2024-G4B_Hubble_5_PLAY_00581457_TimeLoggedImaged_U.png;1718553854892;flopp;FieldFeature;359;380;359;380;NoCornerPenaltyArea
GO2024-G4B_Hubble_5_PLAY_00623450_TimeLoggedImaged_U.png;1718553860236;flopp;FieldFeature;399;133;399;133;CornerPenaltyArea
GO2024-G4B_Hubble_5_PLAY_00623450_TimeLoggedImaged_U.png;1718553863048;flopp;FieldFeature;184;104;184;104;TPenaltyArea
GO2024-G4B_Hubble_5_PLAY_00623450_TimeLoggedImaged_U.png;1718553866920;flopp;FieldFeature;266;95;266;95;CornerField
GO2024-G4B_Hubble_5_PLAY_00623450_TimeLoggedImaged_U.png;1718553870892;flopp;FieldFeature;70;115;70;115;TGoalArea
GO2024-G4B_Hubble_5_PLAY_00623450_TimeLoggedImaged_U.png;1718553873688;flopp;FieldFeature;139;127;139;127;CornerGoalArea
GO2024-G4B_Hubble_5_PLAY_00623450_TimeLoggedImaged_U.png;1718553876756;flopp;FieldFeature;303;291;303;291;NoTMiddleLine
GO2024-G4B_Hubble_5_PLAY_00640851_TimeLoggedImaged_U.png;1718553886316;flopp;FieldFeature;444;326;444;326;NoTMiddleLine
GO2024-G4B_Hubble_5_PLAY_00640851_TimeLoggedImaged_U.png;1718553887100;flopp;FieldFeature;445;335;445;335;NoCornerField
GO2024-G4B_Hubble_5_PLAY_00640851_TimeLoggedImaged_U.png;1718553887676;flopp;FieldFeature;447;339;447;339;NoTGoalArea
GO2024-G4B_Hubble_5_PLAY_00640851_TimeLoggedImaged_U.png;1718553888728;flopp;FieldFeature;446;341;448;341;NoCornerGoalArea
GO2024-G4B_Hubble_5_PLAY_00640851_TimeLoggedImaged_U.png;1718553889432;flopp;FieldFeature;449;354;449;354;NoTPenaltyArea
GO2024-G4B_Hubble_5_PLAY_00640851_TimeLoggedImaged_U.png;1718553890087;flopp;FieldFeature;452;362;452;362;NoCornerPenaltyArea
GO2024-G4B_Hubble_5_PLAY_00671208_TimeLoggedImaged_U.png;1718553893545;flopp;FieldFeature;206;287;206;287;NoTMiddleLine
GO2024-G4B_Hubble_5_PLAY_00671208_TimeLoggedImaged_U.png;1718553894120;flopp;FieldFeature;216;304;216;304;NoCornerField
GO2024-G4B_Hubble_5_PLAY_00671208_TimeLoggedImaged_U.png;1718553894696;flopp;FieldFeature;222;318;222;318;NoTGoalArea
GO2024-G4B_Hubble_5_PLAY_00671208_TimeLoggedImaged_U.png;1718553895400;flopp;FieldFeature;236;332;236;332;NoCornerGoalArea
GO2024-G4B_Hubble_5_PLAY_00671208_TimeLoggedImaged_U.png;1718553895948;flopp;FieldFeature;254;350;254;350;NoTPenaltyArea
GO2024-G4B_Hubble_5_PLAY_00671208_TimeLoggedImaged_U.png;1718553896524;flopp;FieldFeature;273;367;273;367;NoCornerPenaltyArea
GO2024-G4B_Hubble_5_PLAY_00681804_TimeLoggedImaged_U.png;1718553904064;flopp;FieldFeature;603;109;603;109;CornerField
GO2024-G4B_Hubble_5_PLAY_00681804_TimeLoggedImaged_U.png;1718553908669;flopp;FieldFeature;443;123;443;123;TGoalArea
GO2024-G4B_Hubble_5_PLAY_00681804_TimeLoggedImaged_U.png;1718553911392;flopp;FieldFeature;455;126;455;126;CornerGoalArea
GO2024-G4B_Hubble_5_PLAY_00681804_TimeLoggedImaged_U.png;1718553915089;flopp;FieldFeature;524;116;524;116;TPenaltyArea
GO2024-G4B_Hubble_5_PLAY_00681804_TimeLoggedImaged_U.png;1718553917344;flopp;FieldFeature;593;127;593;127;CornerPenaltyArea
GO2024-G4B_Hubble_5_PLAY_00681804_TimeLoggedImaged_U.png;1718553922744;flopp;FieldFeature;159;142;159;142;TPenaltyArea
GO2024-G4B_Hubble_5_PLAY_00681804_TimeLoggedImaged_U.png;1718553925524;flopp;FieldFeature;120;158;120;158;CornerPenaltyArea
GO2024-G4B_Hubble_5_PLAY_00681804_TimeLoggedImaged_U.png;1718553933984;flopp;FieldFeature;69;148;69;148;CornerField
GO2024-G4B_Hubble_5_PLAY_00681804_TimeLoggedImaged_U.png;1718553937425;flopp;FieldFeature;289;326;289;325;NoTMiddleLine
GO2024-G4B_Hubble_5_PLAY_00733440_TimeLoggedImaged_U.png;1718553945505;flopp;FieldFeature;372;231;372;231;TGoalArea
GO2024-G4B_Hubble_5_PLAY_00733440_TimeLoggedImaged_U.png;1718553947097;flopp;FieldFeature;535;354;535;354;CornerGoalArea
GO2024-G4B_Hubble_5_PLAY_00733440_TimeLoggedImaged_U.png;1718553949476;flopp;FieldFeature;84;308;84;308;NoTMiddleLine
GO2024-G4B_Hubble_5_PLAY_00733440_TimeLoggedImaged_U.png;1718553949989;flopp;FieldFeature;99;327;99;327;NoCornerField
GO2024-G4B_Hubble_5_PLAY_00733440_TimeLoggedImaged_U.png;1718553951680;flopp;FieldFeature;115;343;115;343;NoTPenaltyArea
GO2024-G4B_Hubble_5_PLAY_00733440_TimeLoggedImaged_U.png;1718553952584;flopp;FieldFeature;131;364;131;364;NoCornerPenaltyArea
GO2024-G4B_Hubble_5_PLAY_00740733_TimeLoggedImaged_U.png;1718553956304;flopp;FieldFeature;122;348;122;348;NoTMiddleLine
GO2024-G4B_Hubble_5_PLAY_00740733_TimeLoggedImaged_U.png;1718553956769;flopp;FieldFeature;127;362;127;362;NoCornerField
GO2024-G4B_Hubble_5_PLAY_00740733_TimeLoggedImaged_U.png;1718553957316;flopp;FieldFeature;127;376;127;376;NoTGoalArea
GO2024-G4B_Hubble_5_PLAY_00740733_TimeLoggedImaged_U.png;1718553957828;flopp;FieldFeature;129;389;129;389;NoCornerGoalArea
GO2024-G4B_Hubble_5_PLAY_00740733_TimeLoggedImaged_U.png;1718553958372;flopp;FieldFeature;130;404;130;404;NoTPenaltyArea
GO2024-G4B_Hubble_5_PLAY_00740733_TimeLoggedImaged_U.png;1718553958901;flopp;FieldFeature;130;418;130;418;NoCornerPenaltyArea
GO2024-G4B_Hubble_5_READY_00174909_TimeLoggedImaged_U.png;1718553977765;flopp;FieldFeature;43;159;43;159;TGoalArea
GO2024-G4B_Hubble_5_READY_00174909_TimeLoggedImaged_U.png;1718553980964;flopp;FieldFeature;64;164;64;164;CornerGoalArea
GO2024-G4B_Hubble_5_READY_00174909_TimeLoggedImaged_U.png;1718553984997;flopp;FieldFeature;231;161;231;161;CornerPenaltyArea
GO2024-G4B_Hubble_5_READY_00174909_TimeLoggedImaged_U.png;1718553988969;flopp;FieldFeature;216;145;216;145;CornerField
GO2024-G4B_Hubble_5_READY_00174909_TimeLoggedImaged_U.png;1718553991532;flopp;FieldFeature;225;366;225;366;NoTMiddleLine
GO2024-G4B_Hubble_5_READY_00174909_TimeLoggedImaged_U.png;1718553995925;flopp;FieldFeature;228;379;228;379;NoTPenaltyArea
GO2024-G4B_Hubble_5_READY_00378469_TimeLoggedImaged_U.png;1718554010689;flopp;FieldFeature;262;155;262;155;TGoalArea
GO2024-G4B_Hubble_5_READY_00378469_TimeLoggedImaged_U.png;1718554013077;flopp;FieldFeature;270;161;270;161;CornerGoalArea
GO2024-G4B_Hubble_5_READY_00378469_TimeLoggedImaged_U.png;1718554017073;flopp;FieldFeature;360;153;360;153;TPenaltyArea
GO2024-G4B_Hubble_5_READY_00378469_TimeLoggedImaged_U.png;1718554019725;flopp;FieldFeature;438;239;438;239;NoTMiddleLine
GO2024-G4B_Hubble_5_READY_00378469_TimeLoggedImaged_U.png;1718554022601;flopp;FieldFeature;452;256;452;256;NoCornerField
GO2024-G4B_Hubble_5_READY_00378469_TimeLoggedImaged_U.png;1718554026617;flopp;FieldFeature;460;271;460;271;NoCornerPenaltyArea
GO2024-G4B_Hubble_5_READY_00392404_TimeLoggedImaged_U.png;1718554032501;flopp;FieldFeature;282;360;282;360;NoTMiddleLine
GO2024-G4B_Hubble_5_READY_00392404_TimeLoggedImaged_U.png;1718554033157;flopp;FieldFeature;290;378;290;378;NoCornerField
GO2024-G4B_Hubble_5_READY_00392404_TimeLoggedImaged_U.png;1718554038117;flopp;FieldFeature;297;397;297;397;NoTPenaltyArea
GO2024-G4B_Hubble_5_READY_00392404_TimeLoggedImaged_U.png;1718554039186;flopp;FieldFeature;306;412;306;412;NoCornerPenaltyArea
GO2024-G4B_Hubble_5_READY_00392404_TimeLoggedImaged_U.png;1718554044009;flopp;FieldFeature;482;148;482;148;TGoalArea
GO2024-G4B_Hubble_5_READY_00392404_TimeLoggedImaged_U.png;1718554046217;flopp;FieldFeature;470;154;470;154;CornerGoalArea
GO2024-G4B_Hubble_5_READY_00399676_TimeLoggedImaged_U.png;1718554055725;flopp;FieldFeature;226;152;226;152;TGoalArea
GO2024-G4B_Hubble_5_READY_00399676_TimeLoggedImaged_U.png;1718554057938;flopp;FieldFeature;237;160;237;160;CornerGoalArea
GO2024-G4B_Hubble_5_READY_00399676_TimeLoggedImaged_U.png;1718554061293;flopp;FieldFeature;450;239;450;239;NoTMiddleLine
GO2024-G4B_Hubble_5_READY_00399676_TimeLoggedImaged_U.png;1718554062062;flopp;FieldFeature;454;250;454;250;NoCornerField
GO2024-G4B_Hubble_5_READY_00399676_TimeLoggedImaged_U.png;1718554064289;flopp;FieldFeature;468;262;468;262;NoTPenaltyArea
GO2024-G4B_Hubble_5_READY_00399676_TimeLoggedImaged_U.png;1718554065421;flopp;FieldFeature;476;275;476;275;NoCornerPenaltyArea
GO2024-G4B_Hubble_5_READY_00748019_TimeLoggedImaged_U.png;1718554072753;flopp;FieldFeature;150;139;150;139;CornerField
GO2024-G4B_Hubble_5_READY_00748019_TimeLoggedImaged_U.png;1718554076381;flopp;FieldFeature;199;155;199;155;CornerPenaltyArea
GO2024-G4B_Hubble_5_READY_00748019_TimeLoggedImaged_U.png;1718554081102;flopp;FieldFeature;319;141;319;141;TGoalArea
GO2024-G4B_Hubble_5_READY_00748019_TimeLoggedImaged_U.png;1718554082973;flopp;FieldFeature;314;147;314;147;CornerGoalArea
GO2024-G4B_Hubble_5_READY_00748019_TimeLoggedImaged_U.png;1718554089246;flopp;FieldFeature;536;143;536;143;TGoalArea
GO2024-G4B_Hubble_5_READY_00748019_TimeLoggedImaged_U.png;1718554091106;flopp;FieldFeature;547;145;547;145;CornerGoalArea
GO2024-G4B_Hubble_5_READY_00748019_TimeLoggedImaged_U.png;1718554095078;flopp;FieldFeature;282;354;281;354;NoTMiddleLine
GO2024-G4B_Hubble_5_READY_00748019_TimeLoggedImaged_U.png;1718554107034;flopp;FieldFeature;301;370;301;370;NoTPenaltyArea
GO2024-G4B_Hubble_5_SET_00182187_TimeLoggedImaged_U.png;1718554124074;flopp;FieldFeature;391;174;391;174;TGoalArea
GO2024-G4B_Hubble_5_SET_00182187_TimeLoggedImaged_U.png;1718554126814;flopp;FieldFeature;388;180;388;180;CornerGoalArea
GO2024-G4B_Hubble_5_SET_00182187_TimeLoggedImaged_U.png;1718554130842;flopp;FieldFeature;290;181;291;181;TPenaltyArea
GO2024-G4B_Hubble_5_SET_00182187_TimeLoggedImaged_U.png;1718554134578;flopp;FieldFeature;259;203;259;203;CornerPenaltyArea
GO2024-G4B_Hubble_5_SET_00182187_TimeLoggedImaged_U.png;1718554139422;flopp;FieldFeature;192;189;192;189;CornerField
GO2024-G4B_Hubble_5_SET_00182187_TimeLoggedImaged_U.png;1718554142238;flopp;FieldFeature;229;295;229;295;NoTMiddleLine
GO2024-G4B_Hubble_5_SET_00406982_TimeLoggedImaged_U.png;1718554151591;flopp;FieldFeature;375;155;375;155;TPenaltyArea
GO2024-G4B_Hubble_5_SET_00406982_TimeLoggedImaged_U.png;1718554154035;flopp;FieldFeature;305;173;305;173;CornerPenaltyArea
GO2024-G4B_Hubble_5_SET_00406982_TimeLoggedImaged_U.png;1718554156235;flopp;FieldFeature;35;324;35;324;NoTMiddleLine
GO2024-G4B_Hubble_5_SET_00406982_TimeLoggedImaged_U.png;1718554157759;flopp;FieldFeature;43;346;43;346;NoCornerField
GO2024-G4B_Hubble_5_SET_00406982_TimeLoggedImaged_U.png;1718554158950;flopp;FieldFeature;51;368;51;368;NoTGoalArea
GO2024-G4B_Hubble_5_SET_00406982_TimeLoggedImaged_U.png;1718554159722;flopp;FieldFeature;56;387;56;387;NoCornerGoalArea
GO2024-G4B_Hubble_5_SET_00419707_TimeLoggedImaged_U.png;1718554167783;flopp;FieldFeature;406;59;406;59;TGoalArea
GO2024-G4B_Hubble_5_SET_00419707_TimeLoggedImaged_U.png;1718554170251;flopp;FieldFeature;415;66;415;66;CornerGoalArea
GO2024-G4B_Hubble_5_SET_00419707_TimeLoggedImaged_U.png;1718554172291;flopp;FieldFeature;148;69;148;69;CornerGoalArea
GO2024-G4B_Hubble_5_SET_00419707_TimeLoggedImaged_U.png;1718554177211;flopp;FieldFeature;218;297;217;297;NoTMiddleLine
GO2024-G4B_Hubble_5_SET_00419707_TimeLoggedImaged_U.png;1718554177843;flopp;FieldFeature;234;315;234;315;NoCornerField
GO2024-G4B_Hubble_5_SET_00419707_TimeLoggedImaged_U.png;1718554180995;flopp;FieldFeature;255;331;255;331;NoTPenaltyArea
GO2024-G4B_Hubble_5_SET_00419707_TimeLoggedImaged_U.png;1718554181827;flopp;FieldFeature;269;348;269;348;NoCornerPenaltyArea
GO2024-G4B_Hubble_5_SET_00427010_TimeLoggedImaged_U.png;1718554187059;flopp;FieldFeature;407;62;407;62;TGoalArea
GO2024-G4B_Hubble_5_SET_00427010_TimeLoggedImaged_U.png;1718554188791;flopp;FieldFeature;417;69;417;69;CornerGoalArea
GO2024-G4B_Hubble_5_SET_00427010_TimeLoggedImaged_U.png;1718554191475;flopp;FieldFeature;147;71;147;71;CornerGoalArea
GO2024-G4B_Hubble_5_SET_00427010_TimeLoggedImaged_U.png;1718554197643;flopp;FieldFeature;608;58;608;58;CornerField
GO2024-G4B_Hubble_5_SET_00427010_TimeLoggedImaged_U.png;1718554200127;flopp;FieldFeature;229;343;229;343;NoTMiddleLine
GO2024-G4B_Hubble_5_SET_00427010_TimeLoggedImaged_U.png;1718554204263;flopp;FieldFeature;247;361;246;361;NoTPenaltyArea
GO2024-G4B_Hubble_5_SET_00427010_TimeLoggedImaged_U.png;1718554205111;flopp;FieldFeature;258;377;258;377;NoCornerPenaltyArea
GO2024-G4A_Hubble_5_PLAY_00415115_TimeLoggedImaged_U.png;1715633936831;tkalbitz;GoalPost;542;192;544;96;Left
GO2024-G4A_Hubble_5_PLAY_00422426_TimeLoggedImaged_U.png;1715470728541;tkalbitz;GoalPost;344;126;338;38;Left
GO2024-G4A_Hubble_5_PLAY_00422426_TimeLoggedImaged_U.png;1715470730340;tkalbitz;GoalPost;338;38;182;51;Middle
GO2024-G4A_Hubble_5_PLAY_00719487_TimeLoggedImaged_U.png;1715633940533;tkalbitz;GoalPost;25;321;4;7;Left
GO2024-G4A_Hubble_5_PLAY_00816805_TimeLoggedImaged_U.png;1715633944959;tkalbitz;GoalPost;534;382;535;144;Left
GO2024-G4A_Hubble_5_READY_00233412_TimeLoggedImaged_U.png;1715470736488;tkalbitz;GoalPost;11;158;2;69;Right
GO2024-G4A_Hubble_5_READY_00240679_TimeLoggedImaged_U.png;1715470741248;tkalbitz;GoalPost;54;160;46;64;Right
GO2024-G4A_Hubble_5_READY_00240679_TimeLoggedImaged_U.png;1715470745010;tkalbitz;GoalPost;46;64;1;60;Left
GO2024-G4A_Hubble_5_READY_00726755_TimeLoggedImaged_U.png;1715633954490;tkalbitz;GoalPost;142;166;134;92;Right
GO2024-G4A_Hubble_5_SET_00247991_TimeLoggedImaged_U.png;1715470750516;tkalbitz;GoalPost;38;158;23;63;Right
GO2024-G4A_Hubble_5_SET_00247991_TimeLoggedImaged_U.png;1715470758615;tkalbitz;GoalPost;22;63;0;63;Middle
GO2024-G4A_Hubble_5_SET_00544976_TimeLoggedImaged_U.png;1715633971659;tkalbitz;GoalPost;575;50;581;3;Left
GO2024-G4B_Hubble_5_PLAY_00342055_TimeLoggedImaged_U.png;1715633981037;tkalbitz;GoalPost;507;162;519;39;Left
GO2024-G4B_Hubble_5_PLAY_00363915_TimeLoggedImaged_U.png;1715633985623;tkalbitz;GoalPost;611;178;616;48;Right
GO2024-G4B_Hubble_5_PLAY_00581457_TimeLoggedImaged_U.png;1715633989225;tkalbitz;GoalPost;570;73;577;3;Left
GO2024-G4B_Hubble_5_PLAY_00623450_TimeLoggedImaged_U.png;1715633998404;tkalbitz;GoalPost;11;114;9;1;Right
GO2024-G4B_Hubble_5_PLAY_00733440_TimeLoggedImaged_U.png;1715634002930;tkalbitz;GoalPost;238;232;237;2;Right
GO2024-G4B_Hubble_5_READY_00167639_TimeLoggedImaged_U.png;1715634010694;tkalbitz;GoalPost;148;155;160;70;Right
GO2024-G4B_Hubble_5_READY_00392404_TimeLoggedImaged_U.png;1715634021589;tkalbitz;GoalPost;517;145;522;47;Left
GO2024-G4B_Hubble_5_SET_00406982_TimeLoggedImaged_U.png;1715634026199;tkalbitz;GoalPost;504;148;501;51;Left
GO2024-G4B_Hubble_5_PLAY_00522155_TimeLoggedImaged_U.png;1718553243398;flopp;Ignore
GO2024-G4B_Hubble_5_PLAY_00559363_TimeLoggedImaged_U.png;1718553845911;flopp;Ignore
GO2024-G4A_Hubble_5_SET_00771015_TimeLoggedImaged_U.png;1718138402344;tkalbitz;NoCenterCirclePoints
GO2024-G4B_Hubble_5_PLAY_00623450_TimeLoggedImaged_U.png;1718195607303;tkalbitz;NoCenterCirclePoints
GO2024-G4B_Hubble_5_PLAY_00733440_TimeLoggedImaged_U.png;1718130309162;tkalbitz;NoCenterCirclePoints
GO2024-G4A_Hubble_5_PLAY_00681869_TimeLoggedImaged_U.png;1715470733406;tkalbitz;NoGoalPost
GO2024-G4A_Hubble_5_READY_00734046_TimeLoggedImaged_U.png;1715633963882;tkalbitz;NoGoalPost
GO2024-G4A_Hubble_5_SET_00365098_TimeLoggedImaged_U.png;1715633968259;tkalbitz;NoGoalPost
GO2024-G4B_Hubble_5_PLAY_00225984_TimeLoggedImaged_U.png;1715633977637;tkalbitz;NoGoalPost
GO2024-G4B_Hubble_5_PLAY_00276126_TimeLoggedImaged_U.png;1715470764553;tkalbitz;NoGoalPost
GO2024-G4B_Hubble_5_PLAY_00475781_TimeLoggedImaged_U.png;1715470765371;tkalbitz;NoGoalPost
GO2024-G4B_Hubble_5_PLAY_00640851_TimeLoggedImaged_U.png;1715470768717;tkalbitz;NoGoalPost
GO2024-G4B_Hubble_5_PLAY_00671208_TimeLoggedImaged_U.png;1715470769417;tkalbitz;NoGoalPost
GO2024-G4B_Hubble_5_READY_00371179_TimeLoggedImaged_U.png;1715470779794;tkalbitz;NoGoalPost
