RC2023-G3B_Sputnik_4_PLAY_00288907_TimeLoggedImaged_U.png;1718184987496;tkalbitz;CenterCirclePoints;138;55;138;55;Right
RC2023-G3B_Sputnik_4_PLAY_00399508_TimeLoggedImaged_U.png;1718195129332;tkalbitz;CenterCirclePoints;412;247;412;247;Left
RC2023-G3A_Sputnik_4_PLAY_00419956_TimeLoggedImaged_U.png;1715627492524;tkalbitz;GoalPost;460;51;470;0;Left
RC2023-G3B_Sputnik_4_PLAY_00233259_TimeLoggedImaged_U.png;1715627496014;tkalbitz;GoalPost;602;130;630;1;Left
RC2023-G3B_Sputnik_4_PLAY_00461785_TimeLoggedImaged_U.png;1715627499340;tkalbitz;GoalPost;494;213;533;0;Left
RC2023-G3B_Sputnik_4_READY_00646801_TimeLoggedImaged_U.png;1715627505479;tkalbitz;GoalPost;483;142;488;44;Left
RC2023-G3B_Sputnik_4_PLAY_00194831_TimeLoggedImaged_U.png;1718191916599;tkalbitz;NoCenterCirclePoints
RC2023-G3B_Sputnik_4_PLAY_00202138_TimeLoggedImaged_U.png;1718195127118;tkalbitz;NoCenterCirclePoints
RC2023-G3B_Sputnik_4_PLAY_00233259_TimeLoggedImaged_U.png;1718193559640;tkalbitz;NoCenterCirclePoints
RC2023-G3A_Sputnik_4_PLAY_00202095_TimeLoggedImaged_U.png;1715627475368;tkalbitz;NoGoalPost
RC2023-G3B_Sputnik_4_SET_00148580_TimeLoggedImaged_U.png;1715627511327;tkalbitz;NoGoalPost
RC2023-G3B_Sputnik_4_SET_00552541_TimeLoggedImaged_U.png;1715677989253;tkalbitz;NoGoalPost
