RC2022_4th-Game-vsBHuman-G1A_Sputnik_INITIAL_00000467_TimeLoggedImagedB_L.png;1688511130709;benedikt;Ball;256;408;270;548;Ball
RC2022_4th-Game-vsBHuman-G1A_Sputnik_INITIAL_00000945_TimeLoggedImagedB_L.png;1688511141216;benedikt;Ball;262;400;288;540;Ball
RC2022_4th-Game-vsBHuman-G1A_Sputnik_INITIAL_00001437_TimeLoggedImagedB_L.png;1688511143890;benedikt;Ball;265;427;289;558;Ball
RC2022_4th-Game-vsBHuman-G1A_Sputnik_INITIAL_00001947_TimeLoggedImagedB_L.png;1688511146478;benedikt;Ball;274;402;277;539;Ball
RC2022_4th-Game-vsBHuman-G1A_Sputnik_INITIAL_00002416_TimeLoggedImagedB_L.png;1688511149142;benedikt;Ball;263;406;290;536;Ball
RC2022_4th-Game-vsBHuman-G1A_Sputnik_INITIAL_00002907_TimeLoggedImagedB_L.png;1688511151884;benedikt;Ball;263;401;288;532;Ball
RC2022_4th-Game-vsBHuman-G1A_Sputnik_INITIAL_00003384_TimeLoggedImagedB_L.png;1688511155524;benedikt;Ball;271;399;281;531;Ball
RC2022_4th-Game-vsBHuman-G1A_Sputnik_INITIAL_00003873_TimeLoggedImagedB_L.png;1688511157949;benedikt;Ball;265;397;282;538;Ball
RC2022_4th-Game-vsBHuman-G1A_Sputnik_INITIAL_00004365_TimeLoggedImagedB_L.png;1688511160443;benedikt;Ball;268;398;277;524;Ball
RC2022_4th-Game-vsBHuman-G1A_Sputnik_INITIAL_00004844_TimeLoggedImagedB_L.png;1688511165305;benedikt;Ball;274;396;274;533;Ball
RC2022_4th-Game-vsBHuman-G1A_Sputnik_INITIAL_00005339_TimeLoggedImagedB_L.png;1688511168777;benedikt;Ball;281;399;285;532;Ball
RC2022_4th-Game-vsBHuman-G1A_Sputnik_INITIAL_00005832_TimeLoggedImagedB_L.png;1688511171650;benedikt;Ball;354;434;359;555;Ball
RC2022_4th-Game-vsBHuman-G1A_Sputnik_INITIAL_00006271_TimeLoggedImagedB_L.png;1688511177404;benedikt;Ball;424;67;434;140;Ball
RC2022_4th-Game-vsBHuman-G1A_Sputnik_INITIAL_00010219_TimeLoggedImagedB_L.png;1688511181498;benedikt;Ball;387;450;380;570;Ball
RC2022_4th-Game-vsBHuman-G1A_Sputnik_INITIAL_00010740_TimeLoggedImagedB_L.png;1688511185149;benedikt;Ball;328;414;348;541;Ball
RC2022_4th-Game-vsBHuman-G1A_Sputnik_INITIAL_00014663_TimeLoggedImagedB_L.png;1688511189095;benedikt;Ball;397;390;410;547;Ball
RC2022_4th-Game-vsBHuman-G1A_Sputnik_INITIAL_00016163_TimeLoggedImagedB_L.png;1688511203140;benedikt;Ball;315;390;368;517;Ball
RC2022_4th-Game-vsBHuman-G1A_Sputnik_INITIAL_00025480_TimeLoggedImagedB_L.png;1688511208687;benedikt;Ball;285;457;296;574;Ball
RC2022_4th-Game-vsBHuman-G1A_Sputnik_INITIAL_00025978_TimeLoggedImagedB_L.png;1688511212019;benedikt;Ball;292;406;284;509;Ball
RC2022_4th-Game-vsBHuman-G1A_Sputnik_INITIAL_00026452_TimeLoggedImagedB_L.png;1688511215934;benedikt;Ball;274;131;281;212;Ball
RC2022_4th-Game-vsBHuman-G1A_Sputnik_INITIAL_00026951_TimeLoggedImagedB_L.png;1688511218877;benedikt;Ball;347;10;367;87;Ball
RC2022_4th-Game-vsBHuman-G1A_Sputnik_INITIAL_00027448_TimeLoggedImagedB_L.png;1688511222223;benedikt;Ball;424;100;465;172;Ball
RC2022_4th-Game-vsBHuman-G1A_Sputnik_INITIAL_00027954_TimeLoggedImagedB_L.png;1688511225089;benedikt;Ball;362;231;354;322;Ball
RC2022_4th-Game-vsBHuman-G1A_Sputnik_INITIAL_00028431_TimeLoggedImagedB_L.png;1688511228407;benedikt;Ball;359;257;368;359;Ball
RC2022_4th-Game-vsBHuman-G1A_Sputnik_INITIAL_00028941_TimeLoggedImagedB_L.png;1688511231861;benedikt;Ball;292;285;293;398;Ball
RC2022_4th-Game-vsBHuman-G1A_Sputnik_INITIAL_00029449_TimeLoggedImagedB_L.png;1688511234641;benedikt;Ball;300;426;263;561;Ball
RC2022_4th-Game-vsBHuman-G1A_Sputnik_INITIAL_00031387_TimeLoggedImagedB_L.png;1688515559412;tkalbitz;Ball;212;338;291;431;Ball
RC2022_4th-Game-vsBHuman-G1A_Sputnik_INITIAL_00031871_TimeLoggedImagedB_L.png;1688511241794;benedikt;Ball;288;390;210;482;Ball
RC2022_4th-Game-vsBHuman-G1A_Sputnik_INITIAL_00035289_TimeLoggedImagedB_L.png;1688511244175;benedikt;Ball;265;423;171;493;Ball
RC2022_4th-Game-vsBHuman-G1A_Sputnik_INITIAL_00035782_TimeLoggedImagedB_L.png;1688511247064;benedikt;Ball;460;315;402;414;Ball
RC2022_4th-Game-vsBHuman-G1A_Sputnik_INITIAL_00036269_TimeLoggedImagedB_L.png;1688511249619;benedikt;Ball;419;390;318;479;Ball
RC2022_4th-Game-vsBHuman-G1A_Sputnik_INITIAL_00037734_TimeLoggedImagedB_L.png;1688511252705;benedikt;Ball;445;392;336;483;Ball
RC2022_4th-Game-vsBHuman-G1A_Sputnik_INITIAL_00038226_TimeLoggedImagedB_L.png;1688511255555;benedikt;Ball;367;438;278;509;Ball
RC2022_4th-Game-vsBHuman-G1A_Sputnik_INITIAL_00038726_TimeLoggedImagedB_L.png;1688511258879;benedikt;Ball;341;465;347;574;Ball
RC2022_4th-Game-vsBHuman-G1A_Sputnik_INITIAL_00040208_TimeLoggedImagedB_L.png;1688511261455;benedikt;Ball;327;391;297;508;Ball
RC2022_4th-Game-vsBHuman-G1A_Sputnik_INITIAL_00040700_TimeLoggedImagedB_L.png;1688511264760;benedikt;Ball;326;230;263;306;Ball
RC2022_4th-Game-vsBHuman-G1A_Sputnik_INITIAL_00041181_TimeLoggedImagedB_L.png;1688511267455;benedikt;Ball;368;250;291;318;Ball
RC2022_4th-Game-vsBHuman-G1A_Sputnik_INITIAL_00041689_TimeLoggedImagedB_L.png;1688511269703;benedikt;Ball;388;278;326;370;Ball
RC2022_4th-Game-vsBHuman-G1A_Sputnik_INITIAL_00042161_TimeLoggedImagedB_L.png;1688515575289;tkalbitz;Ball;380;410;375;535;Ball
RC2022_4th-Game-vsBHuman-G1A_Sputnik_INITIAL_00043664_TimeLoggedImagedB_L.png;1688511275207;benedikt;Ball;473;442;475;581;Ball
RC2022_4th-Game-vsBHuman-G1A_Sputnik_INITIAL_00044152_TimeLoggedImagedB_L.png;1688515587018;tkalbitz;Ball;341;354;282;451;Ball
RC2022_4th-Game-vsBHuman-G1A_Sputnik_INITIAL_00044628_TimeLoggedImagedB_L.png;1688515597850;tkalbitz;Ball;322;243;240;302;Ball
RC2022_4th-Game-vsBHuman-G1A_Sputnik_INITIAL_00045104_TimeLoggedImagedB_L.png;1688511282061;benedikt;Ball;428;194;345;253;Ball
RC2022_4th-Game-vsBHuman-G1A_Sputnik_INITIAL_00045615_TimeLoggedImagedB_L.png;1688511285202;benedikt;Ball;407;310;332;387;Ball
RC2022_4th-Game-vsBHuman-G1A_Sputnik_INITIAL_00045964_TimeLoggedImagedB_L.png;1688511288605;benedikt;Ball;429;54;364;70;Ball
RC2022_4th-Game-vsBHuman-G1A_Sputnik_INITIAL_00046111_TimeLoggedImagedB_L.png;1688511292136;benedikt;Ball;320;396;330;544;Ball
RC2022_4th-Game-vsBHuman-G1A_Sputnik_INITIAL_00046469_TimeLoggedImagedB_L.png;1688511298834;benedikt;Ball;472;110;523;177;Ball
RC2022_4th-Game-vsBHuman-G1A_Sputnik_INITIAL_00046942_TimeLoggedImagedB_L.png;1688511301793;benedikt;Ball;568;186;647;234;Ball
RC2022_4th-Game-vsBHuman-G1A_Sputnik_INITIAL_00047935_TimeLoggedImagedB_L.png;1688511307810;benedikt;Ball;474;190;559;246;Ball
RC2022_4th-Game-vsBHuman-G1A_Sputnik_INITIAL_00048046_TimeLoggedImagedB_L.png;1688511310456;benedikt;Ball;391;433;381;563;Ball
RC2022_4th-Game-vsBHuman-G1A_Sputnik_INITIAL_00048528_TimeLoggedImagedB_L.png;1688511315754;benedikt;Ball;334;430;329;562;Ball
RC2022_4th-Game-vsBHuman-G1A_Sputnik_INITIAL_00049994_TimeLoggedImagedB_L.png;1688511324341;benedikt;Ball;365;191;402;286;Ball
RC2022_4th-Game-vsBHuman-G1A_Sputnik_INITIAL_00050476_TimeLoggedImagedB_L.png;1688511327755;benedikt;Ball;455;165;508;234;Ball
RC2022_4th-Game-vsBHuman-G1A_Sputnik_INITIAL_00050955_TimeLoggedImagedB_L.png;1688511359109;benedikt;Ball;420;190;405;264;Ball
RC2022_4th-Game-vsBHuman-G1A_Sputnik_INITIAL_00051443_TimeLoggedImagedB_L.png;1688511361824;benedikt;Ball;313;284;303;374;Ball
RC2022_4th-Game-vsBHuman-G1A_Sputnik_INITIAL_00051937_TimeLoggedImagedB_L.png;1688511365154;benedikt;Ball;277;224;274;330;Ball
RC2022_4th-Game-vsBHuman-G1A_Sputnik_INITIAL_00052416_TimeLoggedImagedB_L.png;1688511368244;benedikt;Ball;275;314;268;452;Ball
RC2022_4th-Game-vsBHuman-G1A_Sputnik_INITIAL_00053890_TimeLoggedImagedB_L.png;1688511371394;benedikt;Ball;271;438;285;581;Ball
RC2022_4th-Game-vsBHuman-G1A_Sputnik_INITIAL_00055355_TimeLoggedImagedB_L.png;1688511375077;benedikt;Ball;433;456;440;574;Ball
RC2022_4th-Game-vsBHuman-G1A_Sputnik_INITIAL_00055841_TimeLoggedImagedB_L.png;1688511378449;benedikt;Ball;345;432;332;579;Ball
RC2022_4th-Game-vsBHuman-G1A_Sputnik_INITIAL_00058279_TimeLoggedImagedB_L.png;1688511381006;benedikt;Ball;262;421;252;581;Ball
RC2022_4th-Game-vsBHuman-G1A_Sputnik_INITIAL_00059745_TimeLoggedImagedB_L.png;1688511384179;benedikt;Ball;373;448;369;567;Ball
RC2022_4th-Game-vsBHuman-G1A_Sputnik_INITIAL_00060225_TimeLoggedImagedB_L.png;1688511386797;benedikt;Ball;315;372;339;499;Ball
RC2022_4th-Game-vsBHuman-G1A_Sputnik_INITIAL_00062182_TimeLoggedImagedB_L.png;1688511390360;benedikt;Ball;160;367;215;496;Ball
RC2022_4th-Game-vsBHuman-G1A_Sputnik_INITIAL_00064086_TimeLoggedImagedB_L.png;1688511393837;benedikt;Ball;265;426;304;555;Ball
RC2022_4th-Game-vsBHuman-G1A_Sputnik_INITIAL_00065148_TimeLoggedImagedB_L.png;1688511397482;benedikt;Ball;338;253;291;336;Ball
RC2022_4th-Game-vsBHuman-G1A_Sputnik_INITIAL_00065698_TimeLoggedImagedB_L.png;1688511400663;benedikt;Ball;461;463;379;534;Ball
RC2022_4th-Game-vsBHuman-G1A_Sputnik_INITIAL_00067624_TimeLoggedImagedB_L.png;1688511403431;benedikt;Ball;418;211;426;288;Ball
RC2022_4th-Game-vsBHuman-G1A_Sputnik_INITIAL_00069603_TimeLoggedImagedB_L.png;1688515638528;tkalbitz;Ball;142;12;167;35;Ball
RC2022_4th-Game-vsBHuman-G1A_Sputnik_INITIAL_00086119_TimeLoggedImagedB_L.png;1688511410583;benedikt;Ball;369;11;381;1;Ball
RC2022_4th-Game-vsBHuman-G1A_Sputnik_INITIAL_00087585_TimeLoggedImagedB_L.png;1688511413479;benedikt;Ball;299;9;317;-5;Ball
RC2022_4th-Game-vsBHuman-G1A_Sputnik_INITIAL_00088092_TimeLoggedImagedB_L.png;1688511416824;benedikt;Ball;229;12;243;36;Ball
RC2022_4th-Game-vsBHuman-G1A_Sputnik_INITIAL_00089553_TimeLoggedImagedB_L.png;1688511420729;benedikt;Ball;9;21;43;-4;Ball
RC2022_4th-Game-vsBHuman-G1A_Sputnik_INITIAL_00090034_TimeLoggedImagedB_L.png;1688511423680;benedikt;Ball;151;37;166;-1;Ball
RC2022_4th-Game-vsBHuman-G1A_Sputnik_INITIAL_00090504_TimeLoggedImagedB_L.png;1688511430606;benedikt;Ball;177;24;207;-11;Ball
RC2022_4th-Game-vsBHuman-G1A_Sputnik_INITIAL_00091930_TimeLoggedImagedB_L.png;1688511433648;benedikt;Ball;70;152;-8;136;Ball
RC2022_4th-Game-vsBHuman-G1A_Sputnik_INITIAL_00092895_TimeLoggedImagedB_L.png;1688511436799;benedikt;Ball;129;443;61;373;Ball
RC2022_4th-Game-vsBHuman-G1A_Sputnik_INITIAL_00093274_TimeLoggedImagedB_L.png;1688511441714;benedikt;Ball;262;194;313;123;Ball
RC2022_4th-Game-vsBHuman-G1A_Sputnik_INITIAL_00093405_TimeLoggedImagedB_L.png;1688511445944;benedikt;Ball;143;460;130;581;Ball
RC2022_4th-Game-vsBHuman-G1A_Sputnik_INITIAL_00094827_TimeLoggedImagedB_L.png;1688511448391;benedikt;Ball;268;343;340;251;Ball
RC2022_4th-Game-vsBHuman-G1A_Sputnik_INITIAL_00095229_TimeLoggedImagedB_L.png;1688511451236;benedikt;Ball;371;230;399;145;Ball
RC2022_4th-Game-vsBHuman-G1A_Sputnik_INITIAL_00095320_TimeLoggedImagedB_L.png;1688511454470;benedikt;Ball;227;425;198;310;Ball
RC2022_4th-Game-vsBHuman-G1A_Sputnik_INITIAL_00095725_TimeLoggedImagedB_L.png;1688511459081;benedikt;Ball;240;41;277;-6;Ball
RC2022_4th-Game-vsBHuman-G1A_Sputnik_INITIAL_00095810_TimeLoggedImagedB_L.png;1688511462279;benedikt;Ball;143;441;213;331;Ball
RC2022_4th-Game-vsBHuman-G1A_Sputnik_INITIAL_00096318_TimeLoggedImagedB_L.png;1688511465810;benedikt;Ball;216;462;230;581;Ball
RC2022_4th-Game-vsBHuman-G1A_Sputnik_INITIAL_00097795_TimeLoggedImagedB_L.png;1688511471356;benedikt;Ball;143;448;157;581;Ball
RC2022_4th-Game-vsBHuman-G1A_Sputnik_INITIAL_00098753_TimeLoggedImagedB_L.png;1688511474425;benedikt;Ball;392;456;403;580;Ball
RC2022_4th-Game-vsBHuman-G1A_Sputnik_INITIAL_00099255_TimeLoggedImagedB_L.png;1688511477648;benedikt;Ball;388;274;444;348;Ball
RC2022_4th-Game-vsBHuman-G1A_Sputnik_INITIAL_00099756_TimeLoggedImagedB_L.png;1688511209801;lea;Ball;182;221;223;291;Ball
RC2022_4th-Game-vsBHuman-G1A_Sputnik_INITIAL_00100264_TimeLoggedImagedB_L.png;1688511229987;lea;Ball;108;223;145;295;Ball
RC2022_4th-Game-vsBHuman-G1A_Sputnik_INITIAL_00101247_TimeLoggedImagedB_L.png;1688511235031;lea;Ball;62;136;92;203;Ball
RC2022_4th-Game-vsBHuman-G1A_Sputnik_INITIAL_00101759_TimeLoggedImagedB_L.png;1688511255586;lea;Ball;61;145;94;228;Ball
RC2022_4th-Game-vsBHuman-G1A_Sputnik_INITIAL_00102251_TimeLoggedImagedB_L.png;1688511259754;lea;Ball;284;265;310;360;Ball
RC2022_4th-Game-vsBHuman-G1A_Sputnik_INITIAL_00102726_TimeLoggedImagedB_L.png;1688511263902;lea;Ball;396;234;405;346;Ball
RC2022_4th-Game-vsBHuman-G1A_Sputnik_INITIAL_00112306_TimeLoggedImagedB_L.png;1688511270170;lea;Ball;278;43;291;-11;Ball
RC2022_4th-Game-vsBHuman-G1A_Sputnik_INITIAL_00113507_TimeLoggedImagedB_L.png;1688511274008;lea;Ball;54;10;67;38;Ball
RC2022_4th-Game-vsBHuman-G1A_Sputnik_INITIAL_00115937_TimeLoggedImagedB_L.png;1688511278823;lea;Ball;274;27;282;-14;Ball
RC2022_4th-Game-vsBHuman-G1A_Sputnik_INITIAL_00116408_TimeLoggedImagedB_L.png;1688511283210;lea;Ball;281;25;284;-24;Ball
RC2022_4th-Game-vsBHuman-G1A_Sputnik_INITIAL_00116891_TimeLoggedImagedB_L.png;1688511287091;lea;Ball;294;146;302;194;Ball
RC2022_4th-Game-vsBHuman-G1A_Sputnik_INITIAL_00117407_TimeLoggedImagedB_L.png;1688511292193;lea;Ball;258;72;282;135;Ball
RC2022_4th-Game-vsBHuman-G1A_Sputnik_INITIAL_00117891_TimeLoggedImagedB_L.png;1688511297366;lea;Ball;231;262;260;335;Ball
RC2022_4th-Game-vsBHuman-G1A_Sputnik_INITIAL_00118387_TimeLoggedImagedB_L.png;1688511302062;lea;Ball;292;224;327;313;Ball
RC2022_4th-Game-vsBHuman-G1A_Sputnik_INITIAL_00118870_TimeLoggedImagedB_L.png;1688511306919;lea;Ball;238;384;252;508;Ball
RC2022_4th-Game-vsBHuman-G1A_Sputnik_INITIAL_00120321_TimeLoggedImagedB_L.png;1688511310920;lea;Ball;391;369;406;466;Ball
RC2022_4th-Game-vsBHuman-G1A_Sputnik_INITIAL_00122740_TimeLoggedImagedB_L.png;1688511314514;lea;Ball;473;446;499;537;Ball
RC2022_4th-Game-vsBHuman-G1A_Sputnik_INITIAL_00123224_TimeLoggedImagedB_L.png;1688511319602;lea;Ball;346;238;382;301;Ball
RC2022_4th-Game-vsBHuman-G1A_Sputnik_INITIAL_00124209_TimeLoggedImagedB_L.png;1688511326979;lea;Ball;258;128;268;163;Ball
RC2022_4th-Game-vsBHuman-G1A_Sputnik_INITIAL_00124693_TimeLoggedImagedB_L.png;1688511331990;lea;Ball;107;52;126;79;Ball
RC2022_4th-Game-vsBHuman-G1A_Sputnik_INITIAL_00130124_TimeLoggedImagedB_L.png;1688511336533;lea;Ball;341;21;342;-12;Ball
RC2022_4th-Game-vsBHuman-G1A_Sputnik_INITIAL_00130603_TimeLoggedImagedB_L.png;1688511340968;lea;Ball;526;25;514;-20;Ball
RC2022_4th-Game-vsBHuman-G1A_Sputnik_INITIAL_00132715_TimeLoggedImagedB_L.png;1688511344844;lea;Ball;106;9;120;69;Ball
RC2022_4th-Game-vsBHuman-G1A_Sputnik_INITIAL_00133043_TimeLoggedImagedB_L.png;1688511348374;lea;Ball;606;208;668;217;Ball
RC2022_4th-Game-vsBHuman-G1A_Sputnik_INITIAL_00133517_TimeLoggedImagedB_L.png;1688511351692;lea;Ball;423;74;434;134;Ball
RC2022_4th-Game-vsBHuman-G1A_Sputnik_INITIAL_00134012_TimeLoggedImagedB_L.png;1688511354977;lea;Ball;438;177;471;248;Ball
RC2022_4th-Game-vsBHuman-G1A_Sputnik_INITIAL_00134488_TimeLoggedImagedB_L.png;1688511358272;lea;Ball;345;359;378;462;Ball
RC2022_4th-Game-vsBHuman-G1A_Sputnik_INITIAL_00134971_TimeLoggedImagedB_L.png;1688511364911;lea;Ball;314;346;385;488;Ball
RC2022_4th-Game-vsBHuman-G1A_Sputnik_INITIAL_00135960_TimeLoggedImagedB_L.png;1688511369132;lea;Ball;208;237;239;317;Ball
RC2022_4th-Game-vsBHuman-G1A_Sputnik_INITIAL_00136449_TimeLoggedImagedB_L.png;1688511373731;lea;Ball;305;69;309;-6;Ball
RC2022_4th-Game-vsBHuman-G1A_Sputnik_INITIAL_00136927_TimeLoggedImagedB_L.png;1688511378153;lea;Ball;293;178;313;232;Ball
RC2022_4th-Game-vsBHuman-G1A_Sputnik_INITIAL_00137413_TimeLoggedImagedB_L.png;1688511381930;lea;Ball;387;162;415;224;Ball
RC2022_4th-Game-vsBHuman-G1A_Sputnik_INITIAL_00137895_TimeLoggedImagedB_L.png;1688511385608;lea;Ball;458;139;474;215;Ball
RC2022_4th-Game-vsBHuman-G1A_Sputnik_INITIAL_00138384_TimeLoggedImagedB_L.png;1688511389800;lea;Ball;457;353;483;455;Ball
RC2022_4th-Game-vsBHuman-G1A_Sputnik_INITIAL_00138894_TimeLoggedImagedB_L.png;1688511394047;lea;Ball;335;308;364;413;Ball
RC2022_4th-Game-vsBHuman-G1A_Sputnik_INITIAL_00139376_TimeLoggedImagedB_L.png;1688511397824;lea;Ball;354;58;402;129;Ball
RC2022_4th-Game-vsBHuman-G1A_Sputnik_INITIAL_00139858_TimeLoggedImagedB_L.png;1688511401452;lea;Ball;466;62;492;140;Ball
RC2022_4th-Game-vsBHuman-G1A_Sputnik_INITIAL_00140348_TimeLoggedImagedB_L.png;1688511404983;lea;Ball;315;353;363;422;Ball
RC2022_4th-Game-vsBHuman-G1A_Sputnik_INITIAL_00140829_TimeLoggedImagedB_L.png;1688511409488;lea;Ball;264;81;306;164;Ball
RC2022_4th-Game-vsBHuman-G1A_Sputnik_INITIAL_00141327_TimeLoggedImagedB_L.png;1688511412942;lea;Ball;283;350;326;451;Ball
RC2022_4th-Game-vsBHuman-G1A_Sputnik_INITIAL_00141799_TimeLoggedImagedB_L.png;1688511416220;lea;Ball;312;433;371;531;Ball
RC2022_4th-Game-vsBHuman-G1A_Sputnik_INITIAL_00142289_TimeLoggedImagedB_L.png;1688511419702;lea;Ball;347;101;373;174;Ball
RC2022_4th-Game-vsBHuman-G1A_Sputnik_INITIAL_00146181_TimeLoggedImagedB_L.png;1688511424392;lea;Ball;85;40;75;-5;Ball
RC2022_4th-Game-vsBHuman-G1A_Sputnik_INITIAL_00146671_TimeLoggedImagedB_L.png;1688511431039;lea;Ball;186;35;177;-16;Ball
RC2022_4th-Game-vsBHuman-G1A_Sputnik_INITIAL_00146939_TimeLoggedImagedB_L.png;1688511434198;lea;Ball;536;398;583;443;Ball
RC2022_4th-Game-vsBHuman-G1A_Sputnik_INITIAL_00147148_TimeLoggedImagedB_L.png;1688511437006;lea;Ball;256;93;303;130;Ball
RC2022_4th-Game-vsBHuman-G1A_Sputnik_INITIAL_00147426_TimeLoggedImagedB_L.png;1688511440951;lea;Ball;341;197;374;244;Ball
RC2022_4th-Game-vsBHuman-G1A_Sputnik_INITIAL_00147626_TimeLoggedImagedB_L.png;1688515690236;tkalbitz;Ball;310;95;361;155;Ball
RC2022_4th-Game-vsBHuman-G1A_Sputnik_INITIAL_00147936_TimeLoggedImagedB_L.png;1688511452753;lea;Ball;61;54;50;-7;Ball
RC2022_4th-Game-vsBHuman-G1A_Sputnik_INITIAL_00148131_TimeLoggedImagedB_L.png;1688511457436;lea;Ball;312;134;348;215;Ball
RC2022_4th-Game-vsBHuman-G1A_Sputnik_INITIAL_00148628_TimeLoggedImagedB_L.png;1688511461509;lea;Ball;371;264;402;363;Ball
RC2022_4th-Game-vsBHuman-G1A_Sputnik_INITIAL_00149113_TimeLoggedImagedB_L.png;1688511468333;lea;Ball;345;416;381;535;Ball
RC2022_4th-Game-vsBHuman-G1A_Sputnik_INITIAL_00150232_TimeLoggedImagedB_L.png;1688511475013;lea;Ball;568;344;568;344;Ball
RC2022_4th-Game-vsBHuman-G1A_Sputnik_INITIAL_00150232_TimeLoggedImagedB_L.png;1688511478295;lea;Ball;510;237;561;345;Ball
RC2022_4th-Game-vsBHuman-G1A_Sputnik_INITIAL_00150386_TimeLoggedImagedB_L.png;1688511483217;lea;Ball;73;74;117;140;Ball
RC2022_4th-Game-vsBHuman-G1A_Sputnik_INITIAL_00151373_TimeLoggedImagedB_L.png;1688511488498;lea;Ball;100;351;-17;338;Ball
RC2022_4th-Game-vsBHuman-G1A_Sputnik_INITIAL_00152183_TimeLoggedImagedB_L.png;1688511494586;lea;Ball;288;388;327;508;Ball
RC2022_4th-Game-vsBHuman-G1A_Sputnik_INITIAL_00154132_TimeLoggedImagedB_L.png;1688511498055;lea;Ball;328;334;366;447;Ball
RC2022_4th-Game-vsBHuman-G1A_Sputnik_INITIAL_00154627_TimeLoggedImagedB_L.png;1688511513344;lea;Ball;383;338;410;473;Ball
RC2022_4th-Game-vsBHuman-G1A_Sputnik_INITIAL_00155126_TimeLoggedImagedB_L.png;1688511516995;lea;Ball;256;391;327;505;Ball
RC2022_4th-Game-vsBHuman-G1A_Sputnik_INITIAL_00155590_TimeLoggedImagedB_L.png;1688511520757;lea;Ball;354;440;368;583;Ball
RC2022_4th-Game-vsBHuman-G1A_Sputnik_INITIAL_00156592_TimeLoggedImagedB_L.png;1688511524646;lea;Ball;246;341;281;464;Ball
RC2022_4th-Game-vsBHuman-G1A_Sputnik_INITIAL_00157086_TimeLoggedImagedB_L.png;1688511528261;lea;Ball;300;300;322;417;Ball
RC2022_4th-Game-vsBHuman-G1A_Sputnik_INITIAL_00157561_TimeLoggedImagedB_L.png;1688511532781;lea;Ball;316;379;358;498;Ball
RC2022_4th-Game-vsBHuman-G1A_Sputnik_INITIAL_00158995_TimeLoggedImagedB_L.png;1688511539451;lea;Ball;190;351;231;475;Ball
RC2022_4th-Game-vsBHuman-G1A_Sputnik_INITIAL_00160771_TimeLoggedImagedB_L.png;1688511550115;lea;Ball;146;36;153;-21;Ball
RC2022_4th-Game-vsBHuman-G1A_Sputnik_INITIAL_00160943_TimeLoggedImagedB_L.png;1688511555245;lea;Ball;389;385;461;488;Ball
RC2022_4th-Game-vsBHuman-G1A_Sputnik_INITIAL_00161425_TimeLoggedImagedB_L.png;1688511559240;lea;Ball;283;298;338;397;Ball
RC2022_4th-Game-vsBHuman-G1A_Sputnik_INITIAL_00161916_TimeLoggedImagedB_L.png;1688511564133;lea;Ball;289;350;339;475;Ball
RC2022_4th-Game-vsBHuman-G1A_Sputnik_INITIAL_00163384_TimeLoggedImagedB_L.png;1688511568584;lea;Ball;369;124;383;220;Ball
RC2022_4th-Game-vsBHuman-G1A_Sputnik_INITIAL_00163868_TimeLoggedImagedB_L.png;1688511572472;lea;Ball;461;139;504;213;Ball
RC2022_4th-Game-vsBHuman-G1A_Sputnik_INITIAL_00164350_TimeLoggedImagedB_L.png;1688511576909;lea;Ball;446;311;478;401;Ball
RC2022_4th-Game-vsBHuman-G1A_Sputnik_INITIAL_00165687_TimeLoggedImagedB_L.png;1688511581844;lea;Ball;222;70;254;129;Ball
RC2022_4th-Game-vsBHuman-G1A_Sputnik_INITIAL_00166311_TimeLoggedImagedB_L.png;1688511585670;lea;Ball;389;84;401;182;Ball
RC2022_4th-Game-vsBHuman-G1A_Sputnik_INITIAL_00166800_TimeLoggedImagedB_L.png;1688511591461;lea;Ball;321;206;342;283;Ball
RC2022_4th-Game-vsBHuman-G1A_Sputnik_INITIAL_00167321_TimeLoggedImagedB_L.png;1688511596299;lea;Ball;366;8;382;110;Ball
RC2022_4th-Game-vsBHuman-G1A_Sputnik_INITIAL_00167801_TimeLoggedImagedB_L.png;1688511601291;lea;Ball;291;108;305;213;Ball
RC2022_4th-Game-vsBHuman-G1A_Sputnik_INITIAL_00168280_TimeLoggedImagedB_L.png;1688511612243;lea;Ball;234;132;262;237;Ball
RC2022_4th-Game-vsBHuman-G1A_Sputnik_INITIAL_00169730_TimeLoggedImagedB_L.png;1688511618195;lea;Ball;445;313;480;453;Ball
RC2022_4th-Game-vsBHuman-G1A_Sputnik_INITIAL_00174635_TimeLoggedImagedB_L.png;1688511624014;lea;Ball;289;407;303;535;Ball
RC2022_4th-Game-vsBHuman-G1A_Sputnik_INITIAL_00176609_TimeLoggedImagedB_L.png;1688511628369;lea;Ball;376;398;420;519;Ball
RC2022_4th-Game-vsBHuman-G1A_Sputnik_INITIAL_00178544_TimeLoggedImagedB_L.png;1688511632455;lea;Ball;182;272;217;384;Ball
RC2022_4th-Game-vsBHuman-G1A_Sputnik_INITIAL_00179043_TimeLoggedImagedB_L.png;1688511637468;lea;Ball;83;101;121;201;Ball
RC2022_4th-Game-vsBHuman-G1A_Sputnik_INITIAL_00179513_TimeLoggedImagedB_L.png;1688511642089;lea;Ball;75;314;129;409;Ball
RC2022_4th-Game-vsBHuman-G1A_Sputnik_INITIAL_00179998_TimeLoggedImagedB_L.png;1688511645662;lea;Ball;148;404;206;520;Ball
RC2022_4th-Game-vsBHuman-G1A_Sputnik_INITIAL_00180472_TimeLoggedImagedB_L.png;1688511648542;lea;Ball;261;402;307;529;Ball
RC2022_4th-Game-vsBHuman-G1A_Sputnik_INITIAL_00180773_TimeLoggedImagedB_L.png;1688511652838;lea;Ball;225;24;264;71;Ball
RC2022_4th-Game-vsBHuman-G1A_Sputnik_INITIAL_00181274_TimeLoggedImagedB_L.png;1688511656405;lea;Ball;34;84;54;161;Ball
RC2022_4th-Game-vsBHuman-G1A_Sputnik_INITIAL_00183415_TimeLoggedImagedB_L.png;1688511659587;lea;Ball;237;454;277;558;Ball
RC2022_4th-Game-vsBHuman-G1A_Sputnik_INITIAL_00183900_TimeLoggedImagedB_L.png;1688511663484;lea;Ball;229;240;275;333;Ball
RC2022_4th-Game-vsBHuman-G1A_Sputnik_INITIAL_00184398_TimeLoggedImagedB_L.png;1688511667691;lea;Ball;476;113;511;185;Ball
RC2022_4th-Game-vsBHuman-G1A_Sputnik_INITIAL_00184871_TimeLoggedImagedB_L.png;1688511672916;lea;Ball;255;373;298;454;Ball
RC2022_4th-Game-vsBHuman-G1A_Sputnik_INITIAL_00185843_TimeLoggedImagedB_L.png;1688511675600;lea;Ball;386;289;435;353;Ball
RC2022_4th-Game-vsBHuman-G1A_Sputnik_INITIAL_00218619_TimeLoggedImagedB_L.png;1688515720370;tkalbitz;Ball;561;31;594;-17;Ball
RC2022_4th-Game-vsBHuman-G1A_Sputnik_INITIAL_00250625_TimeLoggedImagedB_L.png;1688515727044;tkalbitz;Ball;591;106;649;142;Ball
RC2022_4th-Game-vsBHuman-G1A_Sputnik_INITIAL_00255492_TimeLoggedImagedB_L.png;1688511698216;lea;Ball;171;50;162;-14;Ball
RC2022_4th-Game-vsBHuman-G1A_Sputnik_INITIAL_00256009_TimeLoggedImagedB_L.png;1688511703949;lea;Ball;443;397;498;531;Ball
RC2022_4th-Game-vsBHuman-G1A_Sputnik_INITIAL_00030916_TimeLoggedImagedB_L.png;1688511237901;benedikt;Ignore
RC2022_4th-Game-vsBHuman-G1A_Sputnik_INITIAL_00047457_TimeLoggedImagedB_L.png;1688511349567;benedikt;Ignore
RC2022_4th-Game-vsBHuman-G1A_Sputnik_INITIAL_00097320_TimeLoggedImagedB_L.png;1688511469630;benedikt;Ignore
