RC2023-G8B_Dawn_2_PLAY_00380288_RobotDetectionToManyRobots_U.png;1718179112750;tkalbitz;CenterCirclePoints;223;111;223;111;Right
RC2023-G8B_Dawn_2_PLAY_00395952_RobotDetectionToManyRobots_U.png;1718179118686;tkalbitz;CenterCirclePoints;341;103;341;103;Right
RC2023-G8C_Dawn_2_READY_00070065_RobotDetectionToManyRobots_U.png;1718179122982;tkalbitz;CenterCirclePoints;232;144;232;144;Left
RC2023-G8C_Dawn_2_READY_00070065_RobotDetectionToManyRobots_U.png;1718179125998;tkalbitz;CenterCirclePoints;375;102;375;102;Right
RC2023-G8C_Dawn_2_READY_00092858_RobotDetectionToManyRobots_U.png;1718179129655;tkalbitz;CenterCirclePoints;396;426;396;426;Left
RC2023-G8C_Dawn_2_READY_00377102_RobotDetectionToManyRobots_U.png;1718179132501;tkalbitz;CenterCirclePoints;368;122;368;122;Left
RC2023-G8C_Dawn_2_SET_00103067_RobotDetectionToManyRobots_U.png;1718179135565;tkalbitz;CenterCirclePoints;301;387;301;387;Left
RC2023-G8B_Dawn_2_PLAY_00395952_RobotDetectionToManyRobots_U.png;1715678471487;tkalbitz;GoalPost;183;48;185;3;Right
RC2023-G8C_Dawn_2_READY_00088537_RobotDetectionToManyRobots_U.png;1715621252922;tkalbitz;GoalPost;442;97;449;2;Left
RC2023-G8C_Dawn_2_READY_00092858_RobotDetectionToManyRobots_U.png;1715621259186;tkalbitz;GoalPost;85;96;74;2;Left
RC2023-G8C_Dawn_2_READY_00202131_RobotDetectionToManyRobots_U.png;1715621264296;tkalbitz;GoalPost;457;154;455;37;Left
RC2023-G8C_Dawn_2_READY_00206801_RobotDetectionToManyRobots_U.png;1715678476348;tkalbitz;GoalPost;344;142;345;46;Left
RC2023-G8C_Dawn_2_READY_00070065_RobotDetectionToManyRobots_U.png;1715621249718;tkalbitz;NoGoalPost
