RC2022_G3B_CometInterceptor_3,4_PLAY_00165656_U.png;1657779506671;tkalbitz;Ball;20;217;4;245;Ball
RC2022_G3B_CometInterceptor_3,4_PLAY_00184804_U.png;1657779519089;tkalbitz;Ball;485;234;491;247;Ball
RC2022_G3B_CometInterceptor_3,4_PLAY_00227379_U.png;1657779522798;tkalbitz;Ball;104;188;122;196;Ball
RC2022_G3B_CometInterceptor_3,4_PLAY_00267744_U.png;1657779528205;tkalbitz;Ball;238;124;263;141;Ball
RC2022_G3B_CometInterceptor_3,4_PLAY_00273578_U.png;1657779532104;tkalbitz;Ball;266;131;282;146;Ball
RC2022_G3B_CometInterceptor_3,4_PLAY_00279419_U.png;1657779621800;tkalbitz;Ball;266;124;279;145;Ball
RC2022_G3B_CometInterceptor_3,4_PLAY_00293645_U.png;1657779626128;tkalbitz;Ball;378;271;414;332;Ball
RC2022_G3B_CometInterceptor_3,4_PLAY_00363450_U.png;1657779657208;tkalbitz;Ball;314;276;279;322;Ball
RC2022_G3B_CometInterceptor_3,4_PLAY_00374547_U.png;1657779661750;tkalbitz;Ball;318;445;279;518;Ball
RC2022_G3B_CometInterceptor_3,4_PLAY_00465085_U.png;1657779667494;tkalbitz;Ball;425;213;438;224;Ball
RC2022_G3B_CometInterceptor_3,4_PLAY_00620103_U.png;1657779675705;tkalbitz;Ball;370;154;343;166;Ball
RC2022_G3B_CometInterceptor_3,4_PLAY_00640978_U.png;1657779679354;tkalbitz;Ball;341;363;386;442;Ball
RC2022_G3B_CometInterceptor_3,4_PLAY_00665819_U.png;1657779683502;tkalbitz;Ball;320;287;272;339;Ball
RC2022_G3B_CometInterceptor_3,4_PLAY_00693962_U.png;1657779688717;tkalbitz;Ball;363;345;328;303;Ball
RC2022_G3B_CometInterceptor_3,4_SET_00589325_U.png;1657779693666;tkalbitz;Ball;265;177;253;218;Ball
RC2022_G3B_Dawn_3,5_PLAY_00235740_U.png;1657779698369;tkalbitz;Ball;229;326;227;426;Ball
RC2022_G3B_Dawn_3,5_SET_00213975_U.png;1657779703600;tkalbitz;Ball;7;182;-17;189;Ball
RC2022_G3B_DeepImpact_1_PLAY_00183321_U.png;1657779709431;tkalbitz;Ball;521;37;528;45;Ball
RC2022_G3B_DeepImpact_1_PLAY_00187375_U.png;1657779712743;tkalbitz;Ball;517;34;518;43;Ball
RC2022_G3B_DeepImpact_1_PLAY_00201733_U.png;1657779716149;tkalbitz;Ball;247;42;252;51;Ball
RC2022_G3B_DeepImpact_1_PLAY_00207134_U.png;1657779720243;tkalbitz;Ball;233;33;239;40;Ball
RC2022_G3B_DeepImpact_1_PLAY_00264600_U.png;1657779725434;tkalbitz;Ball;424;48;436;47;Ball
RC2022_G3B_DeepImpact_1_PLAY_00276649_U.png;1657779734832;tkalbitz;Ball;376;71;365;77;Ball
RC2022_G3B_DeepImpact_1_PLAY_00289767_U.png;1657779742704;tkalbitz;Ball;310;72;300;84;Ball
RC2022_G3B_DeepImpact_1_PLAY_00301739_U.png;1657779748083;tkalbitz;Ball;289;106;301;126;Ball
RC2022_G3B_DeepImpact_1_PLAY_00312541_U.png;1657779757954;tkalbitz;Ball;299;113;314;117;Ball
RC2022_G3B_DeepImpact_1_PLAY_00314334_U.png;1657779763318;tkalbitz;Ball;378;93;365;107;Ball
RC2022_G3B_DeepImpact_1_PLAY_00315632_U.png;1657779768300;tkalbitz;Ball;398;118;386;130;Ball
RC2022_G3B_DeepImpact_1_PLAY_00316844_U.png;1657779771954;tkalbitz;Ball;331;90;316;101;Ball
RC2022_G3B_DeepImpact_1_PLAY_00321860_U.png;1657779777757;tkalbitz;Ball;327;108;327;89;Ball
RC2022_G3B_DeepImpact_1_PLAY_00347980_U.png;1657779781225;tkalbitz;Ball;259;136;265;153;Ball
RC2022_G3B_DeepImpact_1_PLAY_00355294_U.png;1657779786180;tkalbitz;Ball;397;85;381;81;Ball
RC2022_G3B_DeepImpact_1_PLAY_00369759_U.png;1657779790409;tkalbitz;Ball;332;60;329;71;Ball
RC2022_G3B_DeepImpact_1_PLAY_00384804_U.png;1657779796204;tkalbitz;Ball;356;62;352;75;Ball
RC2022_G3B_DeepImpact_1_PLAY_00390055_U.png;1657779800111;tkalbitz;Ball;314;34;321;46;Ball
RC2022_G3B_DeepImpact_1_PLAY_00392454_U.png;1657779803889;tkalbitz;Ball;330;60;331;72;Ball
RC2022_G3B_DeepImpact_1_PLAY_00406750_U.png;1657779807533;tkalbitz;Ball;394;71;402;80;Ball
RC2022_G3B_DeepImpact_1_PLAY_00408175_U.png;1657779810703;tkalbitz;Ball;340;54;349;62;Ball
RC2022_G3B_DeepImpact_1_PLAY_00414007_U.png;1657779815209;tkalbitz;Ball;342;46;332;56;Ball
RC2022_G3B_DeepImpact_1_PLAY_00464684_U.png;1657779819661;tkalbitz;Ball;217;33;224;40;Ball
RC2022_G3B_DeepImpact_1_PLAY_00465810_U.png;1657779824057;tkalbitz;Ball;205;30;203;39;Ball
RC2022_G3B_DeepImpact_1_PLAY_00485021_U.png;1657779829767;tkalbitz;Ball;312;30;316;39;Ball
RC2022_G3B_DeepImpact_1_PLAY_00646275_U.png;1657779832941;tkalbitz;Ball;320;56;326;68;Ball
RC2022_G3B_DeepImpact_1_PLAY_00647374_U.png;1657779836079;tkalbitz;Ball;310;58;313;71;Ball
RC2022_G3B_DeepImpact_1_PLAY_00656783_U.png;1657779841961;tkalbitz;Ball;306;442;368;529;Ball
RC2022_G3B_DeepImpact_1_PLAY_00668509_U.png;1657779847447;tkalbitz;Ball;404;105;416;121;Ball
RC2022_G3B_DeepImpact_1_PLAY_00674353_U.png;1657779850736;tkalbitz;Ball;348;155;361;184;Ball
RC2022_G3B_DeepImpact_1_PLAY_00675830_U.png;1657779854254;tkalbitz;Ball;298;97;331;117;Ball
RC2022_G3B_DeepImpact_1_PLAY_00678164_U.png;1657779858163;tkalbitz;Ball;295;70;320;107;Ball
RC2022_G3B_DeepImpact_1_PLAY_00686642_U.png;1657779862711;tkalbitz;Ball;268;149;305;149;Ball
RC2022_G3B_DeepImpact_1_PLAY_00688097_U.png;1657779866597;tkalbitz;Ball;259;80;284;114;Ball
RC2022_G3B_DeepImpact_1_PLAY_00689362_U.png;1657779870088;tkalbitz;Ball;319;119;366;127;Ball
RC2022_G3B_DeepImpact_1_PLAY_00695284_U.png;1657779873927;tkalbitz;Ball;390;128;413;193;Ball
RC2022_G3B_DeepImpact_1_PLAY_00706553_U.png;1657779878570;tkalbitz;Ball;436;154;411;176;Ball
RC2022_G3B_DeepImpact_1_SET_00150589_U.png;1657779882940;tkalbitz;Ball;332;62;324;72;Ball
RC2022_G3B_DeepImpact_1_SET_00588506_U.png;1657779888609;tkalbitz;Ball;374;76;385;89;Ball
RC2022_G3B_DeepImpact_1_SET_00594334_U.png;1657779893672;tkalbitz;Ball;374;77;385;89;Ball
RC2022_G3B_DeepImpact_1_SET_00600168_U.png;1657779899185;tkalbitz;Ball;373;78;387;87;Ball
RC2022_G3B_DeepImpact_1_SET_00606007_U.png;1657779903777;tkalbitz;Ball;374;78;386;87;Ball
RC2022_G3B_DeepImpact_1_SET_00608026_U.png;1657779916294;tkalbitz;Ball;372;78;385;86;Ball
RC2022_G3B_Helios_2,3_PLAY_00159941_U.png;1657779921390;tkalbitz;Ball;309;239;355;243;Ball
RC2022_G3B_Helios_2,3_PLAY_00161871_U.png;1657779924241;tkalbitz;Ball;283;178;257;214;Ball
RC2022_G3B_Helios_2,3_PLAY_00195817_U.png;1657779927770;tkalbitz;Ball;195;290;183;368;Ball
RC2022_G3B_Helios_2,3_PLAY_00210895_U.png;1657779931883;tkalbitz;Ball;337;451;374;553;Ball
RC2022_G3B_Helios_2,3_PLAY_00337329_U.png;1657779936467;tkalbitz;Ball;313;173;318;187;Ball
RC2022_G3B_Helios_2,3_PLAY_00338396_U.png;1657779939517;tkalbitz;Ball;360;189;346;196;Ball
RC2022_G3B_Helios_2,3_PLAY_00351000_U.png;1657779942871;tkalbitz;Ball;395;146;407;161;Ball
RC2022_G3B_Helios_2,3_PLAY_00380351_U.png;1657779947072;tkalbitz;Ball;528;110;540;111;Ball
RC2022_G3B_Helios_2,3_PLAY_00410849_U.png;1657779950575;tkalbitz;Ball;355;138;372;139;Ball
RC2022_G3B_Helios_2,3_PLAY_00415134_U.png;1657779954965;tkalbitz;Ball;326;101;351;107;Ball
RC2022_G3B_Helios_2,3_PLAY_00420970_U.png;1657779959079;tkalbitz;Ball;456;175;474;198;Ball
RC2022_G3B_Helios_2,3_PLAY_00628294_U.png;1657779964992;tkalbitz;Ball;73;206;86;224;Ball
RC2022_G3B_Helios_2,3_SET_00143124_U.png;1657779967763;tkalbitz;Ball;314;192;317;222;Ball
RC2022_G3B_Helios_2,3_SET_00148971_U.png;1657779971753;tkalbitz;Ball;392;128;408;157;Ball
RC2022_G3B_Helios_2,3_SET_00154786_U.png;1657779975654;tkalbitz;Ball;387;130;407;154;Ball
RC2022_G3B_Pathfinder_3_SET_00087267_U.png;1657779981363;tkalbitz;Ball;338;135;336;155;Ball
RC2022_G3B_Pathfinder_3_SET_00093105_U.png;1657779985167;tkalbitz;Ball;338;134;337;155;Ball
RC2022_G3B_Pathfinder_3_SET_00098947_U.png;1657779988920;tkalbitz;Ball;332;135;343;156;Ball
RC2022_G3B_Pioneer_3,5_PLAY_00024713_U.png;1657779992861;tkalbitz;Ball;203;191;236;173;Ball
RC2022_G3C_CometInterceptor_3,4_PLAY_00114088_U.png;1657779996785;tkalbitz;Ball;303;79;297;99;Ball
RC2022_G3C_CometInterceptor_3,4_PLAY_00135185_U.png;1657780002136;tkalbitz;Ball;231;111;250;114;Ball
RC2022_G3C_CometInterceptor_3,4_PLAY_00198073_U.png;1657780009856;tkalbitz;Ball;341;125;338;138;Ball
RC2022_G3C_CometInterceptor_3,4_PLAY_00199173_U.png;1657780013889;tkalbitz;Ball;247;125;254;136;Ball
RC2022_G3C_CometInterceptor_3,4_PLAY_00203018_U.png;1657780022871;tkalbitz;Ball;211;130;199;131;Ball
RC2022_G3C_CometInterceptor_3,4_PLAY_00209121_U.png;1657780029230;tkalbitz;Ball;377;128;384;136;Ball
RC2022_G3C_CometInterceptor_3,4_PLAY_00223079_U.png;1657780036444;tkalbitz;Ball;354;124;346;134;Ball
RC2022_G3C_CometInterceptor_3,4_PLAY_00246097_U.png;1657780042513;tkalbitz;Ball;309;120;309;130;Ball
RC2022_G3C_CometInterceptor_3,4_PLAY_00252645_U.png;1657780049526;tkalbitz;Ball;306;119;310;130;Ball
RC2022_G3C_CometInterceptor_3,4_PLAY_00267932_U.png;1657780054049;tkalbitz;Ball;330;210;367;226;Ball
RC2022_G3C_CometInterceptor_3,4_PLAY_00272384_U.png;1657780058376;tkalbitz;Ball;284;460;340;526;Ball
RC2022_G3C_CometInterceptor_3,4_PLAY_00285295_U.png;1657780062846;tkalbitz;Ball;257;328;185;348;Ball
RC2022_G3C_CometInterceptor_3,4_PLAY_00286769_U.png;1657780068028;tkalbitz;Ball;187;458;210;555;Ball
RC2022_G3C_CometInterceptor_3,4_PLAY_00339645_U.png;1657780072055;tkalbitz;Ball;396;140;383;178;Ball
RC2022_G3C_CometInterceptor_3,4_PLAY_00357188_U.png;1657780075056;tkalbitz;Ball;481;204;464;194;Ball
RC2022_G3C_CometInterceptor_3,4_PLAY_00363179_U.png;1657782689596;tkalbitz;Ball;428;99;450;98;Ball
RC2022_G3C_CometInterceptor_3,4_PLAY_00515606_U.png;1657782693234;tkalbitz;Ball;350;124;350;135;Ball
RC2022_G3C_CometInterceptor_3,4_PLAY_00641827_U.png;1657782698834;tkalbitz;Ball;220;141;226;156;Ball
RC2022_G3C_CometInterceptor_3,4_PLAY_00649179_U.png;1657782703668;tkalbitz;Ball;210;121;220;134;Ball
RC2022_G3C_CometInterceptor_3,4_SET_00091205_U.png;1657782707294;tkalbitz;Ball;365;121;377;139;Ball
RC2022_G3C_CometInterceptor_3,4_SET_00097060_U.png;1657782710431;tkalbitz;Ball;360;118;376;131;Ball
RC2022_G3C_CometInterceptor_3,4_SET_00112946_U.png;1657782716079;tkalbitz;Ball;333;63;322;80;Ball
RC2022_G3C_CometInterceptor_3,4_SET_00491240_U.png;1657782726370;tkalbitz;Ball;358;223;374;228;Ball
RC2022_G3C_CometInterceptor_3,4_SET_00608074_U.png;1657782732916;tkalbitz;Ball;257;208;271;212;Ball
RC2022_G3C_CometInterceptor_3,4_SET_00614010_U.png;1657782736397;tkalbitz;Ball;412;119;428;123;Ball
RC2022_G3C_CometInterceptor_3,4_SET_00615144_U.png;1657782742188;tkalbitz;Ball;229;184;229;166;Ball
RC2022_G3C_DeepImpact_1_PLAY_00114865_U.png;1657782746650;tkalbitz;Ball;226;64;231;80;Ball
RC2022_G3C_DeepImpact_1_PLAY_00121632_U.png;1657782750349;tkalbitz;Ball;211;70;218;87;Ball
RC2022_G3C_DeepImpact_1_PLAY_00130912_U.png;1657782753849;tkalbitz;Ball;277;78;289;91;Ball
RC2022_G3C_DeepImpact_1_PLAY_00154053_U.png;1657782757531;tkalbitz;Ball;386;60;390;78;Ball
RC2022_G3C_DeepImpact_1_PLAY_00157726_U.png;1657782763785;tkalbitz;Ball;387;60;386;76;Ball
RC2022_G3C_DeepImpact_1_PLAY_00167052_U.png;1657782766359;tkalbitz;Ball;348;69;359;75;Ball
RC2022_G3C_DeepImpact_1_PLAY_00168159_U.png;1657782769332;tkalbitz;Ball;382;55;383;68;Ball
RC2022_G3C_DeepImpact_1_PLAY_00174034_U.png;1657782772799;tkalbitz;Ball;365;50;364;62;Ball
RC2022_G3C_DeepImpact_1_PLAY_00180919_U.png;1657782776497;tkalbitz;Ball;285;39;292;45;Ball
RC2022_G3C_DeepImpact_1_PLAY_00182259_U.png;1657782779871;tkalbitz;Ball;287;38;292;47;Ball
RC2022_G3C_DeepImpact_1_PLAY_00183350_U.png;1657782783755;tkalbitz;Ball;285;39;294;46;Ball
RC2022_G3C_DeepImpact_1_PLAY_00189200_U.png;1657782788301;tkalbitz;Ball;303;39;311;46;Ball
RC2022_G3C_DeepImpact_1_PLAY_00190405_U.png;1657782792021;tkalbitz;Ball;302;39;312;44;Ball
RC2022_G3C_DeepImpact_1_PLAY_00194521_U.png;1657782797533;tkalbitz;Ball;303;40;312;46;Ball
RC2022_G3C_DeepImpact_1_PLAY_00195641_U.png;1657782800712;tkalbitz;Ball;304;39;310;47;Ball
RC2022_G3C_DeepImpact_1_PLAY_00196934_U.png;1657782804290;tkalbitz;Ball;305;37;310;48;Ball
RC2022_G3C_DeepImpact_1_PLAY_00200540_U.png;1657782811315;tkalbitz;Ball;198;31;206;39;Ball
RC2022_G3C_DeepImpact_1_PLAY_00212584_U.png;1657782822584;tkalbitz;Ball;261;38;262;49;Ball
RC2022_G3C_DeepImpact_1_PLAY_00216011_U.png;1657782825601;tkalbitz;Ball;257;41;266;48;Ball
RC2022_G3C_DeepImpact_1_PLAY_00224125_U.png;1657782834657;tkalbitz;Ball;222;67;227;76;Ball
RC2022_G3C_DeepImpact_1_PLAY_00232986_U.png;1657782841619;tkalbitz;Ball;302;41;310;44;Ball
RC2022_G3C_DeepImpact_1_PLAY_00238149_U.png;1657782847745;tkalbitz;Ball;323;29;329;36;Ball
RC2022_G3C_DeepImpact_1_PLAY_00239230_U.png;1657782850697;tkalbitz;Ball;317;34;309;39;Ball
RC2022_G3C_DeepImpact_1_PLAY_00243744_U.png;1657782855108;tkalbitz;Ball;308;38;318;42;Ball
RC2022_G3C_DeepImpact_1_PLAY_00253047_U.png;1657794052329;tkalbitz;Ball;311;35;316;43;Ball
RC2022_G3C_DeepImpact_1_PLAY_00258346_U.png;1657794064536;tkalbitz;Ball;392;36;395;44;Ball
RC2022_G3C_DeepImpact_1_PLAY_00260487_U.png;1657794070949;tkalbitz;Ball;390;36;396;43;Ball
RC2022_G3C_DeepImpact_1_PLAY_00266312_U.png;1657794077154;tkalbitz;Ball;366;100;372;119;Ball
RC2022_G3C_DeepImpact_1_PLAY_00272839_U.png;1657794085917;tkalbitz;Ball;315;87;334;96;Ball
RC2022_G3C_DeepImpact_1_PLAY_00302032_U.png;1657794089314;tkalbitz;Ball;260;62;256;78;Ball
RC2022_G3C_DeepImpact_1_PLAY_00303836_U.png;1657794093531;tkalbitz;Ball;259;66;270;77;Ball
RC2022_G3C_DeepImpact_1_PLAY_00304934_U.png;1657794103743;tkalbitz;Ball;270;65;279;79;Ball
RC2022_G3C_DeepImpact_1_PLAY_00315527_U.png;1657794109841;tkalbitz;Ball;288;62;281;77;Ball
RC2022_G3C_DeepImpact_1_PLAY_00329786_U.png;1657794113461;tkalbitz;Ball;242;68;232;85;Ball
RC2022_G3C_DeepImpact_1_PLAY_00338755_U.png;1657794123803;tkalbitz;Ball;252;64;264;83;Ball
RC2022_G3C_DeepImpact_1_PLAY_00339848_U.png;1657794129179;tkalbitz;Ball;224;88;240;98;Ball
RC2022_G3C_DeepImpact_1_PLAY_00357997_U.png;1657794149741;tkalbitz;Ball;314;28;315;39;Ball
RC2022_G3C_DeepImpact_1_PLAY_00368269_U.png;1657794156833;tkalbitz;Ball;237;40;236;50;Ball
RC2022_G3C_DeepImpact_1_PLAY_00503823_U.png;1657794165189;tkalbitz;Ball;288;56;288;68;Ball
RC2022_G3C_DeepImpact_1_PLAY_00512336_U.png;1657794169412;tkalbitz;Ball;341;44;337;54;Ball
RC2022_G3C_DeepImpact_1_PLAY_00624898_U.png;1657794179963;tkalbitz;Ball;280;93;286;106;Ball
RC2022_G3C_DeepImpact_1_PLAY_00673525_U.png;1657794184202;tkalbitz;Ball;354;28;358;39;Ball
RC2022_G3C_DeepImpact_1_SET_00091275_U.png;1657794189539;tkalbitz;Ball;226;62;230;78;Ball
RC2022_G3C_DeepImpact_1_SET_00097131_U.png;1657794193571;tkalbitz;Ball;233;67;236;84;Ball
RC2022_G3C_DeepImpact_1_SET_00102938_U.png;1657794196360;tkalbitz;Ball;235;96;232;113;Ball
RC2022_G3C_DeepImpact_1_SET_00112020_U.png;1657794200705;tkalbitz;Ball;238;69;251;72;Ball
RC2022_G3C_DeepImpact_1_SET_00495734_U.png;1657794204599;tkalbitz;Ball;267;72;280;82;Ball
RC2022_G3C_DeepImpact_1_SET_00619077_U.png;1657794209549;tkalbitz;Ball;397;65;392;79;Ball
RC2022_G3C_Helios_2,3_PLAY_00125712_U.png;1657794213955;tkalbitz;Ball;196;42;170;-41;Ball
RC2022_G3C_Helios_2,3_PLAY_00137719_U.png;1657794223406;tkalbitz;Ball;145;452;159;567;Ball
RC2022_G3C_Helios_2,3_PLAY_00152852_U.png;1657794229611;tkalbitz;Ball;292;397;371;386;Ball
RC2022_G3C_Helios_2,3_PLAY_00197084_U.png;1657794234475;tkalbitz;Ball;49;46;89;91;Ball
RC2022_G3C_Helios_2,3_PLAY_00286739_U.png;1657794245237;tkalbitz;Ball;432;148;443;160;Ball
RC2022_G3C_Helios_2,3_PLAY_00294948_U.png;1657794249682;tkalbitz;Ball;280;92;282;110;Ball
RC2022_G3C_Helios_2,3_PLAY_00315460_U.png;1657794253632;tkalbitz;Ball;368;112;359;131;Ball
RC2022_G3C_Helios_2,3_PLAY_00316621_U.png;1657794272266;tkalbitz;Ball;291;97;301;111;Ball
RC2022_G3C_Helios_2,3_PLAY_00330818_U.png;1657794279038;tkalbitz;Ball;342;168;357;162;Ball
RC2022_G3C_Helios_2,3_PLAY_00339976_U.png;1657794284734;tkalbitz;Ball;155;111;161;131;Ball
RC2022_G3C_Helios_2,3_PLAY_00367919_U.png;1657794287422;tkalbitz;Ball;186;105;190;116;Ball
RC2022_G3C_Helios_2,3_PLAY_00498543_U.png;1657794293088;tkalbitz;Ball;465;149;448;174;Ball
RC2022_G3C_Helios_2,3_PLAY_00505419_U.png;1657794296889;tkalbitz;Ball;322;141;358;139;Ball
RC2022_G3C_Helios_2,3_PLAY_00508161_U.png;1657794300042;tkalbitz;Ball;359;173;329;175;Ball
RC2022_G3C_Helios_2,3_PLAY_00511543_U.png;1657794304989;tkalbitz;Ball;313;122;310;156;Ball
RC2022_G3C_Helios_2,3_PLAY_00632433_U.png;1657794312186;tkalbitz;Ball;349;243;362;284;Ball
RC2022_G3C_Helios_2,3_PLAY_00643862_U.png;1657794317661;tkalbitz;Ball;81;332;85;374;Ball
RC2022_G3C_Helios_2,3_SET_00090814_U.png;1657794321797;tkalbitz;Ball;253;250;246;305;Ball
RC2022_G3C_Helios_2,3_SET_00096640_U.png;1657794328152;tkalbitz;Ball;233;248;235;304;Ball
RC2022_G3C_Helios_2,3_SET_00605679_U.png;1657794332361;tkalbitz;Ball;337;333;352;387;Ball
RC2022_G3C_Pathfinder_3_PLAY_00240179_U.png;1657794341823;tkalbitz;Ball;490;201;485;232;Ball
RC2022_G3C_Pathfinder_3_PLAY_00242700_U.png;1657794344557;tkalbitz;Ball;266;20;260;-23;Ball
RC2022_G3C_Pathfinder_3_PLAY_00248540_U.png;1657794348382;tkalbitz;Ball;362;451;365;555;Ball
RC2022_G3C_Pathfinder_3_PLAY_00266248_U.png;1657794352976;tkalbitz;Ball;339;108;352;109;Ball
RC2022_G3C_Pathfinder_3_PLAY_00270546_U.png;1657794355947;tkalbitz;Ball;276;118;292;125;Ball
RC2022_G3C_Pathfinder_3_PLAY_00272004_U.png;1657794359947;tkalbitz;Ball;443;109;461;117;Ball
RC2022_G3C_Pathfinder_3_SET_00092394_U.png;1657794364047;tkalbitz;Ball;329;107;308;112;Ball
RC2022_G3C_Pathfinder_3_SET_00098216_U.png;1657794369487;tkalbitz;Ball;329;100;306;100;Ball
RC2022_G3C_Pathfinder_3_SET_00099432_U.png;1657794375174;tkalbitz;Ball;381;141;362;157;Ball
RC2022_G3C_Pioneer_3,5_PLAY_00115887_U.png;1657794379592;tkalbitz;Ball;451;318;417;406;Ball
RC2022_G3C_Pioneer_3,5_PLAY_00136323_U.png;1657794387141;tkalbitz;Ball;266;352;340;380;Ball
RC2022_G3C_Pioneer_3,5_PLAY_00140431_U.png;1657794398974;tkalbitz;Ball;628;106;651;101;Ball
RC2022_G3C_Pioneer_3,5_PLAY_00142077_U.png;1657794402557;tkalbitz;Ball;309;108;318;124;Ball
RC2022_G3C_Pioneer_3,5_PLAY_00161752_U.png;1657794408025;tkalbitz;Ball;284;344;367;343;Ball
RC2022_G3C_Pioneer_3,5_PLAY_00173585_U.png;1657794412547;tkalbitz;Ball;345;266;330;348;Ball
RC2022_G3C_Pioneer_3,5_PLAY_00219673_U.png;1657794416942;tkalbitz;Ball;239;235;225;269;Ball
RC2022_G3C_Pioneer_3,5_PLAY_00229243_U.png;1657794429175;tkalbitz;Ball;122;107;134;111;Ball
RC2022_G3C_Pioneer_3,5_PLAY_00236957_U.png;1657794432513;tkalbitz;Ball;256;20;270;33;Ball
RC2022_G3C_Pioneer_3,5_PLAY_00251279_U.png;1657794439451;tkalbitz;Ball;385;213;437;224;Ball
RC2022_G3C_Pioneer_3,5_PLAY_00256756_U.png;1657794446421;tkalbitz;Ball;361;466;378;561;Ball
RC2022_G3C_Pioneer_3,5_PLAY_00341242_U.png;1657794453731;tkalbitz;Ball;10;249;26;299;Ball
RC2022_G3C_Pioneer_3,5_PLAY_00374168_U.png;1657794460520;tkalbitz;Ball;314;112;320;129;Ball
RC2022_G3C_Pioneer_3,5_PLAY_00521557_U.png;1657794466082;tkalbitz;Ball;62;376;47;549;Ball
RC2022_G3C_Pioneer_3,5_PLAY_00537573_U.png;1657794476750;tkalbitz;Ball;280;363;395;561;Ball
RC2022_G3C_Pioneer_3,5_PLAY_00639792_U.png;1657794483013;tkalbitz;Ball;128;220;161;278;Ball
RC2022_G3C_Pioneer_3,5_PLAY_00662889_U.png;1657794488196;tkalbitz;Ball;296;121;326;152;Ball
RC2022_G3C_Pioneer_3,5_PLAY_00664558_U.png;1657794492691;tkalbitz;Ball;340;134;296;142;Ball
RC2022_G3C_Pioneer_3,5_SET_00091174_U.png;1657794496342;tkalbitz;Ball;306;126;336;139;Ball
RC2022_G3C_Pioneer_3,5_SET_00097012_U.png;1657794501034;tkalbitz;Ball;316;118;327;149;Ball
RC2022_G3C_Pioneer_3,5_SET_00105726_U.png;1657794506060;tkalbitz;Ball;627;222;647;243;Ball
RC2022_G3C_Pioneer_3,5_SET_00112954_U.png;1657794510466;tkalbitz;Ball;256;191;292;217;Ball
RC2022_G3C_Pioneer_3,5_SET_00483664_U.png;1657794514418;tkalbitz;Ball;89;292;50;334;Ball
RC2022_G3B_Pathfinder_3_PLAY_00168797_U.png;1657779979175;tkalbitz;Ignore
RC2022_G3B_CometInterceptor_3,4_PLAY_00357427_U.png;1657779655131;tkalbitz;SkipBall
RC2022_G3B_CometInterceptor_3,4_SET_00135050_U.png;1657779691863;tkalbitz;SkipBall
RC2022_G3C_CometInterceptor_3,4_PLAY_00152725_U.png;1657780006166;tkalbitz;SkipBall
RC2022_G3C_CometInterceptor_3,4_PLAY_00164700_U.png;1657780007317;tkalbitz;SkipBall
RC2022_G3C_CometInterceptor_3,4_PLAY_00212549_U.png;1657780034733;tkalbitz;SkipBall
RC2022_G3C_CometInterceptor_3,4_PLAY_00227646_U.png;1657780040900;tkalbitz;SkipBall
RC2022_G3C_CometInterceptor_3,4_PLAY_00262101_U.png;1657780051863;tkalbitz;SkipBall
RC2022_G3C_CometInterceptor_3,4_PLAY_00620894_U.png;1657782696552;tkalbitz;SkipBall
RC2022_G3C_CometInterceptor_3,4_SET_00098644_U.png;1657782713464;tkalbitz;SkipBall
RC2022_G3C_CometInterceptor_3,4_SET_00493213_U.png;1657782731006;tkalbitz;SkipBall
RC2022_G3C_Helios_2,3_PLAY_00278674_U.png;1657794243010;tkalbitz;SkipBall
RC2022_G3C_Helios_2,3_PLAY_00625525_U.png;1657794309526;tkalbitz;SkipBall
RC2022_G3C_Pathfinder_3_PLAY_00121893_U.png;1657794338921;tkalbitz;SkipBall
RC2022_G3C_Pathfinder_3_PLAY_00154992_U.png;1657794340053;tkalbitz;SkipBall
RC2022_G3C_Pioneer_3,5_PLAY_00245434_U.png;1657794436470;tkalbitz;SkipBall
RC2022_G3C_Pioneer_3,5_PLAY_00368252_U.png;1657794457513;tkalbitz;SkipBall
RC2022_G3C_Pioneer_3,5_PLAY_00400488_U.png;1657794463785;tkalbitz;SkipBall
RC2022_G3C_Pioneer_3,5_PLAY_00536066_U.png;1657794471831;tkalbitz;SkipBall
