RC2023-G1A_DeepImpact_6_PLAY_00423164_BallVanishedFromLastToThisImage_U.png;1718177893293;tkalbitz;CenterCirclePoints;103;88;103;88;Right
RC2023-G1A_DeepImpact_6_PLAY_00531624_BallVanishedFromLastToThisImage_U.png;1718177898951;tkalbitz;CenterCirclePoints;101;113;101;113;Left
RC2023-G1A_DeepImpact_6_PLAY_00531624_BallVanishedFromLastToThisImage_U.png;1718177902719;tkalbitz;CenterCirclePoints;370;138;370;138;Right
RC2023-G1A_DeepImpact_6_PLAY_00535192_BallVanishedFromLastToThisImage_U.png;1718177906869;tkalbitz;CenterCirclePoints;60;133;61;133;Right
RC2023-G1A_DeepImpact_6_PLAY_00536767_BallVanishedFromLastToThisImage_U.png;1718177909189;tkalbitz;CenterCirclePoints;34;76;34;76;Right
RC2023-G1A_DeepImpact_6_PLAY_00777296_BallVanishedFromLastToThisImage_U.png;1718184638729;tkalbitz;CenterCirclePoints;89;108;89;108;Right
RC2023-G1A_DeepImpact_6_PLAY_00824479_BallVanishedFromLastToThisImage_U.png;1718184641993;tkalbitz;CenterCirclePoints;262;64;262;64;Right
RC2023-G1A_DeepImpact_6_PLAY_00863809_BallVanishedFromLastToThisImage_U.png;1718177919808;tkalbitz;CenterCirclePoints;184;45;184;45;Left
RC2023-G1A_DeepImpact_6_PLAY_00863809_BallVanishedFromLastToThisImage_U.png;1718177922102;tkalbitz;CenterCirclePoints;422;51;422;51;Right
RC2023-G1A_DeepImpact_6_SET_00133513_BallVanishedFromLastToThisImage_U.png;1718177926170;tkalbitz;CenterCirclePoints;581;198;581;198;Right
RC2023-G1A_DeepImpact_6_SET_00137181_BallVanishedFromLastToThisImage_U.png;1718177928910;tkalbitz;CenterCirclePoints;583;195;583;195;Right
RC2023-G1A_DeepImpact_6_SET_00139604_BallVanishedFromLastToThisImage_U.png;1718177932760;tkalbitz;CenterCirclePoints;312;246;312;246;Left
RC2023-G1A_DeepImpact_6_SET_00233623_BallVanishedFromLastToThisImage_U.png;1718177935664;tkalbitz;CenterCirclePoints;68;216;68;216;Left
RC2023-G1A_DeepImpact_6_SET_00233623_BallVanishedFromLastToThisImage_U.png;1718177938136;tkalbitz;CenterCirclePoints;371;100;371;100;Right
RC2023-G1B_DeepImpact_6_PLAY_00148734_BallVanishedFromLastToThisImage_U.png;1718193408798;tkalbitz;CenterCirclePoints;555;139;555;139;Left
RC2023-G1B_DeepImpact_6_PLAY_00170432_BallVanishedFromLastToThisImage_U.png;1718195051250;tkalbitz;CenterCirclePoints;424;162;424;162;Left
RC2023-G1B_DeepImpact_6_PLAY_00173460_BallVanishedFromLastToThisImage_U.png;1718184647038;tkalbitz;CenterCirclePoints;424;145;424;145;Left
RC2023-G1B_DeepImpact_6_PLAY_00211453_BallVanishedFromLastToThisImage_U.png;1718191706559;tkalbitz;CenterCirclePoints;522;147;522;147;Left
RC2023-G1B_DeepImpact_6_PLAY_00231358_BallVanishedFromLastToThisImage_U.png;1718191710337;tkalbitz;CenterCirclePoints;621;141;621;141;Left
RC2023-G1B_DeepImpact_6_PLAY_00233639_BallVanishedFromLastToThisImage_U.png;1718193413013;tkalbitz;CenterCirclePoints;622;142;622;142;Left
RC2023-G1B_DeepImpact_6_PLAY_00565213_BallVanishedFromLastToThisImage_U.png;1718195054863;tkalbitz;CenterCirclePoints;304;101;304;101;Left
RC2023-G1A_DeepImpact_6_PLAY_00416487_BallVanishedFromLastToThisImage_U.png;1715677093578;tkalbitz;GoalPost;210;53;208;0;Left
RC2023-G1A_DeepImpact_6_PLAY_00535192_BallVanishedFromLastToThisImage_U.png;1715620375541;tkalbitz;GoalPost;39;57;24;1;Right
RC2023-G1A_DeepImpact_6_PLAY_00582505_BallVanishedFromLastToThisImage_U.png;1715605825984;tkalbitz;GoalPost;140;73;122;-3;Right
RC2023-G1A_DeepImpact_6_PLAY_00674738_BallVanishedFromLastToThisImage_U.png;1715605837451;tkalbitz;GoalPost;588;300;634;0;Right
RC2023-G1A_DeepImpact_6_SET_00139604_BallVanishedFromLastToThisImage_U.png;1715605871018;tkalbitz;GoalPost;472;79;493;1;Left
RC2023-G1A_DeepImpact_6_SET_00242245_BallVanishedFromLastToThisImage_U.png;1715620384683;tkalbitz;GoalPost;90;72;72;-1;Right
RC2023-G1A_DeepImpact_6_SET_00243765_BallVanishedFromLastToThisImage_U.png;1715677100464;tkalbitz;GoalPost;230;88;215;1;Right
RC2023-G1A_DeepImpact_6_SET_00245324_BallVanishedFromLastToThisImage_U.png;1715605877580;tkalbitz;GoalPost;237;121;226;7;Right
RC2023-G1A_DeepImpact_6_SET_00245324_BallVanishedFromLastToThisImage_U.png;1715605879850;tkalbitz;GoalPost;226;7;-2;18;Middle
RC2023-G1A_DeepImpact_6_SET_00247173_BallVanishedFromLastToThisImage_U.png;1715620391876;tkalbitz;GoalPost;203;134;189;3;Right
RC2023-G1B_DeepImpact_6_PLAY_00173460_BallVanishedFromLastToThisImage_U.png;1715605894287;tkalbitz;GoalPost;593;90;605;8;Left
RC2023-G1B_DeepImpact_6_PLAY_00173460_BallVanishedFromLastToThisImage_U.png;1715605896041;tkalbitz;GoalPost;605;8;639;6;Middle
RC2023-G1B_DeepImpact_6_PLAY_00379060_BallVanishedFromLastToThisImage_U.png;1715677105244;tkalbitz;GoalPost;198;80;194;7;Left
RC2023-G1A_DeepImpact_6_PLAY_00252380_BallVanishedFromLastToThisImage_U.png;1718177888597;tkalbitz;NoCenterCirclePoints
RC2023-G1A_DeepImpact_6_PLAY_00324180_BallVanishedFromLastToThisImage_U.png;1718184632323;tkalbitz;NoCenterCirclePoints
RC2023-G1A_DeepImpact_6_PLAY_00327110_BallVanishedFromLastToThisImage_U.png;1718193406366;tkalbitz;NoCenterCirclePoints
RC2023-G1A_DeepImpact_6_PLAY_00655355_BallVanishedFromLastToThisImage_U.png;1718184633045;tkalbitz;NoCenterCirclePoints
RC2023-G1A_DeepImpact_6_PLAY_00661960_BallVanishedFromLastToThisImage_U.png;1718177913972;tkalbitz;NoCenterCirclePoints
RC2023-G1A_DeepImpact_6_PLAY_00679212_BallVanishedFromLastToThisImage_U.png;1718184633659;tkalbitz;NoCenterCirclePoints
RC2023-G1B_DeepImpact_6_PLAY_00513613_BallVanishedFromLastToThisImage_U.png;1718184650320;tkalbitz;NoCenterCirclePoints
RC2023-G1A_DeepImpact_6_PLAY_00248973_BallVanishedFromLastToThisImage_U.png;1715605818964;tkalbitz;NoGoalPost
RC2023-G1A_DeepImpact_6_PLAY_00252380_BallVanishedFromLastToThisImage_U.png;1715605820386;tkalbitz;NoGoalPost
RC2023-G1A_DeepImpact_6_PLAY_00318061_BallVanishedFromLastToThisImage_U.png;1715677089374;tkalbitz;NoGoalPost
RC2023-G1A_DeepImpact_6_PLAY_00653788_BallVanishedFromLastToThisImage_U.png;1715605829583;tkalbitz;NoGoalPost
RC2023-G1A_DeepImpact_6_PLAY_00655355_BallVanishedFromLastToThisImage_U.png;1715605830632;tkalbitz;NoGoalPost
RC2023-G1A_DeepImpact_6_PLAY_00656910_BallVanishedFromLastToThisImage_U.png;1715605834385;tkalbitz;NoGoalPost
RC2023-G1A_DeepImpact_6_PLAY_00680720_BallVanishedFromLastToThisImage_U.png;1715605842925;tkalbitz;NoGoalPost
RC2023-G1A_DeepImpact_6_PLAY_00692684_BallVanishedFromLastToThisImage_U.png;1715605845295;tkalbitz;NoGoalPost
RC2023-G1A_DeepImpact_6_PLAY_00707143_BallVanishedFromLastToThisImage_U.png;1715605847569;tkalbitz;NoGoalPost
RC2023-G1A_DeepImpact_6_PLAY_00713752_BallVanishedFromLastToThisImage_U.png;1715605849665;tkalbitz;NoGoalPost
RC2023-G1A_DeepImpact_6_PLAY_00726744_BallVanishedFromLastToThisImage_U.png;1715605850655;tkalbitz;NoGoalPost
RC2023-G1A_DeepImpact_6_PLAY_00782906_BallVanishedFromLastToThisImage_U.png;1715605854248;tkalbitz;NoGoalPost
RC2023-G1A_DeepImpact_6_PLAY_00786956_BallVanishedFromLastToThisImage_U.png;1715605859440;tkalbitz;NoGoalPost
RC2023-G1A_DeepImpact_6_PLAY_00791146_BallVanishedFromLastToThisImage_U.png;1715605860412;tkalbitz;NoGoalPost
RC2023-G1A_DeepImpact_6_PLAY_00834159_BallVanishedFromLastToThisImage_U.png;1715605864870;tkalbitz;NoGoalPost
RC2023-G1A_DeepImpact_6_PLAY_00856110_BallVanishedFromLastToThisImage_U.png;1715605866560;tkalbitz;NoGoalPost
RC2023-G1A_DeepImpact_6_PLAY_00863809_BallVanishedFromLastToThisImage_U.png;1715605868354;tkalbitz;NoGoalPost
RC2023-G1A_DeepImpact_6_SET_00236164_BallVanishedFromLastToThisImage_U.png;1715620382811;tkalbitz;NoGoalPost
RC2023-G1A_DeepImpact_6_SET_00240512_BallVanishedFromLastToThisImage_U.png;1715605873966;tkalbitz;NoGoalPost
RC2023-G1B_DeepImpact_6_PLAY_00154034_BallVanishedFromLastToThisImage_U.png;1715605890781;tkalbitz;NoGoalPost
RC2023-G1B_DeepImpact_6_PLAY_00159357_BallVanishedFromLastToThisImage_U.png;1715605891625;tkalbitz;NoGoalPost
RC2023-G1B_DeepImpact_6_PLAY_00211453_BallVanishedFromLastToThisImage_U.png;1715677103506;tkalbitz;NoGoalPost
RC2023-G1B_DeepImpact_6_PLAY_00233639_BallVanishedFromLastToThisImage_U.png;1715605898745;tkalbitz;NoGoalPost
RC2023-G1B_DeepImpact_6_PLAY_00386484_BallVanishedFromLastToThisImage_U.png;1715620399782;tkalbitz;NoGoalPost
RC2023-G1B_DeepImpact_6_PLAY_00543549_BallVanishedFromLastToThisImage_U.png;1715605902096;tkalbitz;NoGoalPost
RC2023-G1B_DeepImpact_6_PLAY_00554534_BallVanishedFromLastToThisImage_U.png;1715620402432;tkalbitz;NoGoalPost
