RC2023-G2B_Dawn_1,2_PLAY_01033651_TimeLoggedImaged_U.png;1718180701814;tkalbitz;CenterCirclePoints;205;390;205;390;Right
RC2023-G2B_Dawn_1,2_SET_00910521_TimeLoggedImaged_U.png;1718180707084;tkalbitz;CenterCirclePoints;104;133;104;133;Right
RC2023-G2A_Dawn_1,2_PLAY_00438501_TimeLoggedImaged_U.png;1715621949018;tkalbitz;GoalPost;597;283;603;147;Left
RC2023-G2A_Dawn_1,2_PLAY_00856484_TimeLoggedImaged_U.png;1715677447075;tkalbitz;GoalPost;547;148;574;83;Left
RC2023-G2A_Dawn_1,2_SET_00774016_TimeLoggedImaged_U.png;1715621966526;tkalbitz;GoalPost;529;283;535;150;Left
RC2023-G2A_Dawn_1,2_SET_00785665_TimeLoggedImaged_U.png;1715621971337;tkalbitz;GoalPost;531;279;538;145;Left
RC2023-G2B_Dawn_1,2_PLAY_01055599_TimeLoggedImaged_U.png;1715621976964;tkalbitz;GoalPost;551;203;572;-1;Right
RC2023-G2B_Dawn_1,2_READY_00394365_TimeLoggedImaged_U.png;1715621986573;tkalbitz;GoalPost;248;146;236;5;Right
RC2023-G2B_Dawn_1,2_READY_00528843_TimeLoggedImaged_U.png;1715621991730;tkalbitz;GoalPost;147;123;145;2;Right
RC2023-G2B_Dawn_1,2_SET_00546479_TimeLoggedImaged_U.png;1715621997980;tkalbitz;GoalPost;413;150;418;2;Left
RC2023-G2A_Dawn_1,2_PLAY_00708389_TimeLoggedImaged_U.png;1715621954178;tkalbitz;Ignore
RC2023-G2A_Dawn_1,2_PLAY_00715673_TimeLoggedImaged_U.png;1715621954751;tkalbitz;Ignore
RC2023-G2A_Dawn_1,2_PLAY_00722978_TimeLoggedImaged_U.png;1715621955179;tkalbitz;Ignore
RC2023-G2A_Dawn_1,2_PLAY_00730246_TimeLoggedImaged_U.png;1715621955583;tkalbitz;Ignore
RC2023-G2A_Dawn_1,2_PLAY_00737528_TimeLoggedImaged_U.png;1715621956161;tkalbitz;Ignore
RC2023-G2A_Dawn_1,2_READY_00744806_TimeLoggedImaged_U.png;1715621961511;tkalbitz;Ignore
RC2023-G2A_Dawn_1,2_READY_00752102_TimeLoggedImaged_U.png;1715621961914;tkalbitz;Ignore
RC2023-G2A_Dawn_1,2_READY_00759403_TimeLoggedImaged_U.png;1715621962316;tkalbitz;Ignore
RC2023-G2A_Dawn_1,2_READY_00766694_TimeLoggedImaged_U.png;1715621962728;tkalbitz;Ignore
RC2023-G2B_Dawn_1,2_READY_00155335_TimeLoggedImaged_U.png;1715621982156;tkalbitz;Ignore
RC2023-G2A_Dawn_1,2_PLAY_00383430_TimeLoggedImaged_U.png;1718180697210;tkalbitz;NoCenterCirclePoints
RC2023-G2A_Dawn_1,2_PLAY_00394819_TimeLoggedImaged_U.png;1718184804700;tkalbitz;NoCenterCirclePoints
RC2023-G2A_Dawn_1,2_READY_00273943_TimeLoggedImaged_U.png;1718180698078;tkalbitz;NoCenterCirclePoints
RC2023-G2A_Dawn_1,2_SET_00822338_TimeLoggedImaged_U.png;1718180699050;tkalbitz;NoCenterCirclePoints
RC2023-G2B_Dawn_1,2_PLAY_00456596_TimeLoggedImaged_U.png;1718180699871;tkalbitz;NoCenterCirclePoints
RC2023-G2B_Dawn_1,2_READY_00401636_TimeLoggedImaged_U.png;1718180703502;tkalbitz;NoCenterCirclePoints
RC2023-G2B_Dawn_1,2_READY_00416728_TimeLoggedImaged_U.png;1718180704947;tkalbitz;NoCenterCirclePoints
RC2023-G2A_Dawn_1,2_PLAY_00913669_TimeLoggedImaged_U.png;1715621960443;tkalbitz;NoGoalPost
RC2023-G2B_Dawn_1,2_PLAY_00483200_TimeLoggedImaged_U.png;1715677451006;tkalbitz;NoGoalPost
RC2023-G2B_Dawn_1,2_SET_00995230_TimeLoggedImaged_U.png;1715677452282;tkalbitz;NoGoalPost
