2016WMLeipzigG14A_Megamind_00010268_L.png
2016WMLeipzigG14A_Megamind_00059396_L.png
2016WMLeipzigG14A_Megamind_00061093_L.png
2016WMLeipzigG14A_Megamind_00062860_L.png
2016WMLeipzigG14A_Megamind_00113427_L.png
2016WMLeipzigG14A_Megamind_00235655_L.png
2016WMLeipzigG14A_Megamind_00237716_L.png
2016WMLeipzigG14A_Megamind_00244382_L.png
2016WMLeipzigG14A_Megamind_00246185_L.png
2016WMLeipzigG14A_Megamind_00251886_L.png
2016WMLeipzigG14A_Megamind_00253623_L.png
2016WMLeipzigG14A_Megamind_00255547_L.png
2016WMLeipzigG14A_MisterBurns_00247876_L.png
2016WMLeipzigG14A_MisterBurns_00251301_L.png
2016WMLeipzigG14A_MisterBurns_00253098_L.png
2016WMLeipzigG14A_MisterBurns_00254814_L.png
2016WMLeipzigG14A_MisterBurns_00256825_L.png
2016WMLeipzigG14A_MisterBurns_00259031_L.png
2016WMLeipzigG14A_MisterBurns_00261237_L.png
2016WMLeipzigG14A_MisterBurns_00281516_L.png
2016WMLeipzigG14A_MisterBurns_00283648_L.png
2016WMLeipzigG14A_MisterBurns_00285253_L.png
2016WMLeipzigG14A_MisterBurns_00287698_L.png
2016WMLeipzigG14A_MisterBurns_00412363_L.png
2016WMLeipzigG14A_MisterBurns_00421979_L.png
2016WMLeipzigG14A_MisterBurns_00425303_L.png
2016WMLeipzigG14A_Shredder_00138991_L.png
2016WMLeipzigG14A_Shredder_00140863_L.png
2016WMLeipzigG14A_Shredder_00149474_L.png
2016WMLeipzigG14A_Shredder_00151555_L.png
2016WMLeipzigG14A_Shredder_00153292_L.png
2016WMLeipzigG14A_Shredder_00155357_L.png
2016WMLeipzigG14A_Shredder_00159828_L.png
2016WMLeipzigG14A_Shredder_00193056_L.png
2016WMLeipzigG14A_Shredder_00194824_L.png
2016WMLeipzigG14A_Shredder_00209648_L.png
2016WMLeipzigG14A_Shredder_00211353_L.png
2016WMLeipzigG14A_Shredder_00273269_L.png
2016WMLeipzigG14A_Shredder_00275357_L.png
2016WMLeipzigG14A_Shredder_00319567_L.png
2016WMLeipzigG14A_Shredder_00641454_L.png
2016WMLeipzigG14A_Shredder_00643285_L.png
2016WMLeipzigG14A_Shredder_00817277_L.png
2016WMLeipzigG14B_Gargamel_00122229_L.png
2016WMLeipzigG14B_Gargamel_00124235_L.png
2016WMLeipzigG14B_Gargamel_00127531_L.png
2016WMLeipzigG14B_Gargamel_00129310_L.png
2016WMLeipzigG14B_Gargamel_00130910_L.png
2016WMLeipzigG14B_Gargamel_00132521_L.png
2016WMLeipzigG14B_Gargamel_00134323_L.png
2016WMLeipzigG14B_Gargamel_00136215_L.png
2016WMLeipzigG14B_Gargamel_00138157_L.png
2016WMLeipzigG14B_Gargamel_00170560_L.png
2016WMLeipzigG14B_Gargamel_00172254_L.png
2016WMLeipzigG14B_Gargamel_00187595_L.png
2016WMLeipzigG14B_Gargamel_00189480_L.png
2016WMLeipzigG14B_Gargamel_00191260_L.png
2016WMLeipzigG14B_Gargamel_00220098_L.png
2016WMLeipzigG14B_Gargamel_00221814_L.png
2016WMLeipzigG14B_Gargamel_00224076_L.png
2016WMLeipzigG14B_Gargamel_00331599_L.png
2016WMLeipzigG14B_Gargamel_00339056_L.png
2016WMLeipzigG14B_Gargamel_00400951_L.png
2016WMLeipzigG14B_Gargamel_00402904_L.png
2016WMLeipzigG14B_Gargamel_00404393_L.png
2016WMLeipzigG14B_Gargamel_00406111_L.png
2016WMLeipzigG14B_Gargamel_00407760_L.png
2016WMLeipzigG14B_Gargamel_00425023_L.png
2016WMLeipzigG14B_Gargamel_00426673_L.png
2016WMLeipzigG14B_Gargamel_00428315_L.png
2016WMLeipzigG14B_Gargamel_00447837_L.png
2016WMLeipzigG14B_Gargamel_00449494_L.png
2016WMLeipzigG14B_Gargamel_00451496_L.png
2016WMLeipzigG14B_Gargamel_00453529_L.png
2016WMLeipzigG14B_Gargamel_00506465_L.png
2016WMLeipzigG14B_Gargamel_00538862_L.png
2016WMLeipzigG14B_Gargamel_00548689_L.png
2016WMLeipzigG14B_Gargamel_00550467_L.png
2016WMLeipzigG14B_Gargamel_00581473_L.png
2016WMLeipzigG14B_Gargamel_00583279_L.png
2016WMLeipzigG14B_Gargamel_00585042_L.png
2016WMLeipzigG14B_Gargamel_00588768_L.png
2016WMLeipzigG14B_Gargamel_00592347_L.png
2016WMLeipzigG14B_Gargamel_00596954_L.png
2016WMLeipzigG14B_Gargamel_00598975_L.png
2016WMLeipzigG14B_Gargamel_00600708_L.png
2016WMLeipzigG14B_Gargamel_00602468_L.png
2016WMLeipzigG14B_Gargamel_00604294_L.png
2016WMLeipzigG14B_Gargamel_00606694_L.png
2016WMLeipzigG14B_Gargamel_00608440_L.png
2016WMLeipzigG14B_Gargamel_00757711_L.png
2016WMLeipzigG14B_Gargamel_00760293_L.png
2016WMLeipzigG14B_Joker_00133715_L.png
2016WMLeipzigG14B_Joker_00135605_L.png
2016WMLeipzigG14B_Joker_00137314_L.png
2016WMLeipzigG14B_Joker_00139114_L.png
2016WMLeipzigG14B_Joker_00145103_L.png
2016WMLeipzigG14B_Joker_00147188_L.png
2016WMLeipzigG14B_Joker_00149057_L.png
2016WMLeipzigG14B_Joker_00185903_L.png
2016WMLeipzigG14B_Joker_00246041_L.png
2016WMLeipzigG14B_Joker_00272966_L.png
2016WMLeipzigG14B_Joker_00276990_L.png
2016WMLeipzigG14B_Joker_00339946_L.png
2016WMLeipzigG14B_Joker_00345586_L.png
2016WMLeipzigG14B_Joker_00351637_L.png
2016WMLeipzigG14B_Joker_00468073_L.png
2016WMLeipzigG14B_Joker_00475217_L.png
2016WMLeipzigG14B_Joker_00476999_L.png
2016WMLeipzigG14B_Joker_00479039_L.png
2016WMLeipzigG14B_Joker_00480792_L.png
2016WMLeipzigG14B_Joker_00482997_L.png
2016WMLeipzigG14B_Joker_00486425_L.png
2016WMLeipzigG14B_Joker_00488395_L.png
2016WMLeipzigG14B_Joker_00490132_L.png
2016WMLeipzigG14B_Joker_00498056_L.png
2016WMLeipzigG14B_Joker_00499808_L.png
2016WMLeipzigG14B_Joker_00501490_L.png
2016WMLeipzigG14B_Joker_00518272_L.png
2016WMLeipzigG14B_Joker_00520230_L.png
2016WMLeipzigG14B_Joker_00524107_L.png
2016WMLeipzigG14B_Joker_00657074_L.png
2016WMLeipzigG14B_Joker_00658816_L.png
2016WMLeipzigG14B_Joker_00661208_L.png
2016WMLeipzigG14B_Joker_00675900_L.png
2016WMLeipzigG14B_Joker_00677608_L.png
2016WMLeipzigG14B_Joker_00679354_L.png
2016WMLeipzigG14B_Joker_00681512_L.png
2016WMLeipzigG14B_Joker_00704284_L.png
2016WMLeipzigG14B_Joker_00710797_L.png
2016WMLeipzigG14B_Joker_00766008_L.png
2016WMLeipzigG14B_Joker_00779661_L.png
2016WMLeipzigG14B_Joker_00784177_L.png
2016WMLeipzigG14B_Joker_00786006_L.png
2016WMLeipzigG14B_Joker_00813722_L.png
2016WMLeipzigG14B_Joker_00815899_L.png
2016WMLeipzigG14B_Joker_00820513_L.png
2016WMLeipzigG14B_Megamind_00129463_L.png
2016WMLeipzigG14B_Megamind_00131117_L.png
2016WMLeipzigG14B_Megamind_00387405_L.png
2016WMLeipzigG14B_Megamind_00482676_L.png
2016WMLeipzigG14B_Megamind_00494320_L.png
2016WMLeipzigG14B_Megamind_00496039_L.png
2016WMLeipzigG14B_Megamind_00502479_L.png
2016WMLeipzigG14B_Megamind_00504206_L.png
2016WMLeipzigG14B_Megamind_00507652_L.png
2016WMLeipzigG14B_Megamind_00509450_L.png
2016WMLeipzigG14B_Megamind_00515026_L.png
2016WMLeipzigG14B_Megamind_00517998_L.png
2016WMLeipzigG14B_Megamind_00522169_L.png
2016WMLeipzigG14B_Megamind_00525944_L.png
2016WMLeipzigG14B_Megamind_00641613_L.png
2016WMLeipzigG14B_Megamind_00659457_L.png
2016WMLeipzigG14B_Megamind_00684822_L.png
2016WMLeipzigG14B_Megamind_00819658_L.png
2016WMLeipzigG14B_Megamind_00898087_L.png
2016WMLeipzigG14B_Megamind_00904137_L.png
2016WMLeipzigG14B_MisterBurns_00122386_L.png
2016WMLeipzigG14B_MisterBurns_00210143_L.png
2016WMLeipzigG14B_MisterBurns_00314667_L.png
2016WMLeipzigG14B_MisterBurns_00832405_L.png
2016WMLeipzigG14B_MisterBurns_00842047_L.png
2016WMLeipzigG14B_MisterBurns_00844621_L.png
2016WMLeipzigG14B_MisterBurns_00845750_L.png
2016WMLeipzigG14B_MisterBurns_00879769_L.png
2016WMLeipzigG14B_MisterBurns_00891323_L.png
2016WMLeipzigG14B_Shredder_00150192_L.png
2016WMLeipzigG14B_Shredder_00157708_L.png
2016WMLeipzigG14B_Shredder_00162062_L.png
2016WMLeipzigG14B_Shredder_00164656_L.png
2016WMLeipzigG14B_Shredder_00167305_L.png
2016WMLeipzigG14B_Shredder_00168487_L.png
2016WMLeipzigG14B_Shredder_00313406_L.png
2016WMLeipzigG14B_Shredder_00317401_L.png
2016WMLeipzigG14B_Shredder_00319198_L.png
2016WMLeipzigG14B_Shredder_00329168_L.png
2016WMLeipzigG14B_Shredder_00339731_L.png
2016WMLeipzigG14B_Shredder_00345606_L.png
2016WMLeipzigG14B_Shredder_00349546_L.png
2016WMLeipzigG14B_Shredder_00351294_L.png
2016WMLeipzigG14B_Shredder_00442939_L.png
2016WMLeipzigG14B_Shredder_00445276_L.png
2016WMLeipzigG14B_Shredder_00496822_L.png
2016WMLeipzigG14B_Shredder_00555588_L.png
2016WMLeipzigG14B_Shredder_00558228_L.png
2016WMLeipzigG14B_Shredder_00684631_L.png
2016WMLeipzigG14B_Shredder_00687168_L.png
2016WMLeipzigG14B_Shredder_00692023_L.png
2016WMLeipzigG14B_Shredder_00809767_L.png
2016WMLeipzigG14B_Shredder_00814056_L.png
2016WMLeipzigG14B_Shredder_00815716_L.png
2016WMLeipzigG14B_Shredder_00824576_L.png
2016WMLeipzigG14C_Gargamel_00156053_L.png
2016WMLeipzigG14C_Gargamel_00240307_L.png
2016WMLeipzigG14C_Gargamel_00241985_L.png
2016WMLeipzigG14C_Gargamel_00265999_L.png
2016WMLeipzigG14C_Gargamel_00419671_L.png
2016WMLeipzigG14C_Gargamel_00421430_L.png
2016WMLeipzigG14C_Gargamel_00423141_L.png
2016WMLeipzigG14C_Gargamel_00474375_L.png
2016WMLeipzigG14C_Gargamel_00538212_L.png
2016WMLeipzigG14C_Gargamel_00686741_L.png
2016WMLeipzigG14C_Gargamel_00688749_L.png
2016WMLeipzigG14C_Gargamel_00865371_L.png
2016WMLeipzigG14C_Gargamel_00874973_L.png
2016WMLeipzigG14C_Gargamel_00877525_L.png
2016WMLeipzigG14C_Gargamel_00883986_L.png
2016WMLeipzigG14C_Gargamel_00885781_L.png
2016WMLeipzigG14C_Joker_00159259_L.png
2016WMLeipzigG14C_Joker_00168191_L.png
2016WMLeipzigG14C_Joker_00183590_L.png
2016WMLeipzigG14C_Joker_00195103_L.png
2016WMLeipzigG14C_Joker_00197038_L.png
2016WMLeipzigG14C_Joker_00207890_L.png
2016WMLeipzigG14C_Joker_00209568_L.png
2016WMLeipzigG14C_Joker_00211279_L.png
2016WMLeipzigG14C_Joker_00215111_L.png
2016WMLeipzigG14C_Joker_00273960_L.png
2016WMLeipzigG14C_Joker_00276099_L.png
2016WMLeipzigG14C_Joker_00288686_L.png
2016WMLeipzigG14C_Joker_00297508_L.png
2016WMLeipzigG14C_Joker_00299496_L.png
2016WMLeipzigG14C_Joker_00303646_L.png
2016WMLeipzigG14C_Joker_00305532_L.png
2016WMLeipzigG14C_Joker_00307511_L.png
2016WMLeipzigG14C_Joker_00309450_L.png
2016WMLeipzigG14C_Joker_00311288_L.png
2016WMLeipzigG14C_Joker_00400820_L.png
2016WMLeipzigG14C_Joker_00411905_L.png
2016WMLeipzigG14C_Joker_00413733_L.png
2016WMLeipzigG14C_Joker_00418379_L.png
2016WMLeipzigG14C_Joker_00437783_L.png
2016WMLeipzigG14C_Joker_00439916_L.png
2016WMLeipzigG14C_Joker_00463202_L.png
2016WMLeipzigG14C_Joker_00466636_L.png
2016WMLeipzigG14C_Joker_00480843_L.png
2016WMLeipzigG14C_Joker_00483927_L.png
2016WMLeipzigG14C_Joker_00535117_L.png
2016WMLeipzigG14C_Joker_00536894_L.png
2016WMLeipzigG14C_Joker_00539098_L.png
2016WMLeipzigG14C_Joker_00540858_L.png
2016WMLeipzigG14C_Joker_00542742_L.png
2016WMLeipzigG14C_Joker_00571979_L.png
2016WMLeipzigG14C_Joker_00599118_L.png
2016WMLeipzigG14C_Joker_00659299_L.png
2016WMLeipzigG14C_Joker_00682250_L.png
2016WMLeipzigG14C_Joker_00686778_L.png
2016WMLeipzigG14C_Joker_00688537_L.png
2016WMLeipzigG14C_Joker_00690200_L.png
2016WMLeipzigG14C_Joker_00694075_L.png
2016WMLeipzigG14C_Joker_00695738_L.png
2016WMLeipzigG14C_Joker_00697437_L.png
2016WMLeipzigG14C_Joker_00738916_L.png
2016WMLeipzigG14C_Joker_00740628_L.png
2016WMLeipzigG14C_Joker_00742519_L.png
2016WMLeipzigG14C_Joker_00858596_L.png
2016WMLeipzigG14C_Joker_00860746_L.png
2016WMLeipzigG14C_Joker_00862828_L.png
2016WMLeipzigG14C_Joker_00872697_L.png
2016WMLeipzigG14C_Megamind_00181808_L.png
2016WMLeipzigG14C_Megamind_00186394_L.png
2016WMLeipzigG14C_Megamind_00189992_L.png
2016WMLeipzigG14C_Megamind_00226993_L.png
2016WMLeipzigG14C_Megamind_00228699_L.png
2016WMLeipzigG14C_Megamind_00230448_L.png
2016WMLeipzigG14C_Megamind_00232226_L.png
2016WMLeipzigG14C_Megamind_00271227_L.png
2016WMLeipzigG14C_Megamind_00274779_L.png
2016WMLeipzigG14C_Megamind_00277407_L.png
2016WMLeipzigG14C_Megamind_00279971_L.png
2016WMLeipzigG14C_Megamind_00286084_L.png
2016WMLeipzigG14C_Megamind_00288242_L.png
2016WMLeipzigG14C_Megamind_00313290_L.png
2016WMLeipzigG14C_Megamind_00315042_L.png
2016WMLeipzigG14C_Megamind_00321884_L.png
2016WMLeipzigG14C_Megamind_00323749_L.png
