RC2022_G2B_Dawn_5_PLAY_00180602_U.png;1657779088249;tkalbitz;Ball;295;105;303;132;Ball
RC2022_G2B_Dawn_5_PLAY_00208661_U.png;1657779093227;tkalbitz;Ball;366;62;365;75;Ball
RC2022_G2B_Dawn_5_PLAY_00229470_U.png;1657779096784;tkalbitz;Ball;367;116;370;132;Ball
RC2022_G2B_Dawn_5_PLAY_00234138_U.png;1657779102179;tkalbitz;Ball;488;133;478;149;Ball
RC2022_G2B_Dawn_5_PLAY_00347326_U.png;1657779108792;tkalbitz;Ball;441;116;428;105;Ball
RC2022_G2B_Dawn_5_PLAY_00351451_U.png;1657779113145;tkalbitz;Ball;413;87;417;99;Ball
RC2022_G2B_Dawn_5_PLAY_00352820_U.png;1657779117062;tkalbitz;Ball;412;88;420;100;Ball
RC2022_G2B_Dawn_5_PLAY_00384798_U.png;1657779122741;tkalbitz;Ball;221;85;224;94;Ball
RC2022_G2B_Dawn_5_PLAY_00394947_U.png;1657779129773;tkalbitz;Ball;256;89;264;86;Ball
RC2022_G2B_Dawn_5_PLAY_00534011_U.png;1657779136274;tkalbitz;Ball;554;74;549;96;Ball
RC2022_G2B_Dawn_5_PLAY_00546758_U.png;1657779141128;tkalbitz;Ball;333;118;311;126;Ball
RC2022_G2B_Dawn_5_PLAY_00563289_U.png;1657779144804;tkalbitz;Ball;357;113;352;132;Ball
RC2022_G2B_Dawn_5_PLAY_00614959_U.png;1657779149200;tkalbitz;Ball;417;91;420;103;Ball
RC2022_G2B_Dawn_5_PLAY_00617440_U.png;1657779156098;tkalbitz;Ball;224;121;233;132;Ball
RC2022_G2B_Dawn_5_SET_00144725_U.png;1657779167606;tkalbitz;Ball;259;118;272;127;Ball
RC2022_G2B_Dawn_5_SET_00754942_U.png;1657779171658;tkalbitz;Ball;269;399;345;468;Ball
RC2022_G2B_DeepImpact_2,3_PLAY_00179076_U.png;1657779175983;tkalbitz;Ball;364;123;391;152;Ball
RC2022_G2B_DeepImpact_2,3_PLAY_00193956_U.png;1657779180081;tkalbitz;Ball;224;178;198;226;Ball
RC2022_G2B_DeepImpact_2,3_PLAY_00213154_U.png;1657779183413;tkalbitz;Ball;230;460;253;560;Ball
RC2022_G2B_DeepImpact_2,3_PLAY_00227458_U.png;1657779190773;tkalbitz;Ball;187;86;159;98;Ball
RC2022_G2B_DeepImpact_2,3_PLAY_00355605_U.png;1657779195057;tkalbitz;Ball;332;460;348;579;Ball
RC2022_G2B_DeepImpact_2,3_PLAY_00384781_U.png;1657779202794;tkalbitz;Ball;328;346;349;444;Ball
RC2022_G2B_DeepImpact_2,3_PLAY_00519874_U.png;1657779207746;tkalbitz;Ball;458;403;405;489;Ball
RC2022_G2B_DeepImpact_2,3_PLAY_00543603_U.png;1657779213435;tkalbitz;Ball;175;184;184;225;Ball
RC2022_G2B_DeepImpact_2,3_PLAY_00552456_U.png;1657779219389;tkalbitz;Ball;397;127;371;124;Ball
RC2022_G2B_DeepImpact_2,3_PLAY_00563395_U.png;1657779224141;tkalbitz;Ball;389;124;396;148;Ball
RC2022_G2B_DeepImpact_2,3_PLAY_00566508_U.png;1657779227405;tkalbitz;Ball;394;87;425;81;Ball
RC2022_G2B_DeepImpact_2,3_PLAY_00622618_U.png;1657779230715;tkalbitz;Ball;319;125;304;140;Ball
RC2022_G2B_DeepImpact_2,3_PLAY_00625745_U.png;1657779234539;tkalbitz;Ball;206;147;204;169;Ball
RC2022_G2B_DeepImpact_2,3_SET_00138853_U.png;1657779254036;tkalbitz;Ball;227;82;206;84;Ball
RC2022_G2B_DeepImpact_2,3_SET_00332707_U.png;1657779258778;tkalbitz;Ball;38;387;-36;368;Ball
RC2022_G2B_DeepImpact_2,3_SET_00746144_U.png;1657779264214;tkalbitz;Ball;200;52;209;62;Ball
RC2022_G2B_Helios_2_PLAY_00167496_U.png;1657779274723;tkalbitz;Ball;298;112;299;136;Ball
RC2022_G2B_Helios_2_PLAY_00173342_U.png;1657779278133;tkalbitz;Ball;357;143;347;167;Ball
RC2022_G2B_Helios_2_PLAY_00179192_U.png;1657779284073;tkalbitz;Ball;347;219;368;250;Ball
RC2022_G2B_Helios_2_PLAY_00194573_U.png;1657779288615;tkalbitz;Ball;256;155;233;162;Ball
RC2022_G2B_Helios_2_PLAY_00224056_U.png;1657779295783;tkalbitz;Ball;310;357;387;407;Ball
RC2022_G2B_Helios_2_PLAY_00235363_U.png;1657779302164;tkalbitz;Ball;105;453;69;549;Ball
RC2022_G2B_Helios_2_PLAY_00386407_U.png;1657779317334;tkalbitz;Ball;327;128;324;141;Ball
RC2022_G2B_Helios_2_PLAY_00517953_U.png;1657779323117;tkalbitz;Ball;230;84;240;105;Ball
RC2022_G2B_Helios_2_PLAY_00546620_U.png;1657779327250;tkalbitz;Ball;285;317;338;368;Ball
RC2022_G2B_Helios_2_PLAY_00606933_U.png;1657779334596;tkalbitz;Ball;390;9;477;59;Ball
RC2022_G2B_Helios_2_PLAY_00631325_U.png;1657779344196;tkalbitz;Ball;333;280;337;324;Ball
RC2022_G2B_Helios_2_PLAY_00632419_U.png;1657779348602;tkalbitz;Ball;405;286;404;336;Ball
RC2022_G2B_Helios_2_PLAY_00636658_U.png;1657779352066;tkalbitz;Ball;290;240;269;270;Ball
RC2022_G2B_Helios_2_PLAY_00641854_U.png;1657779355644;tkalbitz;Ball;158;186;164;208;Ball
RC2022_G2B_Helios_2_PLAY_00670530_U.png;1657779359217;tkalbitz;Ball;608;28;611;43;Ball
RC2022_G2B_Pathfinder_PLAY_00162390_U.png;1657779366736;tkalbitz;Ball;144;447;199;535;Ball
RC2022_G2B_Pathfinder_PLAY_00165870_U.png;1657779371297;tkalbitz;Ball;253;82;271;85;Ball
RC2022_G2B_Pathfinder_PLAY_00171686_U.png;1657779376195;tkalbitz;Ball;314;92;331;99;Ball
RC2022_G2B_Pathfinder_PLAY_00180065_U.png;1657779382391;tkalbitz;Ball;350;125;363;138;Ball
RC2022_G2B_Pathfinder_PLAY_00195645_U.png;1657779390859;tkalbitz;Ball;426;58;422;71;Ball
RC2022_G2B_Pathfinder_PLAY_00204326_U.png;1657779395633;tkalbitz;Ball;178;14;176;25;Ball
RC2022_G2B_Pathfinder_PLAY_00207502_U.png;1657779401157;tkalbitz;Ball;540;5;549;15;Ball
RC2022_G2B_Pathfinder_PLAY_00215749_U.png;1657779407282;tkalbitz;Ball;249;60;257;71;Ball
RC2022_G2B_Pathfinder_PLAY_00221271_U.png;1657779411931;tkalbitz;Ball;287;69;280;80;Ball
RC2022_G2B_Pathfinder_PLAY_00222464_U.png;1657779415017;tkalbitz;Ball;289;72;298;82;Ball
RC2022_G2B_Pathfinder_PLAY_00223563_U.png;1657779420313;tkalbitz;Ball;299;65;296;77;Ball
RC2022_G2B_Pathfinder_PLAY_00224825_U.png;1657779424661;tkalbitz;Ball;414;68;423;81;Ball
RC2022_G2B_Pathfinder_PLAY_00230667_U.png;1657779428793;tkalbitz;Ball;391;69;399;82;Ball
RC2022_G2B_Pathfinder_PLAY_00236509_U.png;1657779433704;tkalbitz;Ball;397;59;388;71;Ball
RC2022_G2B_Pathfinder_PLAY_00355379_U.png;1657779437798;tkalbitz;Ball;310;61;325;80;Ball
RC2022_G2B_Pathfinder_PLAY_00365802_U.png;1657779441396;tkalbitz;Ball;266;129;309;129;Ball
RC2022_G2B_Pathfinder_PLAY_00384137_U.png;1657779445901;tkalbitz;Ball;257;71;211;123;Ball
RC2022_G2B_Pathfinder_PLAY_00407010_U.png;1657779450262;tkalbitz;Ball;502;49;493;80;Ball
RC2022_G2B_Pathfinder_SET_00145203_U.png;1657779463969;tkalbitz;Ball;294;83;304;99;Ball
RC2022_G2B_Pathfinder_SET_00152455_U.png;1657779468493;tkalbitz;Ball;357;174;313;194;Ball
RC2022_G2B_Pathfinder_SET_00330601_U.png;1657779471944;tkalbitz;Ball;293;152;297;173;Ball
RC2022_G2B_Pathfinder_SET_00341871_U.png;1657779475530;tkalbitz;Ball;351;126;335;150;Ball
RC2022_G2B_Pathfinder_SET_00512958_U.png;1657779484947;tkalbitz;Ball;293;236;324;259;Ball
RC2022_G2I_Pioneer_1,2,3_SET_00049505_U.png;1657779490159;tkalbitz;Ball;12;200;-7;202;Ball
RC2022_G2I_Pioneer_1,2,3_SET_00055346_U.png;1657779494287;tkalbitz;Ball;322;121;337;132;Ball
RC2022_G2I_Pioneer_1,2,3_SET_00061178_U.png;1657779497785;tkalbitz;Ball;326;132;313;145;Ball
RC2022_G2B_Dawn_5_PLAY_00783356_U.png;1657779160529;tkalbitz;Ignore
RC2022_G2B_Pathfinder_PLAY_00158428_U.png;1657779363882;tkalbitz;Ignore
RC2022_G2B_DeepImpact_2,3_PLAY_00653825_U.png;1657779250271;tkalbitz;NoBall
RC2022_G2B_Helios_2_PLAY_00156719_U.png;1657779272886;tkalbitz;NoBall
RC2022_G2B_Helios_2_PLAY_00359077_U.png;1657779314723;tkalbitz;NoBall
RC2022_G2B_Pathfinder_PLAY_00456819_U.png;1657779458531;tkalbitz;NoBall
RC2022_G2B_Pathfinder_READY_00105898_U.png;1657779461403;tkalbitz;NoBall
RC2022_G2B_Pathfinder_SET_00497838_U.png;1657779481946;tkalbitz;NoBall
RC2022_G2B_Helios_2_PLAY_00202136_U.png;1657779293949;tkalbitz;SkipBall
RC2022_G2B_Helios_2_PLAY_00561353_U.png;1657779330741;tkalbitz;SkipBall
RC2022_G2B_Helios_2_PLAY_00605566_U.png;1657779332704;tkalbitz;SkipBall
RC2022_G2B_Pathfinder_PLAY_00191982_U.png;1657779388298;tkalbitz;SkipBall
RC2022_G2J_Pioneer_1,2,3_SET_00007980_U.png;1657779504197;tkalbitz;SkipBall
