2016NaoLab5BallsG3A_3_00799051_L.png;1487365368006;tkalbitz;Ball;554;27;532;-86;Ball
2016NaoLab5BallsG3A_3_01026696_L.png;1562254741753;tkalbitz;Ball;488;17;489;-70;Ball
2016NaoLab5BallsG3A_3_00660282_L.png;1652368010292;tkalbitz;CenterCirclePoints;301;7;301;6;Left
2016NaoLab5BallsG3A_3_00662100_L.png;1652364807832;tkalbitz;CenterCirclePoints;268;98;268;98;Left
2016NaoLab5BallsG3A_3_00802580_L.png;1652364809298;tkalbitz;CenterCirclePoints;596;227;596;227;Left
2016NaoLab5BallsG3A_3_00806024_L.png;1652364810348;tkalbitz;CenterCirclePoints;299;165;299;165;Left
2016NaoLab5BallsG3A_3_00807755_L.png;1652364812690;tkalbitz;CenterCirclePoints;145;329;145;329;Left
2016NaoLab5BallsG3A_3_00812966_L.png;1652364813672;tkalbitz;CenterCirclePoints;337;203;328;208;Left
2016NaoLab5BallsG3A_3_00814774_L.png;1652364815211;tkalbitz;CenterCirclePoints;277;439;277;439;Left
2016NaoLab5BallsG3A_3_00818440_L.png;1652368012020;tkalbitz;CenterCirclePoints;43;447;43;447;Left
2016NaoLab5BallsG3A_3_00820284_L.png;1652364816288;tkalbitz;CenterCirclePoints;507;402;507;402;Right
2016NaoLab5BallsG3A_3_00822098_L.png;1652372142827;tkalbitz;CenterCirclePoints;282;124;282;124;Center
2016NaoLab5BallsG3A_3_00828998_L.png;1652364817512;tkalbitz;CenterCirclePoints;17;392;17;392;Left
2016NaoLab5BallsG3A_3_00830814_L.png;1652364818591;tkalbitz;CenterCirclePoints;105;247;105;247;Left
2016NaoLab5BallsG3A_3_00839517_L.png;1652364819764;tkalbitz;CenterCirclePoints;239;65;239;65;Left
2016NaoLab5BallsG3A_3_00841308_L.png;1652364820495;tkalbitz;CenterCirclePoints;225;171;225;171;Left
2016NaoLab5BallsG3A_3_00851891_L.png;1652368014119;tkalbitz;CenterCirclePoints;56;64;56;64;Center
2016NaoLab5BallsG3A_3_00853677_L.png;1652364821655;tkalbitz;CenterCirclePoints;363;449;363;449;Left
2016NaoLab5BallsG3A_3_00857255_L.png;1652364822689;tkalbitz;CenterCirclePoints;209;273;209;273;Left
2016NaoLab5BallsG3A_3_00859078_L.png;1652364823754;tkalbitz;CenterCirclePoints;298;144;298;144;Left
2016NaoLab5BallsG3A_3_00862637_L.png;1652364824805;tkalbitz;CenterCirclePoints;358;161;358;161;Left
2016NaoLab5BallsG3A_3_00864420_L.png;1652364825595;tkalbitz;CenterCirclePoints;322;184;322;184;Left
2016NaoLab5BallsG3A_3_00885511_L.png;1652364827072;tkalbitz;CenterCirclePoints;177;162;177;162;Center
2016NaoLab5BallsG3A_3_00961935_L.png;1652364828269;tkalbitz;CenterCirclePoints;159;21;159;21;Left
2016NaoLab5BallsG3A_3_00963690_L.png;1652364829387;tkalbitz;CenterCirclePoints;575;211;574;211;Left
2016NaoLab5BallsG3A_3_00965454_L.png;1652364830513;tkalbitz;CenterCirclePoints;192;453;192;453;Left
2016NaoLab5BallsG3A_3_00988212_L.png;1652364831577;tkalbitz;CenterCirclePoints;296;59;296;59;Left
2016NaoLab5BallsG3A_3_00989966_L.png;1652364832507;tkalbitz;CenterCirclePoints;240;343;240;343;Left
2016NaoLab5BallsG3A_3_01126359_L.png;1652364835015;tkalbitz;CenterCirclePoints;38;115;38;115;Right
2016NaoLab5BallsG3A_3_01128123_L.png;1652368019709;tkalbitz;CenterCirclePoints;2;245;2;245;Right
2016NaoLab5BallsG3A_3_01147315_L.png;1652364836375;tkalbitz;CenterCirclePoints;89;10;89;10;Right
2016NaoLab5BallsG3A_3_00600880_L.png;1562254736557;tkalbitz;Ignore
2016NaoLab5BallsG3A_3_00492128_L.png;1454525071687;175586236;NoBall
2016NaoLab5BallsG3A_3_00493961_L.png;1454525071687;175586236;NoBall
2016NaoLab5BallsG3A_3_00495779_L.png;1454525071687;175586236;NoBall
2016NaoLab5BallsG3A_3_00497566_L.png;1454525071687;175586236;NoBall
2016NaoLab5BallsG3A_3_00501293_L.png;1454525071687;175586236;NoBall
2016NaoLab5BallsG3A_3_00503142_L.png;1454525071687;175586236;NoBall
2016NaoLab5BallsG3A_3_00506741_L.png;1454525071687;175586236;NoBall
2016NaoLab5BallsG3A_3_00508553_L.png;1454525071687;175586236;NoBall
2016NaoLab5BallsG3A_3_00510281_L.png;1454525071687;175586236;NoBall
2016NaoLab5BallsG3A_3_00511997_L.png;1454525071697;175586236;NoBall
2016NaoLab5BallsG3A_3_00513696_L.png;1454525071697;175586236;NoBall
2016NaoLab5BallsG3A_3_00515404_L.png;1454525071697;175586236;NoBall
2016NaoLab5BallsG3A_3_00517100_L.png;1454525071697;175586236;NoBall
2016NaoLab5BallsG3A_3_00518822_L.png;1454525071697;175586236;NoBall
2016NaoLab5BallsG3A_3_00520597_L.png;1454525071697;175586236;NoBall
2016NaoLab5BallsG3A_3_00522353_L.png;1454525071697;175586236;NoBall
2016NaoLab5BallsG3A_3_00524079_L.png;1454525071697;175586236;NoBall
2016NaoLab5BallsG3A_3_00525779_L.png;1454525071697;175586236;NoBall
2016NaoLab5BallsG3A_3_00527460_L.png;1454525071697;175586236;NoBall
2016NaoLab5BallsG3A_3_00530866_L.png;1454525071697;175586236;NoBall
2016NaoLab5BallsG3A_3_00532588_L.png;1454525071697;175586236;NoBall
2016NaoLab5BallsG3A_3_00534328_L.png;1454525071697;175586236;NoBall
2016NaoLab5BallsG3A_3_00536178_L.png;1454525071697;175586236;NoBall
2016NaoLab5BallsG3A_3_00537985_L.png;1454525071697;175586236;NoBall
2016NaoLab5BallsG3A_3_00539817_L.png;1454525071697;175586236;NoBall
2016NaoLab5BallsG3A_3_00541665_L.png;1454525071697;175586236;NoBall
2016NaoLab5BallsG3A_3_00543413_L.png;1454525071697;175586236;NoBall
2016NaoLab5BallsG3A_3_00545118_L.png;1454525071697;175586236;NoBall
2016NaoLab5BallsG3A_3_00546827_L.png;1454525071697;175586236;NoBall
2016NaoLab5BallsG3A_3_00548577_L.png;1454525071697;175586236;NoBall
2016NaoLab5BallsG3A_3_00550296_L.png;1454525071697;175586236;NoBall
2016NaoLab5BallsG3A_3_00552001_L.png;1454525071697;175586236;NoBall
2016NaoLab5BallsG3A_3_00553772_L.png;1454525071697;175586236;NoBall
2016NaoLab5BallsG3A_3_00555569_L.png;1454525071697;175586236;NoBall
2016NaoLab5BallsG3A_3_00557347_L.png;1454525071697;175586236;NoBall
2016NaoLab5BallsG3A_3_00559114_L.png;1454525071697;175586236;NoBall
2016NaoLab5BallsG3A_3_00560835_L.png;1454525071697;175586236;NoBall
2016NaoLab5BallsG3A_3_00562539_L.png;1454525071697;175586236;NoBall
2016NaoLab5BallsG3A_3_00564230_L.png;1454525071697;175586236;NoBall
2016NaoLab5BallsG3A_3_00565952_L.png;1454525071697;175586236;NoBall
2016NaoLab5BallsG3A_3_00567686_L.png;1454525071697;175586236;NoBall
2016NaoLab5BallsG3A_3_00569397_L.png;1454525071697;175586236;NoBall
2016NaoLab5BallsG3A_3_00571160_L.png;1454525071697;175586236;NoBall
2016NaoLab5BallsG3A_3_00573012_L.png;1454525071697;175586236;NoBall
2016NaoLab5BallsG3A_3_00574840_L.png;1454525071697;175586236;NoBall
2016NaoLab5BallsG3A_3_00576621_L.png;1454525071697;175586236;NoBall
2016NaoLab5BallsG3A_3_00578360_L.png;1454525071697;175586236;NoBall
2016NaoLab5BallsG3A_3_00580115_L.png;1454525071697;175586236;NoBall
2016NaoLab5BallsG3A_3_00581852_L.png;1454525071697;175586236;NoBall
2016NaoLab5BallsG3A_3_00583526_L.png;1454525071697;175586236;NoBall
2016NaoLab5BallsG3A_3_00585207_L.png;1454525071697;175586236;NoBall
2016NaoLab5BallsG3A_3_00586936_L.png;1454525071697;175586236;NoBall
2016NaoLab5BallsG3A_3_00588654_L.png;1454525071707;175586236;NoBall
2016NaoLab5BallsG3A_3_00590446_L.png;1454525071707;175586236;NoBall
2016NaoLab5BallsG3A_3_00592240_L.png;1454525071707;175586236;NoBall
2016NaoLab5BallsG3A_3_00593991_L.png;1454525071707;175586236;NoBall
2016NaoLab5BallsG3A_3_00595730_L.png;1454525071707;175586236;NoBall
2016NaoLab5BallsG3A_3_00597435_L.png;1454525071707;175586236;NoBall
2016NaoLab5BallsG3A_3_00599168_L.png;1454525071707;175586236;NoBall
2016NaoLab5BallsG3A_3_00602610_L.png;1454525071707;175586236;NoBall
2016NaoLab5BallsG3A_3_00604315_L.png;1454525071707;175586236;NoBall
2016NaoLab5BallsG3A_3_00606082_L.png;1454525071707;175586236;NoBall
2016NaoLab5BallsG3A_3_00607831_L.png;1454525071707;175586236;NoBall
2016NaoLab5BallsG3A_3_00609600_L.png;1454525071707;175586236;NoBall
2016NaoLab5BallsG3A_3_00611364_L.png;1454525071707;175586236;NoBall
2016NaoLab5BallsG3A_3_00613109_L.png;1454525071707;175586236;NoBall
2016NaoLab5BallsG3A_3_00614780_L.png;1454525071707;175586236;NoBall
2016NaoLab5BallsG3A_3_00616488_L.png;1454525071707;175586236;NoBall
2016NaoLab5BallsG3A_3_00618259_L.png;1454525071707;175586236;NoBall
2016NaoLab5BallsG3A_3_00620037_L.png;1454525071707;175586236;NoBall
2016NaoLab5BallsG3A_3_00621789_L.png;1454525071707;175586236;NoBall
2016NaoLab5BallsG3A_3_00623546_L.png;1454525071707;175586236;NoBall
2016NaoLab5BallsG3A_3_00625269_L.png;1454525071707;175586236;NoBall
2016NaoLab5BallsG3A_3_00627033_L.png;1454525071707;175586236;NoBall
2016NaoLab5BallsG3A_3_00630590_L.png;1454525071707;175586236;NoBall
2016NaoLab5BallsG3A_3_00639252_L.png;1454525071707;175586236;NoBall
2016NaoLab5BallsG3A_3_00641047_L.png;1454525071707;175586236;NoBall
2016NaoLab5BallsG3A_3_00642823_L.png;1454525071707;175586236;NoBall
2016NaoLab5BallsG3A_3_00644586_L.png;1454525071707;175586236;NoBall
2016NaoLab5BallsG3A_3_00646351_L.png;1454525071707;175586236;NoBall
2016NaoLab5BallsG3A_3_00648075_L.png;1454525071707;175586236;NoBall
2016NaoLab5BallsG3A_3_00649793_L.png;1454525071707;175586236;NoBall
2016NaoLab5BallsG3A_3_00651459_L.png;1454525071707;175586236;NoBall
2016NaoLab5BallsG3A_3_00656714_L.png;1454525071707;175586236;NoBall
2016NaoLab5BallsG3A_3_00658462_L.png;1454525071707;175586236;NoBall
2016NaoLab5BallsG3A_3_00660282_L.png;1454525071707;175586236;NoBall
2016NaoLab5BallsG3A_3_00662100_L.png;1454525071707;175586236;NoBall
2016NaoLab5BallsG3A_3_00674379_L.png;1454525071707;175586236;NoBall
2016NaoLab5BallsG3A_3_00676106_L.png;1454525071707;175586236;NoBall
2016NaoLab5BallsG3A_3_00677878_L.png;1454525071707;175586236;NoBall
2016NaoLab5BallsG3A_3_00679600_L.png;1454525071707;175586236;NoBall
2016NaoLab5BallsG3A_3_00681305_L.png;1454525071707;175586236;NoBall
2016NaoLab5BallsG3A_3_00683015_L.png;1454525071707;175586236;NoBall
2016NaoLab5BallsG3A_3_00684708_L.png;1454525071707;175586236;NoBall
2016NaoLab5BallsG3A_3_00686443_L.png;1454525071707;175586236;NoBall
2016NaoLab5BallsG3A_3_00688157_L.png;1454525071707;175586236;NoBall
2016NaoLab5BallsG3A_3_00689845_L.png;1454525071707;175586236;NoBall
2016NaoLab5BallsG3A_3_00691561_L.png;1454525071707;175586236;NoBall
2016NaoLab5BallsG3A_3_00695139_L.png;1454525071717;175586236;NoBall
2016NaoLab5BallsG3A_3_00705764_L.png;1454525071717;175586236;NoBall
2016NaoLab5BallsG3A_3_00707472_L.png;1454525071717;175586236;NoBall
2016NaoLab5BallsG3A_3_00709176_L.png;1454525071717;175586236;NoBall
2016NaoLab5BallsG3A_3_00724811_L.png;1454525071717;175586236;NoBall
2016NaoLab5BallsG3A_3_00726491_L.png;1454525071717;175586236;NoBall
2016NaoLab5BallsG3A_3_00728177_L.png;1454525071717;175586236;NoBall
2016NaoLab5BallsG3A_3_00729907_L.png;1454525071717;175586236;NoBall
2016NaoLab5BallsG3A_3_00731694_L.png;1454525071717;175586236;NoBall
2016NaoLab5BallsG3A_3_00733409_L.png;1454525071717;175586236;NoBall
2016NaoLab5BallsG3A_3_00735125_L.png;1454525071717;175586236;NoBall
2016NaoLab5BallsG3A_3_00736915_L.png;1454525071717;175586236;NoBall
2016NaoLab5BallsG3A_3_00738654_L.png;1454525071717;175586236;NoBall
2016NaoLab5BallsG3A_3_00740344_L.png;1454525071717;175586236;NoBall
2016NaoLab5BallsG3A_3_00742044_L.png;1454525071717;175586236;NoBall
2016NaoLab5BallsG3A_3_00743839_L.png;1454525071717;175586236;NoBall
2016NaoLab5BallsG3A_3_00745588_L.png;1454525071717;175586236;NoBall
2016NaoLab5BallsG3A_3_00747373_L.png;1454525071717;175586236;NoBall
2016NaoLab5BallsG3A_3_00749105_L.png;1454525071717;175586236;NoBall
2016NaoLab5BallsG3A_3_00750876_L.png;1454525071717;175586236;NoBall
2016NaoLab5BallsG3A_3_00752557_L.png;1454525071717;175586236;NoBall
2016NaoLab5BallsG3A_3_00754262_L.png;1454525071717;175586236;NoBall
2016NaoLab5BallsG3A_3_00755931_L.png;1454525071717;175586236;NoBall
2016NaoLab5BallsG3A_3_00757599_L.png;1454525071717;175586236;NoBall
2016NaoLab5BallsG3A_3_00759307_L.png;1454525071717;175586236;NoBall
2016NaoLab5BallsG3A_3_00761064_L.png;1454525071717;175586236;NoBall
2016NaoLab5BallsG3A_3_00762786_L.png;1454525071717;175586236;NoBall
2016NaoLab5BallsG3A_3_00764505_L.png;1454525071717;175586236;NoBall
2016NaoLab5BallsG3A_3_00766232_L.png;1454525071717;175586236;NoBall
2016NaoLab5BallsG3A_3_00767985_L.png;1454525071717;175586236;NoBall
2016NaoLab5BallsG3A_3_00769652_L.png;1454525071717;175586236;NoBall
2016NaoLab5BallsG3A_3_00771327_L.png;1454525071717;175586236;NoBall
2016NaoLab5BallsG3A_3_00773016_L.png;1454525071717;175586236;NoBall
2016NaoLab5BallsG3A_3_00774798_L.png;1454525071717;175586236;NoBall
2016NaoLab5BallsG3A_3_00776541_L.png;1454525071717;175586236;NoBall
2016NaoLab5BallsG3A_3_00778267_L.png;1454525071717;175586236;NoBall
2016NaoLab5BallsG3A_3_00780065_L.png;1454525071717;175586236;NoBall
2016NaoLab5BallsG3A_3_00781846_L.png;1454525071717;175586236;NoBall
2016NaoLab5BallsG3A_3_00783601_L.png;1454525071717;175586236;NoBall
2016NaoLab5BallsG3A_3_00785310_L.png;1454525071717;175586236;NoBall
2016NaoLab5BallsG3A_3_00787015_L.png;1454525071717;175586236;NoBall
2016NaoLab5BallsG3A_3_00788733_L.png;1454525071717;175586236;NoBall
2016NaoLab5BallsG3A_3_00800811_L.png;1454525071717;175586236;NoBall
2016NaoLab5BallsG3A_3_00802580_L.png;1454525071717;175586236;NoBall
2016NaoLab5BallsG3A_3_00806024_L.png;1454525071717;175586236;NoBall
2016NaoLab5BallsG3A_3_00807755_L.png;1454525071717;175586236;NoBall
2016NaoLab5BallsG3A_3_00809465_L.png;1454525071717;175586236;NoBall
2016NaoLab5BallsG3A_3_00811193_L.png;1454525071717;175586236;NoBall
2016NaoLab5BallsG3A_3_00812966_L.png;1454525071717;175586236;NoBall
2016NaoLab5BallsG3A_3_00814774_L.png;1454525071717;175586236;NoBall
2016NaoLab5BallsG3A_3_00816613_L.png;1454525071717;175586236;NoBall
2016NaoLab5BallsG3A_3_00818440_L.png;1454525071717;175586236;NoBall
2016NaoLab5BallsG3A_3_00820284_L.png;1454525071717;175586236;NoBall
2016NaoLab5BallsG3A_3_00822098_L.png;1454525071717;175586236;NoBall
2016NaoLab5BallsG3A_3_00823889_L.png;1454525071727;175586236;NoBall
2016NaoLab5BallsG3A_3_00825587_L.png;1454525071727;175586236;NoBall
2016NaoLab5BallsG3A_3_00827249_L.png;1454525071727;175586236;NoBall
2016NaoLab5BallsG3A_3_00828998_L.png;1454525071727;175586236;NoBall
2016NaoLab5BallsG3A_3_00830814_L.png;1454525071727;175586236;NoBall
2016NaoLab5BallsG3A_3_00832603_L.png;1454525071727;175586236;NoBall
2016NaoLab5BallsG3A_3_00837782_L.png;1454525071727;175586236;NoBall
2016NaoLab5BallsG3A_3_00839517_L.png;1454525071727;175586236;NoBall
2016NaoLab5BallsG3A_3_00841308_L.png;1454525071727;175586236;NoBall
2016NaoLab5BallsG3A_3_00843028_L.png;1454525071727;175586236;NoBall
2016NaoLab5BallsG3A_3_00844746_L.png;1454525071727;175586236;NoBall
2016NaoLab5BallsG3A_3_00846490_L.png;1454525071727;175586236;NoBall
2016NaoLab5BallsG3A_3_00848330_L.png;1454525071727;175586236;NoBall
2016NaoLab5BallsG3A_3_00850105_L.png;1454525071727;175586236;NoBall
2016NaoLab5BallsG3A_3_00851891_L.png;1454525071727;175586236;NoBall
2016NaoLab5BallsG3A_3_00853677_L.png;1454525071727;175586236;NoBall
2016NaoLab5BallsG3A_3_00855470_L.png;1454525071727;175586236;NoBall
2016NaoLab5BallsG3A_3_00857255_L.png;1454525071727;175586236;NoBall
2016NaoLab5BallsG3A_3_00859078_L.png;1454525071727;175586236;NoBall
2016NaoLab5BallsG3A_3_00860899_L.png;1454525071727;175586236;NoBall
2016NaoLab5BallsG3A_3_00862637_L.png;1454525071727;175586236;NoBall
2016NaoLab5BallsG3A_3_00864420_L.png;1454525071727;175586236;NoBall
2016NaoLab5BallsG3A_3_00866243_L.png;1454525071727;175586236;NoBall
2016NaoLab5BallsG3A_3_00868051_L.png;1454525071727;175586236;NoBall
2016NaoLab5BallsG3A_3_00869771_L.png;1454525071727;175586236;NoBall
2016NaoLab5BallsG3A_3_00871486_L.png;1454525071727;175586236;NoBall
2016NaoLab5BallsG3A_3_00873204_L.png;1454525071727;175586236;NoBall
2016NaoLab5BallsG3A_3_00885511_L.png;1454525071727;175586236;NoBall
2016NaoLab5BallsG3A_3_00887300_L.png;1454525071727;175586236;NoBall
2016NaoLab5BallsG3A_3_00888966_L.png;1454525071727;175586236;NoBall
2016NaoLab5BallsG3A_3_00890701_L.png;1454525071727;175586236;NoBall
2016NaoLab5BallsG3A_3_00892419_L.png;1454525071727;175586236;NoBall
2016NaoLab5BallsG3A_3_00894202_L.png;1454525071727;175586236;NoBall
2016NaoLab5BallsG3A_3_00895961_L.png;1454525071727;175586236;NoBall
2016NaoLab5BallsG3A_3_00897770_L.png;1454525071727;175586236;NoBall
2016NaoLab5BallsG3A_3_00899583_L.png;1454525071727;175586236;NoBall
2016NaoLab5BallsG3A_3_00901404_L.png;1454525071727;175586236;NoBall
2016NaoLab5BallsG3A_3_00903195_L.png;1454525071727;175586236;NoBall
2016NaoLab5BallsG3A_3_00904947_L.png;1454525071727;175586236;NoBall
2016NaoLab5BallsG3A_3_00906664_L.png;1454525071727;175586236;NoBall
2016NaoLab5BallsG3A_3_00908392_L.png;1454525071727;175586236;NoBall
2016NaoLab5BallsG3A_3_00910090_L.png;1454525071727;175586236;NoBall
2016NaoLab5BallsG3A_3_00911750_L.png;1454525071727;175586236;NoBall
2016NaoLab5BallsG3A_3_00913475_L.png;1454525071727;175586236;NoBall
2016NaoLab5BallsG3A_3_00915176_L.png;1454525071727;175586236;NoBall
2016NaoLab5BallsG3A_3_00916888_L.png;1454525071727;175586236;NoBall
2016NaoLab5BallsG3A_3_00918661_L.png;1454525071737;175586236;NoBall
2016NaoLab5BallsG3A_3_00920429_L.png;1454525071737;175586236;NoBall
2016NaoLab5BallsG3A_3_00922134_L.png;1454525071737;175586236;NoBall
2016NaoLab5BallsG3A_3_00923802_L.png;1454525071737;175586236;NoBall
2016NaoLab5BallsG3A_3_00925518_L.png;1454525071737;175586236;NoBall
2016NaoLab5BallsG3A_3_00927222_L.png;1454525071737;175586236;NoBall
2016NaoLab5BallsG3A_3_00928904_L.png;1454525071737;175586236;NoBall
2016NaoLab5BallsG3A_3_00930603_L.png;1454525071737;175586236;NoBall
2016NaoLab5BallsG3A_3_00932339_L.png;1454525071737;175586236;NoBall
2016NaoLab5BallsG3A_3_00934136_L.png;1454525071737;175586236;NoBall
2016NaoLab5BallsG3A_3_00935950_L.png;1454525071737;175586236;NoBall
2016NaoLab5BallsG3A_3_00937657_L.png;1454525071737;175586236;NoBall
2016NaoLab5BallsG3A_3_00939430_L.png;1454525071737;175586236;NoBall
2016NaoLab5BallsG3A_3_00941223_L.png;1454525071737;175586236;NoBall
2016NaoLab5BallsG3A_3_00942908_L.png;1454525071737;175586236;NoBall
2016NaoLab5BallsG3A_3_00944649_L.png;1454525071737;175586236;NoBall
2016NaoLab5BallsG3A_3_00946336_L.png;1454525071737;175586236;NoBall
2016NaoLab5BallsG3A_3_00948047_L.png;1454525071737;175586236;NoBall
2016NaoLab5BallsG3A_3_00949761_L.png;1454525071737;175586236;NoBall
2016NaoLab5BallsG3A_3_00951496_L.png;1454525071737;175586236;NoBall
2016NaoLab5BallsG3A_3_00953357_L.png;1454525071737;175586236;NoBall
2016NaoLab5BallsG3A_3_00955119_L.png;1454525071737;175586236;NoBall
2016NaoLab5BallsG3A_3_00956860_L.png;1454525071737;175586236;NoBall
2016NaoLab5BallsG3A_3_00958507_L.png;1454525071737;175586236;NoBall
2016NaoLab5BallsG3A_3_00960191_L.png;1454525071737;175586236;NoBall
2016NaoLab5BallsG3A_3_00961935_L.png;1454525071737;175586236;NoBall
2016NaoLab5BallsG3A_3_00963690_L.png;1454525071737;175586236;NoBall
2016NaoLab5BallsG3A_3_00965454_L.png;1454525071737;175586236;NoBall
2016NaoLab5BallsG3A_3_00967286_L.png;1454525071737;175586236;NoBall
2016NaoLab5BallsG3A_3_00969091_L.png;1454525071737;175586236;NoBall
2016NaoLab5BallsG3A_3_00970818_L.png;1454525071737;175586236;NoBall
2016NaoLab5BallsG3A_3_00972530_L.png;1454525071737;175586236;NoBall
2016NaoLab5BallsG3A_3_00974296_L.png;1454525071737;175586236;NoBall
2016NaoLab5BallsG3A_3_00976089_L.png;1454525071737;175586236;NoBall
2016NaoLab5BallsG3A_3_00977794_L.png;1454525071737;175586236;NoBall
2016NaoLab5BallsG3A_3_00979457_L.png;1454525071737;175586236;NoBall
2016NaoLab5BallsG3A_3_00981166_L.png;1454525071737;175586236;NoBall
2016NaoLab5BallsG3A_3_00982874_L.png;1454525071737;175586236;NoBall
2016NaoLab5BallsG3A_3_00984622_L.png;1454525071737;175586236;NoBall
2016NaoLab5BallsG3A_3_00986393_L.png;1454525071737;175586236;NoBall
2016NaoLab5BallsG3A_3_00988212_L.png;1454525071737;175586236;NoBall
2016NaoLab5BallsG3A_3_00989966_L.png;1454525071737;175586236;NoBall
2016NaoLab5BallsG3A_3_00991713_L.png;1454525071737;175586236;NoBall
2016NaoLab5BallsG3A_3_00993409_L.png;1454525071737;175586236;NoBall
2016NaoLab5BallsG3A_3_00995117_L.png;1454525071737;175586236;NoBall
2016NaoLab5BallsG3A_3_00996816_L.png;1454525071737;175586236;NoBall
2016NaoLab5BallsG3A_3_00998516_L.png;1454525071737;175586236;NoBall
2016NaoLab5BallsG3A_3_01000222_L.png;1454525071737;175586236;NoBall
2016NaoLab5BallsG3A_3_01001996_L.png;1454525071737;175586236;NoBall
2016NaoLab5BallsG3A_3_01003851_L.png;1454525071737;175586236;NoBall
2016NaoLab5BallsG3A_3_01005670_L.png;1454525071737;175586236;NoBall
2016NaoLab5BallsG3A_3_01007425_L.png;1454525071737;175586236;NoBall
2016NaoLab5BallsG3A_3_01009229_L.png;1454525071737;175586236;NoBall
2016NaoLab5BallsG3A_3_01011022_L.png;1454525071737;175586236;NoBall
2016NaoLab5BallsG3A_3_01012770_L.png;1454525071737;175586236;NoBall
2016NaoLab5BallsG3A_3_01014555_L.png;1454525071737;175586236;NoBall
2016NaoLab5BallsG3A_3_01016270_L.png;1454525071737;175586236;NoBall
2016NaoLab5BallsG3A_3_01017906_L.png;1454525071737;175586236;NoBall
2016NaoLab5BallsG3A_3_01019642_L.png;1454525071737;175586236;NoBall
2016NaoLab5BallsG3A_3_01021409_L.png;1454525071737;175586236;NoBall
2016NaoLab5BallsG3A_3_01023195_L.png;1454525071747;175586236;NoBall
2016NaoLab5BallsG3A_3_01024944_L.png;1454525071747;175586236;NoBall
2016NaoLab5BallsG3A_3_01028439_L.png;1454525071747;175586236;NoBall
2016NaoLab5BallsG3A_3_01030123_L.png;1454525071747;175586236;NoBall
2016NaoLab5BallsG3A_3_01046068_L.png;1454525071747;175586236;NoBall
2016NaoLab5BallsG3A_3_01051461_L.png;1454525071747;175586236;NoBall
2016NaoLab5BallsG3A_3_01053233_L.png;1454525071747;175586236;NoBall
2016NaoLab5BallsG3A_3_01074319_L.png;1454525071747;175586236;NoBall
2016NaoLab5BallsG3A_3_01076075_L.png;1454525071747;175586236;NoBall
2016NaoLab5BallsG3A_3_01077794_L.png;1454525071747;175586236;NoBall
2016NaoLab5BallsG3A_3_01079493_L.png;1454525071747;175586236;NoBall
2016NaoLab5BallsG3A_3_01081214_L.png;1454525071747;175586236;NoBall
2016NaoLab5BallsG3A_3_01082948_L.png;1454525071747;175586236;NoBall
2016NaoLab5BallsG3A_3_01084729_L.png;1454525071747;175586236;NoBall
2016NaoLab5BallsG3A_3_01086505_L.png;1454525071747;175586236;NoBall
2016NaoLab5BallsG3A_3_01088188_L.png;1454525071747;175586236;NoBall
2016NaoLab5BallsG3A_3_01089936_L.png;1454525071747;175586236;NoBall
2016NaoLab5BallsG3A_3_01091688_L.png;1454525071747;175586236;NoBall
2016NaoLab5BallsG3A_3_01093419_L.png;1454525071747;175586236;NoBall
2016NaoLab5BallsG3A_3_01095164_L.png;1454525071747;175586236;NoBall
2016NaoLab5BallsG3A_3_01096862_L.png;1454525071747;175586236;NoBall
2016NaoLab5BallsG3A_3_01098555_L.png;1454525071747;175586236;NoBall
2016NaoLab5BallsG3A_3_01100215_L.png;1454525071747;175586236;NoBall
2016NaoLab5BallsG3A_3_01101907_L.png;1454525071747;175586236;NoBall
2016NaoLab5BallsG3A_3_01105295_L.png;1454525071747;175586236;NoBall
2016NaoLab5BallsG3A_3_01107037_L.png;1454525071747;175586236;NoBall
2016NaoLab5BallsG3A_3_01108837_L.png;1454525071747;175586236;NoBall
2016NaoLab5BallsG3A_3_01110596_L.png;1454525071747;175586236;NoBall
2016NaoLab5BallsG3A_3_01112355_L.png;1454525071747;175586236;NoBall
2016NaoLab5BallsG3A_3_01114099_L.png;1454525071747;175586236;NoBall
2016NaoLab5BallsG3A_3_01115769_L.png;1454525071747;175586236;NoBall
2016NaoLab5BallsG3A_3_01117516_L.png;1454525071747;175586236;NoBall
2016NaoLab5BallsG3A_3_01119282_L.png;1454525071747;175586236;NoBall
2016NaoLab5BallsG3A_3_01121050_L.png;1454525071747;175586236;NoBall
2016NaoLab5BallsG3A_3_01122859_L.png;1454525071747;175586236;NoBall
2016NaoLab5BallsG3A_3_01124621_L.png;1454525071747;175586236;NoBall
2016NaoLab5BallsG3A_3_01126359_L.png;1454525071747;175586236;NoBall
2016NaoLab5BallsG3A_3_01128123_L.png;1454525071747;175586236;NoBall
2016NaoLab5BallsG3A_3_01142196_L.png;1454525071747;175586236;NoBall
2016NaoLab5BallsG3A_3_01143914_L.png;1454525071747;175586236;NoBall
2016NaoLab5BallsG3A_3_01145648_L.png;1454525071747;175586236;NoBall
2016NaoLab5BallsG3A_3_01147315_L.png;1454525071747;175586236;NoBall
2016NaoLab5BallsG3A_3_01148983_L.png;1454525071747;175586236;NoBall
2016NaoLab5BallsG3A_3_01150668_L.png;1454525071747;175586236;NoBall
2016NaoLab5BallsG3A_3_01152332_L.png;1454525071747;175586236;NoBall
2016NaoLab5BallsG3A_3_01154031_L.png;1454525071747;175586236;NoBall
2016NaoLab5BallsG3A_3_01157507_L.png;1454525071747;175586236;NoBall
2016NaoLab5BallsG3A_3_01159253_L.png;1454525071747;175586236;NoBall
2016NaoLab5BallsG3A_3_01161071_L.png;1454525071747;175586236;NoBall
2016NaoLab5BallsG3A_3_01162842_L.png;1454525071747;175586236;NoBall
2016NaoLab5BallsG3A_3_01164674_L.png;1454525071747;175586236;NoBall
2016NaoLab5BallsG3A_3_01166511_L.png;1454525071747;175586236;NoBall
2016NaoLab5BallsG3A_3_01168216_L.png;1454525071747;175586236;NoBall
2016NaoLab5BallsG3A_3_01169986_L.png;1454525071747;175586236;NoBall
2016NaoLab5BallsG3A_3_01171704_L.png;1454525071747;175586236;NoBall
2016NaoLab5BallsG3A_3_01173428_L.png;1454525071747;175586236;NoBall
2016NaoLab5BallsG3A_3_01175144_L.png;1454525071747;175586236;NoBall
2016NaoLab5BallsG3A_3_01176885_L.png;1454525071747;175586236;NoBall
2016NaoLab5BallsG3A_3_01178701_L.png;1454525071747;175586236;NoBall
2016NaoLab5BallsG3A_3_01180437_L.png;1454525071747;175586236;NoBall
2016NaoLab5BallsG3A_3_01190902_L.png;1454525071747;175586236;NoBall
2016NaoLab5BallsG3A_3_01192683_L.png;1454525071747;175586236;NoBall
2016NaoLab5BallsG3A_3_01194486_L.png;1454525071757;175586236;NoBall
2016NaoLab5BallsG3A_3_01196304_L.png;1454525071757;175586236;NoBall
2016NaoLab5BallsG3A_3_01198058_L.png;1454525071757;175586236;NoBall
2016NaoLab5BallsG3A_3_01199850_L.png;1454525071757;175586236;NoBall
2016NaoLab5BallsG3A_3_01201664_L.png;1454525071757;175586236;NoBall
2016NaoLab5BallsG3A_3_01203430_L.png;1454525071757;175586236;NoBall
2016NaoLab5BallsG3A_3_01205205_L.png;1454525071757;175586236;NoBall
2016NaoLab5BallsG3A_3_01206957_L.png;1454525071757;175586236;NoBall
2016NaoLab5BallsG3A_3_01208715_L.png;1454525071757;175586236;NoBall
2016NaoLab5BallsG3A_3_01210461_L.png;1454525071757;175586236;NoBall
2016NaoLab5BallsG3A_3_01212232_L.png;1454525071757;175586236;NoBall
2016NaoLab5BallsG3A_3_01214112_L.png;1454525071757;175586236;NoBall
2016NaoLab5BallsG3A_3_01215876_L.png;1454525071757;175586236;NoBall
2016NaoLab5BallsG3A_3_01217641_L.png;1454525071757;175586236;NoBall
2016NaoLab5BallsG3A_3_01224523_L.png;1454525071757;175586236;NoBall
2016NaoLab5BallsG3A_3_01226243_L.png;1454525071757;175586236;NoBall
2016NaoLab5BallsG3A_3_01227981_L.png;1454525071757;175586236;NoBall
2016NaoLab5BallsG3A_3_01229708_L.png;1454525071757;175586236;NoBall
2016NaoLab5BallsG3A_3_01231457_L.png;1454525071757;175586236;NoBall
2016NaoLab5BallsG3A_3_01233195_L.png;1454525071757;175586236;NoBall
2016NaoLab5BallsG3A_3_01234926_L.png;1454525071757;175586236;NoBall
2016NaoLab5BallsG3A_3_01238311_L.png;1454525071757;175586236;NoBall
2016NaoLab5BallsG3A_3_01248871_L.png;1454525071757;175586236;NoBall
2016NaoLab5BallsG3A_3_01250594_L.png;1454525071757;175586236;NoBall
2016NaoLab5BallsG3A_3_01252362_L.png;1454525071757;175586236;NoBall
2016NaoLab5BallsG3A_3_01254069_L.png;1454525071757;175586236;NoBall
2016NaoLab5BallsG3A_3_01255803_L.png;1454525071757;175586236;NoBall
2016NaoLab5BallsG3A_3_01257577_L.png;1454525071757;175586236;NoBall
2016NaoLab5BallsG3A_3_01259363_L.png;1454525071757;175586236;NoBall
2016NaoLab5BallsG3A_3_01261080_L.png;1454525071757;175586236;NoBall
2016NaoLab5BallsG3A_3_01262845_L.png;1454525071757;175586236;NoBall
2016NaoLab5BallsG3A_3_01264633_L.png;1454525071757;175586236;NoBall
2016NaoLab5BallsG3A_3_01266494_L.png;1454525071757;175586236;NoBall
2016NaoLab5BallsG3A_3_00495779_L.png;1652891632182;tkalbitz;NoCenterCirclePoints
2016NaoLab5BallsG3A_3_00501293_L.png;1652736124786;tkalbitz;NoCenterCirclePoints
2016NaoLab5BallsG3A_3_00508553_L.png;1652772528443;FalseGenerator;NoCenterCirclePoints
2016NaoLab5BallsG3A_3_00515404_L.png;1652772528443;FalseGenerator;NoCenterCirclePoints
2016NaoLab5BallsG3A_3_00537985_L.png;1652772528443;FalseGenerator;NoCenterCirclePoints
2016NaoLab5BallsG3A_3_00545118_L.png;1652772528443;FalseGenerator;NoCenterCirclePoints
2016NaoLab5BallsG3A_3_00546827_L.png;1652772528443;FalseGenerator;NoCenterCirclePoints
2016NaoLab5BallsG3A_3_00548577_L.png;1652772528443;FalseGenerator;NoCenterCirclePoints
2016NaoLab5BallsG3A_3_00550296_L.png;1652368007281;tkalbitz;NoCenterCirclePoints
2016NaoLab5BallsG3A_3_00552001_L.png;1652368007928;tkalbitz;NoCenterCirclePoints
2016NaoLab5BallsG3A_3_00553772_L.png;1652772528443;FalseGenerator;NoCenterCirclePoints
2016NaoLab5BallsG3A_3_00555569_L.png;1652368008522;tkalbitz;NoCenterCirclePoints
2016NaoLab5BallsG3A_3_00557347_L.png;1652772528443;FalseGenerator;NoCenterCirclePoints
2016NaoLab5BallsG3A_3_00559114_L.png;1652772528443;FalseGenerator;NoCenterCirclePoints
2016NaoLab5BallsG3A_3_00560835_L.png;1652772528443;FalseGenerator;NoCenterCirclePoints
2016NaoLab5BallsG3A_3_00580115_L.png;1652772528443;FalseGenerator;NoCenterCirclePoints
2016NaoLab5BallsG3A_3_00581852_L.png;1652772528443;FalseGenerator;NoCenterCirclePoints
2016NaoLab5BallsG3A_3_00599168_L.png;1652808874770;tkalbitz;NoCenterCirclePoints
2016NaoLab5BallsG3A_3_00602610_L.png;1652891113531;tkalbitz;NoCenterCirclePoints
2016NaoLab5BallsG3A_3_00639252_L.png;1652477261269;tkalbitz;NoCenterCirclePoints
2016NaoLab5BallsG3A_3_00641047_L.png;1652772528443;FalseGenerator;NoCenterCirclePoints
2016NaoLab5BallsG3A_3_00642823_L.png;1652772528443;FalseGenerator;NoCenterCirclePoints
2016NaoLab5BallsG3A_3_00726491_L.png;1652772528443;FalseGenerator;NoCenterCirclePoints
2016NaoLab5BallsG3A_3_00729907_L.png;1652772528443;FalseGenerator;NoCenterCirclePoints
2016NaoLab5BallsG3A_3_00761064_L.png;1652772528443;FalseGenerator;NoCenterCirclePoints
2016NaoLab5BallsG3A_3_00904947_L.png;1652368015273;tkalbitz;NoCenterCirclePoints
2016NaoLab5BallsG3A_3_00939430_L.png;1652772528443;FalseGenerator;NoCenterCirclePoints
2016NaoLab5BallsG3A_3_00941223_L.png;1652368016260;tkalbitz;NoCenterCirclePoints
2016NaoLab5BallsG3A_3_00972530_L.png;1652808875615;tkalbitz;NoCenterCirclePoints
2016NaoLab5BallsG3A_3_01011022_L.png;1652736125271;tkalbitz;NoCenterCirclePoints
2016NaoLab5BallsG3A_3_01012770_L.png;1652772528443;FalseGenerator;NoCenterCirclePoints
2016NaoLab5BallsG3A_3_01014555_L.png;1652736125800;tkalbitz;NoCenterCirclePoints
2016NaoLab5BallsG3A_3_01026696_L.png;1652364833546;tkalbitz;NoCenterCirclePoints
2016NaoLab5BallsG3A_3_01161071_L.png;1652772528443;FalseGenerator;NoCenterCirclePoints
2016NaoLab5BallsG3A_3_01164674_L.png;1652736126305;tkalbitz;NoCenterCirclePoints
2016NaoLab5BallsG3A_3_01166511_L.png;1652368021035;tkalbitz;NoCenterCirclePoints
2016NaoLab5BallsG3A_3_01168216_L.png;1652772528443;FalseGenerator;NoCenterCirclePoints
2016NaoLab5BallsG3A_3_01169986_L.png;1652772528443;FalseGenerator;NoCenterCirclePoints
2016NaoLab5BallsG3A_3_01173428_L.png;1652364837312;tkalbitz;NoCenterCirclePoints
2016NaoLab5BallsG3A_3_01206957_L.png;1652364839450;tkalbitz;NoCenterCirclePoints
2016NaoLab5BallsG3A_3_01208715_L.png;1652364840319;tkalbitz;NoCenterCirclePoints
2016NaoLab5BallsG3A_3_01212232_L.png;1652364841025;tkalbitz;NoCenterCirclePoints
2016NaoLab5BallsG3A_3_01214112_L.png;1652368023648;tkalbitz;NoCenterCirclePoints
2016NaoLab5BallsG3A_3_01226243_L.png;1652891632631;tkalbitz;NoCenterCirclePoints
2016NaoLab5BallsG3A_3_01254069_L.png;1652736126840;tkalbitz;NoCenterCirclePoints
2016NaoLab5BallsG3A_3_01255803_L.png;1652772528443;FalseGenerator;NoCenterCirclePoints
2016NaoLab5BallsG3A_3_01257577_L.png;1652368024544;tkalbitz;NoCenterCirclePoints
2016NaoLab5BallsG3A_3_01259363_L.png;1652772528443;FalseGenerator;NoCenterCirclePoints
2016NaoLab5BallsG3A_3_01261080_L.png;1652772528443;FalseGenerator;NoCenterCirclePoints
2016NaoLab5BallsG3A_3_01262845_L.png;1652368025113;tkalbitz;NoCenterCirclePoints
2016NaoLab5BallsG3A_3_01264633_L.png;1652772528443;FalseGenerator;NoCenterCirclePoints
2016NaoLab5BallsG3A_3_01266494_L.png;1652772528443;FalseGenerator;NoCenterCirclePoints
2016NaoLab5BallsG3A_3_00492128_L.png;1488219203042;tkalbitz;NoFeet
2016NaoLab5BallsG3A_3_00493961_L.png;1488219203506;tkalbitz;NoFeet
2016NaoLab5BallsG3A_3_00495779_L.png;1488219204834;tkalbitz;NoFeet
2016NaoLab5BallsG3A_3_00497566_L.png;1488219205385;tkalbitz;NoFeet
2016NaoLab5BallsG3A_3_00501293_L.png;1488219206234;tkalbitz;NoFeet
2016NaoLab5BallsG3A_3_00503142_L.png;1488219206833;tkalbitz;NoFeet
2016NaoLab5BallsG3A_3_00506741_L.png;1488219207321;tkalbitz;NoFeet
2016NaoLab5BallsG3A_3_00508553_L.png;1488219207857;tkalbitz;NoFeet
2016NaoLab5BallsG3A_3_00510281_L.png;1488219208569;tkalbitz;NoFeet
2016NaoLab5BallsG3A_3_00511997_L.png;1488219209353;tkalbitz;NoFeet
2016NaoLab5BallsG3A_3_00513696_L.png;1488219209825;tkalbitz;NoFeet
2016NaoLab5BallsG3A_3_00515404_L.png;1488219211553;tkalbitz;NoFeet
2016NaoLab5BallsG3A_3_00517100_L.png;1488219212177;tkalbitz;NoFeet
2016NaoLab5BallsG3A_3_00524079_L.png;1488219215433;tkalbitz;NoFeet
2016NaoLab5BallsG3A_3_00525779_L.png;1488219216224;tkalbitz;NoFeet
2016NaoLab5BallsG3A_3_00530866_L.png;1488219219001;tkalbitz;NoFeet
2016NaoLab5BallsG3A_3_00532588_L.png;1488219219793;tkalbitz;NoFeet
2016NaoLab5BallsG3A_3_00534328_L.png;1488219220369;tkalbitz;NoFeet
2016NaoLab5BallsG3A_3_00536178_L.png;1488219220910;tkalbitz;NoFeet
2016NaoLab5BallsG3A_3_00543413_L.png;1488219223817;tkalbitz;NoFeet
2016NaoLab5BallsG3A_3_00545118_L.png;1488219224504;tkalbitz;NoFeet
2016NaoLab5BallsG3A_3_00546827_L.png;1488219225173;tkalbitz;NoFeet
2016NaoLab5BallsG3A_3_00548577_L.png;1488219225776;tkalbitz;NoFeet
2016NaoLab5BallsG3A_3_00550296_L.png;1488219226208;tkalbitz;NoFeet
2016NaoLab5BallsG3A_3_00552001_L.png;1488219226826;tkalbitz;NoFeet
2016NaoLab5BallsG3A_3_00553772_L.png;1488219227320;tkalbitz;NoFeet
2016NaoLab5BallsG3A_3_00555569_L.png;1488219227760;tkalbitz;NoFeet
2016NaoLab5BallsG3A_3_00557347_L.png;1488219228184;tkalbitz;NoFeet
2016NaoLab5BallsG3A_3_00559114_L.png;1488219228552;tkalbitz;NoFeet
2016NaoLab5BallsG3A_3_00560835_L.png;1488219228880;tkalbitz;NoFeet
2016NaoLab5BallsG3A_3_00562539_L.png;1488219229264;tkalbitz;NoFeet
2016NaoLab5BallsG3A_3_00564230_L.png;1488219229736;tkalbitz;NoFeet
2016NaoLab5BallsG3A_3_00565952_L.png;1488219230096;tkalbitz;NoFeet
2016NaoLab5BallsG3A_3_00567686_L.png;1488219230724;tkalbitz;NoFeet
2016NaoLab5BallsG3A_3_00569397_L.png;1488219231032;tkalbitz;NoFeet
2016NaoLab5BallsG3A_3_00571160_L.png;1488219231432;tkalbitz;NoFeet
2016NaoLab5BallsG3A_3_00573012_L.png;1488219231776;tkalbitz;NoFeet
2016NaoLab5BallsG3A_3_00574840_L.png;1488219232064;tkalbitz;NoFeet
2016NaoLab5BallsG3A_3_00576621_L.png;1488219232432;tkalbitz;NoFeet
2016NaoLab5BallsG3A_3_00578360_L.png;1488219232741;tkalbitz;NoFeet
2016NaoLab5BallsG3A_3_00580115_L.png;1488219233072;tkalbitz;NoFeet
2016NaoLab5BallsG3A_3_00581852_L.png;1488219233456;tkalbitz;NoFeet
2016NaoLab5BallsG3A_3_00583526_L.png;1488219233816;tkalbitz;NoFeet
2016NaoLab5BallsG3A_3_00585207_L.png;1488219234613;tkalbitz;NoFeet
2016NaoLab5BallsG3A_3_00586936_L.png;1488219234824;tkalbitz;NoFeet
2016NaoLab5BallsG3A_3_00588654_L.png;1488219235216;tkalbitz;NoFeet
2016NaoLab5BallsG3A_3_00590446_L.png;1488219235616;tkalbitz;NoFeet
2016NaoLab5BallsG3A_3_00592240_L.png;1488219235952;tkalbitz;NoFeet
2016NaoLab5BallsG3A_3_00593991_L.png;1488219236279;tkalbitz;NoFeet
2016NaoLab5BallsG3A_3_00595730_L.png;1488219236552;tkalbitz;NoFeet
2016NaoLab5BallsG3A_3_00597435_L.png;1488219236912;tkalbitz;NoFeet
2016NaoLab5BallsG3A_3_00599168_L.png;1488219237288;tkalbitz;NoFeet
2016NaoLab5BallsG3A_3_00602610_L.png;1488219238360;tkalbitz;NoFeet
2016NaoLab5BallsG3A_3_00604315_L.png;1488219238760;tkalbitz;NoFeet
2016NaoLab5BallsG3A_3_00606082_L.png;1488219239128;tkalbitz;NoFeet
2016NaoLab5BallsG3A_3_00607831_L.png;1488219239488;tkalbitz;NoFeet
2016NaoLab5BallsG3A_3_00609600_L.png;1488219239936;tkalbitz;NoFeet
2016NaoLab5BallsG3A_3_00611364_L.png;1488219240248;tkalbitz;NoFeet
2016NaoLab5BallsG3A_3_00613109_L.png;1488219240654;tkalbitz;NoFeet
2016NaoLab5BallsG3A_3_00614780_L.png;1488219241068;tkalbitz;NoFeet
2016NaoLab5BallsG3A_3_00616488_L.png;1488219241483;tkalbitz;NoFeet
2016NaoLab5BallsG3A_3_00618259_L.png;1488219241898;tkalbitz;NoFeet
2016NaoLab5BallsG3A_3_00620037_L.png;1488219242264;tkalbitz;NoFeet
2016NaoLab5BallsG3A_3_00621789_L.png;1488219242736;tkalbitz;NoFeet
2016NaoLab5BallsG3A_3_00623546_L.png;1488219243143;tkalbitz;NoFeet
2016NaoLab5BallsG3A_3_00625269_L.png;1488219243527;tkalbitz;NoFeet
2016NaoLab5BallsG3A_3_00627033_L.png;1488219243887;tkalbitz;NoFeet
2016NaoLab5BallsG3A_3_00630590_L.png;1488219244271;tkalbitz;NoFeet
2016NaoLab5BallsG3A_3_00642823_L.png;1488219249631;tkalbitz;NoFeet
2016NaoLab5BallsG3A_3_00648075_L.png;1488219256607;tkalbitz;NoFeet
2016NaoLab5BallsG3A_3_00649793_L.png;1488219257151;tkalbitz;NoFeet
2016NaoLab5BallsG3A_3_00651459_L.png;1488219257599;tkalbitz;NoFeet
2016NaoLab5BallsG3A_3_00656714_L.png;1488219258127;tkalbitz;NoFeet
2016NaoLab5BallsG3A_3_00658462_L.png;1488219258783;tkalbitz;NoFeet
2016NaoLab5BallsG3A_3_00660282_L.png;1488219259407;tkalbitz;NoFeet
2016NaoLab5BallsG3A_3_00662100_L.png;1488219259983;tkalbitz;NoFeet
2016NaoLab5BallsG3A_3_00677878_L.png;1488219262359;tkalbitz;NoFeet
2016NaoLab5BallsG3A_3_00679600_L.png;1488219262846;tkalbitz;NoFeet
2016NaoLab5BallsG3A_3_00681305_L.png;1488219263414;tkalbitz;NoFeet
2016NaoLab5BallsG3A_3_00683015_L.png;1488219263886;tkalbitz;NoFeet
2016NaoLab5BallsG3A_3_00684708_L.png;1488219264342;tkalbitz;NoFeet
2016NaoLab5BallsG3A_3_00686443_L.png;1488219265158;tkalbitz;NoFeet
2016NaoLab5BallsG3A_3_00688157_L.png;1488219265782;tkalbitz;NoFeet
2016NaoLab5BallsG3A_3_00689845_L.png;1488219266230;tkalbitz;NoFeet
2016NaoLab5BallsG3A_3_00691561_L.png;1488219266678;tkalbitz;NoFeet
2016NaoLab5BallsG3A_3_00695139_L.png;1488219267158;tkalbitz;NoFeet
2016NaoLab5BallsG3A_3_00705764_L.png;1488219267709;tkalbitz;NoFeet
2016NaoLab5BallsG3A_3_00707472_L.png;1488219268206;tkalbitz;NoFeet
2016NaoLab5BallsG3A_3_00709176_L.png;1488219268614;tkalbitz;NoFeet
2016NaoLab5BallsG3A_3_00724811_L.png;1488219269102;tkalbitz;NoFeet
2016NaoLab5BallsG3A_3_00726491_L.png;1488219270638;tkalbitz;NoFeet
2016NaoLab5BallsG3A_3_00728177_L.png;1488219271182;tkalbitz;NoFeet
2016NaoLab5BallsG3A_3_00729907_L.png;1488219271670;tkalbitz;NoFeet
2016NaoLab5BallsG3A_3_00731694_L.png;1488219272086;tkalbitz;NoFeet
2016NaoLab5BallsG3A_3_00733409_L.png;1488219272526;tkalbitz;NoFeet
2016NaoLab5BallsG3A_3_00735125_L.png;1488219273030;tkalbitz;NoFeet
2016NaoLab5BallsG3A_3_00736915_L.png;1488219273542;tkalbitz;NoFeet
2016NaoLab5BallsG3A_3_00738654_L.png;1488219274066;tkalbitz;NoFeet
2016NaoLab5BallsG3A_3_00740344_L.png;1488219274566;tkalbitz;NoFeet
2016NaoLab5BallsG3A_3_00742044_L.png;1488219275038;tkalbitz;NoFeet
2016NaoLab5BallsG3A_3_00743839_L.png;1488219275494;tkalbitz;NoFeet
2016NaoLab5BallsG3A_3_00745588_L.png;1488219275926;tkalbitz;NoFeet
2016NaoLab5BallsG3A_3_00747373_L.png;1488219276358;tkalbitz;NoFeet
2016NaoLab5BallsG3A_3_00749105_L.png;1488219277046;tkalbitz;NoFeet
2016NaoLab5BallsG3A_3_00750876_L.png;1488219277510;tkalbitz;NoFeet
2016NaoLab5BallsG3A_3_00752557_L.png;1488219277910;tkalbitz;NoFeet
2016NaoLab5BallsG3A_3_00754262_L.png;1488219278382;tkalbitz;NoFeet
2016NaoLab5BallsG3A_3_00755931_L.png;1488219278982;tkalbitz;NoFeet
2016NaoLab5BallsG3A_3_00757599_L.png;1488219279510;tkalbitz;NoFeet
2016NaoLab5BallsG3A_3_00759307_L.png;1488219279934;tkalbitz;NoFeet
2016NaoLab5BallsG3A_3_00761064_L.png;1488219280750;tkalbitz;NoFeet
2016NaoLab5BallsG3A_3_00762786_L.png;1488219281326;tkalbitz;NoFeet
2016NaoLab5BallsG3A_3_00764505_L.png;1488219281853;tkalbitz;NoFeet
2016NaoLab5BallsG3A_3_00766232_L.png;1488219282541;tkalbitz;NoFeet
2016NaoLab5BallsG3A_3_00767985_L.png;1488219283005;tkalbitz;NoFeet
2016NaoLab5BallsG3A_3_00769652_L.png;1488219283632;tkalbitz;NoFeet
2016NaoLab5BallsG3A_3_00771327_L.png;1488219284085;tkalbitz;NoFeet
2016NaoLab5BallsG3A_3_00773016_L.png;1488219284565;tkalbitz;NoFeet
2016NaoLab5BallsG3A_3_00774798_L.png;1488219285085;tkalbitz;NoFeet
2016NaoLab5BallsG3A_3_00776541_L.png;1488219285533;tkalbitz;NoFeet
2016NaoLab5BallsG3A_3_00778267_L.png;1488219285989;tkalbitz;NoFeet
2016NaoLab5BallsG3A_3_00780065_L.png;1488219286509;tkalbitz;NoFeet
2016NaoLab5BallsG3A_3_00781846_L.png;1488219286973;tkalbitz;NoFeet
2016NaoLab5BallsG3A_3_00783601_L.png;1488219287485;tkalbitz;NoFeet
2016NaoLab5BallsG3A_3_00785310_L.png;1488219287949;tkalbitz;NoFeet
2016NaoLab5BallsG3A_3_00787015_L.png;1488219288637;tkalbitz;NoFeet
2016NaoLab5BallsG3A_3_00788733_L.png;1488219289125;tkalbitz;NoFeet
2016NaoLab5BallsG3A_3_00799051_L.png;1488219289965;tkalbitz;NoFeet
2016NaoLab5BallsG3A_3_00800811_L.png;1488219290421;tkalbitz;NoFeet
2016NaoLab5BallsG3A_3_00802580_L.png;1488219290925;tkalbitz;NoFeet
2016NaoLab5BallsG3A_3_00806024_L.png;1488219291365;tkalbitz;NoFeet
2016NaoLab5BallsG3A_3_00807755_L.png;1488219291874;tkalbitz;NoFeet
2016NaoLab5BallsG3A_3_00809465_L.png;1488219292288;tkalbitz;NoFeet
2016NaoLab5BallsG3A_3_00811193_L.png;1488219292702;tkalbitz;NoFeet
2016NaoLab5BallsG3A_3_00812966_L.png;1488219293117;tkalbitz;NoFeet
2016NaoLab5BallsG3A_3_00814774_L.png;1488219293557;tkalbitz;NoFeet
2016NaoLab5BallsG3A_3_00816613_L.png;1488219293965;tkalbitz;NoFeet
2016NaoLab5BallsG3A_3_00818440_L.png;1488219294589;tkalbitz;NoFeet
2016NaoLab5BallsG3A_3_00820284_L.png;1488219294973;tkalbitz;NoFeet
2016NaoLab5BallsG3A_3_00822098_L.png;1488219295381;tkalbitz;NoFeet
2016NaoLab5BallsG3A_3_00823889_L.png;1488219295749;tkalbitz;NoFeet
2016NaoLab5BallsG3A_3_00825587_L.png;1488219296461;tkalbitz;NoFeet
2016NaoLab5BallsG3A_3_00827249_L.png;1488219297212;tkalbitz;NoFeet
2016NaoLab5BallsG3A_3_00828998_L.png;1488219297789;tkalbitz;NoFeet
2016NaoLab5BallsG3A_3_00830814_L.png;1488219298221;tkalbitz;NoFeet
2016NaoLab5BallsG3A_3_00832603_L.png;1488219298605;tkalbitz;NoFeet
2016NaoLab5BallsG3A_3_00837782_L.png;1488219298989;tkalbitz;NoFeet
2016NaoLab5BallsG3A_3_00839517_L.png;1488219299397;tkalbitz;NoFeet
2016NaoLab5BallsG3A_3_00841308_L.png;1488219299757;tkalbitz;NoFeet
2016NaoLab5BallsG3A_3_00843028_L.png;1488219300158;tkalbitz;NoFeet
2016NaoLab5BallsG3A_3_00844746_L.png;1488219300612;tkalbitz;NoFeet
2016NaoLab5BallsG3A_3_00846490_L.png;1488219300996;tkalbitz;NoFeet
2016NaoLab5BallsG3A_3_00848330_L.png;1488219301372;tkalbitz;NoFeet
2016NaoLab5BallsG3A_3_00850105_L.png;1488219301780;tkalbitz;NoFeet
2016NaoLab5BallsG3A_3_00851891_L.png;1488219302276;tkalbitz;NoFeet
2016NaoLab5BallsG3A_3_00853677_L.png;1488219302833;tkalbitz;NoFeet
2016NaoLab5BallsG3A_3_00855470_L.png;1488219303246;tkalbitz;NoFeet
2016NaoLab5BallsG3A_3_00857255_L.png;1488219303662;tkalbitz;NoFeet
2016NaoLab5BallsG3A_3_00859078_L.png;1488219304078;tkalbitz;NoFeet
2016NaoLab5BallsG3A_3_00860899_L.png;1488219304428;tkalbitz;NoFeet
2016NaoLab5BallsG3A_3_00862637_L.png;1488219304820;tkalbitz;NoFeet
2016NaoLab5BallsG3A_3_00864420_L.png;1488219305188;tkalbitz;NoFeet
2016NaoLab5BallsG3A_3_00866243_L.png;1488219436461;tkalbitz;NoFeet
2016NaoLab5BallsG3A_3_00868051_L.png;1488219437277;tkalbitz;NoFeet
2016NaoLab5BallsG3A_3_00869771_L.png;1488219438101;tkalbitz;NoFeet
2016NaoLab5BallsG3A_3_00871486_L.png;1488219438753;tkalbitz;NoFeet
2016NaoLab5BallsG3A_3_00873204_L.png;1488219439373;tkalbitz;NoFeet
2016NaoLab5BallsG3A_3_00885511_L.png;1488219440061;tkalbitz;NoFeet
2016NaoLab5BallsG3A_3_00887300_L.png;1488219440677;tkalbitz;NoFeet
2016NaoLab5BallsG3A_3_00888966_L.png;1488219441157;tkalbitz;NoFeet
2016NaoLab5BallsG3A_3_00890701_L.png;1488219441717;tkalbitz;NoFeet
2016NaoLab5BallsG3A_3_00892419_L.png;1488219442197;tkalbitz;NoFeet
2016NaoLab5BallsG3A_3_00894202_L.png;1488219442808;tkalbitz;NoFeet
2016NaoLab5BallsG3A_3_00895961_L.png;1488219443309;tkalbitz;NoFeet
2016NaoLab5BallsG3A_3_00899583_L.png;1488219448901;tkalbitz;NoFeet
2016NaoLab5BallsG3A_3_00901404_L.png;1488219449397;tkalbitz;NoFeet
2016NaoLab5BallsG3A_3_00903195_L.png;1488219449869;tkalbitz;NoFeet
2016NaoLab5BallsG3A_3_00904947_L.png;1488219450357;tkalbitz;NoFeet
2016NaoLab5BallsG3A_3_00906664_L.png;1488219450861;tkalbitz;NoFeet
2016NaoLab5BallsG3A_3_00908392_L.png;1488219451333;tkalbitz;NoFeet
2016NaoLab5BallsG3A_3_00910090_L.png;1488219451872;tkalbitz;NoFeet
2016NaoLab5BallsG3A_3_00911750_L.png;1488219452317;tkalbitz;NoFeet
2016NaoLab5BallsG3A_3_00913475_L.png;1488219452757;tkalbitz;NoFeet
2016NaoLab5BallsG3A_3_00915176_L.png;1488219453157;tkalbitz;NoFeet
2016NaoLab5BallsG3A_3_00916888_L.png;1488219453613;tkalbitz;NoFeet
2016NaoLab5BallsG3A_3_00918661_L.png;1488219453997;tkalbitz;NoFeet
2016NaoLab5BallsG3A_3_00920429_L.png;1488219454380;tkalbitz;NoFeet
2016NaoLab5BallsG3A_3_00922134_L.png;1488219454844;tkalbitz;NoFeet
2016NaoLab5BallsG3A_3_00923802_L.png;1488219455348;tkalbitz;NoFeet
2016NaoLab5BallsG3A_3_00925518_L.png;1488219455780;tkalbitz;NoFeet
2016NaoLab5BallsG3A_3_00927222_L.png;1488219456268;tkalbitz;NoFeet
2016NaoLab5BallsG3A_3_00928904_L.png;1488219456708;tkalbitz;NoFeet
2016NaoLab5BallsG3A_3_00930603_L.png;1488219457140;tkalbitz;NoFeet
2016NaoLab5BallsG3A_3_00932339_L.png;1488219457596;tkalbitz;NoFeet
2016NaoLab5BallsG3A_3_00934136_L.png;1488219458060;tkalbitz;NoFeet
2016NaoLab5BallsG3A_3_00935950_L.png;1488219458660;tkalbitz;NoFeet
2016NaoLab5BallsG3A_3_00937657_L.png;1488219459156;tkalbitz;NoFeet
2016NaoLab5BallsG3A_3_00939430_L.png;1488219460284;tkalbitz;NoFeet
2016NaoLab5BallsG3A_3_00941223_L.png;1488219460852;tkalbitz;NoFeet
2016NaoLab5BallsG3A_3_00942908_L.png;1488219461508;tkalbitz;NoFeet
2016NaoLab5BallsG3A_3_00944649_L.png;1488219462661;tkalbitz;NoFeet
2016NaoLab5BallsG3A_3_00946336_L.png;1488219463108;tkalbitz;NoFeet
2016NaoLab5BallsG3A_3_00948047_L.png;1488219463516;tkalbitz;NoFeet
2016NaoLab5BallsG3A_3_00949761_L.png;1488219463972;tkalbitz;NoFeet
2016NaoLab5BallsG3A_3_00951496_L.png;1488219492306;tkalbitz;NoFeet
2016NaoLab5BallsG3A_3_00953357_L.png;1488219492898;tkalbitz;NoFeet
2016NaoLab5BallsG3A_3_00955119_L.png;1488219493442;tkalbitz;NoFeet
2016NaoLab5BallsG3A_3_00956860_L.png;1488219494034;tkalbitz;NoFeet
2016NaoLab5BallsG3A_3_00958507_L.png;1488219497738;tkalbitz;NoFeet
2016NaoLab5BallsG3A_3_00960191_L.png;1488219498282;tkalbitz;NoFeet
2016NaoLab5BallsG3A_3_00961935_L.png;1488219498802;tkalbitz;NoFeet
2016NaoLab5BallsG3A_3_00963690_L.png;1488219499442;tkalbitz;NoFeet
2016NaoLab5BallsG3A_3_00965454_L.png;1488219500090;tkalbitz;NoFeet
2016NaoLab5BallsG3A_3_00967286_L.png;1488219501922;tkalbitz;NoFeet
2016NaoLab5BallsG3A_3_00969091_L.png;1488219502394;tkalbitz;NoFeet
2016NaoLab5BallsG3A_3_00970818_L.png;1488219503050;tkalbitz;NoFeet
2016NaoLab5BallsG3A_3_00972530_L.png;1488219503506;tkalbitz;NoFeet
2016NaoLab5BallsG3A_3_00974296_L.png;1488219504471;tkalbitz;NoFeet
2016NaoLab5BallsG3A_3_00976089_L.png;1488219504946;tkalbitz;NoFeet
2016NaoLab5BallsG3A_3_00977794_L.png;1488219505402;tkalbitz;NoFeet
2016NaoLab5BallsG3A_3_00979457_L.png;1488219505834;tkalbitz;NoFeet
2016NaoLab5BallsG3A_3_00981166_L.png;1488219506298;tkalbitz;NoFeet
2016NaoLab5BallsG3A_3_00982874_L.png;1488219506786;tkalbitz;NoFeet
2016NaoLab5BallsG3A_3_00984622_L.png;1488219507306;tkalbitz;NoFeet
2016NaoLab5BallsG3A_3_00986393_L.png;1488219507936;tkalbitz;NoFeet
2016NaoLab5BallsG3A_3_00988212_L.png;1488219509825;tkalbitz;NoFeet
2016NaoLab5BallsG3A_3_00989966_L.png;1488219510850;tkalbitz;NoFeet
2016NaoLab5BallsG3A_3_00991713_L.png;1488219511737;tkalbitz;NoFeet
2016NaoLab5BallsG3A_3_00993409_L.png;1488219512297;tkalbitz;NoFeet
2016NaoLab5BallsG3A_3_00995117_L.png;1488219513177;tkalbitz;NoFeet
2016NaoLab5BallsG3A_3_00996816_L.png;1488219513850;tkalbitz;NoFeet
2016NaoLab5BallsG3A_3_00998516_L.png;1488219514441;tkalbitz;NoFeet
2016NaoLab5BallsG3A_3_01000222_L.png;1488219515089;tkalbitz;NoFeet
2016NaoLab5BallsG3A_3_01001996_L.png;1488219515849;tkalbitz;NoFeet
2016NaoLab5BallsG3A_3_01003851_L.png;1488219516409;tkalbitz;NoFeet
2016NaoLab5BallsG3A_3_01005670_L.png;1488219516929;tkalbitz;NoFeet
2016NaoLab5BallsG3A_3_01007425_L.png;1488219520009;tkalbitz;NoFeet
2016NaoLab5BallsG3A_3_01009229_L.png;1488219520833;tkalbitz;NoFeet
2016NaoLab5BallsG3A_3_01011022_L.png;1488219522017;tkalbitz;NoFeet
2016NaoLab5BallsG3A_3_01012770_L.png;1488219524713;tkalbitz;NoFeet
2016NaoLab5BallsG3A_3_01014555_L.png;1488219525313;tkalbitz;NoFeet
2016NaoLab5BallsG3A_3_01016270_L.png;1488219526233;tkalbitz;NoFeet
2016NaoLab5BallsG3A_3_01017906_L.png;1488219528285;tkalbitz;NoFeet
2016NaoLab5BallsG3A_3_01019642_L.png;1488219529110;tkalbitz;NoFeet
2016NaoLab5BallsG3A_3_01021409_L.png;1488219529648;tkalbitz;NoFeet
2016NaoLab5BallsG3A_3_01023195_L.png;1488219530225;tkalbitz;NoFeet
2016NaoLab5BallsG3A_3_01024944_L.png;1488219530824;tkalbitz;NoFeet
2016NaoLab5BallsG3A_3_01026696_L.png;1488219533232;tkalbitz;NoFeet
2016NaoLab5BallsG3A_3_01028439_L.png;1488219534064;tkalbitz;NoFeet
2016NaoLab5BallsG3A_3_01030123_L.png;1488219535608;tkalbitz;NoFeet
2016NaoLab5BallsG3A_3_01046068_L.png;1488219536979;tkalbitz;NoFeet
2016NaoLab5BallsG3A_3_01051461_L.png;1488219545024;tkalbitz;NoFeet
2016NaoLab5BallsG3A_3_01053233_L.png;1488219546232;tkalbitz;NoFeet
2016NaoLab5BallsG3A_3_01074319_L.png;1488219551048;tkalbitz;NoFeet
2016NaoLab5BallsG3A_3_01076075_L.png;1488219551687;tkalbitz;NoFeet
2016NaoLab5BallsG3A_3_01077794_L.png;1488219552191;tkalbitz;NoFeet
2016NaoLab5BallsG3A_3_01079493_L.png;1488219559359;tkalbitz;NoFeet
2016NaoLab5BallsG3A_3_01081214_L.png;1488219560006;tkalbitz;NoFeet
2016NaoLab5BallsG3A_3_01082948_L.png;1488219560551;tkalbitz;NoFeet
2016NaoLab5BallsG3A_3_01084729_L.png;1488219561135;tkalbitz;NoFeet
2016NaoLab5BallsG3A_3_01086505_L.png;1488219561783;tkalbitz;NoFeet
2016NaoLab5BallsG3A_3_01088188_L.png;1488219562223;tkalbitz;NoFeet
2016NaoLab5BallsG3A_3_01089936_L.png;1488219562735;tkalbitz;NoFeet
2016NaoLab5BallsG3A_3_01091688_L.png;1488219563223;tkalbitz;NoFeet
2016NaoLab5BallsG3A_3_01093419_L.png;1488219563671;tkalbitz;NoFeet
2016NaoLab5BallsG3A_3_01095164_L.png;1488219564183;tkalbitz;NoFeet
2016NaoLab5BallsG3A_3_01096862_L.png;1488219564943;tkalbitz;NoFeet
2016NaoLab5BallsG3A_3_01098555_L.png;1488219565431;tkalbitz;NoFeet
2016NaoLab5BallsG3A_3_01100215_L.png;1488219565950;tkalbitz;NoFeet
2016NaoLab5BallsG3A_3_01101907_L.png;1488219566390;tkalbitz;NoFeet
2016NaoLab5BallsG3A_3_01105295_L.png;1488219566919;tkalbitz;NoFeet
2016NaoLab5BallsG3A_3_01107037_L.png;1488219567406;tkalbitz;NoFeet
2016NaoLab5BallsG3A_3_01112355_L.png;1488219575206;tkalbitz;NoFeet
2016NaoLab5BallsG3A_3_01114099_L.png;1488219576166;tkalbitz;NoFeet
2016NaoLab5BallsG3A_3_01115769_L.png;1488219577118;tkalbitz;NoFeet
2016NaoLab5BallsG3A_3_01117516_L.png;1488219585174;tkalbitz;NoFeet
2016NaoLab5BallsG3A_3_01119282_L.png;1488219586203;tkalbitz;NoFeet
2016NaoLab5BallsG3A_3_01121050_L.png;1488219586981;tkalbitz;NoFeet
2016NaoLab5BallsG3A_3_01122859_L.png;1488219587469;tkalbitz;NoFeet
2016NaoLab5BallsG3A_3_01124621_L.png;1488219588066;tkalbitz;NoFeet
2016NaoLab5BallsG3A_3_01126359_L.png;1488219588581;tkalbitz;NoFeet
2016NaoLab5BallsG3A_3_01128123_L.png;1488219589125;tkalbitz;NoFeet
2016NaoLab5BallsG3A_3_01142196_L.png;1488219590157;tkalbitz;NoFeet
2016NaoLab5BallsG3A_3_01143914_L.png;1488219590741;tkalbitz;NoFeet
2016NaoLab5BallsG3A_3_01145648_L.png;1488219591245;tkalbitz;NoFeet
2016NaoLab5BallsG3A_3_01147315_L.png;1488219592965;tkalbitz;NoFeet
2016NaoLab5BallsG3A_3_01148983_L.png;1488219593797;tkalbitz;NoFeet
2016NaoLab5BallsG3A_3_01150668_L.png;1488219594397;tkalbitz;NoFeet
2016NaoLab5BallsG3A_3_01152332_L.png;1488219595341;tkalbitz;NoFeet
2016NaoLab5BallsG3A_3_01154031_L.png;1488219596317;tkalbitz;NoFeet
2016NaoLab5BallsG3A_3_01157507_L.png;1488219601085;tkalbitz;NoFeet
2016NaoLab5BallsG3A_3_01159253_L.png;1488219601758;tkalbitz;NoFeet
2016NaoLab5BallsG3A_3_01161071_L.png;1488219602171;tkalbitz;NoFeet
2016NaoLab5BallsG3A_3_01162842_L.png;1488219602998;tkalbitz;NoFeet
2016NaoLab5BallsG3A_3_01164674_L.png;1488219604237;tkalbitz;NoFeet
2016NaoLab5BallsG3A_3_01166511_L.png;1488219604789;tkalbitz;NoFeet
2016NaoLab5BallsG3A_3_01168216_L.png;1488219605484;tkalbitz;NoFeet
2016NaoLab5BallsG3A_3_01169986_L.png;1488219605981;tkalbitz;NoFeet
2016NaoLab5BallsG3A_3_01171704_L.png;1488219607668;tkalbitz;NoFeet
2016NaoLab5BallsG3A_3_01175144_L.png;1488219614484;tkalbitz;NoFeet
2016NaoLab5BallsG3A_3_01176885_L.png;1488219615268;tkalbitz;NoFeet
2016NaoLab5BallsG3A_3_01178701_L.png;1488219615788;tkalbitz;NoFeet
2016NaoLab5BallsG3A_3_01190902_L.png;1488219618012;tkalbitz;NoFeet
2016NaoLab5BallsG3A_3_01192683_L.png;1488219620316;tkalbitz;NoFeet
2016NaoLab5BallsG3A_3_01194486_L.png;1488219620984;tkalbitz;NoFeet
2016NaoLab5BallsG3A_3_01196304_L.png;1488219621809;tkalbitz;NoFeet
2016NaoLab5BallsG3A_3_01198058_L.png;1488219622412;tkalbitz;NoFeet
2016NaoLab5BallsG3A_3_01199850_L.png;1488219623180;tkalbitz;NoFeet
2016NaoLab5BallsG3A_3_01201664_L.png;1488219624268;tkalbitz;NoFeet
2016NaoLab5BallsG3A_3_01203430_L.png;1488219625147;tkalbitz;NoFeet
2016NaoLab5BallsG3A_3_01205205_L.png;1488219625867;tkalbitz;NoFeet
2016NaoLab5BallsG3A_3_01206957_L.png;1488219626803;tkalbitz;NoFeet
2016NaoLab5BallsG3A_3_01208715_L.png;1488219628187;tkalbitz;NoFeet
2016NaoLab5BallsG3A_3_01210461_L.png;1488219629331;tkalbitz;NoFeet
2016NaoLab5BallsG3A_3_01212232_L.png;1488219631033;tkalbitz;NoFeet
2016NaoLab5BallsG3A_3_01214112_L.png;1488219632019;tkalbitz;NoFeet
2016NaoLab5BallsG3A_3_01215876_L.png;1488219632707;tkalbitz;NoFeet
2016NaoLab5BallsG3A_3_01217641_L.png;1488219633331;tkalbitz;NoFeet
2016NaoLab5BallsG3A_3_01224523_L.png;1488219634051;tkalbitz;NoFeet
2016NaoLab5BallsG3A_3_01226243_L.png;1488219635443;tkalbitz;NoFeet
2016NaoLab5BallsG3A_3_01227981_L.png;1488219636561;tkalbitz;NoFeet
2016NaoLab5BallsG3A_3_01229708_L.png;1488219637386;tkalbitz;NoFeet
2016NaoLab5BallsG3A_3_01231457_L.png;1488219638163;tkalbitz;NoFeet
2016NaoLab5BallsG3A_3_01233195_L.png;1488219638995;tkalbitz;NoFeet
2016NaoLab5BallsG3A_3_01234926_L.png;1488219641491;tkalbitz;NoFeet
2016NaoLab5BallsG3A_3_01238311_L.png;1488219642675;tkalbitz;NoFeet
2016NaoLab5BallsG3A_3_01248871_L.png;1488219643651;tkalbitz;NoFeet
2016NaoLab5BallsG3A_3_01250594_L.png;1488219646299;tkalbitz;NoFeet
2016NaoLab5BallsG3A_3_01252362_L.png;1488219647522;tkalbitz;NoFeet
2016NaoLab5BallsG3A_3_01254069_L.png;1488219648786;tkalbitz;NoFeet
2016NaoLab5BallsG3A_3_01255803_L.png;1488219649970;tkalbitz;NoFeet
2016NaoLab5BallsG3A_3_01257577_L.png;1488219651493;tkalbitz;NoFeet
2016NaoLab5BallsG3A_3_01259363_L.png;1488219652130;tkalbitz;NoFeet
2016NaoLab5BallsG3A_3_01261080_L.png;1488219652778;tkalbitz;NoFeet
2016NaoLab5BallsG3A_3_01262845_L.png;1488219653322;tkalbitz;NoFeet
2016NaoLab5BallsG3A_3_01264633_L.png;1488219653794;tkalbitz;NoFeet
2016NaoLab5BallsG3A_3_01266494_L.png;1488219656330;tkalbitz;NoFeet
2016NaoLab5BallsG3A_3_00492128_L.png;1487365246431;tkalbitz;NoPenaltySpot
2016NaoLab5BallsG3A_3_00493961_L.png;1487365246927;tkalbitz;NoPenaltySpot
2016NaoLab5BallsG3A_3_00495779_L.png;1487365247439;tkalbitz;NoPenaltySpot
2016NaoLab5BallsG3A_3_00497566_L.png;1487365248023;tkalbitz;NoPenaltySpot
2016NaoLab5BallsG3A_3_00501293_L.png;1487365248535;tkalbitz;NoPenaltySpot
2016NaoLab5BallsG3A_3_00503142_L.png;1487365249031;tkalbitz;NoPenaltySpot
2016NaoLab5BallsG3A_3_00506741_L.png;1487365249519;tkalbitz;NoPenaltySpot
2016NaoLab5BallsG3A_3_00510281_L.png;1487365254343;tkalbitz;NoPenaltySpot
2016NaoLab5BallsG3A_3_00511997_L.png;1487365254887;tkalbitz;NoPenaltySpot
2016NaoLab5BallsG3A_3_00513696_L.png;1487365255390;tkalbitz;NoPenaltySpot
2016NaoLab5BallsG3A_3_00517100_L.png;1487365258847;tkalbitz;NoPenaltySpot
2016NaoLab5BallsG3A_3_00518822_L.png;1487365259815;tkalbitz;NoPenaltySpot
2016NaoLab5BallsG3A_3_00520597_L.png;1487365260527;tkalbitz;NoPenaltySpot
2016NaoLab5BallsG3A_3_00522353_L.png;1487365261022;tkalbitz;NoPenaltySpot
2016NaoLab5BallsG3A_3_00524079_L.png;1487365261550;tkalbitz;NoPenaltySpot
2016NaoLab5BallsG3A_3_00525779_L.png;1487365262070;tkalbitz;NoPenaltySpot
2016NaoLab5BallsG3A_3_00527460_L.png;1487365262822;tkalbitz;NoPenaltySpot
2016NaoLab5BallsG3A_3_00530866_L.png;1487365263550;tkalbitz;NoPenaltySpot
2016NaoLab5BallsG3A_3_00532588_L.png;1487365264262;tkalbitz;NoPenaltySpot
2016NaoLab5BallsG3A_3_00534328_L.png;1487365264710;tkalbitz;NoPenaltySpot
2016NaoLab5BallsG3A_3_00536178_L.png;1487365265150;tkalbitz;NoPenaltySpot
2016NaoLab5BallsG3A_3_00539817_L.png;1487365271078;tkalbitz;NoPenaltySpot
2016NaoLab5BallsG3A_3_00541665_L.png;1487365271678;tkalbitz;NoPenaltySpot
2016NaoLab5BallsG3A_3_00543413_L.png;1487365272190;tkalbitz;NoPenaltySpot
2016NaoLab5BallsG3A_3_00562539_L.png;1487365289565;tkalbitz;NoPenaltySpot
2016NaoLab5BallsG3A_3_00564230_L.png;1487365290101;tkalbitz;NoPenaltySpot
2016NaoLab5BallsG3A_3_00565952_L.png;1487365290669;tkalbitz;NoPenaltySpot
2016NaoLab5BallsG3A_3_00567686_L.png;1487365291205;tkalbitz;NoPenaltySpot
2016NaoLab5BallsG3A_3_00569397_L.png;1487365291653;tkalbitz;NoPenaltySpot
2016NaoLab5BallsG3A_3_00571160_L.png;1487365292093;tkalbitz;NoPenaltySpot
2016NaoLab5BallsG3A_3_00573012_L.png;1487365292517;tkalbitz;NoPenaltySpot
2016NaoLab5BallsG3A_3_00574840_L.png;1487365293029;tkalbitz;NoPenaltySpot
2016NaoLab5BallsG3A_3_00576621_L.png;1487365293557;tkalbitz;NoPenaltySpot
2016NaoLab5BallsG3A_3_00578360_L.png;1487365294005;tkalbitz;NoPenaltySpot
2016NaoLab5BallsG3A_3_00583526_L.png;1487365297893;tkalbitz;NoPenaltySpot
2016NaoLab5BallsG3A_3_00585207_L.png;1487365298397;tkalbitz;NoPenaltySpot
2016NaoLab5BallsG3A_3_00586936_L.png;1487365298893;tkalbitz;NoPenaltySpot
2016NaoLab5BallsG3A_3_00588654_L.png;1487365299605;tkalbitz;NoPenaltySpot
2016NaoLab5BallsG3A_3_00590446_L.png;1487365300173;tkalbitz;NoPenaltySpot
2016NaoLab5BallsG3A_3_00592240_L.png;1487365300621;tkalbitz;NoPenaltySpot
2016NaoLab5BallsG3A_3_00593991_L.png;1487365301053;tkalbitz;NoPenaltySpot
2016NaoLab5BallsG3A_3_00595730_L.png;1487365301469;tkalbitz;NoPenaltySpot
2016NaoLab5BallsG3A_3_00597435_L.png;1487365301989;tkalbitz;NoPenaltySpot
2016NaoLab5BallsG3A_3_00599168_L.png;1487365302709;tkalbitz;NoPenaltySpot
2016NaoLab5BallsG3A_3_00602610_L.png;1487365304133;tkalbitz;NoPenaltySpot
2016NaoLab5BallsG3A_3_00604315_L.png;1487365304605;tkalbitz;NoPenaltySpot
2016NaoLab5BallsG3A_3_00606082_L.png;1487365305085;tkalbitz;NoPenaltySpot
2016NaoLab5BallsG3A_3_00607831_L.png;1487365305581;tkalbitz;NoPenaltySpot
2016NaoLab5BallsG3A_3_00609600_L.png;1487365306053;tkalbitz;NoPenaltySpot
2016NaoLab5BallsG3A_3_00611364_L.png;1487365306637;tkalbitz;NoPenaltySpot
2016NaoLab5BallsG3A_3_00613109_L.png;1487365307133;tkalbitz;NoPenaltySpot
2016NaoLab5BallsG3A_3_00614780_L.png;1487365307653;tkalbitz;NoPenaltySpot
2016NaoLab5BallsG3A_3_00616488_L.png;1487365308149;tkalbitz;NoPenaltySpot
2016NaoLab5BallsG3A_3_00618259_L.png;1487365308677;tkalbitz;NoPenaltySpot
2016NaoLab5BallsG3A_3_00620037_L.png;1487365309213;tkalbitz;NoPenaltySpot
2016NaoLab5BallsG3A_3_00621789_L.png;1487365309732;tkalbitz;NoPenaltySpot
2016NaoLab5BallsG3A_3_00623546_L.png;1487365310189;tkalbitz;NoPenaltySpot
2016NaoLab5BallsG3A_3_00625269_L.png;1487365310637;tkalbitz;NoPenaltySpot
2016NaoLab5BallsG3A_3_00627033_L.png;1487365311037;tkalbitz;NoPenaltySpot
2016NaoLab5BallsG3A_3_00630590_L.png;1487365311500;tkalbitz;NoPenaltySpot
2016NaoLab5BallsG3A_3_00644586_L.png;1487365317020;tkalbitz;NoPenaltySpot
2016NaoLab5BallsG3A_3_00646351_L.png;1487365317540;tkalbitz;NoPenaltySpot
2016NaoLab5BallsG3A_3_00648075_L.png;1487365317996;tkalbitz;NoPenaltySpot
2016NaoLab5BallsG3A_3_00649793_L.png;1487365318468;tkalbitz;NoPenaltySpot
2016NaoLab5BallsG3A_3_00651459_L.png;1487365318884;tkalbitz;NoPenaltySpot
2016NaoLab5BallsG3A_3_00656714_L.png;1487365319388;tkalbitz;NoPenaltySpot
2016NaoLab5BallsG3A_3_00658462_L.png;1487365319812;tkalbitz;NoPenaltySpot
2016NaoLab5BallsG3A_3_00660282_L.png;1487365320332;tkalbitz;NoPenaltySpot
2016NaoLab5BallsG3A_3_00662100_L.png;1487365320724;tkalbitz;NoPenaltySpot
2016NaoLab5BallsG3A_3_00674379_L.png;1487365321429;tkalbitz;NoPenaltySpot
2016NaoLab5BallsG3A_3_00676106_L.png;1487365321884;tkalbitz;NoPenaltySpot
2016NaoLab5BallsG3A_3_00677878_L.png;1487365322324;tkalbitz;NoPenaltySpot
2016NaoLab5BallsG3A_3_00679600_L.png;1487365322836;tkalbitz;NoPenaltySpot
2016NaoLab5BallsG3A_3_00681305_L.png;1487365323252;tkalbitz;NoPenaltySpot
2016NaoLab5BallsG3A_3_00683015_L.png;1487365323644;tkalbitz;NoPenaltySpot
2016NaoLab5BallsG3A_3_00684708_L.png;1487365324052;tkalbitz;NoPenaltySpot
2016NaoLab5BallsG3A_3_00686443_L.png;1487365324620;tkalbitz;NoPenaltySpot
2016NaoLab5BallsG3A_3_00688157_L.png;1487365325132;tkalbitz;NoPenaltySpot
2016NaoLab5BallsG3A_3_00689845_L.png;1487365325588;tkalbitz;NoPenaltySpot
2016NaoLab5BallsG3A_3_00691561_L.png;1487365326020;tkalbitz;NoPenaltySpot
2016NaoLab5BallsG3A_3_00695139_L.png;1487365326428;tkalbitz;NoPenaltySpot
2016NaoLab5BallsG3A_3_00705764_L.png;1487365326804;tkalbitz;NoPenaltySpot
2016NaoLab5BallsG3A_3_00707472_L.png;1487365327172;tkalbitz;NoPenaltySpot
2016NaoLab5BallsG3A_3_00709176_L.png;1487365327564;tkalbitz;NoPenaltySpot
2016NaoLab5BallsG3A_3_00724811_L.png;1487365327948;tkalbitz;NoPenaltySpot
2016NaoLab5BallsG3A_3_00728177_L.png;1487365333036;tkalbitz;NoPenaltySpot
2016NaoLab5BallsG3A_3_00731694_L.png;1487365341395;tkalbitz;NoPenaltySpot
2016NaoLab5BallsG3A_3_00733409_L.png;1487365341923;tkalbitz;NoPenaltySpot
2016NaoLab5BallsG3A_3_00735125_L.png;1487365342411;tkalbitz;NoPenaltySpot
2016NaoLab5BallsG3A_3_00736915_L.png;1487365343019;tkalbitz;NoPenaltySpot
2016NaoLab5BallsG3A_3_00738654_L.png;1487365343667;tkalbitz;NoPenaltySpot
2016NaoLab5BallsG3A_3_00740344_L.png;1487365344155;tkalbitz;NoPenaltySpot
2016NaoLab5BallsG3A_3_00742044_L.png;1487365344739;tkalbitz;NoPenaltySpot
2016NaoLab5BallsG3A_3_00743839_L.png;1487365345459;tkalbitz;NoPenaltySpot
2016NaoLab5BallsG3A_3_00745588_L.png;1487365345907;tkalbitz;NoPenaltySpot
2016NaoLab5BallsG3A_3_00747373_L.png;1487365346395;tkalbitz;NoPenaltySpot
2016NaoLab5BallsG3A_3_00749105_L.png;1487365346851;tkalbitz;NoPenaltySpot
2016NaoLab5BallsG3A_3_00750876_L.png;1487365347347;tkalbitz;NoPenaltySpot
2016NaoLab5BallsG3A_3_00752557_L.png;1487365347771;tkalbitz;NoPenaltySpot
2016NaoLab5BallsG3A_3_00754262_L.png;1487365348371;tkalbitz;NoPenaltySpot
2016NaoLab5BallsG3A_3_00755931_L.png;1487365350011;tkalbitz;NoPenaltySpot
2016NaoLab5BallsG3A_3_00757599_L.png;1487365350667;tkalbitz;NoPenaltySpot
2016NaoLab5BallsG3A_3_00759307_L.png;1487365351115;tkalbitz;NoPenaltySpot
2016NaoLab5BallsG3A_3_00762786_L.png;1487365354483;tkalbitz;NoPenaltySpot
2016NaoLab5BallsG3A_3_00764505_L.png;1487365355043;tkalbitz;NoPenaltySpot
2016NaoLab5BallsG3A_3_00766232_L.png;1487365355547;tkalbitz;NoPenaltySpot
2016NaoLab5BallsG3A_3_00767985_L.png;1487365356019;tkalbitz;NoPenaltySpot
2016NaoLab5BallsG3A_3_00769652_L.png;1487365356531;tkalbitz;NoPenaltySpot
2016NaoLab5BallsG3A_3_00771327_L.png;1487365357035;tkalbitz;NoPenaltySpot
2016NaoLab5BallsG3A_3_00773016_L.png;1487365357499;tkalbitz;NoPenaltySpot
2016NaoLab5BallsG3A_3_00774798_L.png;1487365358011;tkalbitz;NoPenaltySpot
2016NaoLab5BallsG3A_3_00776541_L.png;1487365358523;tkalbitz;NoPenaltySpot
2016NaoLab5BallsG3A_3_00778267_L.png;1487365359003;tkalbitz;NoPenaltySpot
2016NaoLab5BallsG3A_3_00780065_L.png;1487365359619;tkalbitz;NoPenaltySpot
2016NaoLab5BallsG3A_3_00781846_L.png;1487365360067;tkalbitz;NoPenaltySpot
2016NaoLab5BallsG3A_3_00783601_L.png;1487365360547;tkalbitz;NoPenaltySpot
2016NaoLab5BallsG3A_3_00785310_L.png;1487365361050;tkalbitz;NoPenaltySpot
2016NaoLab5BallsG3A_3_00787015_L.png;1487365361587;tkalbitz;NoPenaltySpot
2016NaoLab5BallsG3A_3_00788733_L.png;1487365362066;tkalbitz;NoPenaltySpot
2016NaoLab5BallsG3A_3_00799051_L.png;1487365376618;tkalbitz;NoPenaltySpot
2016NaoLab5BallsG3A_3_00800811_L.png;1487365377642;tkalbitz;NoPenaltySpot
2016NaoLab5BallsG3A_3_00802580_L.png;1487365378346;tkalbitz;NoPenaltySpot
2016NaoLab5BallsG3A_3_00806024_L.png;1487365378979;tkalbitz;NoPenaltySpot
2016NaoLab5BallsG3A_3_00807755_L.png;1487365379554;tkalbitz;NoPenaltySpot
2016NaoLab5BallsG3A_3_00809465_L.png;1487365380082;tkalbitz;NoPenaltySpot
2016NaoLab5BallsG3A_3_00811193_L.png;1487365380578;tkalbitz;NoPenaltySpot
2016NaoLab5BallsG3A_3_00812966_L.png;1487365381050;tkalbitz;NoPenaltySpot
2016NaoLab5BallsG3A_3_00814774_L.png;1487365381514;tkalbitz;NoPenaltySpot
2016NaoLab5BallsG3A_3_00816613_L.png;1487365381970;tkalbitz;NoPenaltySpot
2016NaoLab5BallsG3A_3_00818440_L.png;1487365382450;tkalbitz;NoPenaltySpot
2016NaoLab5BallsG3A_3_00820284_L.png;1487365382930;tkalbitz;NoPenaltySpot
2016NaoLab5BallsG3A_3_00822098_L.png;1487365383362;tkalbitz;NoPenaltySpot
2016NaoLab5BallsG3A_3_00823889_L.png;1487365383882;tkalbitz;NoPenaltySpot
2016NaoLab5BallsG3A_3_00825587_L.png;1487365384626;tkalbitz;NoPenaltySpot
2016NaoLab5BallsG3A_3_00827249_L.png;1487365385506;tkalbitz;NoPenaltySpot
2016NaoLab5BallsG3A_3_00828998_L.png;1487365386026;tkalbitz;NoPenaltySpot
2016NaoLab5BallsG3A_3_00830814_L.png;1487365386474;tkalbitz;NoPenaltySpot
2016NaoLab5BallsG3A_3_00832603_L.png;1487365386953;tkalbitz;NoPenaltySpot
2016NaoLab5BallsG3A_3_00837782_L.png;1487365387434;tkalbitz;NoPenaltySpot
2016NaoLab5BallsG3A_3_00839517_L.png;1487365387922;tkalbitz;NoPenaltySpot
2016NaoLab5BallsG3A_3_00841308_L.png;1487365388314;tkalbitz;NoPenaltySpot
2016NaoLab5BallsG3A_3_00843028_L.png;1487365388753;tkalbitz;NoPenaltySpot
2016NaoLab5BallsG3A_3_00844746_L.png;1487365389161;tkalbitz;NoPenaltySpot
2016NaoLab5BallsG3A_3_00846490_L.png;1487365389537;tkalbitz;NoPenaltySpot
2016NaoLab5BallsG3A_3_00848330_L.png;1487365389945;tkalbitz;NoPenaltySpot
2016NaoLab5BallsG3A_3_00850105_L.png;1487365390338;tkalbitz;NoPenaltySpot
2016NaoLab5BallsG3A_3_00851891_L.png;1487365391217;tkalbitz;NoPenaltySpot
2016NaoLab5BallsG3A_3_00853677_L.png;1487365391705;tkalbitz;NoPenaltySpot
2016NaoLab5BallsG3A_3_00855470_L.png;1487365392185;tkalbitz;NoPenaltySpot
2016NaoLab5BallsG3A_3_00857255_L.png;1487365392665;tkalbitz;NoPenaltySpot
2016NaoLab5BallsG3A_3_00859078_L.png;1487365393073;tkalbitz;NoPenaltySpot
2016NaoLab5BallsG3A_3_00860899_L.png;1487365393521;tkalbitz;NoPenaltySpot
2016NaoLab5BallsG3A_3_00862637_L.png;1487365394001;tkalbitz;NoPenaltySpot
2016NaoLab5BallsG3A_3_00864420_L.png;1487365394401;tkalbitz;NoPenaltySpot
2016NaoLab5BallsG3A_3_00866243_L.png;1487365394785;tkalbitz;NoPenaltySpot
2016NaoLab5BallsG3A_3_00868051_L.png;1487365395145;tkalbitz;NoPenaltySpot
2016NaoLab5BallsG3A_3_00869771_L.png;1487365395729;tkalbitz;NoPenaltySpot
2016NaoLab5BallsG3A_3_00871486_L.png;1487365396121;tkalbitz;NoPenaltySpot
2016NaoLab5BallsG3A_3_00873204_L.png;1487365396537;tkalbitz;NoPenaltySpot
2016NaoLab5BallsG3A_3_00885511_L.png;1487365396945;tkalbitz;NoPenaltySpot
2016NaoLab5BallsG3A_3_00887300_L.png;1487365397329;tkalbitz;NoPenaltySpot
2016NaoLab5BallsG3A_3_00888966_L.png;1487365397745;tkalbitz;NoPenaltySpot
2016NaoLab5BallsG3A_3_00890701_L.png;1487365398121;tkalbitz;NoPenaltySpot
2016NaoLab5BallsG3A_3_00892419_L.png;1487365398489;tkalbitz;NoPenaltySpot
2016NaoLab5BallsG3A_3_00894202_L.png;1487365398865;tkalbitz;NoPenaltySpot
2016NaoLab5BallsG3A_3_00895961_L.png;1487365399217;tkalbitz;NoPenaltySpot
2016NaoLab5BallsG3A_3_00897770_L.png;1487365399609;tkalbitz;NoPenaltySpot
2016NaoLab5BallsG3A_3_00899583_L.png;1487365399961;tkalbitz;NoPenaltySpot
2016NaoLab5BallsG3A_3_00901404_L.png;1487365400297;tkalbitz;NoPenaltySpot
2016NaoLab5BallsG3A_3_00903195_L.png;1487365400625;tkalbitz;NoPenaltySpot
2016NaoLab5BallsG3A_3_00904947_L.png;1487365400961;tkalbitz;NoPenaltySpot
2016NaoLab5BallsG3A_3_00906664_L.png;1487365401313;tkalbitz;NoPenaltySpot
2016NaoLab5BallsG3A_3_00908392_L.png;1487365401697;tkalbitz;NoPenaltySpot
2016NaoLab5BallsG3A_3_00910090_L.png;1487365402009;tkalbitz;NoPenaltySpot
2016NaoLab5BallsG3A_3_00911750_L.png;1487365402321;tkalbitz;NoPenaltySpot
2016NaoLab5BallsG3A_3_00913475_L.png;1487365402681;tkalbitz;NoPenaltySpot
2016NaoLab5BallsG3A_3_00915176_L.png;1487365403009;tkalbitz;NoPenaltySpot
2016NaoLab5BallsG3A_3_00916888_L.png;1487365403321;tkalbitz;NoPenaltySpot
2016NaoLab5BallsG3A_3_00918661_L.png;1487365403665;tkalbitz;NoPenaltySpot
2016NaoLab5BallsG3A_3_00920429_L.png;1487365403961;tkalbitz;NoPenaltySpot
2016NaoLab5BallsG3A_3_00922134_L.png;1487365404305;tkalbitz;NoPenaltySpot
2016NaoLab5BallsG3A_3_00923802_L.png;1487365404609;tkalbitz;NoPenaltySpot
2016NaoLab5BallsG3A_3_00925518_L.png;1487365404945;tkalbitz;NoPenaltySpot
2016NaoLab5BallsG3A_3_00927222_L.png;1487365405289;tkalbitz;NoPenaltySpot
2016NaoLab5BallsG3A_3_00928904_L.png;1487365405577;tkalbitz;NoPenaltySpot
2016NaoLab5BallsG3A_3_00930603_L.png;1487365405905;tkalbitz;NoPenaltySpot
2016NaoLab5BallsG3A_3_00932339_L.png;1487365406201;tkalbitz;NoPenaltySpot
2016NaoLab5BallsG3A_3_00934136_L.png;1487365407233;tkalbitz;NoPenaltySpot
2016NaoLab5BallsG3A_3_00935950_L.png;1487365407521;tkalbitz;NoPenaltySpot
2016NaoLab5BallsG3A_3_00937657_L.png;1487365407809;tkalbitz;NoPenaltySpot
2016NaoLab5BallsG3A_3_00942908_L.png;1487365413784;tkalbitz;NoPenaltySpot
2016NaoLab5BallsG3A_3_00944649_L.png;1487365414329;tkalbitz;NoPenaltySpot
2016NaoLab5BallsG3A_3_00946336_L.png;1487365414800;tkalbitz;NoPenaltySpot
2016NaoLab5BallsG3A_3_00948047_L.png;1487365415240;tkalbitz;NoPenaltySpot
2016NaoLab5BallsG3A_3_00949761_L.png;1487365415624;tkalbitz;NoPenaltySpot
2016NaoLab5BallsG3A_3_00951496_L.png;1487365415976;tkalbitz;NoPenaltySpot
2016NaoLab5BallsG3A_3_00953357_L.png;1487365416304;tkalbitz;NoPenaltySpot
2016NaoLab5BallsG3A_3_00955119_L.png;1487365416688;tkalbitz;NoPenaltySpot
2016NaoLab5BallsG3A_3_00956860_L.png;1487365416976;tkalbitz;NoPenaltySpot
2016NaoLab5BallsG3A_3_00958507_L.png;1487365417280;tkalbitz;NoPenaltySpot
2016NaoLab5BallsG3A_3_00960191_L.png;1487365417616;tkalbitz;NoPenaltySpot
2016NaoLab5BallsG3A_3_00961935_L.png;1487365417960;tkalbitz;NoPenaltySpot
2016NaoLab5BallsG3A_3_00963690_L.png;1487365418280;tkalbitz;NoPenaltySpot
2016NaoLab5BallsG3A_3_00965454_L.png;1487365418624;tkalbitz;NoPenaltySpot
2016NaoLab5BallsG3A_3_00967286_L.png;1487365418920;tkalbitz;NoPenaltySpot
2016NaoLab5BallsG3A_3_00969091_L.png;1487365419256;tkalbitz;NoPenaltySpot
2016NaoLab5BallsG3A_3_00970818_L.png;1487365419584;tkalbitz;NoPenaltySpot
2016NaoLab5BallsG3A_3_00972530_L.png;1487365419968;tkalbitz;NoPenaltySpot
2016NaoLab5BallsG3A_3_00974296_L.png;1487365420256;tkalbitz;NoPenaltySpot
2016NaoLab5BallsG3A_3_00976089_L.png;1487365420560;tkalbitz;NoPenaltySpot
2016NaoLab5BallsG3A_3_00977794_L.png;1487365420880;tkalbitz;NoPenaltySpot
2016NaoLab5BallsG3A_3_00979457_L.png;1487365421192;tkalbitz;NoPenaltySpot
2016NaoLab5BallsG3A_3_00981166_L.png;1487365421536;tkalbitz;NoPenaltySpot
2016NaoLab5BallsG3A_3_00982874_L.png;1487365421864;tkalbitz;NoPenaltySpot
2016NaoLab5BallsG3A_3_00984622_L.png;1487365422184;tkalbitz;NoPenaltySpot
2016NaoLab5BallsG3A_3_00986393_L.png;1487365422496;tkalbitz;NoPenaltySpot
2016NaoLab5BallsG3A_3_00988212_L.png;1487365422760;tkalbitz;NoPenaltySpot
2016NaoLab5BallsG3A_3_00989966_L.png;1487365423096;tkalbitz;NoPenaltySpot
2016NaoLab5BallsG3A_3_00991713_L.png;1487365423416;tkalbitz;NoPenaltySpot
2016NaoLab5BallsG3A_3_00993409_L.png;1487365423680;tkalbitz;NoPenaltySpot
2016NaoLab5BallsG3A_3_00995117_L.png;1487365423976;tkalbitz;NoPenaltySpot
2016NaoLab5BallsG3A_3_00996816_L.png;1487365424280;tkalbitz;NoPenaltySpot
2016NaoLab5BallsG3A_3_00998516_L.png;1487365424640;tkalbitz;NoPenaltySpot
2016NaoLab5BallsG3A_3_01000222_L.png;1487365424912;tkalbitz;NoPenaltySpot
2016NaoLab5BallsG3A_3_01001996_L.png;1487365425248;tkalbitz;NoPenaltySpot
2016NaoLab5BallsG3A_3_01003851_L.png;1487365425552;tkalbitz;NoPenaltySpot
2016NaoLab5BallsG3A_3_01005670_L.png;1487365425856;tkalbitz;NoPenaltySpot
2016NaoLab5BallsG3A_3_01007425_L.png;1487365426168;tkalbitz;NoPenaltySpot
2016NaoLab5BallsG3A_3_01009229_L.png;1487365426448;tkalbitz;NoPenaltySpot
2016NaoLab5BallsG3A_3_01016270_L.png;1487365432096;tkalbitz;NoPenaltySpot
2016NaoLab5BallsG3A_3_01017906_L.png;1487365432800;tkalbitz;NoPenaltySpot
2016NaoLab5BallsG3A_3_01019642_L.png;1487365433320;tkalbitz;NoPenaltySpot
2016NaoLab5BallsG3A_3_01021409_L.png;1487365433768;tkalbitz;NoPenaltySpot
2016NaoLab5BallsG3A_3_01023195_L.png;1487365434168;tkalbitz;NoPenaltySpot
2016NaoLab5BallsG3A_3_01024944_L.png;1487365434568;tkalbitz;NoPenaltySpot
2016NaoLab5BallsG3A_3_01026696_L.png;1487365434952;tkalbitz;NoPenaltySpot
2016NaoLab5BallsG3A_3_01028439_L.png;1487365449103;tkalbitz;NoPenaltySpot
2016NaoLab5BallsG3A_3_01030123_L.png;1487365449703;tkalbitz;NoPenaltySpot
2016NaoLab5BallsG3A_3_01046068_L.png;1487365450503;tkalbitz;NoPenaltySpot
2016NaoLab5BallsG3A_3_01051461_L.png;1487365451983;tkalbitz;NoPenaltySpot
2016NaoLab5BallsG3A_3_01053233_L.png;1487365452423;tkalbitz;NoPenaltySpot
2016NaoLab5BallsG3A_3_01074319_L.png;1487365452943;tkalbitz;NoPenaltySpot
2016NaoLab5BallsG3A_3_01076075_L.png;1487365453471;tkalbitz;NoPenaltySpot
2016NaoLab5BallsG3A_3_01077794_L.png;1487365453927;tkalbitz;NoPenaltySpot
2016NaoLab5BallsG3A_3_01079493_L.png;1487365454583;tkalbitz;NoPenaltySpot
2016NaoLab5BallsG3A_3_01081214_L.png;1487365455039;tkalbitz;NoPenaltySpot
2016NaoLab5BallsG3A_3_01082948_L.png;1487365455527;tkalbitz;NoPenaltySpot
2016NaoLab5BallsG3A_3_01084729_L.png;1487365455943;tkalbitz;NoPenaltySpot
2016NaoLab5BallsG3A_3_01086505_L.png;1487365456431;tkalbitz;NoPenaltySpot
2016NaoLab5BallsG3A_3_01088188_L.png;1487365456847;tkalbitz;NoPenaltySpot
2016NaoLab5BallsG3A_3_01089936_L.png;1487365457255;tkalbitz;NoPenaltySpot
2016NaoLab5BallsG3A_3_01091688_L.png;1487365457655;tkalbitz;NoPenaltySpot
2016NaoLab5BallsG3A_3_01093419_L.png;1487365458015;tkalbitz;NoPenaltySpot
2016NaoLab5BallsG3A_3_01095164_L.png;1487365458367;tkalbitz;NoPenaltySpot
2016NaoLab5BallsG3A_3_01096862_L.png;1487365458743;tkalbitz;NoPenaltySpot
2016NaoLab5BallsG3A_3_01098555_L.png;1487365459111;tkalbitz;NoPenaltySpot
2016NaoLab5BallsG3A_3_01100215_L.png;1487365459455;tkalbitz;NoPenaltySpot
2016NaoLab5BallsG3A_3_01101907_L.png;1487365459847;tkalbitz;NoPenaltySpot
2016NaoLab5BallsG3A_3_01105295_L.png;1487365460215;tkalbitz;NoPenaltySpot
2016NaoLab5BallsG3A_3_01107037_L.png;1487365460527;tkalbitz;NoPenaltySpot
2016NaoLab5BallsG3A_3_01108837_L.png;1487365460847;tkalbitz;NoPenaltySpot
2016NaoLab5BallsG3A_3_01110596_L.png;1487365461303;tkalbitz;NoPenaltySpot
2016NaoLab5BallsG3A_3_01112355_L.png;1487365461647;tkalbitz;NoPenaltySpot
2016NaoLab5BallsG3A_3_01114099_L.png;1487365462175;tkalbitz;NoPenaltySpot
2016NaoLab5BallsG3A_3_01115769_L.png;1487365462551;tkalbitz;NoPenaltySpot
2016NaoLab5BallsG3A_3_01117516_L.png;1487365462943;tkalbitz;NoPenaltySpot
2016NaoLab5BallsG3A_3_01119282_L.png;1487365463279;tkalbitz;NoPenaltySpot
2016NaoLab5BallsG3A_3_01121050_L.png;1487365463631;tkalbitz;NoPenaltySpot
2016NaoLab5BallsG3A_3_01122859_L.png;1487365463967;tkalbitz;NoPenaltySpot
2016NaoLab5BallsG3A_3_01124621_L.png;1487365464287;tkalbitz;NoPenaltySpot
2016NaoLab5BallsG3A_3_01126359_L.png;1487365464599;tkalbitz;NoPenaltySpot
2016NaoLab5BallsG3A_3_01128123_L.png;1487365465047;tkalbitz;NoPenaltySpot
2016NaoLab5BallsG3A_3_01142196_L.png;1487365465350;tkalbitz;NoPenaltySpot
2016NaoLab5BallsG3A_3_01143914_L.png;1487365465702;tkalbitz;NoPenaltySpot
2016NaoLab5BallsG3A_3_01145648_L.png;1487365466022;tkalbitz;NoPenaltySpot
2016NaoLab5BallsG3A_3_01147315_L.png;1487365466326;tkalbitz;NoPenaltySpot
2016NaoLab5BallsG3A_3_01148983_L.png;1487365466686;tkalbitz;NoPenaltySpot
2016NaoLab5BallsG3A_3_01150668_L.png;1487365467006;tkalbitz;NoPenaltySpot
2016NaoLab5BallsG3A_3_01152332_L.png;1487365467302;tkalbitz;NoPenaltySpot
2016NaoLab5BallsG3A_3_01154031_L.png;1487365467630;tkalbitz;NoPenaltySpot
2016NaoLab5BallsG3A_3_01157507_L.png;1487365467950;tkalbitz;NoPenaltySpot
2016NaoLab5BallsG3A_3_01159253_L.png;1487365468366;tkalbitz;NoPenaltySpot
2016NaoLab5BallsG3A_3_01162842_L.png;1487365472542;tkalbitz;NoPenaltySpot
2016NaoLab5BallsG3A_3_01171704_L.png;1487365478334;tkalbitz;NoPenaltySpot
2016NaoLab5BallsG3A_3_01173428_L.png;1487365479086;tkalbitz;NoPenaltySpot
2016NaoLab5BallsG3A_3_01175144_L.png;1487365479582;tkalbitz;NoPenaltySpot
2016NaoLab5BallsG3A_3_01176885_L.png;1487365480022;tkalbitz;NoPenaltySpot
2016NaoLab5BallsG3A_3_01178701_L.png;1487365480446;tkalbitz;NoPenaltySpot
2016NaoLab5BallsG3A_3_01180437_L.png;1487365482558;tkalbitz;NoPenaltySpot
2016NaoLab5BallsG3A_3_01190902_L.png;1487365483206;tkalbitz;NoPenaltySpot
2016NaoLab5BallsG3A_3_01192683_L.png;1487365483734;tkalbitz;NoPenaltySpot
2016NaoLab5BallsG3A_3_01194486_L.png;1487365484230;tkalbitz;NoPenaltySpot
2016NaoLab5BallsG3A_3_01196304_L.png;1487365485046;tkalbitz;NoPenaltySpot
2016NaoLab5BallsG3A_3_01198058_L.png;1487365485518;tkalbitz;NoPenaltySpot
2016NaoLab5BallsG3A_3_01199850_L.png;1487365486038;tkalbitz;NoPenaltySpot
2016NaoLab5BallsG3A_3_01201664_L.png;1487365486494;tkalbitz;NoPenaltySpot
2016NaoLab5BallsG3A_3_01203430_L.png;1487365487022;tkalbitz;NoPenaltySpot
2016NaoLab5BallsG3A_3_01205205_L.png;1487365487454;tkalbitz;NoPenaltySpot
2016NaoLab5BallsG3A_3_01206957_L.png;1487365487950;tkalbitz;NoPenaltySpot
2016NaoLab5BallsG3A_3_01208715_L.png;1487365488766;tkalbitz;NoPenaltySpot
2016NaoLab5BallsG3A_3_01210461_L.png;1487365489206;tkalbitz;NoPenaltySpot
2016NaoLab5BallsG3A_3_01212232_L.png;1487365489638;tkalbitz;NoPenaltySpot
2016NaoLab5BallsG3A_3_01214112_L.png;1487365489966;tkalbitz;NoPenaltySpot
2016NaoLab5BallsG3A_3_01215876_L.png;1487365490414;tkalbitz;NoPenaltySpot
2016NaoLab5BallsG3A_3_01217641_L.png;1487365490814;tkalbitz;NoPenaltySpot
2016NaoLab5BallsG3A_3_01224523_L.png;1487365491205;tkalbitz;NoPenaltySpot
2016NaoLab5BallsG3A_3_01226243_L.png;1487365491605;tkalbitz;NoPenaltySpot
2016NaoLab5BallsG3A_3_01227981_L.png;1487365492005;tkalbitz;NoPenaltySpot
2016NaoLab5BallsG3A_3_01229708_L.png;1487365492333;tkalbitz;NoPenaltySpot
2016NaoLab5BallsG3A_3_01231457_L.png;1487365492709;tkalbitz;NoPenaltySpot
2016NaoLab5BallsG3A_3_01233195_L.png;1487365493061;tkalbitz;NoPenaltySpot
2016NaoLab5BallsG3A_3_01234926_L.png;1487365493461;tkalbitz;NoPenaltySpot
2016NaoLab5BallsG3A_3_01238311_L.png;1487365493837;tkalbitz;NoPenaltySpot
2016NaoLab5BallsG3A_3_01248871_L.png;1487365494653;tkalbitz;NoPenaltySpot
2016NaoLab5BallsG3A_3_01250594_L.png;1487365495109;tkalbitz;NoPenaltySpot
2016NaoLab5BallsG3A_3_01252362_L.png;1487365495613;tkalbitz;NoPenaltySpot
2016NaoLab5BallsG3A_3_00508553_L.png;1487365251619;tkalbitz;PenaltySpot;107;21;183;61;PenaltySpot
2016NaoLab5BallsG3A_3_00515404_L.png;1487365257346;tkalbitz;PenaltySpot;591;104;639;184;PenaltySpot
2016NaoLab5BallsG3A_3_00537985_L.png;1487365268906;tkalbitz;PenaltySpot;603;5;639;60;PenaltySpot
2016NaoLab5BallsG3A_3_00545118_L.png;1487365273530;tkalbitz;PenaltySpot;401;0;523;61;PenaltySpot
2016NaoLab5BallsG3A_3_00546827_L.png;1487365275162;tkalbitz;PenaltySpot;25;168;171;319;PenaltySpot
2016NaoLab5BallsG3A_3_00548577_L.png;1487365276570;tkalbitz;PenaltySpot;218;319;359;467;PenaltySpot
2016NaoLab5BallsG3A_3_00550296_L.png;1487365277546;tkalbitz;PenaltySpot;202;257;332;378;PenaltySpot
2016NaoLab5BallsG3A_3_00552001_L.png;1487365278369;tkalbitz;PenaltySpot;152;262;295;397;PenaltySpot
2016NaoLab5BallsG3A_3_00553772_L.png;1487365279145;tkalbitz;PenaltySpot;191;258;343;411;PenaltySpot
2016NaoLab5BallsG3A_3_00555569_L.png;1487365281915;tkalbitz;PenaltySpot;238;334;388;447;PenaltySpot
2016NaoLab5BallsG3A_3_00557347_L.png;1487365285697;tkalbitz;PenaltySpot;209;286;338;402;PenaltySpot
2016NaoLab5BallsG3A_3_00559114_L.png;1487365286713;tkalbitz;PenaltySpot;138;299;288;449;PenaltySpot
2016NaoLab5BallsG3A_3_00560835_L.png;1487365287985;tkalbitz;PenaltySpot;260;434;383;479;PenaltySpot
2016NaoLab5BallsG3A_3_00580115_L.png;1487365295561;tkalbitz;PenaltySpot;422;34;538;99;PenaltySpot
2016NaoLab5BallsG3A_3_00581852_L.png;1487365296609;tkalbitz;PenaltySpot;243;66;333;126;PenaltySpot
2016NaoLab5BallsG3A_3_00639252_L.png;1487365312968;tkalbitz;PenaltySpot;491;68;591;142;PenaltySpot
2016NaoLab5BallsG3A_3_00641047_L.png;1487365314040;tkalbitz;PenaltySpot;304;230;444;358;PenaltySpot
2016NaoLab5BallsG3A_3_00642823_L.png;1487365315616;tkalbitz;PenaltySpot;174;368;331;456;PenaltySpot
2016NaoLab5BallsG3A_3_00726491_L.png;1487365331711;tkalbitz;PenaltySpot;477;205;547;222;PenaltySpot
2016NaoLab5BallsG3A_3_00729907_L.png;1487365339567;tkalbitz;PenaltySpot;565;0;611;8;PenaltySpot
2016NaoLab5BallsG3A_3_00761064_L.png;1487365353087;tkalbitz;PenaltySpot;1;19;79;54;PenaltySpot
2016NaoLab5BallsG3A_3_00939430_L.png;1487365411380;tkalbitz;PenaltySpot;218;2;322;83;PenaltySpot
2016NaoLab5BallsG3A_3_00941223_L.png;1487365412284;tkalbitz;PenaltySpot;309;277;453;407;PenaltySpot
2016NaoLab5BallsG3A_3_01011022_L.png;1487365427972;tkalbitz;PenaltySpot;377;33;480;134;PenaltySpot
2016NaoLab5BallsG3A_3_01012770_L.png;1487365429196;tkalbitz;PenaltySpot;162;213;285;350;PenaltySpot
2016NaoLab5BallsG3A_3_01014555_L.png;1487365430236;tkalbitz;PenaltySpot;164;239;280;375;PenaltySpot
2016NaoLab5BallsG3A_3_01161071_L.png;1487365471298;tkalbitz;PenaltySpot;188;0;263;24;PenaltySpot
2016NaoLab5BallsG3A_3_01164674_L.png;1487365473802;tkalbitz;PenaltySpot;214;123;344;237;PenaltySpot
2016NaoLab5BallsG3A_3_01166511_L.png;1487365474834;tkalbitz;PenaltySpot;228;215;368;342;PenaltySpot
2016NaoLab5BallsG3A_3_01168216_L.png;1487365475642;tkalbitz;PenaltySpot;191;226;336;362;PenaltySpot
2016NaoLab5BallsG3A_3_01169986_L.png;1487365476490;tkalbitz;PenaltySpot;154;222;270;348;PenaltySpot
2016NaoLab5BallsG3A_3_01254069_L.png;1487365498657;tkalbitz;PenaltySpot;85;59;184;131;PenaltySpot
2016NaoLab5BallsG3A_3_01255803_L.png;1487365499593;tkalbitz;PenaltySpot;200;166;335;289;PenaltySpot
2016NaoLab5BallsG3A_3_01257577_L.png;1487365500641;tkalbitz;PenaltySpot;172;250;317;389;PenaltySpot
2016NaoLab5BallsG3A_3_01259363_L.png;1487365501577;tkalbitz;PenaltySpot;257;251;399;387;PenaltySpot
2016NaoLab5BallsG3A_3_01261080_L.png;1487365502393;tkalbitz;PenaltySpot;274;284;415;414;PenaltySpot
2016NaoLab5BallsG3A_3_01262845_L.png;1487365503905;tkalbitz;PenaltySpot;237;245;381;375;PenaltySpot
2016NaoLab5BallsG3A_3_01264633_L.png;1487365504721;tkalbitz;PenaltySpot;264;299;404;428;PenaltySpot
2016NaoLab5BallsG3A_3_01266494_L.png;1487365505857;tkalbitz;PenaltySpot;378;263;447;326;PenaltySpot
2016NaoLab5BallsG3A_3_00844746_L.png;1652479999560;tkalbitz;SkipCenterCirclePoints
2016NaoLab5BallsG3A_3_00846490_L.png;1652480000725;tkalbitz;SkipCenterCirclePoints
