RC2022_5th-Game-vsBembelbots_G1A_Helios_2_PLAY_00252150_BallVanishedFromLastToThisImage_U.png;1718198875907;tkalbitz;CenterCirclePoints;150;333;150;333;Right
RC2022_5th-Game-vsBembelbots_G1B_CometInterceptor_4_PLAY_00551499_BallVanishedFromLastToThisImage_U.png;1718198882982;tkalbitz;CenterCirclePoints;198;253;198;253;Right
RC2022_5th-Game-vsBembelbots_G1B_CometInterceptor_4_PLAY_00566720_BallVanishedFromLastToThisImage_U.png;1718198886820;tkalbitz;CenterCirclePoints;326;137;326;137;Left
RC2022_5th-Game-vsBembelbots_G1B_CometInterceptor_4_PLAY_00580786_BallVanishedFromLastToThisImage_U.png;1718198890078;tkalbitz;CenterCirclePoints;615;112;615;112;Left
RC2022_5th-Game-vsBembelbots_G1B_Helios_2_PLAY_00495862_BallVanishedFromLastToThisImage_U.png;1718198897764;tkalbitz;CenterCirclePoints;602;407;602;407;Left
RC2022_5th-Game-vsBembelbots_G1B_Pioneer_5_PLAY_00239086_BallVanishedFromLastToThisImage_U.png;1718198900968;tkalbitz;CenterCirclePoints;36;146;36;146;Right
RC2022_5th-Game-vsBembelbots_G1C_CometInterceptor_4_PLAY_00117709_BallVanishedFromLastToThisImage_U.png;1718198903756;tkalbitz;CenterCirclePoints;103;271;104;271;Left
RC2022_5th-Game-vsBembelbots_G1C_CometInterceptor_4_PLAY_00151370_BallVanishedFromLastToThisImage_U.png;1718198908507;tkalbitz;CenterCirclePoints;149;173;149;173;Right
RC2022_5th-Game-vsBembelbots_G1C_CometInterceptor_4_PLAY_00400372_BallVanishedFromLastToThisImage_U.png;1718198911183;tkalbitz;CenterCirclePoints;368;219;368;219;Right
RC2022_5th-Game-vsBembelbots_G1C_CometInterceptor_4_PLAY_00403169_BallVanishedFromLastToThisImage_U.png;1718198913365;tkalbitz;CenterCirclePoints;362;273;362;273;Left
RC2022_5th-Game-vsBembelbots_G1C_CometInterceptor_4_PLAY_00418160_BallVanishedFromLastToThisImage_U.png;1718198916451;tkalbitz;CenterCirclePoints;507;134;507;134;Right
RC2022_5th-Game-vsBembelbots_G1C_CometInterceptor_4_PLAY_00441871_BallVanishedFromLastToThisImage_U.png;1718198919355;tkalbitz;CenterCirclePoints;524;102;524;102;Left
RC2022_5th-Game-vsBembelbots_G1C_CometInterceptor_4_PLAY_00614319_BallVanishedFromLastToThisImage_U.png;1718198921455;tkalbitz;CenterCirclePoints;530;188;530;188;Left
RC2022_5th-Game-vsBembelbots_G1C_CometInterceptor_4_PLAY_00615941_BallVanishedFromLastToThisImage_U.png;1718198925916;tkalbitz;CenterCirclePoints;599;164;599;164;Left
RC2022_5th-Game-vsBembelbots_G1C_CometInterceptor_4_PLAY_00617894_BallVanishedFromLastToThisImage_U.png;1718198927454;tkalbitz;CenterCirclePoints;602;165;602;165;Left
RC2022_5th-Game-vsBembelbots_G1C_CometInterceptor_4_PLAY_00623187_BallVanishedFromLastToThisImage_U.png;1718198929708;tkalbitz;CenterCirclePoints;498;168;498;168;Left
RC2022_5th-Game-vsBembelbots_G1C_CometInterceptor_4_PLAY_00625780_BallVanishedFromLastToThisImage_U.png;1718198933550;tkalbitz;CenterCirclePoints;497;162;497;162;Left
RC2022_5th-Game-vsBembelbots_G1C_CometInterceptor_4_PLAY_00626819_BallVanishedFromLastToThisImage_U.png;1718198935794;tkalbitz;CenterCirclePoints;498;163;498;163;Left
RC2022_5th-Game-vsBembelbots_G1C_CometInterceptor_4_PLAY_00631991_BallVanishedFromLastToThisImage_U.png;1718198937656;tkalbitz;CenterCirclePoints;483;142;483;142;Left
RC2022_5th-Game-vsBembelbots_G1A_CometInterceptor_4_PLAY_00149519_BallVanishedFromLastToThisImage_U.png;1718198872029;tkalbitz;NoCenterCirclePoints
RC2022_5th-Game-vsBembelbots_G1A_Dawn_3_PLAY_00104597_BallVanishedFromLastToThisImage_U.png;1718198873149;tkalbitz;NoCenterCirclePoints
RC2022_5th-Game-vsBembelbots_G1A_Dawn_3_PLAY_00125335_BallVanishedFromLastToThisImage_U.png;1718198874248;tkalbitz;NoCenterCirclePoints
RC2022_5th-Game-vsBembelbots_G1A_Pioneer_5_PLAY_00129200_BallVanishedFromLastToThisImage_U.png;1718198877768;tkalbitz;NoCenterCirclePoints
RC2022_5th-Game-vsBembelbots_G1B_CometInterceptor_4_PLAY_00423272_BallVanishedFromLastToThisImage_U.png;1718198878570;tkalbitz;NoCenterCirclePoints
RC2022_5th-Game-vsBembelbots_G1B_Dawn_3_PLAY_00415651_BallVanishedFromLastToThisImage_U.png;1718198895052;tkalbitz;NoCenterCirclePoints
RC2022_5th-Game-vsBembelbots_G1B_Helios_2_PLAY_00516643_BallVanishedFromLastToThisImage_U.png;1718198899475;tkalbitz;NoCenterCirclePoints
