GO2024-G8A_Atlas_3_PLAY_00292935_BallAppearedFromLastToThisImage_U.png;1718134354621;tkalbitz;CenterCirclePoints;209;156;209;156;Left
GO2024-G8A_Atlas_3_PLAY_00292935_BallAppearedFromLastToThisImage_U.png;1718134356566;tkalbitz;CenterCirclePoints;482;157;482;157;Right
GO2024-G8A_Atlas_3_PLAY_00317231_BallAppearedFromLastToThisImage_U.png;1718134360418;tkalbitz;CenterCirclePoints;262;161;262;161;Right
GO2024-G8A_Atlas_3_PLAY_00318784_BallAppearedFromLastToThisImage_U.png;1718134363158;tkalbitz;CenterCirclePoints;262;162;262;162;Right
GO2024-G8A_Atlas_3_PLAY_00320789_BallAppearedFromLastToThisImage_U.png;1718134365564;tkalbitz;CenterCirclePoints;261;161;261;161;Right
GO2024-G8A_Atlas_3_PLAY_00322241_BallAppearedFromLastToThisImage_U.png;1718134367634;tkalbitz;CenterCirclePoints;261;165;261;165;Right
GO2024-G8A_Atlas_3_PLAY_00323697_BallAppearedFromLastToThisImage_U.png;1718134370862;tkalbitz;CenterCirclePoints;260;161;260;161;Right
GO2024-G8A_Atlas_3_PLAY_00344199_BallAppearedFromLastToThisImage_U.png;1718134374826;tkalbitz;CenterCirclePoints;34;144;34;144;Left
GO2024-G8A_Atlas_3_PLAY_00349022_BallAppearedFromLastToThisImage_U.png;1718134377924;tkalbitz;CenterCirclePoints;245;87;245;87;Right
GO2024-G8A_Atlas_3_PLAY_00350540_BallAppearedFromLastToThisImage_U.png;1718134380448;tkalbitz;CenterCirclePoints;244;87;244;87;Right
GO2024-G8A_Atlas_3_PLAY_00374542_BallAppearedFromLastToThisImage_U.png;1718134384317;tkalbitz;CenterCirclePoints;262;152;262;152;Right
GO2024-G8A_Atlas_3_PLAY_00376708_BallAppearedFromLastToThisImage_U.png;1718134386775;tkalbitz;CenterCirclePoints;261;149;261;149;Right
GO2024-G8A_Atlas_3_PLAY_00378269_BallAppearedFromLastToThisImage_U.png;1718134389839;tkalbitz;CenterCirclePoints;98;160;98;160;Left
GO2024-G8A_Atlas_3_PLAY_00378269_BallAppearedFromLastToThisImage_U.png;1718134391353;tkalbitz;CenterCirclePoints;385;142;385;142;Right
GO2024-G8A_Atlas_3_PLAY_00711296_BallAppearedFromLastToThisImage_U.png;1718134395429;tkalbitz;CenterCirclePoints;212;231;212;231;Right
GO2024-G8A_Atlas_3_PLAY_00759311_BallAppearedFromLastToThisImage_U.png;1718134398131;tkalbitz;CenterCirclePoints;255;396;255;396;Right
GO2024-G8A_Atlas_3_SET_00233943_BallAppearedFromLastToThisImage_U.png;1718134402728;tkalbitz;CenterCirclePoints;20;205;20;205;Left
GO2024-G8A_Atlas_3_SET_00246206_BallAppearedFromLastToThisImage_U.png;1718126128466;tkalbitz;CenterCirclePoints;77;115;77;115;Right
GO2024-G8B_Atlas_3_PLAY_00264762_BallAppearedFromLastToThisImage_U.png;1718134412718;tkalbitz;CenterCirclePoints;535;285;535;285;Left
GO2024-G8B_Atlas_3_PLAY_00264762_BallAppearedFromLastToThisImage_U.png;1718134414130;tkalbitz;CenterCirclePoints;577;224;577;224;Right
GO2024-G8B_Atlas_3_PLAY_00329636_BallAppearedFromLastToThisImage_U.png;1718134417472;tkalbitz;CenterCirclePoints;89;195;89;195;Right
GO2024-G8B_Atlas_3_PLAY_00367984_BallAppearedFromLastToThisImage_U.png;1718134422344;tkalbitz;CenterCirclePoints;254;268;254;268;Left
GO2024-G8B_Atlas_3_PLAY_00367984_BallAppearedFromLastToThisImage_U.png;1718134423974;tkalbitz;CenterCirclePoints;276;211;276;211;Right
GO2024-G8B_Atlas_3_PLAY_00448055_BallAppearedFromLastToThisImage_U.png;1718139153319;tkalbitz;CenterCirclePoints;45;83;45;83;Left
GO2024-G8B_Atlas_3_PLAY_00448055_BallAppearedFromLastToThisImage_U.png;1718139154875;tkalbitz;CenterCirclePoints;333;131;333;131;Right
GO2024-G8B_Atlas_3_PLAY_00449620_BallAppearedFromLastToThisImage_U.png;1718134430481;tkalbitz;CenterCirclePoints;272;144;272;144;Right
GO2024-G8B_Atlas_3_SET_00176622_BallAppearedFromLastToThisImage_U.png;1718126135679;tkalbitz;CenterCirclePoints;408;212;408;212;Left
GO2024-G8B_Atlas_3_SET_00188407_BallAppearedFromLastToThisImage_U.png;1718126139617;tkalbitz;CenterCirclePoints;364;228;364;228;Left
GO2024-G8B_Atlas_3_SET_00641548_BallAppearedFromLastToThisImage_U.png;1718134442389;tkalbitz;CenterCirclePoints;97;233;97;233;Right
GO2024-G8A_Atlas_3_PLAY_00275818_BallAppearedFromLastToThisImage_U.png;1715460807284;tkalbitz;GoalPost;108;104;95;29;Right
GO2024-G8A_Atlas_3_PLAY_00275818_BallAppearedFromLastToThisImage_U.png;1715460858140;tkalbitz;GoalPost;94;30;0;36;Middle
GO2024-G8A_Atlas_3_PLAY_00292935_BallAppearedFromLastToThisImage_U.png;1715669749604;tkalbitz;GoalPost;234;99;232;24;Left
GO2024-G8A_Atlas_3_PLAY_00304587_BallAppearedFromLastToThisImage_U.png;1715460910710;tkalbitz;GoalPost;80;113;67;45;Right
GO2024-G8A_Atlas_3_PLAY_00304587_BallAppearedFromLastToThisImage_U.png;1715460913392;tkalbitz;GoalPost;67;45;0;43;Middle
GO2024-G8A_Atlas_3_PLAY_00317231_BallAppearedFromLastToThisImage_U.png;1715460926738;tkalbitz;GoalPost;101;108;95;30;Right
GO2024-G8A_Atlas_3_PLAY_00317231_BallAppearedFromLastToThisImage_U.png;1715460930839;tkalbitz;GoalPost;95;30;1;28;Middle
GO2024-G8A_Atlas_3_PLAY_00318784_BallAppearedFromLastToThisImage_U.png;1715460941191;tkalbitz;GoalPost;99;107;94;28;Right
GO2024-G8A_Atlas_3_PLAY_00318784_BallAppearedFromLastToThisImage_U.png;1715460943681;tkalbitz;GoalPost;94;28;1;25;Middle
GO2024-G8A_Atlas_3_PLAY_00322241_BallAppearedFromLastToThisImage_U.png;1715460948447;tkalbitz;GoalPost;104;111;95;32;Right
GO2024-G8A_Atlas_3_PLAY_00322241_BallAppearedFromLastToThisImage_U.png;1715460950354;tkalbitz;GoalPost;95;32;2;30;Middle
GO2024-G8A_Atlas_3_PLAY_00344199_BallAppearedFromLastToThisImage_U.png;1715460972508;tkalbitz;GoalPost;35;80;24;3;Left
GO2024-G8A_Atlas_3_PLAY_00344199_BallAppearedFromLastToThisImage_U.png;1715460976738;tkalbitz;GoalPost;24;3;176;3;Middle
GO2024-G8A_Atlas_3_PLAY_00344199_BallAppearedFromLastToThisImage_U.png;1715460979475;tkalbitz;GoalPost;176;3;181;76;Right
GO2024-G8A_Atlas_3_PLAY_00374542_BallAppearedFromLastToThisImage_U.png;1715460986589;tkalbitz;GoalPost;126;99;121;23;Right
GO2024-G8A_Atlas_3_PLAY_00374542_BallAppearedFromLastToThisImage_U.png;1715460990041;tkalbitz;GoalPost;121;23;1;20;Middle
GO2024-G8A_Atlas_3_PLAY_00376708_BallAppearedFromLastToThisImage_U.png;1715460994841;tkalbitz;GoalPost;126;95;119;20;Right
GO2024-G8A_Atlas_3_PLAY_00376708_BallAppearedFromLastToThisImage_U.png;1715460999843;tkalbitz;GoalPost;119;20;-2;18;Middle
GO2024-G8A_Atlas_3_PLAY_00378269_BallAppearedFromLastToThisImage_U.png;1715461006060;tkalbitz;GoalPost;115;98;106;22;Left
GO2024-G8A_Atlas_3_PLAY_00378269_BallAppearedFromLastToThisImage_U.png;1715461008070;tkalbitz;GoalPost;106;22;246;19;Middle
GO2024-G8A_Atlas_3_PLAY_00378269_BallAppearedFromLastToThisImage_U.png;1715461010796;tkalbitz;GoalPost;246;19;252;92;Right
GO2024-G8A_Atlas_3_PLAY_00380023_BallAppearedFromLastToThisImage_U.png;1715461018315;tkalbitz;GoalPost;271;106;270;30;Left
GO2024-G8A_Atlas_3_PLAY_00380023_BallAppearedFromLastToThisImage_U.png;1715461020994;tkalbitz;GoalPost;270;30;402;32;Middle
GO2024-G8A_Atlas_3_PLAY_00380023_BallAppearedFromLastToThisImage_U.png;1715461026851;tkalbitz;GoalPost;402;32;400;104;Right
GO2024-G8A_Atlas_3_PLAY_00711296_BallAppearedFromLastToThisImage_U.png;1715675931981;tkalbitz;GoalPost;159;166;157;98;Right
GO2024-G8A_Atlas_3_PLAY_00759311_BallAppearedFromLastToThisImage_U.png;1715461051766;tkalbitz;GoalPost;305;137;306;35;Left
GO2024-G8A_Atlas_3_PLAY_00759311_BallAppearedFromLastToThisImage_U.png;1715461055612;tkalbitz;GoalPost;306;35;496;24;Middle
GO2024-G8A_Atlas_3_PLAY_00759311_BallAppearedFromLastToThisImage_U.png;1715461063660;tkalbitz;GoalPost;489;138;497;23;Right
GO2024-G8A_Atlas_3_PLAY_00825511_BallAppearedFromLastToThisImage_U.png;1715461082079;tkalbitz;GoalPost;532;266;589;23;Left
GO2024-G8A_Atlas_3_PLAY_00825511_BallAppearedFromLastToThisImage_U.png;1715461086261;tkalbitz;GoalPost;589;23;638;24;Middle
GO2024-G8A_Atlas_3_PLAY_00826991_BallAppearedFromLastToThisImage_U.png;1715461095005;tkalbitz;GoalPost;575;240;609;35;Right
GO2024-G8A_Atlas_3_PLAY_00826991_BallAppearedFromLastToThisImage_U.png;1715461097871;tkalbitz;GoalPost;609;35;204;13;Middle
GO2024-G8A_Atlas_3_PLAY_00836167_BallAppearedFromLastToThisImage_U.png;1715669763320;tkalbitz;GoalPost;302;180;270;-1;Right
GO2024-G8A_Atlas_3_PLAY_00858228_BallAppearedFromLastToThisImage_U.png;1715461103896;tkalbitz;GoalPost;511;291;503;0;Left
GO2024-G8A_Atlas_3_PLAY_00899367_BallAppearedFromLastToThisImage_U.png;1715461113330;tkalbitz;GoalPost;352;158;414;-3;Left
GO2024-G8A_Atlas_3_SET_00244639_BallAppearedFromLastToThisImage_U.png;1715669772742;tkalbitz;GoalPost;138;135;137;61;Right
GO2024-G8A_Atlas_3_SET_00461499_BallAppearedFromLastToThisImage_U.png;1715461123797;tkalbitz;GoalPost;596;147;605;68;Left
GO2024-G8A_Atlas_3_SET_00461499_BallAppearedFromLastToThisImage_U.png;1715461126995;tkalbitz;GoalPost;605;68;641;68;Middle
GO2024-G8B_Atlas_3_PLAY_00254595_BallAppearedFromLastToThisImage_U.png;1715669776741;tkalbitz;GoalPost;234;207;221;119;Right
GO2024-G8B_Atlas_3_PLAY_00260084_BallAppearedFromLastToThisImage_U.png;1715461134335;tkalbitz;GoalPost;156;171;141;74;Right
GO2024-G8B_Atlas_3_PLAY_00260084_BallAppearedFromLastToThisImage_U.png;1715461137611;tkalbitz;GoalPost;141;74;1;76;Middle
GO2024-G8B_Atlas_3_PLAY_00268569_BallAppearedFromLastToThisImage_U.png;1715461145043;tkalbitz;GoalPost;465;145;477;47;Right
GO2024-G8B_Atlas_3_PLAY_00268569_BallAppearedFromLastToThisImage_U.png;1715461148614;tkalbitz;GoalPost;477;47;348;40;Middle
GO2024-G8B_Atlas_3_PLAY_00315181_BallAppearedFromLastToThisImage_U.png;1715461155016;tkalbitz;GoalPost;35;222;16;117;Left
GO2024-G8B_Atlas_3_PLAY_00315181_BallAppearedFromLastToThisImage_U.png;1715461158924;tkalbitz;GoalPost;16;117;196;100;Middle
GO2024-G8B_Atlas_3_PLAY_00315181_BallAppearedFromLastToThisImage_U.png;1715461163683;tkalbitz;GoalPost;196;100;214;216;Right
GO2024-G8B_Atlas_3_PLAY_00320123_BallAppearedFromLastToThisImage_U.png;1715461171417;tkalbitz;GoalPost;227;170;222;50;Right
GO2024-G8B_Atlas_3_PLAY_00320123_BallAppearedFromLastToThisImage_U.png;1715461173507;tkalbitz;GoalPost;222;50;38;48;Middle
GO2024-G8B_Atlas_3_PLAY_00323122_BallAppearedFromLastToThisImage_U.png;1715461181927;tkalbitz;GoalPost;417;165;426;43;Right
GO2024-G8B_Atlas_3_PLAY_00323122_BallAppearedFromLastToThisImage_U.png;1715461185753;tkalbitz;GoalPost;426;43;255;56;Middle
GO2024-G8B_Atlas_3_PLAY_00377086_BallAppearedFromLastToThisImage_U.png;1715461196148;tkalbitz;GoalPost;136;220;133;122;Right
GO2024-G8B_Atlas_3_PLAY_00377086_BallAppearedFromLastToThisImage_U.png;1715461199892;tkalbitz;GoalPost;133;122;2;121;Middle
GO2024-G8B_Atlas_3_PLAY_00391412_BallAppearedFromLastToThisImage_U.png;1715461207545;tkalbitz;GoalPost;555;231;580;109;Left
GO2024-G8B_Atlas_3_PLAY_00391412_BallAppearedFromLastToThisImage_U.png;1715461210666;tkalbitz;GoalPost;580;109;638;117;Middle
GO2024-G8B_Atlas_3_PLAY_00412869_BallAppearedFromLastToThisImage_U.png;1715461217833;tkalbitz;GoalPost;43;112;25;1;Left
GO2024-G8B_Atlas_3_PLAY_00412869_BallAppearedFromLastToThisImage_U.png;1715461221723;tkalbitz;GoalPost;353;89;356;0;Right
GO2024-G8B_Atlas_3_PLAY_00418749_BallAppearedFromLastToThisImage_U.png;1715461227693;tkalbitz;GoalPost;624;171;627;2;Left
GO2024-G8B_Atlas_3_PLAY_00446364_BallAppearedFromLastToThisImage_U.png;1715461233155;tkalbitz;GoalPost;426;162;431;88;Left
GO2024-G8B_Atlas_3_PLAY_00446364_BallAppearedFromLastToThisImage_U.png;1715461235251;tkalbitz;GoalPost;431;88;580;90;Middle
GO2024-G8B_Atlas_3_PLAY_00446364_BallAppearedFromLastToThisImage_U.png;1715461237705;tkalbitz;GoalPost;580;90;572;172;Right
GO2024-G8B_Atlas_3_PLAY_00484851_BallAppearedFromLastToThisImage_U.png;1715461244920;tkalbitz;GoalPost;44;83;22;2;Left
GO2024-G8B_Atlas_3_PLAY_00484851_BallAppearedFromLastToThisImage_U.png;1715461248702;tkalbitz;GoalPost;276;74;265;0;Right
GO2024-G8B_Atlas_3_PLAY_00490544_BallAppearedFromLastToThisImage_U.png;1715669782255;tkalbitz;GoalPost;386;113;387;2;Right
GO2024-G8B_Atlas_3_PLAY_00492869_BallAppearedFromLastToThisImage_U.png;1715461254276;tkalbitz;GoalPost;367;84;368;1;Right
GO2024-G8B_Atlas_3_PLAY_00569400_BallAppearedFromLastToThisImage_U.png;1715461263168;tkalbitz;GoalPost;473;131;487;7;Right
GO2024-G8B_Atlas_3_PLAY_00569400_BallAppearedFromLastToThisImage_U.png;1715461266119;tkalbitz;GoalPost;487;7;275;13;Middle
GO2024-G8B_Atlas_3_PLAY_00804427_BallAppearedFromLastToThisImage_U.png;1715461276923;tkalbitz;GoalPost;44;101;16;-1;Right
GO2024-G8B_Atlas_3_PLAY_00805899_BallAppearedFromLastToThisImage_U.png;1715461283579;tkalbitz;GoalPost;123;67;114;-2;Right
GO2024-G8B_Atlas_3_PLAY_00832630_BallAppearedFromLastToThisImage_U.png;1715669787381;tkalbitz;GoalPost;110;97;111;0;Right
GO2024-G8B_Atlas_3_PLAY_00865250_BallAppearedFromLastToThisImage_U.png;1715461289698;tkalbitz;GoalPost;456;266;460;1;Right
GO2024-G8B_Atlas_3_SET_00176622_BallAppearedFromLastToThisImage_U.png;1715461301692;tkalbitz;GoalPost;441;150;446;74;Left
GO2024-G8B_Atlas_3_SET_00176622_BallAppearedFromLastToThisImage_U.png;1715461303714;tkalbitz;GoalPost;446;74;581;71;Middle
GO2024-G8B_Atlas_3_SET_00188407_BallAppearedFromLastToThisImage_U.png;1715461307624;tkalbitz;GoalPost;351;166;352;95;Left
GO2024-G8B_Atlas_3_SET_00188407_BallAppearedFromLastToThisImage_U.png;1715461310056;tkalbitz;GoalPost;352;95;490;92;Middle
GO2024-G8B_Atlas_3_SET_00188407_BallAppearedFromLastToThisImage_U.png;1715461314607;tkalbitz;GoalPost;489;92;485;163;Right
GO2024-G8A_Atlas_3_PLAY_00283731_BallAppearedFromLastToThisImage_U.png;1715460894077;tkalbitz;Ignore
GO2024-G8A_Atlas_3_PLAY_00285418_BallAppearedFromLastToThisImage_U.png;1715460901210;tkalbitz;Ignore
GO2024-G8A_Atlas_3_PLAY_00286923_BallAppearedFromLastToThisImage_U.png;1715460902406;tkalbitz;Ignore
GO2024-G8A_Atlas_3_PLAY_00728142_BallAppearedFromLastToThisImage_U.png;1718126125105;tkalbitz;NoCenterCirclePoints
GO2024-G8A_Atlas_3_PLAY_00735426_BallAppearedFromLastToThisImage_U.png;1718126126009;tkalbitz;NoCenterCirclePoints
GO2024-G8B_Atlas_3_PLAY_00254595_BallAppearedFromLastToThisImage_U.png;1718134409674;tkalbitz;NoCenterCirclePoints
GO2024-G8B_Atlas_3_PLAY_00260084_BallAppearedFromLastToThisImage_U.png;1718134410812;tkalbitz;NoCenterCirclePoints
GO2024-G8B_Atlas_3_PLAY_00358656_BallAppearedFromLastToThisImage_U.png;1718134420126;tkalbitz;NoCenterCirclePoints
GO2024-G8B_Atlas_3_PLAY_00385965_BallAppearedFromLastToThisImage_U.png;1718134425881;tkalbitz;NoCenterCirclePoints
GO2024-G8B_Atlas_3_PLAY_00672350_BallAppearedFromLastToThisImage_U.png;1718134432757;tkalbitz;NoCenterCirclePoints
GO2024-G8B_Atlas_3_PLAY_00795417_BallAppearedFromLastToThisImage_U.png;1718134435303;tkalbitz;NoCenterCirclePoints
GO2024-G8B_Atlas_3_PLAY_00804427_BallAppearedFromLastToThisImage_U.png;1718126131715;tkalbitz;NoCenterCirclePoints
GO2024-G8B_Atlas_3_PLAY_00817670_BallAppearedFromLastToThisImage_U.png;1718134440397;tkalbitz;NoCenterCirclePoints
GO2024-G8B_Atlas_3_PLAY_00829651_BallAppearedFromLastToThisImage_U.png;1718139156462;tkalbitz;NoCenterCirclePoints
GO2024-G8B_Atlas_3_PLAY_00845151_BallAppearedFromLastToThisImage_U.png;1718126132743;tkalbitz;NoCenterCirclePoints
GO2024-G8B_Atlas_3_SET_00774771_BallAppearedFromLastToThisImage_U.png;1718139160578;tkalbitz;NoCenterCirclePoints
GO2024-G8A_Atlas_3_PLAY_00487224_BallAppearedFromLastToThisImage_U.png;1715461037669;tkalbitz;NoGoalPost
GO2024-G8A_Atlas_3_PLAY_00499287_BallAppearedFromLastToThisImage_U.png;1715675928285;tkalbitz;NoGoalPost
GO2024-G8A_Atlas_3_PLAY_00617356_BallAppearedFromLastToThisImage_U.png;1715461041081;tkalbitz;NoGoalPost
GO2024-G8A_Atlas_3_PLAY_00699322_BallAppearedFromLastToThisImage_U.png;1715461047788;tkalbitz;NoGoalPost
GO2024-G8A_Atlas_3_PLAY_00774022_BallAppearedFromLastToThisImage_U.png;1715541380295;tkalbitz;NoGoalPost
GO2024-G8A_Atlas_3_PLAY_00815055_BallAppearedFromLastToThisImage_U.png;1715461075553;tkalbitz;NoGoalPost
GO2024-G8A_Atlas_3_PLAY_00823366_BallAppearedFromLastToThisImage_U.png;1715461078085;tkalbitz;NoGoalPost
GO2024-G8A_Atlas_3_PLAY_00863809_BallAppearedFromLastToThisImage_U.png;1715461111032;tkalbitz;NoGoalPost
GO2024-G8A_Atlas_3_SET_00233943_BallAppearedFromLastToThisImage_U.png;1715675936407;tkalbitz;NoGoalPost
GO2024-G8A_Atlas_3_SET_00236872_BallAppearedFromLastToThisImage_U.png;1715669768926;tkalbitz;NoGoalPost
GO2024-G8B_Atlas_3_PLAY_00582164_BallAppearedFromLastToThisImage_U.png;1715461271307;tkalbitz;NoGoalPost
GO2024-G8B_Atlas_3_PLAY_00802734_BallAppearedFromLastToThisImage_U.png;1715461273023;tkalbitz;NoGoalPost
GO2024-G8B_Atlas_3_PLAY_00817670_BallAppearedFromLastToThisImage_U.png;1715461287368;tkalbitz;NoGoalPost
GO2024-G8B_Atlas_3_PLAY_00872421_BallAppearedFromLastToThisImage_U.png;1715461297936;tkalbitz;NoGoalPost
