GO2024-G7A_Pioneer_2_READY_00152941_TimeLoggedImaged_U.png;1718137023675;tkalbitz;CenterCirclePoints;250;188;250;188;Left
GO2024-G7A_Pioneer_2_READY_00180038_TimeLoggedImaged_U.png;1718139143093;tkalbitz;CenterCirclePoints;417;196;417;196;Left
GO2024-G7A_Pioneer_2_SET_00192559_TimeLoggedImaged_U.png;1718127854182;tkalbitz;NoCenterCirclePoints
GO2024-G7A_Pioneer_2_READY_00152941_TimeLoggedImaged_U.png;1715541368948;tkalbitz;NoGoalPost
