GO2024-G4A_Genesis_7_PLAY_00461156_TimeLoggedImaged_U.png;1718126010963;tkalbitz;CenterCirclePoints;192;149;192;149;Right
GO2024-G4A_Genesis_7_PLAY_00598914_TimeLoggedImaged_U.png;1718130222402;tkalbitz;CenterCirclePoints;524;128;524;128;Left
GO2024-G4A_Genesis_7_PLAY_00606220_TimeLoggedImaged_U.png;1718130225912;tkalbitz;CenterCirclePoints;217;161;217;161;Right
GO2024-G4A_Genesis_7_PLAY_00810966_TimeLoggedImaged_U.png;1718126019524;tkalbitz;CenterCirclePoints;83;402;83;402;Left
GO2024-G4A_Genesis_7_PLAY_00810966_TimeLoggedImaged_U.png;1718126022368;tkalbitz;CenterCirclePoints;216;239;216;239;Right
GO2024-G4A_Genesis_7_PLAY_00818253_TimeLoggedImaged_U.png;1718195604567;tkalbitz;CenterCirclePoints;430;449;430;449;Left
GO2024-G4A_Genesis_7_READY_00233255_TimeLoggedImaged_U.png;1718126053573;tkalbitz;CenterCirclePoints;274;356;274;356;Left
GO2024-G4A_Genesis_7_READY_00233255_TimeLoggedImaged_U.png;1718126055589;tkalbitz;CenterCirclePoints;465;246;465;246;Right
GO2024-G4A_Genesis_7_READY_00337100_TimeLoggedImaged_U.png;1718126059101;tkalbitz;CenterCirclePoints;360;195;360;195;Left
GO2024-G4A_Genesis_7_SET_00759124_TimeLoggedImaged_U.png;1718126077351;tkalbitz;CenterCirclePoints;40;282;40;282;Left
GO2024-G4A_Genesis_7_SET_00759124_TimeLoggedImaged_U.png;1718126079435;tkalbitz;CenterCirclePoints;200;191;200;191;Right
GO2024-G4A_Genesis_7_SET_00778345_TimeLoggedImaged_U.png;1718126084923;tkalbitz;CenterCirclePoints;301;193;301;193;Left
GO2024-G4A_Genesis_7_SET_00778345_TimeLoggedImaged_U.png;1718126087985;tkalbitz;CenterCirclePoints;445;113;445;113;Right
GO2024-G4A_Genesis_7_SET_00785621_TimeLoggedImaged_U.png;1718126090661;tkalbitz;CenterCirclePoints;304;192;304;192;Left
GO2024-G4A_Genesis_7_SET_00785621_TimeLoggedImaged_U.png;1718126092859;tkalbitz;CenterCirclePoints;446;112;446;112;Right
GO2024-G4A_Genesis_7_SET_00792918_TimeLoggedImaged_U.png;1718126096449;tkalbitz;CenterCirclePoints;299;193;299;193;Left
GO2024-G4A_Genesis_7_SET_00792918_TimeLoggedImaged_U.png;1718126098691;tkalbitz;CenterCirclePoints;446;113;446;113;Right
GO2024-G4B_Genesis_7_PLAY_00214830_TimeLoggedImaged_U.png;1718126102931;tkalbitz;CenterCirclePoints;236;292;236;292;Left
GO2024-G4B_Genesis_7_PLAY_00222125_TimeLoggedImaged_U.png;1718126107306;tkalbitz;CenterCirclePoints;371;301;371;301;Right
GO2024-G4B_Genesis_7_PLAY_00352100_TimeLoggedImaged_U.png;1718126110150;tkalbitz;CenterCirclePoints;569;216;569;216;Left
GO2024-G4B_Genesis_7_PLAY_00473531_TimeLoggedImaged_U.png;1718130236027;tkalbitz;CenterCirclePoints;166;235;166;235;Right
GO2024-G4B_Genesis_7_READY_00390813_TimeLoggedImaged_U.png;1718126112516;tkalbitz;CenterCirclePoints;94;327;94;327;Right
GO2024-G4A_Genesis_7_PLAY_00282307_TimeLoggedImaged_U.png;1715470565192;tkalbitz;GoalPost;600;84;609;0;Right
GO2024-G4A_Genesis_7_PLAY_00295322_TimeLoggedImaged_U.png;1715675855224;tkalbitz;GoalPost;186;119;186;1;Right
GO2024-G4A_Genesis_7_PLAY_00399389_TimeLoggedImaged_U.png;1715633707655;tkalbitz;GoalPost;282;152;268;2;Right
GO2024-G4A_Genesis_7_PLAY_00439269_TimeLoggedImaged_U.png;1715470568926;tkalbitz;GoalPost;625;121;620;40;Left
GO2024-G4A_Genesis_7_PLAY_00439269_TimeLoggedImaged_U.png;1715470571172;tkalbitz;GoalPost;620;40;638;39;Middle
GO2024-G4A_Genesis_7_PLAY_00486553_TimeLoggedImaged_U.png;1715633712765;tkalbitz;GoalPost;455;414;455;4;Left
GO2024-G4A_Genesis_7_PLAY_00591625_TimeLoggedImaged_U.png;1715470579281;tkalbitz;GoalPost;436;180;416;53;Right
GO2024-G4A_Genesis_7_PLAY_00591625_TimeLoggedImaged_U.png;1715470580968;tkalbitz;GoalPost;416;53;198;58;Middle
GO2024-G4A_Genesis_7_PLAY_00606220_TimeLoggedImaged_U.png;1715675859044;tkalbitz;GoalPost;342;34;343;1;Left
GO2024-G4A_Genesis_7_PLAY_00834686_TimeLoggedImaged_U.png;1715633718453;tkalbitz;GoalPost;344;67;338;3;Right
GO2024-G4A_Genesis_7_READY_00337100_TimeLoggedImaged_U.png;1715633722549;tkalbitz;GoalPost;274;113;273;33;Left
GO2024-G4A_Genesis_7_READY_00344383_TimeLoggedImaged_U.png;1715470587851;tkalbitz;GoalPost;419;160;433;58;Left
GO2024-G4A_Genesis_7_READY_00344383_TimeLoggedImaged_U.png;1715470590095;tkalbitz;GoalPost;433;58;624;60;Middle
GO2024-G4A_Genesis_7_READY_00730013_TimeLoggedImaged_U.png;1715633726622;tkalbitz;GoalPost;52;165;39;53;Left
GO2024-G4B_Genesis_7_READY_00383530_TimeLoggedImaged_U.png;1715633738194;tkalbitz;GoalPost;121;122;116;34;Right
GO2024-G4B_Genesis_7_READY_00390813_TimeLoggedImaged_U.png;1715633743038;tkalbitz;GoalPost;608;168;615;61;Right
GO2024-G4B_Genesis_7_SET_00179139_TimeLoggedImaged_U.png;1715633747169;tkalbitz;GoalPost;602;199;633;76;Left
GO2024-G4A_Genesis_7_PLAY_00295322_TimeLoggedImaged_U.png;1718130217960;tkalbitz;NoCenterCirclePoints
GO2024-G4A_Genesis_7_PLAY_00486553_TimeLoggedImaged_U.png;1718134318342;tkalbitz;NoCenterCirclePoints
GO2024-G4A_Genesis_7_PLAY_00643305_TimeLoggedImaged_U.png;1718126015228;tkalbitz;NoCenterCirclePoints
GO2024-G4A_Genesis_7_READY_00730013_TimeLoggedImaged_U.png;1718130230224;tkalbitz;NoCenterCirclePoints
GO2024-G4A_Genesis_7_SET_00247861_TimeLoggedImaged_U.png;1718126061678;tkalbitz;NoCenterCirclePoints
GO2024-G4A_Genesis_7_SET_00351655_TimeLoggedImaged_U.png;1718130231782;tkalbitz;NoCenterCirclePoints
GO2024-G4A_Genesis_7_SET_00766399_TimeLoggedImaged_U.png;1718132568885;tkalbitz;NoCenterCirclePoints
GO2024-G4B_Genesis_7_PLAY_00301818_TimeLoggedImaged_U.png;1718130232732;tkalbitz;NoCenterCirclePoints
GO2024-G4A_Genesis_7_PLAY_00453876_TimeLoggedImaged_U.png;1715470574797;tkalbitz;NoGoalPost
GO2024-G4A_Genesis_7_PLAY_00598914_TimeLoggedImaged_U.png;1715470583757;tkalbitz;NoGoalPost
GO2024-G4A_Genesis_7_READY_00318278_TimeLoggedImaged_U.png;1715675866872;tkalbitz;NoGoalPost
GO2024-G4A_Genesis_7_READY_00329814_TimeLoggedImaged_U.png;1715470585849;tkalbitz;NoGoalPost
GO2024-G4A_Genesis_7_SET_00351655_TimeLoggedImaged_U.png;1715470592965;tkalbitz;NoGoalPost
GO2024-G4B_Genesis_7_PLAY_00222125_TimeLoggedImaged_U.png;1715675867930;tkalbitz;NoGoalPost
GO2024-G4B_Genesis_7_PLAY_00259223_TimeLoggedImaged_U.png;1715470594738;tkalbitz;NoGoalPost
GO2024-G4B_Genesis_7_PLAY_00301818_TimeLoggedImaged_U.png;1715633734272;tkalbitz;NoGoalPost
GO2024-G4B_Genesis_7_PLAY_00449977_TimeLoggedImaged_U.png;1715470597064;tkalbitz;NoGoalPost
GO2024-G4B_Genesis_7_PLAY_00473531_TimeLoggedImaged_U.png;1715675869675;tkalbitz;NoGoalPost
GO2024-G4B_Genesis_7_SET_00419442_TimeLoggedImaged_U.png;1715470598048;tkalbitz;NoGoalPost
