RC2023-G4A_Pioneer_7_PLAY_00152008_BallVanishedFromLastToThisImage_U.png;1718185066153;tkalbitz;CenterCirclePoints;29;452;29;452;Right
RC2023-G4A_Pioneer_7_PLAY_00589443_BallVanishedFromLastToThisImage_U.png;1718191941339;tkalbitz;CenterCirclePoints;621;129;621;129;Left
RC2023-G4A_Pioneer_7_PLAY_00604892_BallVanishedFromLastToThisImage_U.png;1718183001146;tkalbitz;CenterCirclePoints;560;164;560;164;Left
RC2023-G4A_Pioneer_7_PLAY_00674171_BallVanishedFromLastToThisImage_U.png;1718183003680;tkalbitz;CenterCirclePoints;236;205;236;205;Right
RC2023-G4A_Pioneer_7_PLAY_00676223_BallVanishedFromLastToThisImage_U.png;1718183005948;tkalbitz;CenterCirclePoints;31;175;31;175;Right
RC2023-G4A_Pioneer_7_PLAY_00678056_BallVanishedFromLastToThisImage_U.png;1718183008870;tkalbitz;CenterCirclePoints;156;176;156;176;Right
RC2023-G4A_Pioneer_7_PLAY_00693631_BallVanishedFromLastToThisImage_U.png;1718183010946;tkalbitz;CenterCirclePoints;190;146;190;146;Right
RC2023-G4A_Pioneer_7_PLAY_00697603_BallVanishedFromLastToThisImage_U.png;1718183014334;tkalbitz;CenterCirclePoints;286;163;286;163;Right
RC2023-G4A_Pioneer_7_PLAY_00700604_BallVanishedFromLastToThisImage_U.png;1718183016026;tkalbitz;CenterCirclePoints;253;157;253;157;Right
RC2023-G4A_Pioneer_7_SET_00410470_BallVanishedFromLastToThisImage_U.png;1718183018444;tkalbitz;CenterCirclePoints;367;282;367;282;Left
RC2023-G4A_Pioneer_7_SET_00413504_BallVanishedFromLastToThisImage_U.png;1718183019602;tkalbitz;CenterCirclePoints;367;282;367;282;Left
RC2023-G4A_Pioneer_7_SET_00416559_BallVanishedFromLastToThisImage_U.png;1718183020773;tkalbitz;CenterCirclePoints;367;282;367;282;Left
RC2023-G4B_Pioneer_7_PLAY_00311967_BallVanishedFromLastToThisImage_U.png;1718183025961;tkalbitz;CenterCirclePoints;298;133;298;133;Right
RC2023-G4B_Pioneer_7_PLAY_00426981_BallVanishedFromLastToThisImage_U.png;1718183029915;tkalbitz;CenterCirclePoints;424;373;424;373;Right
RC2023-G4B_Pioneer_7_PLAY_00534304_BallVanishedFromLastToThisImage_U.png;1718183034849;tkalbitz;CenterCirclePoints;370;278;370;278;Left
RC2023-G4B_Pioneer_7_SET_00677920_BallVanishedFromLastToThisImage_U.png;1718183037397;tkalbitz;CenterCirclePoints;576;268;576;268;Right
RC2023-G4B_Pioneer_7_SET_00681666_BallVanishedFromLastToThisImage_U.png;1718183039745;tkalbitz;CenterCirclePoints;281;283;281;283;Right
RC2023-G4B_Pioneer_7_SET_00684712_BallVanishedFromLastToThisImage_U.png;1718183045120;tkalbitz;CenterCirclePoints;287;282;287;282;Right
RC2023-G4A_Pioneer_7_PLAY_00313954_BallVanishedFromLastToThisImage_U.png;1715678281042;tkalbitz;GoalPost;241;128;236;1;Right
RC2023-G4A_Pioneer_7_PLAY_00538175_BallVanishedFromLastToThisImage_U.png;1715625987583;tkalbitz;GoalPost;126;70;119;1;Right
RC2023-G4A_Pioneer_7_PLAY_00710370_BallVanishedFromLastToThisImage_U.png;1715625996472;tkalbitz;GoalPost;558;66;574;3;Left
RC2023-G4A_Pioneer_7_SET_00284501_BallVanishedFromLastToThisImage_U.png;1715626006286;tkalbitz;GoalPost;455;97;461;0;Right
RC2023-G4B_Pioneer_7_PLAY_00199338_BallVanishedFromLastToThisImage_U.png;1715626012405;tkalbitz;GoalPost;86;116;70;9;Right
RC2023-G4B_Pioneer_7_PLAY_00205386_BallVanishedFromLastToThisImage_U.png;1715626018947;tkalbitz;GoalPost;343;113;353;4;Left
RC2023-G4B_Pioneer_7_PLAY_00435421_BallVanishedFromLastToThisImage_U.png;1715626032818;tkalbitz;GoalPost;117;123;117;1;Right
RC2023-G4B_Pioneer_7_PLAY_00566526_BallVanishedFromLastToThisImage_U.png;1715626036440;tkalbitz;GoalPost;88;40;85;0;Right
RC2023-G4B_Pioneer_7_PLAY_00571686_BallVanishedFromLastToThisImage_U.png;1715626043469;tkalbitz;GoalPost;189;31;188;0;Right
RC2023-G4B_Pioneer_7_SET_00144020_BallVanishedFromLastToThisImage_U.png;1715626047803;tkalbitz;GoalPost;251;118;254;51;Right
RC2023-G4B_Pioneer_7_SET_00146150_BallVanishedFromLastToThisImage_U.png;1715626051594;tkalbitz;GoalPost;263;108;271;48;Right
RC2023-G4B_Pioneer_7_SET_00677920_BallVanishedFromLastToThisImage_U.png;1715626089168;tkalbitz;GoalPost;484;74;489;2;Right
RC2023-G4B_Pioneer_7_SET_00681666_BallVanishedFromLastToThisImage_U.png;1715678289464;tkalbitz;GoalPost;197;138;196;50;Right
RC2023-G4A_Pioneer_7_PLAY_00338554_BallVanishedFromLastToThisImage_U.png;1718191936925;tkalbitz;NoCenterCirclePoints
RC2023-G4A_Pioneer_7_PLAY_00482843_BallVanishedFromLastToThisImage_U.png;1718182994986;tkalbitz;NoCenterCirclePoints
RC2023-G4A_Pioneer_7_PLAY_00491783_BallVanishedFromLastToThisImage_U.png;1718185067584;tkalbitz;NoCenterCirclePoints
RC2023-G4A_Pioneer_7_PLAY_00549960_BallVanishedFromLastToThisImage_U.png;1718191937829;tkalbitz;NoCenterCirclePoints
RC2023-G4B_Pioneer_7_PLAY_00563608_BallVanishedFromLastToThisImage_U.png;1718185069546;tkalbitz;NoCenterCirclePoints
RC2023-G4B_Pioneer_7_PLAY_00597547_BallVanishedFromLastToThisImage_U.png;1718191944803;tkalbitz;NoCenterCirclePoints
RC2023-G4A_Pioneer_7_PLAY_00170611_BallVanishedFromLastToThisImage_U.png;1715678267579;tkalbitz;NoGoalPost
RC2023-G4A_Pioneer_7_SET_00130797_BallVanishedFromLastToThisImage_U.png;1715626001896;tkalbitz;NoGoalPost
