GO2024-G5A_Atlas_3_PLAY_00481410_BallVanishedFromLastToThisImage_U.png;1718134711447;tkalbitz;CenterCirclePoints;516;232;516;232;Left
GO2024-G5A_Atlas_3_PLAY_00588746_BallVanishedFromLastToThisImage_U.png;1718126291684;tkalbitz;CenterCirclePoints;344;466;344;466;Right
GO2024-G5A_Atlas_3_PLAY_00602658_BallVanishedFromLastToThisImage_U.png;1718134717399;tkalbitz;CenterCirclePoints;289;308;289;308;Left
GO2024-G5A_Atlas_3_PLAY_00604593_BallVanishedFromLastToThisImage_U.png;1718134721142;tkalbitz;CenterCirclePoints;74;474;74;474;Left
GO2024-G5A_Atlas_3_PLAY_00730257_BallVanishedFromLastToThisImage_U.png;1718134727588;tkalbitz;CenterCirclePoints;190;293;190;293;Left
GO2024-G5A_Atlas_3_PLAY_00746406_BallVanishedFromLastToThisImage_U.png;1718126295024;tkalbitz;CenterCirclePoints;540;216;540;216;Left
GO2024-G5B_Atlas_3_PLAY_00282872_BallVanishedFromLastToThisImage_U.png;1718126299156;tkalbitz;CenterCirclePoints;110;178;110;178;Left
GO2024-G5B_Atlas_3_PLAY_00282872_BallVanishedFromLastToThisImage_U.png;1718126303036;tkalbitz;CenterCirclePoints;385;167;385;167;Right
GO2024-G5B_Atlas_3_PLAY_00689920_BallVanishedFromLastToThisImage_U.png;1718134740030;tkalbitz;CenterCirclePoints;554;154;554;154;Left
GO2024-G5B_Atlas_3_SET_00266806_BallVanishedFromLastToThisImage_U.png;1718138416788;tkalbitz;CenterCirclePoints;166;209;166;209;Left
GO2024-G5B_Atlas_3_SET_00266806_BallVanishedFromLastToThisImage_U.png;1718138418361;tkalbitz;CenterCirclePoints;450;209;450;209;Right
GO2024-G5A_Atlas_3_PLAY_00461720_BallVanishedFromLastToThisImage_U.png;1715669418318;tkalbitz;GoalPost;349;216;325;93;Right
GO2024-G5A_Atlas_3_PLAY_00573923_BallVanishedFromLastToThisImage_U.png;1715669424292;tkalbitz;GoalPost;184;147;206;42;Right
GO2024-G5A_Atlas_3_PLAY_00575550_BallVanishedFromLastToThisImage_U.png;1715470850009;tkalbitz;GoalPost;48;175;55;63;Right
GO2024-G5A_Atlas_3_PLAY_00575550_BallVanishedFromLastToThisImage_U.png;1715470854051;tkalbitz;GoalPost;55;64;-3;61;Middle
GO2024-G5A_Atlas_3_PLAY_00746406_BallVanishedFromLastToThisImage_U.png;1715676091429;tkalbitz;GoalPost;485;114;496;30;Left
GO2024-G5A_Atlas_3_SET_00252106_BallVanishedFromLastToThisImage_U.png;1715676102317;tkalbitz;GoalPost;219;95;216;18;Left
GO2024-G5A_Atlas_3_SET_00253696_BallVanishedFromLastToThisImage_U.png;1715669432340;tkalbitz;GoalPost;218;93;216;16;Left
GO2024-G5A_Atlas_3_PLAY_00448227_BallVanishedFromLastToThisImage_U.png;1718195609541;tkalbitz;NoCenterCirclePoints
GO2024-G5A_Atlas_3_PLAY_00461720_BallVanishedFromLastToThisImage_U.png;1718138413939;tkalbitz;NoCenterCirclePoints
GO2024-G5A_Atlas_3_PLAY_00595901_BallVanishedFromLastToThisImage_U.png;1718134713338;tkalbitz;NoCenterCirclePoints
GO2024-G5A_Atlas_3_PLAY_00733852_BallVanishedFromLastToThisImage_U.png;1718194704815;tkalbitz;NoCenterCirclePoints
GO2024-G5A_Atlas_3_PLAY_00433609_BallVanishedFromLastToThisImage_U.png;1715669413204;tkalbitz;NoGoalPost
GO2024-G5A_Atlas_3_PLAY_00588746_BallVanishedFromLastToThisImage_U.png;1715470857495;tkalbitz;NoGoalPost
GO2024-G5A_Atlas_3_PLAY_00718598_BallVanishedFromLastToThisImage_U.png;1715470858981;tkalbitz;NoGoalPost
GO2024-G5A_Atlas_3_PLAY_00730257_BallVanishedFromLastToThisImage_U.png;1715470861830;tkalbitz;NoGoalPost
