2017GO_vsBerlinUnitedG3C_Megamind_00212061_U.png;1494167465950;tkalbitz;Ball;160;59;145;77;Ball
2017GO_vsBerlinUnitedG3C_Megamind_00239798_U.png;1494167476163;tkalbitz;Ball;341;50;353;59;Ball
2017GO_vsBerlinUnitedG3C_Megamind_00247193_U.png;1494167482831;tkalbitz;Ball;215;11;198;8;Ball
2017GO_vsBerlinUnitedG3C_Megamind_00251501_U.png;1494167494864;tkalbitz;Ball;495;117;501;130;Ball
2017GO_vsBerlinUnitedG3C_Megamind_00254336_U.png;1494167505826;tkalbitz;Ball;294;74;301;85;Ball
2017GO_vsBerlinUnitedG3C_Megamind_00361098_U.png;1494167514867;tkalbitz;Ball;366;220;406;244;Ball
2017GO_vsBerlinUnitedG3C_Megamind_00380354_U.png;1494167520464;tkalbitz;Ball;626;117;636;134;Ball
2017GO_vsBerlinUnitedG3C_Megamind_00404597_U.png;1494167526298;tkalbitz;Ball;297;79;281;87;Ball
2017GO_vsBerlinUnitedG3C_Megamind_00410814_U.png;1494167530644;tkalbitz;Ball;176;174;167;188;Ball
2017GO_vsBerlinUnitedG3C_Megamind_00415757_U.png;1494167535271;tkalbitz;Ball;139;90;133;109;Ball
2017GO_vsBerlinUnitedG3C_Megamind_00418642_U.png;1494167541467;tkalbitz;Ball;420;82;397;88;Ball
2017GO_vsBerlinUnitedG3C_Megamind_00425137_U.png;1494167546762;tkalbitz;Ball;292;123;272;139;Ball
2017GO_vsBerlinUnitedG3C_Megamind_00429788_U.png;1494167553550;tkalbitz;Ball;173;108;142;129;Ball
2017GO_vsBerlinUnitedG3C_Megamind_00432595_U.png;1494167559697;tkalbitz;Ball;257;173;212;192;Ball
2017GO_vsBerlinUnitedG3C_Megamind_00435040_U.png;1494167567573;tkalbitz;Ball;219;301;270;357;Ball
2017GO_vsBerlinUnitedG3D_Megamind_00101113_U.png;1494167582883;tkalbitz;Ball;26;319;67;411;Ball
2017GO_vsBerlinUnitedG3D_Megamind_00135916_U.png;1622649454128;tkalbitz;Ball;208;463;186;569;Ball
2017GO_vsBerlinUnitedG3D_Megamind_00143060_U.png;1494167597133;tkalbitz;Ball;492;374;440;429;Ball
2017GO_vsBerlinUnitedG3D_Megamind_00145602_U.png;1494167603152;tkalbitz;Ball;388;332;303;378;Ball
2017GO_vsBerlinUnitedG3D_Megamind_00149244_U.png;1494167608315;tkalbitz;Ball;217;268;162;337;Ball
2017GO_vsBerlinUnitedG3D_Megamind_00151865_U.png;1494167614038;tkalbitz;Ball;452;304;414;375;Ball
2017GO_vsBerlinUnitedG3D_Megamind_00166817_U.png;1494167625976;tkalbitz;Ball;409;186;395;195;Ball
2017GO_vsBerlinUnitedG3D_Megamind_00169104_U.png;1494167638798;tkalbitz;Ball;321;10;311;27;Ball
2017GO_vsBerlinUnitedG3D_Megamind_00192040_U.png;1494167647869;tkalbitz;Ball;513;144;503;156;Ball
2017GO_vsBerlinUnitedG3D_Megamind_00216503_U.png;1494167652112;tkalbitz;Ball;606;185;628;171;Ball
2017GO_vsBerlinUnitedG3D_Megamind_00218285_U.png;1494167656964;tkalbitz;Ball;392;154;366;159;Ball
2017GO_vsBerlinUnitedG3D_Megamind_00221063_U.png;1494167662471;tkalbitz;Ball;409;127;376;133;Ball
2017GO_vsBerlinUnitedG3D_Megamind_00223333_U.png;1494167675152;tkalbitz;Ball;382;182;414;212;Ball
2017GO_vsBerlinUnitedG3D_Megamind_00225559_U.png;1494167679957;tkalbitz;Ball;370;235;337;293;Ball
2017GO_vsBerlinUnitedG3D_Megamind_00228522_U.png;1494167694980;tkalbitz;Ball;31;324;75;426;Ball
2017GO_vsBerlinUnitedG3D_Megamind_00231185_U.png;1494167703399;tkalbitz;Ball;195;411;225;538;Ball
2017GO_vsBerlinUnitedG3D_Megamind_00238739_U.png;1494167712380;tkalbitz;Ball;473;352;439;463;Ball
2017GO_vsBerlinUnitedG3D_Megamind_00241637_U.png;1494167721006;tkalbitz;Ball;435;280;379;370;Ball
2017GO_vsBerlinUnitedG3D_Megamind_00246868_U.png;1494167726767;tkalbitz;Ball;436;362;409;463;Ball
2017GO_vsBerlinUnitedG3D_Megamind_00259674_U.png;1494167733916;tkalbitz;Ball;288;360;188;428;Ball
2017GO_vsBerlinUnitedG3D_Megamind_00265900_U.png;1494167750592;tkalbitz;Ball;257;225;202;217;Ball
2017GO_vsBerlinUnitedG3D_Megamind_00268160_U.png;1494167786501;tkalbitz;Ball;363;201;395;252;Ball
2017GO_vsBerlinUnitedG3D_Megamind_00348981_U.png;1494167796713;tkalbitz;Ball;123;228;135;265;Ball
2017GO_vsBerlinUnitedG3D_Megamind_00356334_U.png;1494167807477;tkalbitz;Ball;104;355;134;430;Ball
2017GO_vsBerlinUnitedG3G_Megamind_00142717_U.png;1494167829497;tkalbitz;Ball;376;146;362;145;Ball
2017GO_vsBerlinUnitedG3G_Megamind_00234394_U.png;1494167843260;tkalbitz;Ball;335;140;320;172;Ball
2017GO_vsBerlinUnitedG3G_Megamind_00240724_U.png;1494167846857;tkalbitz;Ball;387;326;353;387;Ball
2017GO_vsBerlinUnitedG3G_Megamind_00324769_U.png;1494167853717;tkalbitz;Ball;366;32;374;39;Ball
2017GO_vsBerlinUnitedG3G_Megamind_00336153_U.png;1494167861734;tkalbitz;Ball;386;26;387;41;Ball
2017GO_vsBerlinUnitedG3G_Megamind_00338721_U.png;1494167865400;tkalbitz;Ball;414;9;416;23;Ball
2017GO_vsBerlinUnitedG3G_Megamind_00343837_U.png;1494167875641;tkalbitz;Ball;305;62;289;63;Ball
2017GO_vsBerlinUnitedG3G_Megamind_00432493_U.png;1494167890200;tkalbitz;Ball;251;66;233;79;Ball
2017GO_vsBerlinUnitedG3G_Megamind_00435623_U.png;1494167894947;tkalbitz;Ball;340;76;321;81;Ball
2017GO_vsBerlinUnitedG3G_Megamind_00505722_U.png;1494167907640;tkalbitz;Ball;385;40;385;57;Ball
2017GO_vsBerlinUnitedG3G_Megamind_00507226_U.png;1494167911995;tkalbitz;Ball;384;218;368;221;Ball
2017GO_vsBerlinUnitedG3G_Megamind_00528632_U.png;1494167916070;tkalbitz;Ball;340;74;340;86;Ball
2017GO_vsBerlinUnitedG3G_Megamind_00535484_U.png;1494167928693;tkalbitz;Ball;320;46;314;57;Ball
2017GO_vsBerlinUnitedG3G_Megamind_00592948_U.png;1622649465335;tkalbitz;Ball;527;100;531;112;Ball
2017GO_vsBerlinUnitedG3G_Megamind_00702480_U.png;1494167940440;tkalbitz;Ball;380;82;398;87;Ball
2017GO_vsBerlinUnitedG3G_Megamind_00706636_U.png;1494167951132;tkalbitz;Ball;532;161;518;179;Ball
2017GO_vsBerlinUnitedG3G_Megamind_00708809_U.png;1494167961552;tkalbitz;Ball;234;37;233;57;Ball
2017GO_vsBerlinUnitedG3G_Megamind_00710912_U.png;1494167966578;tkalbitz;Ball;379;123;365;134;Ball
2017GO_vsBerlinUnitedG3G_Megamind_00765622_U.png;1494167981206;tkalbitz;Ball;514;64;519;79;Ball
2017GO_vsBerlinUnitedG3G_Megamind_00772409_U.png;1494167985440;tkalbitz;Ball;200;3;207;14;Ball
2017GO_vsBerlinUnitedG3G_Megamind_00134084_U.png;1573594488968;tkalbitz;FieldBorder;160;6;514;111;FieldBorder
2017GO_vsBerlinUnitedG3F_Megamind_00014724_U.png;1494158581010;tkalbitz;Ignore
2017GO_vsBerlinUnitedG3F_Megamind_00016531_U.png;1494158582170;tkalbitz;Ignore
2017GO_vsBerlinUnitedG3F_Megamind_00018776_U.png;1494167818597;tkalbitz;Ignore
2017GO_vsBerlinUnitedG3F_Megamind_00020461_U.png;1494158586393;tkalbitz;Ignore
2017GO_vsBerlinUnitedG3F_Megamind_00023614_U.png;1494158587378;tkalbitz;Ignore
2017GO_vsBerlinUnitedG3F_Megamind_00025122_U.png;1494158588026;tkalbitz;Ignore
2017GO_vsBerlinUnitedG3F_Megamind_00027905_U.png;1494158588730;tkalbitz;Ignore
2017GO_vsBerlinUnitedG3F_Megamind_00031338_U.png;1494158589489;tkalbitz;Ignore
2017GO_vsBerlinUnitedG3F_Megamind_00033216_U.png;1494167821837;tkalbitz;Ignore
2017GO_vsBerlinUnitedG3F_Megamind_00035290_U.png;1494158590330;tkalbitz;Ignore
2017GO_vsBerlinUnitedG3F_Megamind_00038324_U.png;1494158590857;tkalbitz;Ignore
2017GO_vsBerlinUnitedG3F_Megamind_00040946_U.png;1494158591361;tkalbitz;Ignore
2017GO_vsBerlinUnitedG3F_Megamind_00043794_U.png;1494158591873;tkalbitz;Ignore
2017GO_vsBerlinUnitedG3F_Megamind_00044078_U.png;1494158592353;tkalbitz;Ignore
2017GO_vsBerlinUnitedG3C_Megamind_00131637_U.png;1494169864661;FalseGenerator;NoBall
2017GO_vsBerlinUnitedG3C_Megamind_00133535_U.png;1494169864536;FalseGenerator;NoBall
2017GO_vsBerlinUnitedG3C_Megamind_00135775_U.png;1494169864502;FalseGenerator;NoBall
2017GO_vsBerlinUnitedG3C_Megamind_00137536_U.png;1494169864574;FalseGenerator;NoBall
2017GO_vsBerlinUnitedG3C_Megamind_00140040_U.png;1494169864648;FalseGenerator;NoBall
2017GO_vsBerlinUnitedG3C_Megamind_00142593_U.png;1494169864542;FalseGenerator;NoBall
2017GO_vsBerlinUnitedG3C_Megamind_00144928_U.png;1494169864632;FalseGenerator;NoBall
2017GO_vsBerlinUnitedG3C_Megamind_00146931_U.png;1494169864610;FalseGenerator;NoBall
2017GO_vsBerlinUnitedG3C_Megamind_00148691_U.png;1494169864612;FalseGenerator;NoBall
2017GO_vsBerlinUnitedG3C_Megamind_00152510_U.png;1494169864646;FalseGenerator;NoBall
2017GO_vsBerlinUnitedG3C_Megamind_00154241_U.png;1494169864524;FalseGenerator;NoBall
2017GO_vsBerlinUnitedG3C_Megamind_00156087_U.png;1494169864511;FalseGenerator;NoBall
2017GO_vsBerlinUnitedG3C_Megamind_00157903_U.png;1494169864717;FalseGenerator;NoBall
2017GO_vsBerlinUnitedG3C_Megamind_00160322_U.png;1494169864698;FalseGenerator;NoBall
2017GO_vsBerlinUnitedG3C_Megamind_00167055_U.png;1494169864645;FalseGenerator;NoBall
2017GO_vsBerlinUnitedG3C_Megamind_00169125_U.png;1494169864625;FalseGenerator;NoBall
2017GO_vsBerlinUnitedG3C_Megamind_00174222_U.png;1494169864533;FalseGenerator;NoBall
2017GO_vsBerlinUnitedG3C_Megamind_00196371_U.png;1494169864589;FalseGenerator;NoBall
2017GO_vsBerlinUnitedG3C_Megamind_00200008_U.png;1494169864659;FalseGenerator;NoBall
2017GO_vsBerlinUnitedG3C_Megamind_00207066_U.png;1494169864724;FalseGenerator;NoBall
2017GO_vsBerlinUnitedG3C_Megamind_00209832_U.png;1494169864501;FalseGenerator;NoBall
2017GO_vsBerlinUnitedG3C_Megamind_00213790_U.png;1494169864534;FalseGenerator;NoBall
2017GO_vsBerlinUnitedG3C_Megamind_00215957_U.png;1494169864627;FalseGenerator;NoBall
2017GO_vsBerlinUnitedG3C_Megamind_00217916_U.png;1494169864593;FalseGenerator;NoBall
2017GO_vsBerlinUnitedG3C_Megamind_00222563_U.png;1494169864538;FalseGenerator;NoBall
2017GO_vsBerlinUnitedG3C_Megamind_00226119_U.png;1494169864535;FalseGenerator;NoBall
2017GO_vsBerlinUnitedG3C_Megamind_00226886_U.png;1494169864518;FalseGenerator;NoBall
2017GO_vsBerlinUnitedG3C_Megamind_00229352_U.png;1494169864625;FalseGenerator;NoBall
2017GO_vsBerlinUnitedG3C_Megamind_00231519_U.png;1494169864703;FalseGenerator;NoBall
2017GO_vsBerlinUnitedG3C_Megamind_00235857_U.png;1494169864562;FalseGenerator;NoBall
2017GO_vsBerlinUnitedG3C_Megamind_00237953_U.png;1494169864556;FalseGenerator;NoBall
2017GO_vsBerlinUnitedG3C_Megamind_00242682_U.png;1494169864511;FalseGenerator;NoBall
2017GO_vsBerlinUnitedG3C_Megamind_00249487_U.png;1494169864504;FalseGenerator;NoBall
2017GO_vsBerlinUnitedG3C_Megamind_00256279_U.png;1494169864579;FalseGenerator;NoBall
2017GO_vsBerlinUnitedG3C_Megamind_00266456_U.png;1494169864713;FalseGenerator;NoBall
2017GO_vsBerlinUnitedG3C_Megamind_00268447_U.png;1494169864691;FalseGenerator;NoBall
2017GO_vsBerlinUnitedG3C_Megamind_00270876_U.png;1494169864544;FalseGenerator;NoBall
2017GO_vsBerlinUnitedG3C_Megamind_00273567_U.png;1494169864650;FalseGenerator;NoBall
2017GO_vsBerlinUnitedG3C_Megamind_00275691_U.png;1494169864520;FalseGenerator;NoBall
2017GO_vsBerlinUnitedG3C_Megamind_00277922_U.png;1494169864529;FalseGenerator;NoBall
2017GO_vsBerlinUnitedG3C_Megamind_00280300_U.png;1494169864655;FalseGenerator;NoBall
2017GO_vsBerlinUnitedG3C_Megamind_00287432_U.png;1494169864628;FalseGenerator;NoBall
2017GO_vsBerlinUnitedG3C_Megamind_00289658_U.png;1494169864506;FalseGenerator;NoBall
2017GO_vsBerlinUnitedG3C_Megamind_00292656_U.png;1494169864640;FalseGenerator;NoBall
2017GO_vsBerlinUnitedG3C_Megamind_00293796_U.png;1494169864677;FalseGenerator;NoBall
2017GO_vsBerlinUnitedG3C_Megamind_00295876_U.png;1494169864637;FalseGenerator;NoBall
2017GO_vsBerlinUnitedG3C_Megamind_00297849_U.png;1494169864604;FalseGenerator;NoBall
2017GO_vsBerlinUnitedG3C_Megamind_00300238_U.png;1494169864512;FalseGenerator;NoBall
2017GO_vsBerlinUnitedG3C_Megamind_00302934_U.png;1494169864672;FalseGenerator;NoBall
2017GO_vsBerlinUnitedG3C_Megamind_00304198_U.png;1494169864499;FalseGenerator;NoBall
2017GO_vsBerlinUnitedG3C_Megamind_00306124_U.png;1494169864728;FalseGenerator;NoBall
2017GO_vsBerlinUnitedG3C_Megamind_00308550_U.png;1494169864719;FalseGenerator;NoBall
2017GO_vsBerlinUnitedG3C_Megamind_00310908_U.png;1494169864669;FalseGenerator;NoBall
2017GO_vsBerlinUnitedG3C_Megamind_00313418_U.png;1494169864600;FalseGenerator;NoBall
2017GO_vsBerlinUnitedG3C_Megamind_00340062_U.png;1494169864649;FalseGenerator;NoBall
2017GO_vsBerlinUnitedG3C_Megamind_00350239_U.png;1494169864571;FalseGenerator;NoBall
2017GO_vsBerlinUnitedG3C_Megamind_00352439_U.png;1494169864611;FalseGenerator;NoBall
2017GO_vsBerlinUnitedG3C_Megamind_00354485_U.png;1494169864655;FalseGenerator;NoBall
2017GO_vsBerlinUnitedG3C_Megamind_00356710_U.png;1494169864553;FalseGenerator;NoBall
2017GO_vsBerlinUnitedG3C_Megamind_00366746_U.png;1494169864607;FalseGenerator;NoBall
2017GO_vsBerlinUnitedG3C_Megamind_00368741_U.png;1494169864561;FalseGenerator;NoBall
2017GO_vsBerlinUnitedG3C_Megamind_00373084_U.png;1494169864522;FalseGenerator;NoBall
2017GO_vsBerlinUnitedG3C_Megamind_00375301_U.png;1494169864623;FalseGenerator;NoBall
2017GO_vsBerlinUnitedG3C_Megamind_00377698_U.png;1494169864613;FalseGenerator;NoBall
2017GO_vsBerlinUnitedG3C_Megamind_00383925_U.png;1494169864531;FalseGenerator;NoBall
2017GO_vsBerlinUnitedG3C_Megamind_00385647_U.png;1494169864618;FalseGenerator;NoBall
2017GO_vsBerlinUnitedG3C_Megamind_00390670_U.png;1494169864586;FalseGenerator;NoBall
2017GO_vsBerlinUnitedG3C_Megamind_00393049_U.png;1494169864662;FalseGenerator;NoBall
2017GO_vsBerlinUnitedG3C_Megamind_00395401_U.png;1494169864624;FalseGenerator;NoBall
2017GO_vsBerlinUnitedG3C_Megamind_00397990_U.png;1494169864614;FalseGenerator;NoBall
2017GO_vsBerlinUnitedG3C_Megamind_00399855_U.png;1494169864634;FalseGenerator;NoBall
2017GO_vsBerlinUnitedG3C_Megamind_00402505_U.png;1494169864582;FalseGenerator;NoBall
2017GO_vsBerlinUnitedG3C_Megamind_00406538_U.png;1494169864526;FalseGenerator;NoBall
2017GO_vsBerlinUnitedG3C_Megamind_00408500_U.png;1494169864693;FalseGenerator;NoBall
2017GO_vsBerlinUnitedG3C_Megamind_00413836_U.png;1494169864633;FalseGenerator;NoBall
2017GO_vsBerlinUnitedG3C_Megamind_00421122_U.png;1494169864523;FalseGenerator;NoBall
2017GO_vsBerlinUnitedG3C_Megamind_00423024_U.png;1494169864524;FalseGenerator;NoBall
2017GO_vsBerlinUnitedG3C_Megamind_00427487_U.png;1494169864553;FalseGenerator;NoBall
2017GO_vsBerlinUnitedG3C_Megamind_00437089_U.png;1494169864697;FalseGenerator;NoBall
2017GO_vsBerlinUnitedG3C_Megamind_00439559_U.png;1494169864509;FalseGenerator;NoBall
2017GO_vsBerlinUnitedG3C_Megamind_00446187_U.png;1494169864579;FalseGenerator;NoBall
2017GO_vsBerlinUnitedG3C_Megamind_00456232_U.png;1494169864551;FalseGenerator;NoBall
2017GO_vsBerlinUnitedG3C_Megamind_00458187_U.png;1494169864568;FalseGenerator;NoBall
2017GO_vsBerlinUnitedG3C_Megamind_00460041_U.png;1494169864602;FalseGenerator;NoBall
2017GO_vsBerlinUnitedG3C_Megamind_00462199_U.png;1494169864543;FalseGenerator;NoBall
2017GO_vsBerlinUnitedG3C_Megamind_00464795_U.png;1494169864575;FalseGenerator;NoBall
2017GO_vsBerlinUnitedG3C_Megamind_00468527_U.png;1494169864513;FalseGenerator;NoBall
2017GO_vsBerlinUnitedG3C_Megamind_00470596_U.png;1494169864523;FalseGenerator;NoBall
2017GO_vsBerlinUnitedG3C_Megamind_00473576_U.png;1494169864596;FalseGenerator;NoBall
2017GO_vsBerlinUnitedG3C_Megamind_00475483_U.png;1494169864630;FalseGenerator;NoBall
2017GO_vsBerlinUnitedG3C_Megamind_00477837_U.png;1494169864601;FalseGenerator;NoBall
2017GO_vsBerlinUnitedG3C_Megamind_00479945_U.png;1494169864683;FalseGenerator;NoBall
2017GO_vsBerlinUnitedG3C_Megamind_00482145_U.png;1494169864573;FalseGenerator;NoBall
2017GO_vsBerlinUnitedG3C_Megamind_00484294_U.png;1494169864733;FalseGenerator;NoBall
2017GO_vsBerlinUnitedG3C_Megamind_00486982_U.png;1494169864567;FalseGenerator;NoBall
2017GO_vsBerlinUnitedG3C_Megamind_00488873_U.png;1494169864564;FalseGenerator;NoBall
2017GO_vsBerlinUnitedG3C_Megamind_00491299_U.png;1494169864712;FalseGenerator;NoBall
2017GO_vsBerlinUnitedG3C_Megamind_00495937_U.png;1494169864649;FalseGenerator;NoBall
2017GO_vsBerlinUnitedG3C_Megamind_00504284_U.png;1494169864616;FalseGenerator;NoBall
2017GO_vsBerlinUnitedG3C_Megamind_00506312_U.png;1494169864588;FalseGenerator;NoBall
2017GO_vsBerlinUnitedG3C_Megamind_00509251_U.png;1494169864659;FalseGenerator;NoBall
2017GO_vsBerlinUnitedG3C_Megamind_00511395_U.png;1494169864619;FalseGenerator;NoBall
2017GO_vsBerlinUnitedG3C_Megamind_00514082_U.png;1494169864560;FalseGenerator;NoBall
2017GO_vsBerlinUnitedG3C_Megamind_00516288_U.png;1494169864584;FalseGenerator;NoBall
2017GO_vsBerlinUnitedG3C_Megamind_00518816_U.png;1494169864502;FalseGenerator;NoBall
2017GO_vsBerlinUnitedG3C_Megamind_00521522_U.png;1494169864652;FalseGenerator;NoBall
2017GO_vsBerlinUnitedG3C_Megamind_00523713_U.png;1494169864555;FalseGenerator;NoBall
2017GO_vsBerlinUnitedG3C_Megamind_00525535_U.png;1494169864550;FalseGenerator;NoBall
2017GO_vsBerlinUnitedG3C_Megamind_00527869_U.png;1494169864514;FalseGenerator;NoBall
2017GO_vsBerlinUnitedG3D_Megamind_00046363_U.png;1494169864663;FalseGenerator;NoBall
2017GO_vsBerlinUnitedG3D_Megamind_00048197_U.png;1494169864622;FalseGenerator;NoBall
2017GO_vsBerlinUnitedG3D_Megamind_00050121_U.png;1494169864557;FalseGenerator;NoBall
2017GO_vsBerlinUnitedG3D_Megamind_00052776_U.png;1494169864519;FalseGenerator;NoBall
2017GO_vsBerlinUnitedG3D_Megamind_00055229_U.png;1494169864675;FalseGenerator;NoBall
2017GO_vsBerlinUnitedG3D_Megamind_00056927_U.png;1494169864665;FalseGenerator;NoBall
2017GO_vsBerlinUnitedG3D_Megamind_00059317_U.png;1494169864581;FalseGenerator;NoBall
2017GO_vsBerlinUnitedG3D_Megamind_00062038_U.png;1494169864609;FalseGenerator;NoBall
2017GO_vsBerlinUnitedG3D_Megamind_00066559_U.png;1494169864500;FalseGenerator;NoBall
2017GO_vsBerlinUnitedG3D_Megamind_00068315_U.png;1494169864498;FalseGenerator;NoBall
2017GO_vsBerlinUnitedG3D_Megamind_00073350_U.png;1494169864505;FalseGenerator;NoBall
2017GO_vsBerlinUnitedG3D_Megamind_00076108_U.png;1494169864696;FalseGenerator;NoBall
2017GO_vsBerlinUnitedG3D_Megamind_00078052_U.png;1494169864533;FalseGenerator;NoBall
2017GO_vsBerlinUnitedG3D_Megamind_00083445_U.png;1494169864627;FalseGenerator;NoBall
2017GO_vsBerlinUnitedG3D_Megamind_00087326_U.png;1494169864525;FalseGenerator;NoBall
2017GO_vsBerlinUnitedG3D_Megamind_00102998_U.png;1494169864664;FalseGenerator;NoBall
2017GO_vsBerlinUnitedG3D_Megamind_00105115_U.png;1494169864651;FalseGenerator;NoBall
2017GO_vsBerlinUnitedG3D_Megamind_00107366_U.png;1494169864702;FalseGenerator;NoBall
2017GO_vsBerlinUnitedG3D_Megamind_00110303_U.png;1494169864635;FalseGenerator;NoBall
2017GO_vsBerlinUnitedG3D_Megamind_00113023_U.png;1494169864694;FalseGenerator;NoBall
2017GO_vsBerlinUnitedG3D_Megamind_00114124_U.png;1494169864516;FalseGenerator;NoBall
2017GO_vsBerlinUnitedG3D_Megamind_00116008_U.png;1494169864636;FalseGenerator;NoBall
2017GO_vsBerlinUnitedG3D_Megamind_00120611_U.png;1494169864667;FalseGenerator;NoBall
2017GO_vsBerlinUnitedG3D_Megamind_00122800_U.png;1494169864720;FalseGenerator;NoBall
2017GO_vsBerlinUnitedG3D_Megamind_00125850_U.png;1494169864647;FalseGenerator;NoBall
2017GO_vsBerlinUnitedG3D_Megamind_00127904_U.png;1494169864723;FalseGenerator;NoBall
2017GO_vsBerlinUnitedG3D_Megamind_00132096_U.png;1494169864529;FalseGenerator;NoBall
2017GO_vsBerlinUnitedG3D_Megamind_00134102_U.png;1494169864669;FalseGenerator;NoBall
2017GO_vsBerlinUnitedG3D_Megamind_00138916_U.png;1494169864687;FalseGenerator;NoBall
2017GO_vsBerlinUnitedG3D_Megamind_00140815_U.png;1494169864497;FalseGenerator;NoBall
2017GO_vsBerlinUnitedG3D_Megamind_00147461_U.png;1494169864578;FalseGenerator;NoBall
2017GO_vsBerlinUnitedG3D_Megamind_00153733_U.png;1494169864576;FalseGenerator;NoBall
2017GO_vsBerlinUnitedG3D_Megamind_00155760_U.png;1494169864591;FalseGenerator;NoBall
2017GO_vsBerlinUnitedG3D_Megamind_00157921_U.png;1494169864676;FalseGenerator;NoBall
2017GO_vsBerlinUnitedG3D_Megamind_00160280_U.png;1494169864504;FalseGenerator;NoBall
2017GO_vsBerlinUnitedG3D_Megamind_00179751_U.png;1494169864505;FalseGenerator;NoBall
2017GO_vsBerlinUnitedG3D_Megamind_00181558_U.png;1494169864632;FalseGenerator;NoBall
2017GO_vsBerlinUnitedG3D_Megamind_00182933_U.png;1494169864585;FalseGenerator;NoBall
2017GO_vsBerlinUnitedG3D_Megamind_00185150_U.png;1494169864630;FalseGenerator;NoBall
2017GO_vsBerlinUnitedG3D_Megamind_00187558_U.png;1494169864527;FalseGenerator;NoBall
2017GO_vsBerlinUnitedG3D_Megamind_00189917_U.png;1494169864596;FalseGenerator;NoBall
2017GO_vsBerlinUnitedG3D_Megamind_00194584_U.png;1494169864654;FalseGenerator;NoBall
2017GO_vsBerlinUnitedG3D_Megamind_00197147_U.png;1494169864539;FalseGenerator;NoBall
2017GO_vsBerlinUnitedG3D_Megamind_00199204_U.png;1494169864534;FalseGenerator;NoBall
2017GO_vsBerlinUnitedG3D_Megamind_00201393_U.png;1494169864597;FalseGenerator;NoBall
2017GO_vsBerlinUnitedG3D_Megamind_00203850_U.png;1494169864508;FalseGenerator;NoBall
2017GO_vsBerlinUnitedG3D_Megamind_00206030_U.png;1494169864514;FalseGenerator;NoBall
2017GO_vsBerlinUnitedG3D_Megamind_00208975_U.png;1494169864501;FalseGenerator;NoBall
2017GO_vsBerlinUnitedG3D_Megamind_00210416_U.png;1494169864551;FalseGenerator;NoBall
2017GO_vsBerlinUnitedG3D_Megamind_00212072_U.png;1494169864606;FalseGenerator;NoBall
2017GO_vsBerlinUnitedG3D_Megamind_00214619_U.png;1494169864559;FalseGenerator;NoBall
2017GO_vsBerlinUnitedG3D_Megamind_00232651_U.png;1494169864541;FalseGenerator;NoBall
2017GO_vsBerlinUnitedG3D_Megamind_00234627_U.png;1494169864569;FalseGenerator;NoBall
2017GO_vsBerlinUnitedG3D_Megamind_00236369_U.png;1494169864689;FalseGenerator;NoBall
2017GO_vsBerlinUnitedG3D_Megamind_00244226_U.png;1494169864517;FalseGenerator;NoBall
2017GO_vsBerlinUnitedG3D_Megamind_00249670_U.png;1494169864517;FalseGenerator;NoBall
2017GO_vsBerlinUnitedG3D_Megamind_00252128_U.png;1494169864598;FalseGenerator;NoBall
2017GO_vsBerlinUnitedG3D_Megamind_00255385_U.png;1494169864584;FalseGenerator;NoBall
2017GO_vsBerlinUnitedG3D_Megamind_00257592_U.png;1494169864643;FalseGenerator;NoBall
2017GO_vsBerlinUnitedG3D_Megamind_00261714_U.png;1494169864521;FalseGenerator;NoBall
2017GO_vsBerlinUnitedG3D_Megamind_00270249_U.png;1494169864709;FalseGenerator;NoBall
2017GO_vsBerlinUnitedG3D_Megamind_00273270_U.png;1494169864512;FalseGenerator;NoBall
2017GO_vsBerlinUnitedG3D_Megamind_00275476_U.png;1494169864704;FalseGenerator;NoBall
2017GO_vsBerlinUnitedG3D_Megamind_00277921_U.png;1494169864571;FalseGenerator;NoBall
2017GO_vsBerlinUnitedG3D_Megamind_00279774_U.png;1494169864620;FalseGenerator;NoBall
2017GO_vsBerlinUnitedG3D_Megamind_00282373_U.png;1494169864685;FalseGenerator;NoBall
2017GO_vsBerlinUnitedG3D_Megamind_00284583_U.png;1494169864581;FalseGenerator;NoBall
2017GO_vsBerlinUnitedG3D_Megamind_00286857_U.png;1494169864705;FalseGenerator;NoBall
2017GO_vsBerlinUnitedG3D_Megamind_00289129_U.png;1494169864542;FalseGenerator;NoBall
2017GO_vsBerlinUnitedG3D_Megamind_00291319_U.png;1494169864550;FalseGenerator;NoBall
2017GO_vsBerlinUnitedG3D_Megamind_00293759_U.png;1494169864530;FalseGenerator;NoBall
2017GO_vsBerlinUnitedG3D_Megamind_00296534_U.png;1494169864725;FalseGenerator;NoBall
2017GO_vsBerlinUnitedG3D_Megamind_00298764_U.png;1494169864500;FalseGenerator;NoBall
2017GO_vsBerlinUnitedG3D_Megamind_00301311_U.png;1494169864660;FalseGenerator;NoBall
2017GO_vsBerlinUnitedG3D_Megamind_00303149_U.png;1494169864639;FalseGenerator;NoBall
2017GO_vsBerlinUnitedG3D_Megamind_00305822_U.png;1494169864591;FalseGenerator;NoBall
2017GO_vsBerlinUnitedG3D_Megamind_00308227_U.png;1494169864522;FalseGenerator;NoBall
2017GO_vsBerlinUnitedG3D_Megamind_00310845_U.png;1494169864531;FalseGenerator;NoBall
2017GO_vsBerlinUnitedG3D_Megamind_00313461_U.png;1494169864692;FalseGenerator;NoBall
2017GO_vsBerlinUnitedG3D_Megamind_00319120_U.png;1494169864662;FalseGenerator;NoBall
2017GO_vsBerlinUnitedG3D_Megamind_00351378_U.png;1494169864657;FalseGenerator;NoBall
2017GO_vsBerlinUnitedG3D_Megamind_00353292_U.png;1494169864570;FalseGenerator;NoBall
2017GO_vsBerlinUnitedG3D_Megamind_00357522_U.png;1494169864699;FalseGenerator;NoBall
2017GO_vsBerlinUnitedG3F_Megamind_00012892_U.png;1494169864509;FalseGenerator;NoBall
2017GO_vsBerlinUnitedG3F_Megamind_00029447_U.png;1494169864562;FalseGenerator;NoBall
2017GO_vsBerlinUnitedG3G_Megamind_00062206_U.png;1494169864656;FalseGenerator;NoBall
2017GO_vsBerlinUnitedG3G_Megamind_00064533_U.png;1494169864698;FalseGenerator;NoBall
2017GO_vsBerlinUnitedG3G_Megamind_00066753_U.png;1494169864498;FalseGenerator;NoBall
2017GO_vsBerlinUnitedG3G_Megamind_00068442_U.png;1494169864700;FalseGenerator;NoBall
2017GO_vsBerlinUnitedG3G_Megamind_00070631_U.png;1494169864537;FalseGenerator;NoBall
2017GO_vsBerlinUnitedG3G_Megamind_00072849_U.png;1494169864708;FalseGenerator;NoBall
2017GO_vsBerlinUnitedG3G_Megamind_00074838_U.png;1494169864535;FalseGenerator;NoBall
2017GO_vsBerlinUnitedG3G_Megamind_00076893_U.png;1494169864653;FalseGenerator;NoBall
2017GO_vsBerlinUnitedG3G_Megamind_00078956_U.png;1494169864563;FalseGenerator;NoBall
2017GO_vsBerlinUnitedG3G_Megamind_00081704_U.png;1494169864558;FalseGenerator;NoBall
2017GO_vsBerlinUnitedG3G_Megamind_00083065_U.png;1494169864563;FalseGenerator;NoBall
2017GO_vsBerlinUnitedG3G_Megamind_00085752_U.png;1494169864566;FalseGenerator;NoBall
2017GO_vsBerlinUnitedG3G_Megamind_00087630_U.png;1494169864515;FalseGenerator;NoBall
2017GO_vsBerlinUnitedG3G_Megamind_00089519_U.png;1494169864629;FalseGenerator;NoBall
2017GO_vsBerlinUnitedG3G_Megamind_00091377_U.png;1494169864578;FalseGenerator;NoBall
2017GO_vsBerlinUnitedG3G_Megamind_00093783_U.png;1494169864671;FalseGenerator;NoBall
2017GO_vsBerlinUnitedG3G_Megamind_00095770_U.png;1494169864589;FalseGenerator;NoBall
2017GO_vsBerlinUnitedG3G_Megamind_00097502_U.png;1494169864690;FalseGenerator;NoBall
2017GO_vsBerlinUnitedG3G_Megamind_00099857_U.png;1494169864734;FalseGenerator;NoBall
2017GO_vsBerlinUnitedG3G_Megamind_00102519_U.png;1494169864586;FalseGenerator;NoBall
2017GO_vsBerlinUnitedG3G_Megamind_00105104_U.png;1494169864587;FalseGenerator;NoBall
2017GO_vsBerlinUnitedG3G_Megamind_00107223_U.png;1494169864710;FalseGenerator;NoBall
2017GO_vsBerlinUnitedG3G_Megamind_00109851_U.png;1494169864518;FalseGenerator;NoBall
2017GO_vsBerlinUnitedG3G_Megamind_00122381_U.png;1494169864546;FalseGenerator;NoBall
2017GO_vsBerlinUnitedG3G_Megamind_00124475_U.png;1494169864536;FalseGenerator;NoBall
2017GO_vsBerlinUnitedG3G_Megamind_00129434_U.png;1494169864605;FalseGenerator;NoBall
2017GO_vsBerlinUnitedG3G_Megamind_00134084_U.png;1494169864503;FalseGenerator;NoBall
2017GO_vsBerlinUnitedG3G_Megamind_00138752_U.png;1494169864506;FalseGenerator;NoBall
2017GO_vsBerlinUnitedG3G_Megamind_00147809_U.png;1494169864544;FalseGenerator;NoBall
2017GO_vsBerlinUnitedG3G_Megamind_00150028_U.png;1494167841276;tkalbitz;NoBall
2017GO_vsBerlinUnitedG3G_Megamind_00152710_U.png;1494169864732;FalseGenerator;NoBall
2017GO_vsBerlinUnitedG3G_Megamind_00155609_U.png;1494169864506;FalseGenerator;NoBall
2017GO_vsBerlinUnitedG3G_Megamind_00157963_U.png;1494169864638;FalseGenerator;NoBall
2017GO_vsBerlinUnitedG3G_Megamind_00160687_U.png;1494169864615;FalseGenerator;NoBall
2017GO_vsBerlinUnitedG3G_Megamind_00161817_U.png;1494169864715;FalseGenerator;NoBall
2017GO_vsBerlinUnitedG3G_Megamind_00163843_U.png;1494169864540;FalseGenerator;NoBall
2017GO_vsBerlinUnitedG3G_Megamind_00166140_U.png;1494169864564;FalseGenerator;NoBall
2017GO_vsBerlinUnitedG3G_Megamind_00168546_U.png;1494169864565;FalseGenerator;NoBall
2017GO_vsBerlinUnitedG3G_Megamind_00169821_U.png;1494169864706;FalseGenerator;NoBall
2017GO_vsBerlinUnitedG3G_Megamind_00171964_U.png;1494169864530;FalseGenerator;NoBall
2017GO_vsBerlinUnitedG3G_Megamind_00174502_U.png;1494169864499;FalseGenerator;NoBall
2017GO_vsBerlinUnitedG3G_Megamind_00177031_U.png;1494169864616;FalseGenerator;NoBall
2017GO_vsBerlinUnitedG3G_Megamind_00179852_U.png;1494169864590;FalseGenerator;NoBall
2017GO_vsBerlinUnitedG3G_Megamind_00186979_U.png;1494169864695;FalseGenerator;NoBall
2017GO_vsBerlinUnitedG3G_Megamind_00193576_U.png;1494169864582;FalseGenerator;NoBall
2017GO_vsBerlinUnitedG3G_Megamind_00195750_U.png;1494169864497;FalseGenerator;NoBall
2017GO_vsBerlinUnitedG3G_Megamind_00197861_U.png;1494169864537;FalseGenerator;NoBall
2017GO_vsBerlinUnitedG3G_Megamind_00236487_U.png;1494169864727;FalseGenerator;NoBall
2017GO_vsBerlinUnitedG3G_Megamind_00238476_U.png;1494169864528;FalseGenerator;NoBall
2017GO_vsBerlinUnitedG3G_Megamind_00242692_U.png;1494169864623;FalseGenerator;NoBall
2017GO_vsBerlinUnitedG3G_Megamind_00244795_U.png;1494169864539;FalseGenerator;NoBall
2017GO_vsBerlinUnitedG3G_Megamind_00246954_U.png;1494169864610;FalseGenerator;NoBall
2017GO_vsBerlinUnitedG3G_Megamind_00297804_U.png;1494169864513;FalseGenerator;NoBall
2017GO_vsBerlinUnitedG3G_Megamind_00300441_U.png;1494169864559;FalseGenerator;NoBall
2017GO_vsBerlinUnitedG3G_Megamind_00302657_U.png;1494169864516;FalseGenerator;NoBall
2017GO_vsBerlinUnitedG3G_Megamind_00304660_U.png;1494169864576;FalseGenerator;NoBall
2017GO_vsBerlinUnitedG3G_Megamind_00306771_U.png;1494169864711;FalseGenerator;NoBall
2017GO_vsBerlinUnitedG3G_Megamind_00308640_U.png;1494169864618;FalseGenerator;NoBall
2017GO_vsBerlinUnitedG3G_Megamind_00310704_U.png;1494169864681;FalseGenerator;NoBall
2017GO_vsBerlinUnitedG3G_Megamind_00313235_U.png;1494169864716;FalseGenerator;NoBall
2017GO_vsBerlinUnitedG3G_Megamind_00315456_U.png;1494169864580;FalseGenerator;NoBall
2017GO_vsBerlinUnitedG3G_Megamind_00317223_U.png;1494169864640;FalseGenerator;NoBall
2017GO_vsBerlinUnitedG3G_Megamind_00320642_U.png;1494169864635;FalseGenerator;NoBall
2017GO_vsBerlinUnitedG3G_Megamind_00322947_U.png;1494169864644;FalseGenerator;NoBall
2017GO_vsBerlinUnitedG3G_Megamind_00326868_U.png;1494169864548;FalseGenerator;NoBall
2017GO_vsBerlinUnitedG3G_Megamind_00329056_U.png;1494169864686;FalseGenerator;NoBall
2017GO_vsBerlinUnitedG3G_Megamind_00332922_U.png;1494169864718;FalseGenerator;NoBall
2017GO_vsBerlinUnitedG3G_Megamind_00356500_U.png;1494169864503;FalseGenerator;NoBall
2017GO_vsBerlinUnitedG3G_Megamind_00364086_U.png;1494169864587;FalseGenerator;NoBall
2017GO_vsBerlinUnitedG3G_Megamind_00366132_U.png;1494169864528;FalseGenerator;NoBall
2017GO_vsBerlinUnitedG3G_Megamind_00368236_U.png;1494169864658;FalseGenerator;NoBall
2017GO_vsBerlinUnitedG3G_Megamind_00370351_U.png;1494169864674;FalseGenerator;NoBall
2017GO_vsBerlinUnitedG3G_Megamind_00372403_U.png;1494169864557;FalseGenerator;NoBall
2017GO_vsBerlinUnitedG3G_Megamind_00374552_U.png;1494169864594;FalseGenerator;NoBall
2017GO_vsBerlinUnitedG3G_Megamind_00376847_U.png;1494169864606;FalseGenerator;NoBall
2017GO_vsBerlinUnitedG3G_Megamind_00378668_U.png;1494169864612;FalseGenerator;NoBall
2017GO_vsBerlinUnitedG3G_Megamind_00381121_U.png;1494169864638;FalseGenerator;NoBall
2017GO_vsBerlinUnitedG3G_Megamind_00383414_U.png;1494169864519;FalseGenerator;NoBall
2017GO_vsBerlinUnitedG3G_Megamind_00387049_U.png;1494169864554;FalseGenerator;NoBall
2017GO_vsBerlinUnitedG3G_Megamind_00388775_U.png;1494169864631;FalseGenerator;NoBall
2017GO_vsBerlinUnitedG3G_Megamind_00395725_U.png;1494169864510;FalseGenerator;NoBall
2017GO_vsBerlinUnitedG3G_Megamind_00397614_U.png;1494169864665;FalseGenerator;NoBall
2017GO_vsBerlinUnitedG3G_Megamind_00400022_U.png;1494169864545;FalseGenerator;NoBall
2017GO_vsBerlinUnitedG3G_Megamind_00402846_U.png;1494169864604;FalseGenerator;NoBall
2017GO_vsBerlinUnitedG3G_Megamind_00407245_U.png;1494169864599;FalseGenerator;NoBall
2017GO_vsBerlinUnitedG3G_Megamind_00409296_U.png;1494169864735;FalseGenerator;NoBall
2017GO_vsBerlinUnitedG3G_Megamind_00437786_U.png;1494167904865;tkalbitz;NoBall
2017GO_vsBerlinUnitedG3G_Megamind_00440812_U.png;1494169864569;FalseGenerator;NoBall
2017GO_vsBerlinUnitedG3G_Megamind_00442575_U.png;1494169864545;FalseGenerator;NoBall
2017GO_vsBerlinUnitedG3G_Megamind_00455982_U.png;1494169864532;FalseGenerator;NoBall
2017GO_vsBerlinUnitedG3G_Megamind_00458099_U.png;1494169864736;FalseGenerator;NoBall
2017GO_vsBerlinUnitedG3G_Megamind_00467882_U.png;1494169864621;FalseGenerator;NoBall
2017GO_vsBerlinUnitedG3G_Megamind_00469929_U.png;1494169864730;FalseGenerator;NoBall
2017GO_vsBerlinUnitedG3G_Megamind_00476089_U.png;1494169864608;FalseGenerator;NoBall
2017GO_vsBerlinUnitedG3G_Megamind_00478395_U.png;1494169864717;FalseGenerator;NoBall
2017GO_vsBerlinUnitedG3G_Megamind_00482669_U.png;1494169864541;FalseGenerator;NoBall
2017GO_vsBerlinUnitedG3G_Megamind_00484935_U.png;1494169864620;FalseGenerator;NoBall
2017GO_vsBerlinUnitedG3G_Megamind_00487368_U.png;1494169864652;FalseGenerator;NoBall
2017GO_vsBerlinUnitedG3G_Megamind_00489307_U.png;1494169864731;FalseGenerator;NoBall
2017GO_vsBerlinUnitedG3G_Megamind_00492137_U.png;1494169864548;FalseGenerator;NoBall
2017GO_vsBerlinUnitedG3G_Megamind_00494477_U.png;1494169864573;FalseGenerator;NoBall
2017GO_vsBerlinUnitedG3G_Megamind_00497132_U.png;1494169864547;FalseGenerator;NoBall
2017GO_vsBerlinUnitedG3G_Megamind_00500110_U.png;1494169864729;FalseGenerator;NoBall
2017GO_vsBerlinUnitedG3G_Megamind_00502420_U.png;1494169864549;FalseGenerator;NoBall
2017GO_vsBerlinUnitedG3G_Megamind_00511671_U.png;1494169864688;FalseGenerator;NoBall
2017GO_vsBerlinUnitedG3G_Megamind_00513745_U.png;1494169864526;FalseGenerator;NoBall
2017GO_vsBerlinUnitedG3G_Megamind_00515916_U.png;1494169864701;FalseGenerator;NoBall
2017GO_vsBerlinUnitedG3G_Megamind_00517840_U.png;1494169864600;FalseGenerator;NoBall
2017GO_vsBerlinUnitedG3G_Megamind_00522738_U.png;1494169864515;FalseGenerator;NoBall
2017GO_vsBerlinUnitedG3G_Megamind_00524754_U.png;1494169864707;FalseGenerator;NoBall
2017GO_vsBerlinUnitedG3G_Megamind_00531192_U.png;1494169864572;FalseGenerator;NoBall
2017GO_vsBerlinUnitedG3G_Megamind_00541386_U.png;1494169864527;FalseGenerator;NoBall
2017GO_vsBerlinUnitedG3G_Megamind_00543359_U.png;1494169864721;FalseGenerator;NoBall
2017GO_vsBerlinUnitedG3G_Megamind_00545451_U.png;1494169864503;FalseGenerator;NoBall
2017GO_vsBerlinUnitedG3G_Megamind_00547655_U.png;1494169864521;FalseGenerator;NoBall
2017GO_vsBerlinUnitedG3G_Megamind_00550557_U.png;1494169864602;FalseGenerator;NoBall
2017GO_vsBerlinUnitedG3G_Megamind_00552800_U.png;1494169864499;FalseGenerator;NoBall
2017GO_vsBerlinUnitedG3G_Megamind_00557193_U.png;1494169864543;FalseGenerator;NoBall
2017GO_vsBerlinUnitedG3G_Megamind_00558871_U.png;1494169864642;FalseGenerator;NoBall
2017GO_vsBerlinUnitedG3G_Megamind_00562439_U.png;1494169864509;FalseGenerator;NoBall
2017GO_vsBerlinUnitedG3G_Megamind_00565399_U.png;1494169864577;FalseGenerator;NoBall
2017GO_vsBerlinUnitedG3G_Megamind_00567444_U.png;1494169864540;FalseGenerator;NoBall
2017GO_vsBerlinUnitedG3G_Megamind_00569213_U.png;1494169864510;FalseGenerator;NoBall
2017GO_vsBerlinUnitedG3G_Megamind_00571647_U.png;1494169864592;FalseGenerator;NoBall
2017GO_vsBerlinUnitedG3G_Megamind_00574737_U.png;1494169864666;FalseGenerator;NoBall
2017GO_vsBerlinUnitedG3G_Megamind_00577174_U.png;1494169864726;FalseGenerator;NoBall
2017GO_vsBerlinUnitedG3G_Megamind_00581692_U.png;1494169864617;FalseGenerator;NoBall
2017GO_vsBerlinUnitedG3G_Megamind_00586257_U.png;1494169864554;FalseGenerator;NoBall
2017GO_vsBerlinUnitedG3G_Megamind_00588731_U.png;1494169864556;FalseGenerator;NoBall
2017GO_vsBerlinUnitedG3G_Megamind_00590892_U.png;1494169864641;FalseGenerator;NoBall
2017GO_vsBerlinUnitedG3G_Megamind_00597273_U.png;1494169864525;FalseGenerator;NoBall
2017GO_vsBerlinUnitedG3G_Megamind_00599562_U.png;1494169864708;FalseGenerator;NoBall
2017GO_vsBerlinUnitedG3G_Megamind_00602405_U.png;1494169864737;FalseGenerator;NoBall
2017GO_vsBerlinUnitedG3G_Megamind_00604277_U.png;1494169864626;FalseGenerator;NoBall
2017GO_vsBerlinUnitedG3G_Megamind_00607034_U.png;1494169864583;FalseGenerator;NoBall
2017GO_vsBerlinUnitedG3G_Megamind_00608835_U.png;1494169864508;FalseGenerator;NoBall
2017GO_vsBerlinUnitedG3G_Megamind_00611325_U.png;1494169864608;FalseGenerator;NoBall
2017GO_vsBerlinUnitedG3G_Megamind_00613311_U.png;1494169864567;FalseGenerator;NoBall
2017GO_vsBerlinUnitedG3G_Megamind_00615402_U.png;1494169864614;FalseGenerator;NoBall
2017GO_vsBerlinUnitedG3G_Megamind_00617659_U.png;1494169864598;FalseGenerator;NoBall
2017GO_vsBerlinUnitedG3G_Megamind_00621704_U.png;1494169864497;FalseGenerator;NoBall
2017GO_vsBerlinUnitedG3G_Megamind_00631249_U.png;1494169864547;FalseGenerator;NoBall
2017GO_vsBerlinUnitedG3G_Megamind_00633820_U.png;1494169864570;FalseGenerator;NoBall
2017GO_vsBerlinUnitedG3G_Megamind_00635993_U.png;1494169864722;FalseGenerator;NoBall
2017GO_vsBerlinUnitedG3G_Megamind_00638740_U.png;1494169864507;FalseGenerator;NoBall
2017GO_vsBerlinUnitedG3G_Megamind_00641890_U.png;1494169864643;FalseGenerator;NoBall
2017GO_vsBerlinUnitedG3G_Megamind_00643100_U.png;1494169864670;FalseGenerator;NoBall
2017GO_vsBerlinUnitedG3G_Megamind_00645613_U.png;1494169864646;FalseGenerator;NoBall
2017GO_vsBerlinUnitedG3G_Megamind_00648464_U.png;1494169864555;FalseGenerator;NoBall
2017GO_vsBerlinUnitedG3G_Megamind_00691694_U.png;1494169864566;FalseGenerator;NoBall
2017GO_vsBerlinUnitedG3G_Megamind_00704667_U.png;1494169864673;FalseGenerator;NoBall
2017GO_vsBerlinUnitedG3G_Megamind_00721284_U.png;1494169864574;FalseGenerator;NoBall
2017GO_vsBerlinUnitedG3G_Megamind_00736161_U.png;1494169864538;FalseGenerator;NoBall
2017GO_vsBerlinUnitedG3G_Megamind_00737717_U.png;1494169864532;FalseGenerator;NoBall
2017GO_vsBerlinUnitedG3G_Megamind_00739839_U.png;1494169864595;FalseGenerator;NoBall
2017GO_vsBerlinUnitedG3G_Megamind_00741083_U.png;1494169864603;FalseGenerator;NoBall
2017GO_vsBerlinUnitedG3G_Megamind_00749129_U.png;1494169864682;FalseGenerator;NoBall
2017GO_vsBerlinUnitedG3G_Megamind_00750763_U.png;1494169864668;FalseGenerator;NoBall
2017GO_vsBerlinUnitedG3G_Megamind_00752702_U.png;1494169864560;FalseGenerator;NoBall
2017GO_vsBerlinUnitedG3G_Megamind_00756696_U.png;1494169864714;FalseGenerator;NoBall
2017GO_vsBerlinUnitedG3G_Megamind_00763343_U.png;1494169864507;FalseGenerator;NoBall
2017GO_vsBerlinUnitedG3G_Megamind_00768376_U.png;1494169864520;FalseGenerator;NoBall
2017GO_vsBerlinUnitedG3G_Megamind_00774168_U.png;1494169864552;FalseGenerator;NoBall
2017GO_vsBerlinUnitedG3G_Megamind_00778058_U.png;1494169864549;FalseGenerator;NoBall
2017GO_vsBerlinUnitedG3G_Megamind_00779701_U.png;1494169864513;FalseGenerator;NoBall
2017GO_vsBerlinUnitedG3G_Megamind_00791348_U.png;1494169864592;FalseGenerator;NoBall
2017GO_vsBerlinUnitedG3G_Megamind_00793189_U.png;1494169864516;FalseGenerator;NoBall
2017GO_vsBerlinUnitedG3C_Megamind_00135775_U.png;1494169880490;FalseGenerator;NoFeet
2017GO_vsBerlinUnitedG3C_Megamind_00142593_U.png;1494169880514;FalseGenerator;NoFeet
2017GO_vsBerlinUnitedG3C_Megamind_00154241_U.png;1494169880507;FalseGenerator;NoFeet
2017GO_vsBerlinUnitedG3C_Megamind_00200008_U.png;1494169880588;FalseGenerator;NoFeet
2017GO_vsBerlinUnitedG3C_Megamind_00213790_U.png;1494169880510;FalseGenerator;NoFeet
2017GO_vsBerlinUnitedG3C_Megamind_00222563_U.png;1494169880511;FalseGenerator;NoFeet
2017GO_vsBerlinUnitedG3C_Megamind_00229352_U.png;1494169880570;FalseGenerator;NoFeet
2017GO_vsBerlinUnitedG3C_Megamind_00275691_U.png;1494169880501;FalseGenerator;NoFeet
2017GO_vsBerlinUnitedG3C_Megamind_00280300_U.png;1494169880583;FalseGenerator;NoFeet
2017GO_vsBerlinUnitedG3C_Megamind_00352439_U.png;1494169880556;FalseGenerator;NoFeet
2017GO_vsBerlinUnitedG3C_Megamind_00354485_U.png;1494169880584;FalseGenerator;NoFeet
2017GO_vsBerlinUnitedG3C_Megamind_00377698_U.png;1494169880558;FalseGenerator;NoFeet
2017GO_vsBerlinUnitedG3C_Megamind_00385647_U.png;1494169880564;FalseGenerator;NoFeet
2017GO_vsBerlinUnitedG3C_Megamind_00390670_U.png;1494169880537;FalseGenerator;NoFeet
2017GO_vsBerlinUnitedG3C_Megamind_00397990_U.png;1494169880560;FalseGenerator;NoFeet
2017GO_vsBerlinUnitedG3C_Megamind_00402505_U.png;1494169880532;FalseGenerator;NoFeet
2017GO_vsBerlinUnitedG3C_Megamind_00413836_U.png;1494169880574;FalseGenerator;NoFeet
2017GO_vsBerlinUnitedG3C_Megamind_00421122_U.png;1494169880504;FalseGenerator;NoFeet
2017GO_vsBerlinUnitedG3C_Megamind_00423024_U.png;1494169880506;FalseGenerator;NoFeet
2017GO_vsBerlinUnitedG3C_Megamind_00427487_U.png;1494169880519;FalseGenerator;NoFeet
2017GO_vsBerlinUnitedG3C_Megamind_00439559_U.png;1494169880493;FalseGenerator;NoFeet
2017GO_vsBerlinUnitedG3C_Megamind_00446187_U.png;1494169880531;FalseGenerator;NoFeet
2017GO_vsBerlinUnitedG3C_Megamind_00456232_U.png;1494169880518;FalseGenerator;NoFeet
2017GO_vsBerlinUnitedG3C_Megamind_00470596_U.png;1494169880505;FalseGenerator;NoFeet
2017GO_vsBerlinUnitedG3C_Megamind_00475483_U.png;1494169880572;FalseGenerator;NoFeet
2017GO_vsBerlinUnitedG3C_Megamind_00477837_U.png;1494169880548;FalseGenerator;NoFeet
2017GO_vsBerlinUnitedG3C_Megamind_00479945_U.png;1494169880592;FalseGenerator;NoFeet
2017GO_vsBerlinUnitedG3C_Megamind_00484294_U.png;1494169880610;FalseGenerator;NoFeet
2017GO_vsBerlinUnitedG3C_Megamind_00486982_U.png;1494169880525;FalseGenerator;NoFeet
2017GO_vsBerlinUnitedG3C_Megamind_00488873_U.png;1494169880524;FalseGenerator;NoFeet
2017GO_vsBerlinUnitedG3C_Megamind_00491299_U.png;1494169880602;FalseGenerator;NoFeet
2017GO_vsBerlinUnitedG3C_Megamind_00495937_U.png;1494169880579;FalseGenerator;NoFeet
2017GO_vsBerlinUnitedG3C_Megamind_00504284_U.png;1494169880562;FalseGenerator;NoFeet
2017GO_vsBerlinUnitedG3C_Megamind_00506312_U.png;1494169880538;FalseGenerator;NoFeet
2017GO_vsBerlinUnitedG3C_Megamind_00509251_U.png;1494169880589;FalseGenerator;NoFeet
2017GO_vsBerlinUnitedG3C_Megamind_00511395_U.png;1494169880567;FalseGenerator;NoFeet
2017GO_vsBerlinUnitedG3C_Megamind_00514082_U.png;1494169880522;FalseGenerator;NoFeet
2017GO_vsBerlinUnitedG3D_Megamind_00052776_U.png;1494169880500;FalseGenerator;NoFeet
2017GO_vsBerlinUnitedG3D_Megamind_00110303_U.png;1494169880575;FalseGenerator;NoFeet
2017GO_vsBerlinUnitedG3D_Megamind_00145602_U.png;1494169880566;FalseGenerator;NoFeet
2017GO_vsBerlinUnitedG3D_Megamind_00147461_U.png;1494169880530;FalseGenerator;NoFeet
2017GO_vsBerlinUnitedG3D_Megamind_00149244_U.png;1494169880598;FalseGenerator;NoFeet
2017GO_vsBerlinUnitedG3D_Megamind_00151865_U.png;1494169880582;FalseGenerator;NoFeet
2017GO_vsBerlinUnitedG3D_Megamind_00185150_U.png;1494169880573;FalseGenerator;NoFeet
2017GO_vsBerlinUnitedG3D_Megamind_00201393_U.png;1494169880546;FalseGenerator;NoFeet
2017GO_vsBerlinUnitedG3D_Megamind_00206030_U.png;1494169880497;FalseGenerator;NoFeet
2017GO_vsBerlinUnitedG3D_Megamind_00208975_U.png;1494169880489;FalseGenerator;NoFeet
2017GO_vsBerlinUnitedG3D_Megamind_00221063_U.png;1494169880516;FalseGenerator;NoFeet
2017GO_vsBerlinUnitedG3D_Megamind_00223333_U.png;1494169880527;FalseGenerator;NoFeet
2017GO_vsBerlinUnitedG3D_Megamind_00225559_U.png;1494169880559;FalseGenerator;NoFeet
2017GO_vsBerlinUnitedG3D_Megamind_00228522_U.png;1494169880604;FalseGenerator;NoFeet
2017GO_vsBerlinUnitedG3D_Megamind_00231185_U.png;1494169880540;FalseGenerator;NoFeet
2017GO_vsBerlinUnitedG3D_Megamind_00236369_U.png;1494169880596;FalseGenerator;NoFeet
2017GO_vsBerlinUnitedG3D_Megamind_00238739_U.png;1494169880503;FalseGenerator;NoFeet
2017GO_vsBerlinUnitedG3D_Megamind_00241637_U.png;1494169880535;FalseGenerator;NoFeet
2017GO_vsBerlinUnitedG3D_Megamind_00244226_U.png;1494169880499;FalseGenerator;NoFeet
2017GO_vsBerlinUnitedG3D_Megamind_00255385_U.png;1494169880536;FalseGenerator;NoFeet
2017GO_vsBerlinUnitedG3D_Megamind_00303149_U.png;1494169880577;FalseGenerator;NoFeet
2017GO_vsBerlinUnitedG3D_Megamind_00351378_U.png;1494169880585;FalseGenerator;NoFeet
2017GO_vsBerlinUnitedG3D_Megamind_00357522_U.png;1494169880600;FalseGenerator;NoFeet
2017GO_vsBerlinUnitedG3F_Megamind_00012892_U.png;1494169880495;FalseGenerator;NoFeet
2017GO_vsBerlinUnitedG3F_Megamind_00029447_U.png;1494169880523;FalseGenerator;NoFeet
2017GO_vsBerlinUnitedG3G_Megamind_00097502_U.png;1494169880597;FalseGenerator;NoFeet
2017GO_vsBerlinUnitedG3G_Megamind_00107223_U.png;1494169880601;FalseGenerator;NoFeet
2017GO_vsBerlinUnitedG3G_Megamind_00122381_U.png;1494169880517;FalseGenerator;NoFeet
2017GO_vsBerlinUnitedG3G_Megamind_00138752_U.png;1494169880492;FalseGenerator;NoFeet
2017GO_vsBerlinUnitedG3G_Megamind_00163843_U.png;1494169880512;FalseGenerator;NoFeet
2017GO_vsBerlinUnitedG3G_Megamind_00195750_U.png;1494169880488;FalseGenerator;NoFeet
2017GO_vsBerlinUnitedG3G_Megamind_00242692_U.png;1494169880569;FalseGenerator;NoFeet
2017GO_vsBerlinUnitedG3G_Megamind_00302657_U.png;1494169880498;FalseGenerator;NoFeet
2017GO_vsBerlinUnitedG3G_Megamind_00304660_U.png;1494169880529;FalseGenerator;NoFeet
2017GO_vsBerlinUnitedG3G_Megamind_00329056_U.png;1494169880593;FalseGenerator;NoFeet
2017GO_vsBerlinUnitedG3G_Megamind_00368236_U.png;1494169880587;FalseGenerator;NoFeet
2017GO_vsBerlinUnitedG3G_Megamind_00374552_U.png;1494169880543;FalseGenerator;NoFeet
2017GO_vsBerlinUnitedG3G_Megamind_00376847_U.png;1494169880551;FalseGenerator;NoFeet
2017GO_vsBerlinUnitedG3G_Megamind_00378668_U.png;1494169880557;FalseGenerator;NoFeet
2017GO_vsBerlinUnitedG3G_Megamind_00469929_U.png;1494169880608;FalseGenerator;NoFeet
2017GO_vsBerlinUnitedG3G_Megamind_00476089_U.png;1494169880553;FalseGenerator;NoFeet
2017GO_vsBerlinUnitedG3G_Megamind_00484935_U.png;1494169880568;FalseGenerator;NoFeet
2017GO_vsBerlinUnitedG3G_Megamind_00487368_U.png;1494169880580;FalseGenerator;NoFeet
2017GO_vsBerlinUnitedG3G_Megamind_00489307_U.png;1494169880609;FalseGenerator;NoFeet
2017GO_vsBerlinUnitedG3G_Megamind_00494477_U.png;1494169880526;FalseGenerator;NoFeet
2017GO_vsBerlinUnitedG3G_Megamind_00500110_U.png;1494169880606;FalseGenerator;NoFeet
2017GO_vsBerlinUnitedG3G_Megamind_00511671_U.png;1494169880594;FalseGenerator;NoFeet
2017GO_vsBerlinUnitedG3G_Megamind_00545451_U.png;1494169880491;FalseGenerator;NoFeet
2017GO_vsBerlinUnitedG3G_Megamind_00567444_U.png;1494169880513;FalseGenerator;NoFeet
2017GO_vsBerlinUnitedG3G_Megamind_00569213_U.png;1494169880496;FalseGenerator;NoFeet
2017GO_vsBerlinUnitedG3G_Megamind_00571647_U.png;1494169880541;FalseGenerator;NoFeet
2017GO_vsBerlinUnitedG3G_Megamind_00581692_U.png;1494169880563;FalseGenerator;NoFeet
2017GO_vsBerlinUnitedG3G_Megamind_00588731_U.png;1494169880520;FalseGenerator;NoFeet
2017GO_vsBerlinUnitedG3G_Megamind_00590892_U.png;1494169880578;FalseGenerator;NoFeet
2017GO_vsBerlinUnitedG3G_Megamind_00602405_U.png;1494169880612;FalseGenerator;NoFeet
2017GO_vsBerlinUnitedG3G_Megamind_00607034_U.png;1494169880533;FalseGenerator;NoFeet
2017GO_vsBerlinUnitedG3G_Megamind_00611325_U.png;1494169880554;FalseGenerator;NoFeet
2017GO_vsBerlinUnitedG3G_Megamind_00615402_U.png;1494169880561;FalseGenerator;NoFeet
2017GO_vsBerlinUnitedG3G_Megamind_00635993_U.png;1494169880605;FalseGenerator;NoFeet
2017GO_vsBerlinUnitedG3G_Megamind_00737717_U.png;1494169880508;FalseGenerator;NoFeet
2017GO_vsBerlinUnitedG3G_Megamind_00739839_U.png;1494169880544;FalseGenerator;NoFeet
2017GO_vsBerlinUnitedG3G_Megamind_00741083_U.png;1494169880549;FalseGenerator;NoFeet
2017GO_vsBerlinUnitedG3G_Megamind_00749129_U.png;1494169880590;FalseGenerator;NoFeet
2017GO_vsBerlinUnitedG3C_Megamind_00135775_U.png;1494169935723;FalseGenerator;NoPenaltySpot
2017GO_vsBerlinUnitedG3C_Megamind_00142593_U.png;1494169935809;FalseGenerator;NoPenaltySpot
2017GO_vsBerlinUnitedG3C_Megamind_00144928_U.png;1494169935972;FalseGenerator;NoPenaltySpot
2017GO_vsBerlinUnitedG3C_Megamind_00148691_U.png;1494169935936;FalseGenerator;NoPenaltySpot
2017GO_vsBerlinUnitedG3C_Megamind_00152510_U.png;1494169935990;FalseGenerator;NoPenaltySpot
2017GO_vsBerlinUnitedG3C_Megamind_00154241_U.png;1494169935770;FalseGenerator;NoPenaltySpot
2017GO_vsBerlinUnitedG3C_Megamind_00156087_U.png;1494169935739;FalseGenerator;NoPenaltySpot
2017GO_vsBerlinUnitedG3C_Megamind_00157903_U.png;1494169936085;FalseGenerator;NoPenaltySpot
2017GO_vsBerlinUnitedG3C_Megamind_00160322_U.png;1494169936062;FalseGenerator;NoPenaltySpot
2017GO_vsBerlinUnitedG3C_Megamind_00167055_U.png;1494169935988;FalseGenerator;NoPenaltySpot
2017GO_vsBerlinUnitedG3C_Megamind_00169125_U.png;1494169935960;FalseGenerator;NoPenaltySpot
2017GO_vsBerlinUnitedG3C_Megamind_00174222_U.png;1494169935788;FalseGenerator;NoPenaltySpot
2017GO_vsBerlinUnitedG3C_Megamind_00196371_U.png;1494169935894;FalseGenerator;NoPenaltySpot
2017GO_vsBerlinUnitedG3C_Megamind_00200008_U.png;1494169936012;FalseGenerator;NoPenaltySpot
2017GO_vsBerlinUnitedG3C_Megamind_00207066_U.png;1494169936097;FalseGenerator;NoPenaltySpot
2017GO_vsBerlinUnitedG3C_Megamind_00209832_U.png;1494169935722;FalseGenerator;NoPenaltySpot
2017GO_vsBerlinUnitedG3C_Megamind_00212061_U.png;1494169935746;FalseGenerator;NoPenaltySpot
2017GO_vsBerlinUnitedG3C_Megamind_00213790_U.png;1494169935789;FalseGenerator;NoPenaltySpot
2017GO_vsBerlinUnitedG3C_Megamind_00215957_U.png;1494169935964;FalseGenerator;NoPenaltySpot
2017GO_vsBerlinUnitedG3C_Megamind_00222563_U.png;1494169935798;FalseGenerator;NoPenaltySpot
2017GO_vsBerlinUnitedG3C_Megamind_00226119_U.png;1494169935791;FalseGenerator;NoPenaltySpot
2017GO_vsBerlinUnitedG3C_Megamind_00226886_U.png;1494169935757;FalseGenerator;NoPenaltySpot
2017GO_vsBerlinUnitedG3C_Megamind_00229352_U.png;1494169935961;FalseGenerator;NoPenaltySpot
2017GO_vsBerlinUnitedG3C_Megamind_00231519_U.png;1494169936066;FalseGenerator;NoPenaltySpot
2017GO_vsBerlinUnitedG3C_Megamind_00235857_U.png;1494169935844;FalseGenerator;NoPenaltySpot
2017GO_vsBerlinUnitedG3C_Megamind_00237953_U.png;1494169935832;FalseGenerator;NoPenaltySpot
2017GO_vsBerlinUnitedG3C_Megamind_00242682_U.png;1494169935741;FalseGenerator;NoPenaltySpot
2017GO_vsBerlinUnitedG3C_Megamind_00256279_U.png;1494169935879;FalseGenerator;NoPenaltySpot
2017GO_vsBerlinUnitedG3C_Megamind_00266456_U.png;1494169936080;FalseGenerator;NoPenaltySpot
2017GO_vsBerlinUnitedG3C_Megamind_00268447_U.png;1494169936050;FalseGenerator;NoPenaltySpot
2017GO_vsBerlinUnitedG3C_Megamind_00273567_U.png;1494169935997;FalseGenerator;NoPenaltySpot
2017GO_vsBerlinUnitedG3C_Megamind_00277922_U.png;1494169935781;FalseGenerator;NoPenaltySpot
2017GO_vsBerlinUnitedG3C_Megamind_00280300_U.png;1494169936005;FalseGenerator;NoPenaltySpot
2017GO_vsBerlinUnitedG3C_Megamind_00287432_U.png;1494169935967;FalseGenerator;NoPenaltySpot
2017GO_vsBerlinUnitedG3C_Megamind_00289658_U.png;1494169935731;FalseGenerator;NoPenaltySpot
2017GO_vsBerlinUnitedG3C_Megamind_00297849_U.png;1494169935920;FalseGenerator;NoPenaltySpot
2017GO_vsBerlinUnitedG3C_Megamind_00300238_U.png;1494169935745;FalseGenerator;NoPenaltySpot
2017GO_vsBerlinUnitedG3C_Megamind_00302934_U.png;1494169936037;FalseGenerator;NoPenaltySpot
2017GO_vsBerlinUnitedG3C_Megamind_00304198_U.png;1494169935717;FalseGenerator;NoPenaltySpot
2017GO_vsBerlinUnitedG3C_Megamind_00308550_U.png;1494169936088;FalseGenerator;NoPenaltySpot
2017GO_vsBerlinUnitedG3C_Megamind_00310908_U.png;1494169936033;FalseGenerator;NoPenaltySpot
2017GO_vsBerlinUnitedG3C_Megamind_00313418_U.png;1494158472270;tkalbitz;NoPenaltySpot
2017GO_vsBerlinUnitedG3C_Megamind_00340062_U.png;1494169935994;FalseGenerator;NoPenaltySpot
2017GO_vsBerlinUnitedG3C_Megamind_00350239_U.png;1494169935864;FalseGenerator;NoPenaltySpot
2017GO_vsBerlinUnitedG3C_Megamind_00352439_U.png;1494169935933;FalseGenerator;NoPenaltySpot
2017GO_vsBerlinUnitedG3C_Megamind_00354485_U.png;1494169936008;FalseGenerator;NoPenaltySpot
2017GO_vsBerlinUnitedG3C_Megamind_00356710_U.png;1494169935823;FalseGenerator;NoPenaltySpot
2017GO_vsBerlinUnitedG3C_Megamind_00366746_U.png;1494169935927;FalseGenerator;NoPenaltySpot
2017GO_vsBerlinUnitedG3C_Megamind_00368741_U.png;1494169935843;FalseGenerator;NoPenaltySpot
2017GO_vsBerlinUnitedG3C_Megamind_00373084_U.png;1494169935764;FalseGenerator;NoPenaltySpot
2017GO_vsBerlinUnitedG3C_Megamind_00375301_U.png;1494158478262;tkalbitz;NoPenaltySpot
2017GO_vsBerlinUnitedG3C_Megamind_00377698_U.png;1494169935937;FalseGenerator;NoPenaltySpot
2017GO_vsBerlinUnitedG3C_Megamind_00380354_U.png;1494169936073;FalseGenerator;NoPenaltySpot
2017GO_vsBerlinUnitedG3C_Megamind_00383925_U.png;1494158480045;tkalbitz;NoPenaltySpot
2017GO_vsBerlinUnitedG3C_Megamind_00385647_U.png;1494169935949;FalseGenerator;NoPenaltySpot
2017GO_vsBerlinUnitedG3C_Megamind_00390670_U.png;1494169935889;FalseGenerator;NoPenaltySpot
2017GO_vsBerlinUnitedG3C_Megamind_00393049_U.png;1494169936015;FalseGenerator;NoPenaltySpot
2017GO_vsBerlinUnitedG3C_Megamind_00395401_U.png;1494169935958;FalseGenerator;NoPenaltySpot
2017GO_vsBerlinUnitedG3C_Megamind_00397990_U.png;1494169935940;FalseGenerator;NoPenaltySpot
2017GO_vsBerlinUnitedG3C_Megamind_00399855_U.png;1494169935975;FalseGenerator;NoPenaltySpot
2017GO_vsBerlinUnitedG3C_Megamind_00402505_U.png;1494169935883;FalseGenerator;NoPenaltySpot
2017GO_vsBerlinUnitedG3C_Megamind_00404597_U.png;1494169935837;FalseGenerator;NoPenaltySpot
2017GO_vsBerlinUnitedG3C_Megamind_00413836_U.png;1494169935973;FalseGenerator;NoPenaltySpot
2017GO_vsBerlinUnitedG3C_Megamind_00415757_U.png;1494169935902;FalseGenerator;NoPenaltySpot
2017GO_vsBerlinUnitedG3C_Megamind_00418642_U.png;1494169935742;FalseGenerator;NoPenaltySpot
2017GO_vsBerlinUnitedG3C_Megamind_00421122_U.png;1494169935766;FalseGenerator;NoPenaltySpot
2017GO_vsBerlinUnitedG3C_Megamind_00423024_U.png;1494169935768;FalseGenerator;NoPenaltySpot
2017GO_vsBerlinUnitedG3C_Megamind_00427487_U.png;1494169935824;FalseGenerator;NoPenaltySpot
2017GO_vsBerlinUnitedG3C_Megamind_00429788_U.png;1494169935772;FalseGenerator;NoPenaltySpot
2017GO_vsBerlinUnitedG3C_Megamind_00432595_U.png;1494169935957;FalseGenerator;NoPenaltySpot
2017GO_vsBerlinUnitedG3C_Megamind_00435040_U.png;1494169935863;FalseGenerator;NoPenaltySpot
2017GO_vsBerlinUnitedG3C_Megamind_00437089_U.png;1494169936059;FalseGenerator;NoPenaltySpot
2017GO_vsBerlinUnitedG3C_Megamind_00439559_U.png;1494169935736;FalseGenerator;NoPenaltySpot
2017GO_vsBerlinUnitedG3C_Megamind_00446187_U.png;1494169935878;FalseGenerator;NoPenaltySpot
2017GO_vsBerlinUnitedG3C_Megamind_00456232_U.png;1494169935819;FalseGenerator;NoPenaltySpot
2017GO_vsBerlinUnitedG3C_Megamind_00460041_U.png;1494169935916;FalseGenerator;NoPenaltySpot
2017GO_vsBerlinUnitedG3C_Megamind_00464795_U.png;1494169935870;FalseGenerator;NoPenaltySpot
2017GO_vsBerlinUnitedG3C_Megamind_00468527_U.png;1494169935749;FalseGenerator;NoPenaltySpot
2017GO_vsBerlinUnitedG3C_Megamind_00470596_U.png;1494169935767;FalseGenerator;NoPenaltySpot
2017GO_vsBerlinUnitedG3C_Megamind_00473576_U.png;1494169935907;FalseGenerator;NoPenaltySpot
2017GO_vsBerlinUnitedG3C_Megamind_00475483_U.png;1494169935968;FalseGenerator;NoPenaltySpot
2017GO_vsBerlinUnitedG3C_Megamind_00477837_U.png;1494169935915;FalseGenerator;NoPenaltySpot
2017GO_vsBerlinUnitedG3C_Megamind_00479945_U.png;1494169936042;FalseGenerator;NoPenaltySpot
2017GO_vsBerlinUnitedG3C_Megamind_00484294_U.png;1494169936107;FalseGenerator;NoPenaltySpot
2017GO_vsBerlinUnitedG3C_Megamind_00486982_U.png;1494169935857;FalseGenerator;NoPenaltySpot
2017GO_vsBerlinUnitedG3C_Megamind_00488873_U.png;1494169935852;FalseGenerator;NoPenaltySpot
2017GO_vsBerlinUnitedG3C_Megamind_00491299_U.png;1494169936079;FalseGenerator;NoPenaltySpot
2017GO_vsBerlinUnitedG3C_Megamind_00495937_U.png;1494169935995;FalseGenerator;NoPenaltySpot
2017GO_vsBerlinUnitedG3C_Megamind_00504284_U.png;1494169935945;FalseGenerator;NoPenaltySpot
2017GO_vsBerlinUnitedG3C_Megamind_00506312_U.png;1494169935893;FalseGenerator;NoPenaltySpot
2017GO_vsBerlinUnitedG3C_Megamind_00509251_U.png;1494169936013;FalseGenerator;NoPenaltySpot
2017GO_vsBerlinUnitedG3C_Megamind_00511395_U.png;1494169935952;FalseGenerator;NoPenaltySpot
2017GO_vsBerlinUnitedG3C_Megamind_00514082_U.png;1494169935842;FalseGenerator;NoPenaltySpot
2017GO_vsBerlinUnitedG3C_Megamind_00516288_U.png;1494169935888;FalseGenerator;NoPenaltySpot
2017GO_vsBerlinUnitedG3C_Megamind_00521522_U.png;1494169936001;FalseGenerator;NoPenaltySpot
2017GO_vsBerlinUnitedG3C_Megamind_00523713_U.png;1494169935828;FalseGenerator;NoPenaltySpot
2017GO_vsBerlinUnitedG3C_Megamind_00525535_U.png;1494169935818;FalseGenerator;NoPenaltySpot
2017GO_vsBerlinUnitedG3C_Megamind_00527869_U.png;1494169935750;FalseGenerator;NoPenaltySpot
2017GO_vsBerlinUnitedG3D_Megamind_00046363_U.png;1494169936018;FalseGenerator;NoPenaltySpot
2017GO_vsBerlinUnitedG3D_Megamind_00055229_U.png;1494169936039;FalseGenerator;NoPenaltySpot
2017GO_vsBerlinUnitedG3D_Megamind_00056927_U.png;1494169936022;FalseGenerator;NoPenaltySpot
2017GO_vsBerlinUnitedG3D_Megamind_00062038_U.png;1494169935931;FalseGenerator;NoPenaltySpot
2017GO_vsBerlinUnitedG3D_Megamind_00066559_U.png;1494169935719;FalseGenerator;NoPenaltySpot
2017GO_vsBerlinUnitedG3D_Megamind_00068315_U.png;1494169935715;FalseGenerator;NoPenaltySpot
2017GO_vsBerlinUnitedG3D_Megamind_00083445_U.png;1494169935965;FalseGenerator;NoPenaltySpot
2017GO_vsBerlinUnitedG3D_Megamind_00087326_U.png;1494169935771;FalseGenerator;NoPenaltySpot
2017GO_vsBerlinUnitedG3D_Megamind_00101113_U.png;1494169936100;FalseGenerator;NoPenaltySpot
2017GO_vsBerlinUnitedG3D_Megamind_00102998_U.png;1494169936019;FalseGenerator;NoPenaltySpot
2017GO_vsBerlinUnitedG3D_Megamind_00105115_U.png;1494169935998;FalseGenerator;NoPenaltySpot
2017GO_vsBerlinUnitedG3D_Megamind_00110303_U.png;1494169935976;FalseGenerator;NoPenaltySpot
2017GO_vsBerlinUnitedG3D_Megamind_00113023_U.png;1494169936053;FalseGenerator;NoPenaltySpot
2017GO_vsBerlinUnitedG3D_Megamind_00116008_U.png;1494169935979;FalseGenerator;NoPenaltySpot
2017GO_vsBerlinUnitedG3D_Megamind_00120611_U.png;1494169936026;FalseGenerator;NoPenaltySpot
2017GO_vsBerlinUnitedG3D_Megamind_00122800_U.png;1494169936091;FalseGenerator;NoPenaltySpot
2017GO_vsBerlinUnitedG3D_Megamind_00127904_U.png;1494169936095;FalseGenerator;NoPenaltySpot
2017GO_vsBerlinUnitedG3D_Megamind_00132096_U.png;1494169935782;FalseGenerator;NoPenaltySpot
2017GO_vsBerlinUnitedG3D_Megamind_00134102_U.png;1494169936032;FalseGenerator;NoPenaltySpot
2017GO_vsBerlinUnitedG3D_Megamind_00135916_U.png;1494169936043;FalseGenerator;NoPenaltySpot
2017GO_vsBerlinUnitedG3D_Megamind_00143060_U.png;1494169935847;FalseGenerator;NoPenaltySpot
2017GO_vsBerlinUnitedG3D_Megamind_00145602_U.png;1494169935950;FalseGenerator;NoPenaltySpot
2017GO_vsBerlinUnitedG3D_Megamind_00147461_U.png;1494169935877;FalseGenerator;NoPenaltySpot
2017GO_vsBerlinUnitedG3D_Megamind_00151865_U.png;1494169936002;FalseGenerator;NoPenaltySpot
2017GO_vsBerlinUnitedG3D_Megamind_00153733_U.png;1494169935873;FalseGenerator;NoPenaltySpot
2017GO_vsBerlinUnitedG3D_Megamind_00155760_U.png;1494169935899;FalseGenerator;NoPenaltySpot
2017GO_vsBerlinUnitedG3D_Megamind_00179751_U.png;1494169935728;FalseGenerator;NoPenaltySpot
2017GO_vsBerlinUnitedG3D_Megamind_00185150_U.png;1494169935969;FalseGenerator;NoPenaltySpot
2017GO_vsBerlinUnitedG3D_Megamind_00187558_U.png;1494169935776;FalseGenerator;NoPenaltySpot
2017GO_vsBerlinUnitedG3D_Megamind_00192040_U.png;1494169935849;FalseGenerator;NoPenaltySpot
2017GO_vsBerlinUnitedG3D_Megamind_00194584_U.png;1494169936004;FalseGenerator;NoPenaltySpot
2017GO_vsBerlinUnitedG3D_Megamind_00197147_U.png;1494169935802;FalseGenerator;NoPenaltySpot
2017GO_vsBerlinUnitedG3D_Megamind_00199204_U.png;1494169935790;FalseGenerator;NoPenaltySpot
2017GO_vsBerlinUnitedG3D_Megamind_00201393_U.png;1494169935908;FalseGenerator;NoPenaltySpot
2017GO_vsBerlinUnitedG3D_Megamind_00206030_U.png;1494169935751;FalseGenerator;NoPenaltySpot
2017GO_vsBerlinUnitedG3D_Megamind_00208975_U.png;1494169935721;FalseGenerator;NoPenaltySpot
2017GO_vsBerlinUnitedG3D_Megamind_00210416_U.png;1494169935821;FalseGenerator;NoPenaltySpot
2017GO_vsBerlinUnitedG3D_Megamind_00212072_U.png;1494169935925;FalseGenerator;NoPenaltySpot
2017GO_vsBerlinUnitedG3D_Megamind_00214619_U.png;1494169935841;FalseGenerator;NoPenaltySpot
2017GO_vsBerlinUnitedG3D_Megamind_00216503_U.png;1494169936006;FalseGenerator;NoPenaltySpot
2017GO_vsBerlinUnitedG3D_Megamind_00218285_U.png;1494169935992;FalseGenerator;NoPenaltySpot
2017GO_vsBerlinUnitedG3D_Megamind_00221063_U.png;1494169935810;FalseGenerator;NoPenaltySpot
2017GO_vsBerlinUnitedG3D_Megamind_00223333_U.png;1494169935869;FalseGenerator;NoPenaltySpot
2017GO_vsBerlinUnitedG3D_Megamind_00225559_U.png;1494169935939;FalseGenerator;NoPenaltySpot
2017GO_vsBerlinUnitedG3D_Megamind_00228522_U.png;1494169936089;FalseGenerator;NoPenaltySpot
2017GO_vsBerlinUnitedG3D_Megamind_00231185_U.png;1494169935897;FalseGenerator;NoPenaltySpot
2017GO_vsBerlinUnitedG3D_Megamind_00232651_U.png;1494169935805;FalseGenerator;NoPenaltySpot
2017GO_vsBerlinUnitedG3D_Megamind_00234627_U.png;1494169935858;FalseGenerator;NoPenaltySpot
2017GO_vsBerlinUnitedG3D_Megamind_00236369_U.png;1494169936047;FalseGenerator;NoPenaltySpot
2017GO_vsBerlinUnitedG3D_Megamind_00238739_U.png;1494169935761;FalseGenerator;NoPenaltySpot
2017GO_vsBerlinUnitedG3D_Megamind_00241637_U.png;1494169935885;FalseGenerator;NoPenaltySpot
2017GO_vsBerlinUnitedG3D_Megamind_00255385_U.png;1494169935887;FalseGenerator;NoPenaltySpot
2017GO_vsBerlinUnitedG3D_Megamind_00257592_U.png;1494169935986;FalseGenerator;NoPenaltySpot
2017GO_vsBerlinUnitedG3D_Megamind_00261714_U.png;1494169935762;FalseGenerator;NoPenaltySpot
2017GO_vsBerlinUnitedG3D_Megamind_00265900_U.png;1494169936060;FalseGenerator;NoPenaltySpot
2017GO_vsBerlinUnitedG3D_Megamind_00268160_U.png;1494169936072;FalseGenerator;NoPenaltySpot
2017GO_vsBerlinUnitedG3D_Megamind_00270249_U.png;1494169936074;FalseGenerator;NoPenaltySpot
2017GO_vsBerlinUnitedG3D_Megamind_00273270_U.png;1494169935744;FalseGenerator;NoPenaltySpot
2017GO_vsBerlinUnitedG3D_Megamind_00277921_U.png;1494169935865;FalseGenerator;NoPenaltySpot
2017GO_vsBerlinUnitedG3D_Megamind_00279774_U.png;1494169935954;FalseGenerator;NoPenaltySpot
2017GO_vsBerlinUnitedG3D_Megamind_00284583_U.png;1494169935882;FalseGenerator;NoPenaltySpot
2017GO_vsBerlinUnitedG3D_Megamind_00289129_U.png;1494169935808;FalseGenerator;NoPenaltySpot
2017GO_vsBerlinUnitedG3D_Megamind_00291319_U.png;1494169935817;FalseGenerator;NoPenaltySpot
2017GO_vsBerlinUnitedG3D_Megamind_00296534_U.png;1494169936098;FalseGenerator;NoPenaltySpot
2017GO_vsBerlinUnitedG3D_Megamind_00298764_U.png;1494169935720;FalseGenerator;NoPenaltySpot
2017GO_vsBerlinUnitedG3D_Megamind_00303149_U.png;1494169935982;FalseGenerator;NoPenaltySpot
2017GO_vsBerlinUnitedG3D_Megamind_00305822_U.png;1494169935898;FalseGenerator;NoPenaltySpot
2017GO_vsBerlinUnitedG3D_Megamind_00308227_U.png;1494169935765;FalseGenerator;NoPenaltySpot
2017GO_vsBerlinUnitedG3D_Megamind_00310845_U.png;1494169935784;FalseGenerator;NoPenaltySpot
2017GO_vsBerlinUnitedG3D_Megamind_00313461_U.png;1494169936052;FalseGenerator;NoPenaltySpot
2017GO_vsBerlinUnitedG3D_Megamind_00319120_U.png;1494169936016;FalseGenerator;NoPenaltySpot
2017GO_vsBerlinUnitedG3D_Megamind_00351378_U.png;1494169936009;FalseGenerator;NoPenaltySpot
2017GO_vsBerlinUnitedG3D_Megamind_00353292_U.png;1494169935862;FalseGenerator;NoPenaltySpot
2017GO_vsBerlinUnitedG3D_Megamind_00357522_U.png;1494169936063;FalseGenerator;NoPenaltySpot
2017GO_vsBerlinUnitedG3F_Megamind_00029447_U.png;1494169935846;FalseGenerator;NoPenaltySpot
2017GO_vsBerlinUnitedG3G_Megamind_00068442_U.png;1494169936064;FalseGenerator;NoPenaltySpot
2017GO_vsBerlinUnitedG3G_Megamind_00070631_U.png;1494169935796;FalseGenerator;NoPenaltySpot
2017GO_vsBerlinUnitedG3G_Megamind_00074838_U.png;1494169935792;FalseGenerator;NoPenaltySpot
2017GO_vsBerlinUnitedG3G_Megamind_00078956_U.png;1494169935848;FalseGenerator;NoPenaltySpot
2017GO_vsBerlinUnitedG3G_Megamind_00081704_U.png;1494169935838;FalseGenerator;NoPenaltySpot
2017GO_vsBerlinUnitedG3G_Megamind_00085752_U.png;1494169935854;FalseGenerator;NoPenaltySpot
2017GO_vsBerlinUnitedG3G_Megamind_00087630_U.png;1494169935753;FalseGenerator;NoPenaltySpot
2017GO_vsBerlinUnitedG3G_Megamind_00091377_U.png;1494169935875;FalseGenerator;NoPenaltySpot
2017GO_vsBerlinUnitedG3G_Megamind_00093783_U.png;1494169936036;FalseGenerator;NoPenaltySpot
2017GO_vsBerlinUnitedG3G_Megamind_00095770_U.png;1494169935895;FalseGenerator;NoPenaltySpot
2017GO_vsBerlinUnitedG3G_Megamind_00097502_U.png;1494169936049;FalseGenerator;NoPenaltySpot
2017GO_vsBerlinUnitedG3G_Megamind_00099857_U.png;1494169936108;FalseGenerator;NoPenaltySpot
2017GO_vsBerlinUnitedG3G_Megamind_00105104_U.png;1494169935892;FalseGenerator;NoPenaltySpot
2017GO_vsBerlinUnitedG3G_Megamind_00107223_U.png;1494169936076;FalseGenerator;NoPenaltySpot
2017GO_vsBerlinUnitedG3G_Megamind_00109851_U.png;1494169935756;FalseGenerator;NoPenaltySpot
2017GO_vsBerlinUnitedG3G_Megamind_00122381_U.png;1494169935816;FalseGenerator;NoPenaltySpot
2017GO_vsBerlinUnitedG3G_Megamind_00124475_U.png;1494169935795;FalseGenerator;NoPenaltySpot
2017GO_vsBerlinUnitedG3G_Megamind_00129434_U.png;1494169935923;FalseGenerator;NoPenaltySpot
2017GO_vsBerlinUnitedG3G_Megamind_00134084_U.png;1494169935726;FalseGenerator;NoPenaltySpot
2017GO_vsBerlinUnitedG3G_Megamind_00138752_U.png;1494169935729;FalseGenerator;NoPenaltySpot
2017GO_vsBerlinUnitedG3G_Megamind_00142717_U.png;1494169936057;FalseGenerator;NoPenaltySpot
2017GO_vsBerlinUnitedG3G_Megamind_00147809_U.png;1494169935812;FalseGenerator;NoPenaltySpot
2017GO_vsBerlinUnitedG3G_Megamind_00152710_U.png;1494169936105;FalseGenerator;NoPenaltySpot
2017GO_vsBerlinUnitedG3G_Megamind_00155609_U.png;1494169935730;FalseGenerator;NoPenaltySpot
2017GO_vsBerlinUnitedG3G_Megamind_00157963_U.png;1494169935980;FalseGenerator;NoPenaltySpot
2017GO_vsBerlinUnitedG3G_Megamind_00160687_U.png;1494169935942;FalseGenerator;NoPenaltySpot
2017GO_vsBerlinUnitedG3G_Megamind_00161817_U.png;1494169936083;FalseGenerator;NoPenaltySpot
2017GO_vsBerlinUnitedG3G_Megamind_00163843_U.png;1494169935803;FalseGenerator;NoPenaltySpot
2017GO_vsBerlinUnitedG3G_Megamind_00166140_U.png;1494169935851;FalseGenerator;NoPenaltySpot
2017GO_vsBerlinUnitedG3G_Megamind_00168546_U.png;1494169935853;FalseGenerator;NoPenaltySpot
2017GO_vsBerlinUnitedG3G_Megamind_00169821_U.png;1494169936067;FalseGenerator;NoPenaltySpot
2017GO_vsBerlinUnitedG3G_Megamind_00171964_U.png;1494169935783;FalseGenerator;NoPenaltySpot
2017GO_vsBerlinUnitedG3G_Megamind_00177031_U.png;1494169935944;FalseGenerator;NoPenaltySpot
2017GO_vsBerlinUnitedG3G_Megamind_00195750_U.png;1494169935713;FalseGenerator;NoPenaltySpot
2017GO_vsBerlinUnitedG3G_Megamind_00234394_U.png;1494169936054;FalseGenerator;NoPenaltySpot
2017GO_vsBerlinUnitedG3G_Megamind_00238476_U.png;1494169935778;FalseGenerator;NoPenaltySpot
2017GO_vsBerlinUnitedG3G_Megamind_00240724_U.png;1494169936056;FalseGenerator;NoPenaltySpot
2017GO_vsBerlinUnitedG3G_Megamind_00242692_U.png;1494169935956;FalseGenerator;NoPenaltySpot
2017GO_vsBerlinUnitedG3G_Megamind_00244795_U.png;1494169935799;FalseGenerator;NoPenaltySpot
2017GO_vsBerlinUnitedG3G_Megamind_00246954_U.png;1494169935932;FalseGenerator;NoPenaltySpot
2017GO_vsBerlinUnitedG3G_Megamind_00300441_U.png;1494169935839;FalseGenerator;NoPenaltySpot
2017GO_vsBerlinUnitedG3G_Megamind_00302657_U.png;1494169935755;FalseGenerator;NoPenaltySpot
2017GO_vsBerlinUnitedG3G_Megamind_00304660_U.png;1494169935872;FalseGenerator;NoPenaltySpot
2017GO_vsBerlinUnitedG3G_Megamind_00306771_U.png;1494169936077;FalseGenerator;NoPenaltySpot
2017GO_vsBerlinUnitedG3G_Megamind_00308640_U.png;1494169935948;FalseGenerator;NoPenaltySpot
2017GO_vsBerlinUnitedG3G_Megamind_00315456_U.png;1494169935880;FalseGenerator;NoPenaltySpot
2017GO_vsBerlinUnitedG3G_Megamind_00320642_U.png;1494169935977;FalseGenerator;NoPenaltySpot
2017GO_vsBerlinUnitedG3G_Megamind_00324769_U.png;1494158648735;tkalbitz;NoPenaltySpot
2017GO_vsBerlinUnitedG3G_Megamind_00329056_U.png;1494169936045;FalseGenerator;NoPenaltySpot
2017GO_vsBerlinUnitedG3G_Megamind_00336153_U.png;1494169936023;FalseGenerator;NoPenaltySpot
2017GO_vsBerlinUnitedG3G_Megamind_00338721_U.png;1494169935914;FalseGenerator;NoPenaltySpot
2017GO_vsBerlinUnitedG3G_Megamind_00351806_U.png;1494169935793;FalseGenerator;NoPenaltySpot
2017GO_vsBerlinUnitedG3G_Megamind_00356500_U.png;1494169935727;FalseGenerator;NoPenaltySpot
2017GO_vsBerlinUnitedG3G_Megamind_00364086_U.png;1494169935890;FalseGenerator;NoPenaltySpot
2017GO_vsBerlinUnitedG3G_Megamind_00366132_U.png;1494169935780;FalseGenerator;NoPenaltySpot
2017GO_vsBerlinUnitedG3G_Megamind_00368236_U.png;1494169936011;FalseGenerator;NoPenaltySpot
2017GO_vsBerlinUnitedG3G_Megamind_00372403_U.png;1494169935835;FalseGenerator;NoPenaltySpot
2017GO_vsBerlinUnitedG3G_Megamind_00374552_U.png;1494169935904;FalseGenerator;NoPenaltySpot
2017GO_vsBerlinUnitedG3G_Megamind_00376847_U.png;1494169935924;FalseGenerator;NoPenaltySpot
2017GO_vsBerlinUnitedG3G_Megamind_00378668_U.png;1494169935935;FalseGenerator;NoPenaltySpot
2017GO_vsBerlinUnitedG3G_Megamind_00383414_U.png;1494169935759;FalseGenerator;NoPenaltySpot
2017GO_vsBerlinUnitedG3G_Megamind_00387049_U.png;1494169935825;FalseGenerator;NoPenaltySpot
2017GO_vsBerlinUnitedG3G_Megamind_00388775_U.png;1494169935971;FalseGenerator;NoPenaltySpot
2017GO_vsBerlinUnitedG3G_Megamind_00395725_U.png;1494169935738;FalseGenerator;NoPenaltySpot
2017GO_vsBerlinUnitedG3G_Megamind_00397614_U.png;1494169936020;FalseGenerator;NoPenaltySpot
2017GO_vsBerlinUnitedG3G_Megamind_00400022_U.png;1494169935815;FalseGenerator;NoPenaltySpot
2017GO_vsBerlinUnitedG3G_Megamind_00402846_U.png;1494169935921;FalseGenerator;NoPenaltySpot
2017GO_vsBerlinUnitedG3G_Megamind_00435623_U.png;1494169935774;FalseGenerator;NoPenaltySpot
2017GO_vsBerlinUnitedG3G_Megamind_00437786_U.png;1494169935912;FalseGenerator;NoPenaltySpot
2017GO_vsBerlinUnitedG3G_Megamind_00440812_U.png;1494169935859;FalseGenerator;NoPenaltySpot
2017GO_vsBerlinUnitedG3G_Megamind_00442575_U.png;1494169935814;FalseGenerator;NoPenaltySpot
2017GO_vsBerlinUnitedG3G_Megamind_00455982_U.png;1494169935785;FalseGenerator;NoPenaltySpot
2017GO_vsBerlinUnitedG3G_Megamind_00458099_U.png;1494169936110;FalseGenerator;NoPenaltySpot
2017GO_vsBerlinUnitedG3G_Megamind_00469929_U.png;1494169936102;FalseGenerator;NoPenaltySpot
2017GO_vsBerlinUnitedG3G_Megamind_00476089_U.png;1494169935928;FalseGenerator;NoPenaltySpot
2017GO_vsBerlinUnitedG3G_Megamind_00478395_U.png;1494169936086;FalseGenerator;NoPenaltySpot
2017GO_vsBerlinUnitedG3G_Megamind_00482669_U.png;1494169935806;FalseGenerator;NoPenaltySpot
2017GO_vsBerlinUnitedG3G_Megamind_00484935_U.png;1494169935953;FalseGenerator;NoPenaltySpot
2017GO_vsBerlinUnitedG3G_Megamind_00487368_U.png;1494169935999;FalseGenerator;NoPenaltySpot
2017GO_vsBerlinUnitedG3G_Megamind_00489307_U.png;1494169936104;FalseGenerator;NoPenaltySpot
2017GO_vsBerlinUnitedG3G_Megamind_00494477_U.png;1494169935868;FalseGenerator;NoPenaltySpot
2017GO_vsBerlinUnitedG3G_Megamind_00500110_U.png;1494169936101;FalseGenerator;NoPenaltySpot
2017GO_vsBerlinUnitedG3G_Megamind_00511671_U.png;1494169936046;FalseGenerator;NoPenaltySpot
2017GO_vsBerlinUnitedG3G_Megamind_00513745_U.png;1494169935775;FalseGenerator;NoPenaltySpot
2017GO_vsBerlinUnitedG3G_Megamind_00517840_U.png;1494169935911;FalseGenerator;NoPenaltySpot
2017GO_vsBerlinUnitedG3G_Megamind_00522738_U.png;1494169935752;FalseGenerator;NoPenaltySpot
2017GO_vsBerlinUnitedG3G_Megamind_00524754_U.png;1494169936069;FalseGenerator;NoPenaltySpot
2017GO_vsBerlinUnitedG3G_Megamind_00531192_U.png;1494169935867;FalseGenerator;NoPenaltySpot
2017GO_vsBerlinUnitedG3G_Megamind_00541386_U.png;1494169935777;FalseGenerator;NoPenaltySpot
2017GO_vsBerlinUnitedG3G_Megamind_00543359_U.png;1494169936092;FalseGenerator;NoPenaltySpot
2017GO_vsBerlinUnitedG3G_Megamind_00545451_U.png;1494169935724;FalseGenerator;NoPenaltySpot
2017GO_vsBerlinUnitedG3G_Megamind_00547655_U.png;1494169935763;FalseGenerator;NoPenaltySpot
2017GO_vsBerlinUnitedG3G_Megamind_00550557_U.png;1494169935917;FalseGenerator;NoPenaltySpot
2017GO_vsBerlinUnitedG3G_Megamind_00552800_U.png;1494169935716;FalseGenerator;NoPenaltySpot
2017GO_vsBerlinUnitedG3G_Megamind_00557193_U.png;1494169935811;FalseGenerator;NoPenaltySpot
2017GO_vsBerlinUnitedG3G_Megamind_00558871_U.png;1494169935984;FalseGenerator;NoPenaltySpot
2017GO_vsBerlinUnitedG3G_Megamind_00562439_U.png;1494169935735;FalseGenerator;NoPenaltySpot
2017GO_vsBerlinUnitedG3G_Megamind_00565399_U.png;1494169935874;FalseGenerator;NoPenaltySpot
2017GO_vsBerlinUnitedG3G_Megamind_00567444_U.png;1494169935804;FalseGenerator;NoPenaltySpot
2017GO_vsBerlinUnitedG3G_Megamind_00569213_U.png;1494169935737;FalseGenerator;NoPenaltySpot
2017GO_vsBerlinUnitedG3G_Megamind_00571647_U.png;1494169935903;FalseGenerator;NoPenaltySpot
2017GO_vsBerlinUnitedG3G_Megamind_00574737_U.png;1494169936025;FalseGenerator;NoPenaltySpot
2017GO_vsBerlinUnitedG3G_Megamind_00581692_U.png;1494169935946;FalseGenerator;NoPenaltySpot
2017GO_vsBerlinUnitedG3G_Megamind_00586257_U.png;1494169935827;FalseGenerator;NoPenaltySpot
2017GO_vsBerlinUnitedG3G_Megamind_00588731_U.png;1494169935830;FalseGenerator;NoPenaltySpot
2017GO_vsBerlinUnitedG3G_Megamind_00590892_U.png;1494169935983;FalseGenerator;NoPenaltySpot
2017GO_vsBerlinUnitedG3G_Megamind_00597273_U.png;1494169935773;FalseGenerator;NoPenaltySpot
2017GO_vsBerlinUnitedG3G_Megamind_00599562_U.png;1494169936070;FalseGenerator;NoPenaltySpot
2017GO_vsBerlinUnitedG3G_Megamind_00602405_U.png;1494169936111;FalseGenerator;NoPenaltySpot
2017GO_vsBerlinUnitedG3G_Megamind_00604277_U.png;1494169935962;FalseGenerator;NoPenaltySpot
2017GO_vsBerlinUnitedG3G_Megamind_00607034_U.png;1494169935884;FalseGenerator;NoPenaltySpot
2017GO_vsBerlinUnitedG3G_Megamind_00611325_U.png;1494169935929;FalseGenerator;NoPenaltySpot
2017GO_vsBerlinUnitedG3G_Megamind_00615402_U.png;1494169935941;FalseGenerator;NoPenaltySpot
2017GO_vsBerlinUnitedG3G_Megamind_00617659_U.png;1494169935910;FalseGenerator;NoPenaltySpot
2017GO_vsBerlinUnitedG3G_Megamind_00621704_U.png;1494169935714;FalseGenerator;NoPenaltySpot
2017GO_vsBerlinUnitedG3G_Megamind_00633820_U.png;1494169935860;FalseGenerator;NoPenaltySpot
2017GO_vsBerlinUnitedG3G_Megamind_00635993_U.png;1494169936094;FalseGenerator;NoPenaltySpot
2017GO_vsBerlinUnitedG3G_Megamind_00638740_U.png;1494169935732;FalseGenerator;NoPenaltySpot
2017GO_vsBerlinUnitedG3G_Megamind_00641890_U.png;1494169935987;FalseGenerator;NoPenaltySpot
2017GO_vsBerlinUnitedG3G_Megamind_00643100_U.png;1494169936035;FalseGenerator;NoPenaltySpot
2017GO_vsBerlinUnitedG3G_Megamind_00645613_U.png;1494169935991;FalseGenerator;NoPenaltySpot
2017GO_vsBerlinUnitedG3G_Megamind_00648464_U.png;1494169935829;FalseGenerator;NoPenaltySpot
2017GO_vsBerlinUnitedG3G_Megamind_00691694_U.png;1494169935856;FalseGenerator;NoPenaltySpot
2017GO_vsBerlinUnitedG3G_Megamind_00704667_U.png;1494158711021;tkalbitz;NoPenaltySpot
2017GO_vsBerlinUnitedG3G_Megamind_00708809_U.png;1494158715221;tkalbitz;NoPenaltySpot
2017GO_vsBerlinUnitedG3G_Megamind_00736161_U.png;1494169935797;FalseGenerator;NoPenaltySpot
2017GO_vsBerlinUnitedG3G_Megamind_00737717_U.png;1494169935786;FalseGenerator;NoPenaltySpot
2017GO_vsBerlinUnitedG3G_Megamind_00739839_U.png;1494169935906;FalseGenerator;NoPenaltySpot
2017GO_vsBerlinUnitedG3G_Megamind_00741083_U.png;1494169935919;FalseGenerator;NoPenaltySpot
2017GO_vsBerlinUnitedG3G_Megamind_00749129_U.png;1494169936040;FalseGenerator;NoPenaltySpot
2017GO_vsBerlinUnitedG3G_Megamind_00750763_U.png;1494169936030;FalseGenerator;NoPenaltySpot
2017GO_vsBerlinUnitedG3G_Megamind_00756696_U.png;1494169936082;FalseGenerator;NoPenaltySpot
2017GO_vsBerlinUnitedG3G_Megamind_00763343_U.png;1494169935734;FalseGenerator;NoPenaltySpot
2017GO_vsBerlinUnitedG3G_Megamind_00765622_U.png;1494169935800;FalseGenerator;NoPenaltySpot
2017GO_vsBerlinUnitedG3G_Megamind_00768376_U.png;1494169935760;FalseGenerator;NoPenaltySpot
2017GO_vsBerlinUnitedG3G_Megamind_00772409_U.png;1494169935743;FalseGenerator;NoPenaltySpot
2017GO_vsBerlinUnitedG3G_Megamind_00774168_U.png;1494169935822;FalseGenerator;NoPenaltySpot
2017GO_vsBerlinUnitedG3G_Megamind_00779701_U.png;1494169935747;FalseGenerator;NoPenaltySpot
2017GO_vsBerlinUnitedG3G_Megamind_00791348_U.png;1494169935901;FalseGenerator;NoPenaltySpot
2017GO_vsBerlinUnitedG3G_Megamind_00793189_U.png;1494169935754;FalseGenerator;NoPenaltySpot
2017GO_vsBerlinUnitedG3C_Megamind_00131637_U.png;1494158434395;tkalbitz;PenaltySpot;70;81;83;86;PenaltySpot
2017GO_vsBerlinUnitedG3C_Megamind_00133535_U.png;1494158435985;tkalbitz;PenaltySpot;30;133;52;138;PenaltySpot
2017GO_vsBerlinUnitedG3C_Megamind_00137536_U.png;1494158439683;tkalbitz;PenaltySpot;239;93;252;98;PenaltySpot
2017GO_vsBerlinUnitedG3C_Megamind_00140040_U.png;1494158441335;tkalbitz;PenaltySpot;92;132;123;140;PenaltySpot
2017GO_vsBerlinUnitedG3C_Megamind_00146931_U.png;1494158442675;tkalbitz;PenaltySpot;18;316;83;348;PenaltySpot
2017GO_vsBerlinUnitedG3C_Megamind_00239798_U.png;1494158448163;tkalbitz;PenaltySpot;471;83;486;88;PenaltySpot
2017GO_vsBerlinUnitedG3C_Megamind_00247193_U.png;1494158450095;tkalbitz;PenaltySpot;357;22;372;30;PenaltySpot
2017GO_vsBerlinUnitedG3C_Megamind_00249487_U.png;1494158452695;tkalbitz;PenaltySpot;126;96;143;102;PenaltySpot
2017GO_vsBerlinUnitedG3C_Megamind_00251501_U.png;1494158455725;tkalbitz;PenaltySpot;475;140;490;145;PenaltySpot
2017GO_vsBerlinUnitedG3C_Megamind_00254336_U.png;1494158457251;tkalbitz;PenaltySpot;271;96;286;101;PenaltySpot
2017GO_vsBerlinUnitedG3C_Megamind_00261862_U.png;1494158459173;tkalbitz;PenaltySpot;424;233;441;241;PenaltySpot
2017GO_vsBerlinUnitedG3C_Megamind_00270876_U.png;1494158460528;tkalbitz;PenaltySpot;605;220;639;227;PenaltySpot
2017GO_vsBerlinUnitedG3C_Megamind_00275691_U.png;1494158461844;tkalbitz;PenaltySpot;220;144;252;155;PenaltySpot
2017GO_vsBerlinUnitedG3C_Megamind_00292656_U.png;1494158463200;tkalbitz;PenaltySpot;596;317;639;334;PenaltySpot
2017GO_vsBerlinUnitedG3C_Megamind_00293796_U.png;1494158464452;tkalbitz;PenaltySpot;13;214;66;233;PenaltySpot
2017GO_vsBerlinUnitedG3C_Megamind_00295876_U.png;1494158465520;tkalbitz;PenaltySpot;453;284;507;312;PenaltySpot
2017GO_vsBerlinUnitedG3C_Megamind_00361098_U.png;1494158476080;tkalbitz;PenaltySpot;262;103;276;109;PenaltySpot
2017GO_vsBerlinUnitedG3C_Megamind_00406538_U.png;1494158482722;tkalbitz;PenaltySpot;197;101;213;106;PenaltySpot
2017GO_vsBerlinUnitedG3C_Megamind_00408500_U.png;1494158484506;tkalbitz;PenaltySpot;297;165;317;171;PenaltySpot
2017GO_vsBerlinUnitedG3C_Megamind_00410814_U.png;1494158487020;tkalbitz;PenaltySpot;82;205;106;215;PenaltySpot
2017GO_vsBerlinUnitedG3C_Megamind_00425137_U.png;1494158489675;tkalbitz;PenaltySpot;128;189;160;203;PenaltySpot
2017GO_vsBerlinUnitedG3C_Megamind_00458187_U.png;1494158493258;tkalbitz;PenaltySpot;155;136;162;141;PenaltySpot
2017GO_vsBerlinUnitedG3C_Megamind_00482145_U.png;1494158505421;tkalbitz;PenaltySpot;132;154;145;159;PenaltySpot
2017GO_vsBerlinUnitedG3C_Megamind_00518816_U.png;1494158507165;tkalbitz;PenaltySpot;94;326;146;353;PenaltySpot
2017GO_vsBerlinUnitedG3D_Megamind_00048197_U.png;1494158509391;tkalbitz;PenaltySpot;242;52;255;57;PenaltySpot
2017GO_vsBerlinUnitedG3D_Megamind_00050121_U.png;1494158511034;tkalbitz;PenaltySpot;161;215;176;220;PenaltySpot
2017GO_vsBerlinUnitedG3D_Megamind_00052776_U.png;1494158513806;tkalbitz;PenaltySpot;277;78;291;84;PenaltySpot
2017GO_vsBerlinUnitedG3D_Megamind_00059317_U.png;1494158515635;tkalbitz;PenaltySpot;225;103;243;108;PenaltySpot
2017GO_vsBerlinUnitedG3D_Megamind_00073350_U.png;1494158517690;tkalbitz;PenaltySpot;510;183;527;192;PenaltySpot
2017GO_vsBerlinUnitedG3D_Megamind_00076108_U.png;1494158519192;tkalbitz;PenaltySpot;102;127;120;133;PenaltySpot
2017GO_vsBerlinUnitedG3D_Megamind_00078052_U.png;1494158520570;tkalbitz;PenaltySpot;133;105;152;113;PenaltySpot
2017GO_vsBerlinUnitedG3D_Megamind_00107366_U.png;1494158523124;tkalbitz;PenaltySpot;394;39;415;44;PenaltySpot
2017GO_vsBerlinUnitedG3D_Megamind_00114124_U.png;1494158524502;tkalbitz;PenaltySpot;344;22;363;27;PenaltySpot
2017GO_vsBerlinUnitedG3D_Megamind_00125850_U.png;1494158526464;tkalbitz;PenaltySpot;0;226;19;236;PenaltySpot
2017GO_vsBerlinUnitedG3D_Megamind_00138916_U.png;1494158528458;tkalbitz;PenaltySpot;416;28;436;33;PenaltySpot
2017GO_vsBerlinUnitedG3D_Megamind_00140815_U.png;1494158529548;tkalbitz;PenaltySpot;477;46;502;59;PenaltySpot
2017GO_vsBerlinUnitedG3D_Megamind_00149244_U.png;1494158530893;tkalbitz;PenaltySpot;557;49;589;58;PenaltySpot
2017GO_vsBerlinUnitedG3D_Megamind_00157921_U.png;1494158532046;tkalbitz;PenaltySpot;369;124;403;133;PenaltySpot
2017GO_vsBerlinUnitedG3D_Megamind_00160280_U.png;1494158533114;tkalbitz;PenaltySpot;458;93;494;106;PenaltySpot
2017GO_vsBerlinUnitedG3D_Megamind_00166817_U.png;1494158534102;tkalbitz;PenaltySpot;335;281;371;295;PenaltySpot
2017GO_vsBerlinUnitedG3D_Megamind_00169104_U.png;1494158535324;tkalbitz;PenaltySpot;240;143;280;156;PenaltySpot
2017GO_vsBerlinUnitedG3D_Megamind_00176413_U.png;1494158536351;tkalbitz;PenaltySpot;580;262;626;274;PenaltySpot
2017GO_vsBerlinUnitedG3D_Megamind_00181558_U.png;1494158537418;tkalbitz;PenaltySpot;491;316;531;328;PenaltySpot
2017GO_vsBerlinUnitedG3D_Megamind_00182933_U.png;1494158538578;tkalbitz;PenaltySpot;37;258;96;277;PenaltySpot
2017GO_vsBerlinUnitedG3D_Megamind_00189917_U.png;1494158543077;tkalbitz;PenaltySpot;626;415;639;452;PenaltySpot
2017GO_vsBerlinUnitedG3D_Megamind_00203850_U.png;1494158555639;tkalbitz;PenaltySpot;244;60;257;65;PenaltySpot
2017GO_vsBerlinUnitedG3D_Megamind_00244226_U.png;1494158557949;tkalbitz;PenaltySpot;241;9;268;15;PenaltySpot
2017GO_vsBerlinUnitedG3D_Megamind_00246868_U.png;1494158559405;tkalbitz;PenaltySpot;286;81;315;88;PenaltySpot
2017GO_vsBerlinUnitedG3D_Megamind_00249670_U.png;1494158560783;tkalbitz;PenaltySpot;0;54;13;65;PenaltySpot
2017GO_vsBerlinUnitedG3D_Megamind_00252128_U.png;1494158561937;tkalbitz;PenaltySpot;70;65;112;80;PenaltySpot
2017GO_vsBerlinUnitedG3D_Megamind_00259674_U.png;1494158563011;tkalbitz;PenaltySpot;0;217;73;269;PenaltySpot
2017GO_vsBerlinUnitedG3D_Megamind_00282373_U.png;1494158568500;tkalbitz;PenaltySpot;431;43;444;48;PenaltySpot
2017GO_vsBerlinUnitedG3D_Megamind_00286857_U.png;1494158569902;tkalbitz;PenaltySpot;559;56;572;61;PenaltySpot
2017GO_vsBerlinUnitedG3D_Megamind_00293759_U.png;1494158572120;tkalbitz;PenaltySpot;435;61;455;68;PenaltySpot
2017GO_vsBerlinUnitedG3D_Megamind_00301311_U.png;1494158573366;tkalbitz;PenaltySpot;498;150;521;157;PenaltySpot
2017GO_vsBerlinUnitedG3D_Megamind_00348981_U.png;1494158574924;tkalbitz;PenaltySpot;220;140;237;145;PenaltySpot
2017GO_vsBerlinUnitedG3D_Megamind_00356334_U.png;1494158576176;tkalbitz;PenaltySpot;334;85;350;91;PenaltySpot
2017GO_vsBerlinUnitedG3F_Megamind_00012892_U.png;1494158579494;tkalbitz;PenaltySpot;261;206;274;211;PenaltySpot
2017GO_vsBerlinUnitedG3G_Megamind_00062206_U.png;1494158601771;tkalbitz;PenaltySpot;458;203;472;208;PenaltySpot
2017GO_vsBerlinUnitedG3G_Megamind_00064533_U.png;1494158603468;tkalbitz;PenaltySpot;343;168;361;173;PenaltySpot
2017GO_vsBerlinUnitedG3G_Megamind_00066753_U.png;1494158605033;tkalbitz;PenaltySpot;191;120;211;126;PenaltySpot
2017GO_vsBerlinUnitedG3G_Megamind_00072849_U.png;1494158606255;tkalbitz;PenaltySpot;112;177;140;185;PenaltySpot
2017GO_vsBerlinUnitedG3G_Megamind_00076893_U.png;1494158608467;tkalbitz;PenaltySpot;399;78;415;83;PenaltySpot
2017GO_vsBerlinUnitedG3G_Megamind_00083065_U.png;1494158611097;tkalbitz;PenaltySpot;285;57;299;62;PenaltySpot
2017GO_vsBerlinUnitedG3G_Megamind_00089519_U.png;1494158613699;tkalbitz;PenaltySpot;124;135;137;140;PenaltySpot
2017GO_vsBerlinUnitedG3G_Megamind_00102519_U.png;1494158615279;tkalbitz;PenaltySpot;504;214;539;227;PenaltySpot
2017GO_vsBerlinUnitedG3G_Megamind_00150028_U.png;1494158620861;tkalbitz;PenaltySpot;311;75;323;83;PenaltySpot
2017GO_vsBerlinUnitedG3G_Megamind_00174502_U.png;1494158624723;tkalbitz;PenaltySpot;193;370;242;389;PenaltySpot
2017GO_vsBerlinUnitedG3G_Megamind_00179852_U.png;1494158626786;tkalbitz;PenaltySpot;83;51;99;57;PenaltySpot
2017GO_vsBerlinUnitedG3G_Megamind_00186979_U.png;1494158628732;tkalbitz;PenaltySpot;325;204;339;209;PenaltySpot
2017GO_vsBerlinUnitedG3G_Megamind_00193576_U.png;1494158630718;tkalbitz;PenaltySpot;438;77;452;83;PenaltySpot
2017GO_vsBerlinUnitedG3G_Megamind_00197861_U.png;1494158631892;tkalbitz;PenaltySpot;325;51;339;56;PenaltySpot
2017GO_vsBerlinUnitedG3G_Megamind_00297804_U.png;1494158639016;tkalbitz;PenaltySpot;454;145;467;152;PenaltySpot
2017GO_vsBerlinUnitedG3G_Megamind_00313235_U.png;1494158642969;tkalbitz;PenaltySpot;445;71;458;77;PenaltySpot
2017GO_vsBerlinUnitedG3G_Megamind_00322947_U.png;1494158646442;tkalbitz;PenaltySpot;582;354;632;371;PenaltySpot
2017GO_vsBerlinUnitedG3G_Megamind_00326868_U.png;1494158651087;tkalbitz;PenaltySpot;271;120;284;126;PenaltySpot
2017GO_vsBerlinUnitedG3G_Megamind_00330967_U.png;1494158653120;tkalbitz;PenaltySpot;530;96;545;102;PenaltySpot
2017GO_vsBerlinUnitedG3G_Megamind_00332922_U.png;1494158654763;tkalbitz;PenaltySpot;331;135;344;140;PenaltySpot
2017GO_vsBerlinUnitedG3G_Megamind_00343837_U.png;1494158656483;tkalbitz;PenaltySpot;553;89;568;94;PenaltySpot
2017GO_vsBerlinUnitedG3G_Megamind_00354442_U.png;1494158658133;tkalbitz;PenaltySpot;483;117;498;122;PenaltySpot
2017GO_vsBerlinUnitedG3G_Megamind_00361588_U.png;1494158660063;tkalbitz;PenaltySpot;442;149;462;154;PenaltySpot
2017GO_vsBerlinUnitedG3G_Megamind_00370351_U.png;1494158661285;tkalbitz;PenaltySpot;534;95;562;102;PenaltySpot
2017GO_vsBerlinUnitedG3G_Megamind_00407245_U.png;1494158666057;tkalbitz;PenaltySpot;534;105;520;110;PenaltySpot
2017GO_vsBerlinUnitedG3G_Megamind_00409296_U.png;1494158668998;tkalbitz;PenaltySpot;275;157;288;162;PenaltySpot
2017GO_vsBerlinUnitedG3G_Megamind_00432493_U.png;1494158670993;tkalbitz;PenaltySpot;323;26;336;31;PenaltySpot
2017GO_vsBerlinUnitedG3G_Megamind_00467882_U.png;1494158674793;tkalbitz;PenaltySpot;53;74;68;80;PenaltySpot
2017GO_vsBerlinUnitedG3G_Megamind_00492137_U.png;1494158676730;tkalbitz;PenaltySpot;32;43;50;48;PenaltySpot
2017GO_vsBerlinUnitedG3G_Megamind_00497132_U.png;1494158678582;tkalbitz;PenaltySpot;326;154;340;159;PenaltySpot
2017GO_vsBerlinUnitedG3G_Megamind_00502420_U.png;1494158680173;tkalbitz;PenaltySpot;217;96;236;101;PenaltySpot
2017GO_vsBerlinUnitedG3G_Megamind_00505722_U.png;1494158682094;tkalbitz;PenaltySpot;395;49;408;54;PenaltySpot
2017GO_vsBerlinUnitedG3G_Megamind_00515916_U.png;1494158686718;tkalbitz;PenaltySpot;455;129;441;133;PenaltySpot
2017GO_vsBerlinUnitedG3G_Megamind_00528632_U.png;1494158689816;tkalbitz;PenaltySpot;236;97;249;102;PenaltySpot
2017GO_vsBerlinUnitedG3G_Megamind_00535484_U.png;1494158691358;tkalbitz;PenaltySpot;174;64;189;71;PenaltySpot
2017GO_vsBerlinUnitedG3G_Megamind_00577174_U.png;1494158694743;tkalbitz;PenaltySpot;572;47;589;53;PenaltySpot
2017GO_vsBerlinUnitedG3G_Megamind_00608835_U.png;1494158699437;tkalbitz;PenaltySpot;555;132;569;138;PenaltySpot
2017GO_vsBerlinUnitedG3G_Megamind_00613311_U.png;1494158701243;tkalbitz;PenaltySpot;127;63;142;69;PenaltySpot
2017GO_vsBerlinUnitedG3G_Megamind_00702480_U.png;1494158705719;tkalbitz;PenaltySpot;390;45;403;50;PenaltySpot
2017GO_vsBerlinUnitedG3G_Megamind_00706636_U.png;1494158713309;tkalbitz;PenaltySpot;511;130;524;135;PenaltySpot
2017GO_vsBerlinUnitedG3G_Megamind_00710912_U.png;1494158717355;tkalbitz;PenaltySpot;290;103;303;108;PenaltySpot
2017GO_vsBerlinUnitedG3G_Megamind_00719166_U.png;1494158719932;tkalbitz;PenaltySpot;544;122;563;127;PenaltySpot
2017GO_vsBerlinUnitedG3G_Megamind_00721284_U.png;1494158724282;tkalbitz;PenaltySpot;189;86;202;92;PenaltySpot
2017GO_vsBerlinUnitedG3G_Megamind_00730857_U.png;1494158726447;tkalbitz;PenaltySpot;540;171;552;177;PenaltySpot
2017GO_vsBerlinUnitedG3G_Megamind_00778058_U.png;1494158733202;tkalbitz;PenaltySpot;469;95;490;100;PenaltySpot
2017GO_vsBerlinUnitedG3C_Megamind_00261862_U.png;1494167513224;tkalbitz;SkipBall
2017GO_vsBerlinUnitedG3D_Megamind_00176413_U.png;1494167645651;tkalbitz;SkipBall
2017GO_vsBerlinUnitedG3G_Megamind_00330967_U.png;1494167858571;tkalbitz;SkipBall
2017GO_vsBerlinUnitedG3G_Megamind_00351806_U.png;1494167881715;tkalbitz;SkipBall
2017GO_vsBerlinUnitedG3G_Megamind_00354442_U.png;1494167883666;tkalbitz;SkipBall
2017GO_vsBerlinUnitedG3G_Megamind_00361588_U.png;1494167887146;tkalbitz;SkipBall
2017GO_vsBerlinUnitedG3G_Megamind_00719166_U.png;1494167971967;tkalbitz;SkipBall
2017GO_vsBerlinUnitedG3G_Megamind_00730857_U.png;1494167973455;tkalbitz;SkipBall
2017GO_vsBerlinUnitedG3C_Megamind_00217916_U.png;1494158445919;tkalbitz;SkipPenaltySpot
2017GO_vsBerlinUnitedG3C_Megamind_00306124_U.png;1494158470014;tkalbitz;SkipPenaltySpot
2017GO_vsBerlinUnitedG3C_Megamind_00462199_U.png;1494159824467;tkalbitz;SkipPenaltySpot
2017GO_vsBerlinUnitedG3D_Megamind_00275476_U.png;1494158565426;tkalbitz;SkipPenaltySpot
2017GO_vsBerlinUnitedG3G_Megamind_00236487_U.png;1494158634648;tkalbitz;SkipPenaltySpot
2017GO_vsBerlinUnitedG3G_Megamind_00310704_U.png;1494158640647;tkalbitz;SkipPenaltySpot
2017GO_vsBerlinUnitedG3G_Megamind_00317223_U.png;1494158644647;tkalbitz;SkipPenaltySpot
2017GO_vsBerlinUnitedG3G_Megamind_00381121_U.png;1494158663286;tkalbitz;SkipPenaltySpot
2017GO_vsBerlinUnitedG3G_Megamind_00507226_U.png;1494158684222;tkalbitz;SkipPenaltySpot
2017GO_vsBerlinUnitedG3G_Megamind_00592948_U.png;1494158697621;tkalbitz;SkipPenaltySpot
2017GO_vsBerlinUnitedG3G_Megamind_00631249_U.png;1494158703645;tkalbitz;SkipPenaltySpot
2017GO_vsBerlinUnitedG3G_Megamind_00752702_U.png;1494158730764;tkalbitz;SkipPenaltySpot
