GO2024-G2A_Curiosity_4_PLAY_00498021_BallVanishedFromLastToThisImage_U.png;1718124541608;tkalbitz;CenterCirclePoints;361;155;361;155;Left
GO2024-G2A_Curiosity_4_SET_00208638_BallVanishedFromLastToThisImage_U.png;1718131503987;tkalbitz;CenterCirclePoints;602;322;602;322;Right
GO2024-G2A_Curiosity_4_SET_00597152_BallVanishedFromLastToThisImage_U.png;1718131508021;tkalbitz;CenterCirclePoints;3;398;3;398;Left
GO2024-G2B_Curiosity_4_PLAY_00478168_BallVanishedFromLastToThisImage_U.png;1718131515528;tkalbitz;CenterCirclePoints;544;166;544;166;Right
GO2024-G2B_Curiosity_4_PLAY_00502403_BallVanishedFromLastToThisImage_U.png;1718131520106;tkalbitz;CenterCirclePoints;566;203;566;203;Left
GO2024-G2B_Curiosity_4_SET_00167889_BallVanishedFromLastToThisImage_U.png;1718131524636;tkalbitz;CenterCirclePoints;326;238;326;238;Right
GO2024-G2B_Curiosity_4_SET_00338343_BallVanishedFromLastToThisImage_U.png;1718131527320;tkalbitz;CenterCirclePoints;203;277;203;277;Left
GO2024-G2B_Curiosity_4_SET_00800341_BallVanishedFromLastToThisImage_U.png;1718131533091;tkalbitz;CenterCirclePoints;439;318;439;318;Right
GO2024-G2A_Curiosity_4_PLAY_00244539_BallVanishedFromLastToThisImage_U.png;1715634285023;tkalbitz;GoalPost;121;40;119;3;Right
GO2024-G2A_Curiosity_4_PLAY_00419659_BallVanishedFromLastToThisImage_U.png;1715462457630;tkalbitz;GoalPost;461;111;476;-2;Left
GO2024-G2A_Curiosity_4_PLAY_00421439_BallVanishedFromLastToThisImage_U.png;1715634291229;tkalbitz;GoalPost;561;151;553;7;Left
GO2024-G2A_Curiosity_4_PLAY_00444373_BallVanishedFromLastToThisImage_U.png;1715634294503;tkalbitz;GoalPost;444;207;515;3;Left
GO2024-G2A_Curiosity_4_PLAY_00448687_BallVanishedFromLastToThisImage_U.png;1715634297721;tkalbitz;GoalPost;607;227;647;7;Left
GO2024-G2A_Curiosity_4_PLAY_00768825_BallVanishedFromLastToThisImage_U.png;1715634306888;tkalbitz;GoalPost;237;335;295;2;Right
GO2024-G2A_Curiosity_4_PLAY_00839448_BallVanishedFromLastToThisImage_U.png;1715634311268;tkalbitz;GoalPost;581;311;579;189;Left
GO2024-G2A_Curiosity_4_PLAY_00840902_BallVanishedFromLastToThisImage_U.png;1715634313696;tkalbitz;GoalPost;582;309;582;192;Left
GO2024-G2A_Curiosity_4_SET_00205724_BallVanishedFromLastToThisImage_U.png;1715462473727;tkalbitz;GoalPost;464;32;461;-3;Right
GO2024-G2B_Curiosity_4_PLAY_00200333_BallVanishedFromLastToThisImage_U.png;1715634319068;tkalbitz;GoalPost;391;138;390;0;Right
GO2024-G2B_Curiosity_4_PLAY_00246656_BallVanishedFromLastToThisImage_U.png;1715634325551;tkalbitz;GoalPost;19;78;12;4;Right
GO2024-G2B_Curiosity_4_PLAY_00367263_BallVanishedFromLastToThisImage_U.png;1715462481527;tkalbitz;GoalPost;438;119;427;1;Right
GO2024-G2B_Curiosity_4_PLAY_00367263_BallVanishedFromLastToThisImage_U.png;1715462485443;tkalbitz;GoalPost;110;112;78;-3;Left
GO2024-G2B_Curiosity_4_PLAY_00407195_BallVanishedFromLastToThisImage_U.png;1715634331529;tkalbitz;GoalPost;392;96;404;1;Left
GO2024-G2B_Curiosity_4_PLAY_00521141_BallVanishedFromLastToThisImage_U.png;1715462491839;tkalbitz;GoalPost;62;132;60;-1;Right
GO2024-G2B_Curiosity_4_PLAY_00522687_BallVanishedFromLastToThisImage_U.png;1715634335015;tkalbitz;GoalPost;224;154;232;2;Right
GO2024-G2B_Curiosity_4_PLAY_00524822_BallVanishedFromLastToThisImage_U.png;1715462497277;tkalbitz;GoalPost;276;186;275;-2;Right
GO2024-G2B_Curiosity_4_PLAY_00533147_BallVanishedFromLastToThisImage_U.png;1715634338587;tkalbitz;GoalPost;351;167;356;3;Left
GO2024-G2B_Curiosity_4_PLAY_00541990_BallVanishedFromLastToThisImage_U.png;1715462502750;tkalbitz;GoalPost;339;135;331;68;Right
GO2024-G2B_Curiosity_4_PLAY_00541990_BallVanishedFromLastToThisImage_U.png;1715462505630;tkalbitz;GoalPost;331;69;211;80;Middle
GO2024-G2B_Curiosity_4_PLAY_00665131_BallVanishedFromLastToThisImage_U.png;1715634343069;tkalbitz;GoalPost;76;139;63;23;Left
GO2024-G2B_Curiosity_4_PLAY_00708463_BallVanishedFromLastToThisImage_U.png;1715462511054;tkalbitz;GoalPost;384;116;383;1;Right
GO2024-G2B_Curiosity_4_SET_00167889_BallVanishedFromLastToThisImage_U.png;1715462517716;tkalbitz;GoalPost;237;142;237;58;Right
GO2024-G2B_Curiosity_4_SET_00167889_BallVanishedFromLastToThisImage_U.png;1715462522962;tkalbitz;GoalPost;238;58;73;52;Middle
GO2024-G2B_Curiosity_4_SET_00167889_BallVanishedFromLastToThisImage_U.png;1715462526353;tkalbitz;GoalPost;73;52;75;138;Left
GO2024-G2B_Curiosity_4_SET_00796769_BallVanishedFromLastToThisImage_U.png;1715462537589;tkalbitz;GoalPost;457;150;464;50;Right
GO2024-G2B_Curiosity_4_SET_00796769_BallVanishedFromLastToThisImage_U.png;1715462541143;tkalbitz;GoalPost;464;50;286;57;Middle
GO2024-G2B_Curiosity_4_SET_00800341_BallVanishedFromLastToThisImage_U.png;1715462547542;tkalbitz;GoalPost;68;158;66;57;Left
GO2024-G2B_Curiosity_4_SET_00800341_BallVanishedFromLastToThisImage_U.png;1715462549634;tkalbitz;GoalPost;66;57;252;63;Middle
GO2024-G2B_Curiosity_4_SET_00800341_BallVanishedFromLastToThisImage_U.png;1715462552002;tkalbitz;GoalPost;252;63;251;157;Right
GO2024-G2A_Curiosity_4_PLAY_00348756_BallVanishedFromLastToThisImage_U.png;1718138136833;tkalbitz;NoCenterCirclePoints
GO2024-G2A_Curiosity_4_PLAY_00350276_BallVanishedFromLastToThisImage_U.png;1718191159364;tkalbitz;NoCenterCirclePoints
GO2024-G2A_Curiosity_4_PLAY_00421439_BallVanishedFromLastToThisImage_U.png;1718131499326;tkalbitz;NoCenterCirclePoints
GO2024-G2A_Curiosity_4_PLAY_00448687_BallVanishedFromLastToThisImage_U.png;1718124535978;tkalbitz;NoCenterCirclePoints
GO2024-G2A_Curiosity_4_PLAY_00674126_BallVanishedFromLastToThisImage_U.png;1718133596975;tkalbitz;NoCenterCirclePoints
GO2024-G2A_Curiosity_4_PLAY_00716413_BallVanishedFromLastToThisImage_U.png;1718131500391;tkalbitz;NoCenterCirclePoints
GO2024-G2A_Curiosity_4_PLAY_00770586_BallVanishedFromLastToThisImage_U.png;1718138138815;tkalbitz;NoCenterCirclePoints
GO2024-G2B_Curiosity_4_PLAY_00246656_BallVanishedFromLastToThisImage_U.png;1718133599619;tkalbitz;NoCenterCirclePoints
GO2024-G2B_Curiosity_4_PLAY_00421848_BallVanishedFromLastToThisImage_U.png;1718131509860;tkalbitz;NoCenterCirclePoints
GO2024-G2B_Curiosity_4_PLAY_00429516_BallVanishedFromLastToThisImage_U.png;1718138141537;tkalbitz;NoCenterCirclePoints
GO2024-G2B_Curiosity_4_PLAY_00455408_BallVanishedFromLastToThisImage_U.png;1718131510712;tkalbitz;NoCenterCirclePoints
GO2024-G2B_Curiosity_4_PLAY_00460499_BallVanishedFromLastToThisImage_U.png;1718131511458;tkalbitz;NoCenterCirclePoints
GO2024-G2B_Curiosity_4_PLAY_00492891_BallVanishedFromLastToThisImage_U.png;1718131517902;tkalbitz;NoCenterCirclePoints
GO2024-G2B_Curiosity_4_PLAY_00665131_BallVanishedFromLastToThisImage_U.png;1718131521738;tkalbitz;NoCenterCirclePoints
GO2024-G2B_Curiosity_4_PLAY_00708463_BallVanishedFromLastToThisImage_U.png;1718138142828;tkalbitz;NoCenterCirclePoints
GO2024-G2A_Curiosity_4_PLAY_00319890_BallVanishedFromLastToThisImage_U.png;1715634288777;tkalbitz;NoGoalPost
GO2024-G2A_Curiosity_4_PLAY_00326323_BallVanishedFromLastToThisImage_U.png;1715462449490;tkalbitz;NoGoalPost
GO2024-G2A_Curiosity_4_PLAY_00422902_BallVanishedFromLastToThisImage_U.png;1715462462662;tkalbitz;NoGoalPost
GO2024-G2A_Curiosity_4_PLAY_00498021_BallVanishedFromLastToThisImage_U.png;1715462464240;tkalbitz;NoGoalPost
GO2024-G2A_Curiosity_4_PLAY_00719543_BallVanishedFromLastToThisImage_U.png;1715462465734;tkalbitz;NoGoalPost
GO2024-G2B_Curiosity_4_PLAY_00228358_BallVanishedFromLastToThisImage_U.png;1715462476823;tkalbitz;NoGoalPost
GO2024-G2B_Curiosity_4_PLAY_00229839_BallVanishedFromLastToThisImage_U.png;1715634322765;tkalbitz;NoGoalPost
GO2024-G2B_Curiosity_4_PLAY_00248293_BallVanishedFromLastToThisImage_U.png;1715462478863;tkalbitz;NoGoalPost
GO2024-G2B_Curiosity_4_PLAY_00441550_BallVanishedFromLastToThisImage_U.png;1715462488629;tkalbitz;NoGoalPost
GO2024-G2B_Curiosity_4_PLAY_00455408_BallVanishedFromLastToThisImage_U.png;1715462489657;tkalbitz;NoGoalPost
GO2024-G2B_Curiosity_4_PLAY_00494404_BallVanishedFromLastToThisImage_U.png;1715675197365;tkalbitz;NoGoalPost
GO2024-G2B_Curiosity_4_PLAY_00531692_BallVanishedFromLastToThisImage_U.png;1715462500658;tkalbitz;NoGoalPost
GO2024-G2B_Curiosity_4_SET_00175401_BallVanishedFromLastToThisImage_U.png;1715462533407;tkalbitz;NoGoalPost
GO2024-G2B_Curiosity_4_SET_00176886_BallVanishedFromLastToThisImage_U.png;1715462534437;tkalbitz;NoGoalPost
