RC2023-G5A_Pioneer_6_PLAY_00293839_BallAppearedFromLastToThisImage_U.png;1718189350917;tkalbitz;CenterCirclePoints;445;148;445;148;Left
RC2023-G5A_Pioneer_6_PLAY_00344896_BallAppearedFromLastToThisImage_U.png;1718189354842;tkalbitz;CenterCirclePoints;549;184;549;184;Left
RC2023-G5B_Pioneer_6_PLAY_00601971_BallAppearedFromLastToThisImage_U.png;1718189362678;tkalbitz;CenterCirclePoints;558;391;558;391;Left
RC2023-G5B_Pioneer_6_PLAY_00624473_BallAppearedFromLastToThisImage_U.png;1718192023272;tkalbitz;CenterCirclePoints;189;458;190;458;Left
RC2023-G5A_Pioneer_6_PLAY_00344896_BallAppearedFromLastToThisImage_U.png;1715630981307;tkalbitz;GoalPost;125;71;124;3;Left
RC2023-G5A_Pioneer_6_PLAY_00370647_BallAppearedFromLastToThisImage_U.png;1715630985129;tkalbitz;GoalPost;143;136;145;18;Right
RC2023-G5A_Pioneer_6_PLAY_00480934_BallAppearedFromLastToThisImage_U.png;1715630990001;tkalbitz;GoalPost;491;188;502;60;Left
RC2023-G5A_Pioneer_6_PLAY_00541876_BallAppearedFromLastToThisImage_U.png;1715678741566;tkalbitz;GoalPost;102;107;96;-2;Left
RC2023-G5A_Pioneer_6_PLAY_00546882_BallAppearedFromLastToThisImage_U.png;1715678744762;tkalbitz;GoalPost;549;163;559;11;Left
RC2023-G5A_Pioneer_6_SET_00795936_BallAppearedFromLastToThisImage_U.png;1715678752154;tkalbitz;GoalPost;381;75;381;2;Right
RC2023-G5B_Pioneer_6_PLAY_00706373_BallAppearedFromLastToThisImage_U.png;1715631005544;tkalbitz;GoalPost;383;293;409;3;Right
RC2023-G5A_Pioneer_6_PLAY_00370647_BallAppearedFromLastToThisImage_U.png;1718197479643;tkalbitz;NoCenterCirclePoints
RC2023-G5A_Pioneer_6_PLAY_00458045_BallAppearedFromLastToThisImage_U.png;1718197480985;tkalbitz;NoCenterCirclePoints
RC2023-G5A_Pioneer_6_PLAY_00459555_BallAppearedFromLastToThisImage_U.png;1718195159620;tkalbitz;NoCenterCirclePoints
RC2023-G5A_Pioneer_6_PLAY_00548594_BallAppearedFromLastToThisImage_U.png;1718189356488;tkalbitz;NoCenterCirclePoints
RC2023-G5A_Pioneer_6_PLAY_00825695_BallAppearedFromLastToThisImage_U.png;1718189358534;tkalbitz;NoCenterCirclePoints
RC2023-G5B_Pioneer_6_PLAY_00190850_BallAppearedFromLastToThisImage_U.png;1718197483645;tkalbitz;NoCenterCirclePoints
RC2023-G5B_Pioneer_6_PLAY_00392517_BallAppearedFromLastToThisImage_U.png;1718195160453;tkalbitz;NoCenterCirclePoints
RC2023-G5B_Pioneer_6_PLAY_00432483_BallAppearedFromLastToThisImage_U.png;1718189359972;tkalbitz;NoCenterCirclePoints
RC2023-G5B_Pioneer_6_PLAY_00488343_BallAppearedFromLastToThisImage_U.png;1718197484550;tkalbitz;NoCenterCirclePoints
RC2023-G5B_Pioneer_6_PLAY_00550732_BallAppearedFromLastToThisImage_U.png;1718193638584;tkalbitz;NoCenterCirclePoints
RC2023-G5B_Pioneer_6_PLAY_00574150_BallAppearedFromLastToThisImage_U.png;1718193640029;tkalbitz;NoCenterCirclePoints
RC2023-G5A_Pioneer_6_PLAY_00528200_BallAppearedFromLastToThisImage_U.png;1715630992348;tkalbitz;NoGoalPost
RC2023-G5A_Pioneer_6_PLAY_00554467_BallAppearedFromLastToThisImage_U.png;1715678748106;tkalbitz;NoGoalPost
RC2023-G5A_Pioneer_6_PLAY_00646889_BallAppearedFromLastToThisImage_U.png;1715630997058;tkalbitz;NoGoalPost
RC2023-G5B_Pioneer_6_PLAY_00394159_BallAppearedFromLastToThisImage_U.png;1715678755530;tkalbitz;NoGoalPost
RC2023-G5B_Pioneer_6_PLAY_00547723_BallAppearedFromLastToThisImage_U.png;1715678757878;tkalbitz;NoGoalPost
RC2023-G5B_Pioneer_6_PLAY_00550732_BallAppearedFromLastToThisImage_U.png;1715631003954;tkalbitz;NoGoalPost
