GO2024-G2B_Genesis_7_READY_00585581_RobotDetectionToManyRobots_U.png;1718138255436;tkalbitz;CenterCirclePoints;247;190;247;190;Left
GO2024-G2B_Genesis_7_READY_00585581_RobotDetectionToManyRobots_U.png;1718138257848;tkalbitz;CenterCirclePoints;503;186;503;186;Right
GO2024-G2B_Genesis_7_READY_00593862_RobotDetectionToManyRobots_U.png;1718132007139;tkalbitz;CenterCirclePoints;217;179;217;179;Right
GO2024-G2B_Genesis_7_READY_00749415_RobotDetectionToManyRobots_U.png;1718132010212;tkalbitz;CenterCirclePoints;208;217;208;217;Left
GO2024-G2B_Genesis_7_READY_00749415_RobotDetectionToManyRobots_U.png;1718132012164;tkalbitz;CenterCirclePoints;582;243;582;243;Right
GO2024-G2B_Genesis_7_READY_00870031_RobotDetectionToManyRobots_U.png;1718132014776;tkalbitz;CenterCirclePoints;43;211;43;211;Left
GO2024-G2B_Genesis_7_READY_00870031_RobotDetectionToManyRobots_U.png;1718132016286;tkalbitz;CenterCirclePoints;379;203;379;203;Right
GO2024-G2B_Genesis_7_READY_00878580_RobotDetectionToManyRobots_U.png;1718132020094;tkalbitz;CenterCirclePoints;225;213;225;213;Left
GO2024-G2B_Genesis_7_SET_00318727_RobotDetectionToManyRobots_U.png;1718132024148;tkalbitz;CenterCirclePoints;299;302;299;302;Right
GO2024-G2B_Genesis_7_SET_00324691_RobotDetectionToManyRobots_U.png;1718132026930;tkalbitz;CenterCirclePoints;358;305;358;305;Right
GO2024-G2B_Genesis_7_SET_00330656_RobotDetectionToManyRobots_U.png;1718132030858;tkalbitz;CenterCirclePoints;439;311;439;311;Right
GO2024-G2B_Genesis_7_SET_00597829_RobotDetectionToManyRobots_U.png;1718132035061;tkalbitz;CenterCirclePoints;258;190;258;190;Left
GO2024-G2B_Genesis_7_SET_00597829_RobotDetectionToManyRobots_U.png;1718132037095;tkalbitz;CenterCirclePoints;517;184;517;184;Right
GO2024-G2B_Genesis_7_SET_00610441_RobotDetectionToManyRobots_U.png;1718132039385;tkalbitz;CenterCirclePoints;6;190;6;190;Left
GO2024-G2B_Genesis_7_SET_00610441_RobotDetectionToManyRobots_U.png;1718132040751;tkalbitz;CenterCirclePoints;281;180;281;180;Right
GO2024-G2B_Genesis_7_SET_00629811_RobotDetectionToManyRobots_U.png;1718132043283;tkalbitz;CenterCirclePoints;274;157;274;157;Right
GO2024-G2B_Genesis_7_SET_00777922_RobotDetectionToManyRobots_U.png;1718132046571;tkalbitz;CenterCirclePoints;227;233;227;233;Right
GO2024-G2A_Genesis_7_READY_00190410_RobotDetectionToManyRobots_U.png;1715463459538;tkalbitz;GoalPost;174;132;187;24;Right
GO2024-G2A_Genesis_7_READY_00190410_RobotDetectionToManyRobots_U.png;1715463461606;tkalbitz;GoalPost;187;24;-37;-13;Middle
GO2024-G2B_Genesis_7_READY_00749415_RobotDetectionToManyRobots_U.png;1715463465300;tkalbitz;GoalPost;562;144;566;59;Right
GO2024-G2B_Genesis_7_READY_00749415_RobotDetectionToManyRobots_U.png;1715463467176;tkalbitz;GoalPost;566;59;410;63;Middle
GO2024-G2B_Genesis_7_READY_00870031_RobotDetectionToManyRobots_U.png;1715675366858;tkalbitz;GoalPost;240;137;241;62;Right
GO2024-G2B_Genesis_7_READY_00874670_RobotDetectionToManyRobots_U.png;1715463472892;tkalbitz;GoalPost;271;173;269;100;Left
GO2024-G2B_Genesis_7_READY_00874670_RobotDetectionToManyRobots_U.png;1715463474735;tkalbitz;GoalPost;269;100;405;95;Middle
GO2024-G2B_Genesis_7_READY_00874670_RobotDetectionToManyRobots_U.png;1715463476853;tkalbitz;GoalPost;405;95;407;166;Right
GO2024-G2B_Genesis_7_SET_00318727_RobotDetectionToManyRobots_U.png;1715463483265;tkalbitz;GoalPost;348;152;357;64;Left
GO2024-G2B_Genesis_7_SET_00318727_RobotDetectionToManyRobots_U.png;1715463485581;tkalbitz;GoalPost;357;64;529;64;Middle
GO2024-G2B_Genesis_7_SET_00324691_RobotDetectionToManyRobots_U.png;1715668715761;tkalbitz;GoalPost;404;153;414;63;Left
GO2024-G2B_Genesis_7_SET_00330656_RobotDetectionToManyRobots_U.png;1715668721733;tkalbitz;GoalPost;489;155;501;66;Left
GO2024-G2B_Genesis_7_SET_00777922_RobotDetectionToManyRobots_U.png;1715668729740;tkalbitz;GoalPost;217;139;220;60;Right
