2017GO_vsNaoDevils_TestgameG2B_Megamind_00086567_L.png;1497516235322;tkalbitz;Ball;81;52;37;-40;Ball
2017GO_vsNaoDevils_TestgameG2B_Megamind_00090130_L.png;1497516239424;tkalbitz;Ball;394;27;391;-65;Ball
2017GO_vsNaoDevils_TestgameG2B_Megamind_00094417_L.png;1497516242470;tkalbitz;Ball;450;99;592;135;Ball
2017GO_vsNaoDevils_TestgameG2B_Megamind_00096479_L.png;1497516247575;tkalbitz;Ball;417;154;438;286;Ball
2017GO_vsNaoDevils_TestgameG2B_Megamind_00099010_L.png;1497516252534;tkalbitz;Ball;309;315;183;400;Ball
2017GO_vsNaoDevils_TestgameG2B_Megamind_00101250_L.png;1497516257084;tkalbitz;Ball;143;229;277;221;Ball
2017GO_vsNaoDevils_TestgameG2B_Megamind_00111481_L.png;1497516262729;tkalbitz;Ball;299;51;315;-51;Ball
2017GO_vsNaoDevils_TestgameG2B_Megamind_00124722_L.png;1497516266373;tkalbitz;Ball;375;58;498;44;Ball
2017GO_vsNaoDevils_TestgameG2B_Megamind_00127293_L.png;1497516271483;tkalbitz;Ball;412;126;341;234;Ball
2017GO_vsNaoDevils_TestgameG2B_Megamind_00133482_L.png;1497516294943;tkalbitz;Ball;575;441;609;572;Ball
2017GO_vsNaoDevils_TestgameG2B_Megamind_00138341_L.png;1497516300913;tkalbitz;Ball;150;50;79;156;Ball
2017GO_vsNaoDevils_TestgameG2B_Megamind_00139527_L.png;1497516307794;tkalbitz;Ball;358;16;375;-108;Ball
2017GO_vsNaoDevils_TestgameG2B_Megamind_00141340_L.png;1497516312320;tkalbitz;Ball;235;185;336;304;Ball
2017GO_vsNaoDevils_TestgameG2B_Megamind_00143238_L.png;1497516317285;tkalbitz;Ball;449;46;494;-70;Ball
2017GO_vsNaoDevils_TestgameG2B_Megamind_00145811_L.png;1497516322987;tkalbitz;Ball;212;252;351;293;Ball
2017GO_vsNaoDevils_TestgameG2B_Megamind_00147525_L.png;1497516326571;tkalbitz;Ball;246;162;380;138;Ball
2017GO_vsNaoDevils_TestgameG2B_Megamind_00153905_L.png;1497516330256;tkalbitz;Ball;277;222;164;285;Ball
2017GO_vsNaoDevils_TestgameG2B_Megamind_00155976_L.png;1497516334238;tkalbitz;Ball;330;226;197;287;Ball
2017GO_vsNaoDevils_TestgameG2B_Megamind_00158735_L.png;1497516337261;tkalbitz;Ball;479;207;341;244;Ball
2017GO_vsNaoDevils_TestgameG2B_Megamind_00160770_L.png;1497516340970;tkalbitz;Ball;481;283;345;336;Ball
2017GO_vsNaoDevils_TestgameG2B_Megamind_00393535_L.png;1497516345029;tkalbitz;Ball;193;38;74;-7;Ball
2017GO_vsNaoDevils_TestgameG2B_Megamind_00396079_L.png;1497516348969;tkalbitz;Ball;373;136;308;261;Ball
2017GO_vsNaoDevils_TestgameG2B_Megamind_00397951_L.png;1497516360447;tkalbitz;Ball;588;341;706;422;Ball
2017GO_vsNaoDevils_TestgameG2B_Megamind_00403169_L.png;1497516363885;tkalbitz;Ball;534;188;635;198;Ball
2017GO_vsNaoDevils_TestgameG2B_Megamind_00405783_L.png;1497516376101;tkalbitz;Ball;536;116;588;204;Ball
2017GO_vsNaoDevils_TestgameG2B_Megamind_00407607_L.png;1497516382278;tkalbitz;Ball;615;22;707;-99;Ball
2017GO_vsNaoDevils_TestgameG2B_Megamind_00410183_L.png;1497516385770;tkalbitz;Ball;361;43;463;130;Ball
2017GO_vsNaoDevils_TestgameG2B_Megamind_00412841_L.png;1497516389320;tkalbitz;Ball;336;121;261;229;Ball
2017GO_vsNaoDevils_TestgameG2B_Megamind_00414631_L.png;1497516394732;tkalbitz;Ball;310;97;449;112;Ball
2017GO_vsNaoDevils_TestgameG2B_Megamind_00417119_L.png;1497516398785;tkalbitz;Ball;284;119;229;245;Ball
2017GO_vsNaoDevils_TestgameG2B_Megamind_00418878_L.png;1497516404666;tkalbitz;Ball;260;203;306;343;Ball
2017GO_vsNaoDevils_TestgameG2B_Megamind_00420857_L.png;1497516410340;tkalbitz;Ball;246;167;379;197;Ball
2017GO_vsNaoDevils_TestgameG2B_Megamind_00423034_L.png;1497516415319;tkalbitz;Ball;368;167;270;262;Ball
2017GO_vsNaoDevils_TestgameG2B_Megamind_00427834_L.png;1497516418509;tkalbitz;Ball;220;138;309;246;Ball
2017GO_vsNaoDevils_TestgameG2B_Megamind_00431601_L.png;1497516425298;tkalbitz;Ball;147;62;84;-53;Ball
2017GO_vsNaoDevils_TestgameG2B_Megamind_00433644_L.png;1497516431536;tkalbitz;Ball;288;261;354;401;Ball
2017GO_vsNaoDevils_TestgameG2B_Megamind_00441242_L.png;1497516435606;tkalbitz;Ball;348;192;410;320;Ball
2017GO_vsNaoDevils_TestgameG2B_Megamind_00443409_L.png;1497516439898;tkalbitz;Ball;289;158;372;279;Ball
2017GO_vsNaoDevils_TestgameG2B_Megamind_00445378_L.png;1497516443807;tkalbitz;Ball;222;235;201;384;Ball
2017GO_vsNaoDevils_TestgameG2B_Megamind_00447155_L.png;1497516448707;tkalbitz;Ball;315;169;411;270;Ball
2017GO_vsNaoDevils_TestgameG2B_Megamind_00449334_L.png;1497516452424;tkalbitz;Ball;278;127;174;217;Ball
2017GO_vsNaoDevils_TestgameG2B_Megamind_00452075_L.png;1497516457995;tkalbitz;Ball;323;62;455;42;Ball
2017GO_vsNaoDevils_TestgameG2B_Megamind_00453991_L.png;1497516462580;tkalbitz;Ball;366;229;266;333;Ball
2017GO_vsNaoDevils_TestgameG2B_Megamind_00459393_L.png;1497516467102;tkalbitz;Ball;592;344;658;463;Ball
2017GO_vsNaoDevils_TestgameG2B_Megamind_00573399_L.png;1497516470828;tkalbitz;Ball;366;80;263;4;Ball
2017GO_vsNaoDevils_TestgameG2B_Megamind_00578890_L.png;1497516483360;tkalbitz;Ball;146;225;227;345;Ball
2017GO_vsNaoDevils_TestgameG2B_Megamind_00584048_L.png;1497516489271;tkalbitz;Ball;297;143;330;283;Ball
2017GO_vsNaoDevils_TestgameG2B_Megamind_00586717_L.png;1497516499131;tkalbitz;Ball;361;182;251;259;Ball
2017GO_vsNaoDevils_TestgameG2B_Megamind_00589266_L.png;1497516504847;tkalbitz;Ball;386;177;300;288;Ball
2017GO_vsNaoDevils_TestgameG2B_Megamind_00591394_L.png;1497516509276;tkalbitz;Ball;289;230;304;379;Ball
2017GO_vsNaoDevils_TestgameG2B_Megamind_00593759_L.png;1497516516023;tkalbitz;Ball;315;57;333;-50;Ball
2017GO_vsNaoDevils_TestgameG2B_Megamind_00596091_L.png;1497516521708;tkalbitz;Ball;310;86;192;150;Ball
2017GO_vsNaoDevils_TestgameG2B_Megamind_00600991_L.png;1497516525824;tkalbitz;Ball;302;178;208;261;Ball
2017GO_vsNaoDevils_TestgameG2B_Megamind_00603066_L.png;1497516530760;tkalbitz;Ball;373;68;406;-51;Ball
2017GO_vsNaoDevils_TestgameG2B_Megamind_00605118_L.png;1497516536781;tkalbitz;Ball;204;195;310;290;Ball
2017GO_vsNaoDevils_TestgameG2B_Megamind_00607150_L.png;1497516541498;tkalbitz;Ball;249;110;338;218;Ball
2017GO_vsNaoDevils_TestgameG2B_Megamind_00613255_L.png;1497516545862;tkalbitz;Ball;271;83;403;105;Ball
2017GO_vsNaoDevils_TestgameG2B_Megamind_00614164_L.png;1497516550371;tkalbitz;Ball;165;56;296;99;Ball
2017GO_vsNaoDevils_TestgameG2B_Megamind_00616535_L.png;1497516553392;tkalbitz;Ball;317;172;430;263;Ball
2017GO_vsNaoDevils_TestgameG2B_Megamind_00618408_L.png;1497516560240;tkalbitz;Ball;167;32;122;-75;Ball
2017GO_vsNaoDevils_TestgameG2B_Megamind_00621650_L.png;1497516566743;tkalbitz;Ball;242;277;385;329;Ball
2017GO_vsNaoDevils_TestgameG2A_Megamind_00316982_L.png;1652361708821;tkalbitz;CenterCirclePoints;529;118;529;118;Right
2017GO_vsNaoDevils_TestgameG2B_Megamind_00060556_L.png;1652361710013;tkalbitz;CenterCirclePoints;139;153;139;153;Center
2017GO_vsNaoDevils_TestgameG2B_Megamind_00072838_L.png;1652361711571;tkalbitz;CenterCirclePoints;301;4;301;4;Right
2017GO_vsNaoDevils_TestgameG2B_Megamind_00081417_L.png;1652361714023;tkalbitz;CenterCirclePoints;447;52;447;52;Center
2017GO_vsNaoDevils_TestgameG2B_Megamind_00083096_L.png;1652361715295;tkalbitz;CenterCirclePoints;292;32;292;32;Center
2017GO_vsNaoDevils_TestgameG2B_Megamind_00086567_L.png;1652361719451;tkalbitz;CenterCirclePoints;78;57;78;57;Center
2017GO_vsNaoDevils_TestgameG2B_Megamind_00090130_L.png;1652361720689;tkalbitz;CenterCirclePoints;390;35;390;35;Center
2017GO_vsNaoDevils_TestgameG2B_Megamind_00512133_L.png;1652361724652;tkalbitz;CenterCirclePoints;526;216;526;216;Right
2017GO_vsNaoDevils_TestgameG2B_Megamind_00526872_L.png;1652361725784;tkalbitz;CenterCirclePoints;522;158;522;158;Right
2017GO_vsNaoDevils_TestgameG2B_Megamind_00528670_L.png;1652361726634;tkalbitz;CenterCirclePoints;524;143;524;143;Right
2017GO_vsNaoDevils_TestgameG2B_Megamind_00531057_L.png;1652361727670;tkalbitz;CenterCirclePoints;353;153;353;153;Right
2017GO_vsNaoDevils_TestgameG2B_Megamind_00534304_L.png;1652374569473;tkalbitz;CenterCirclePoints;486;144;486;144;Center
2017GO_vsNaoDevils_TestgameG2B_Megamind_00540853_L.png;1652361729437;tkalbitz;CenterCirclePoints;42;195;42;195;Left
2017GO_vsNaoDevils_TestgameG2B_Megamind_00546738_L.png;1652361730549;tkalbitz;CenterCirclePoints;113;378;113;378;Left
2017GO_vsNaoDevils_TestgameG2A_Megamind_00130013_L.png;1497518732002;FalseGenerator;NoBall
2017GO_vsNaoDevils_TestgameG2A_Megamind_00132132_L.png;1497518731966;FalseGenerator;NoBall
2017GO_vsNaoDevils_TestgameG2A_Megamind_00136555_L.png;1497518731806;FalseGenerator;NoBall
2017GO_vsNaoDevils_TestgameG2A_Megamind_00138579_L.png;1497518731941;FalseGenerator;NoBall
2017GO_vsNaoDevils_TestgameG2A_Megamind_00140464_L.png;1497518731879;FalseGenerator;NoBall
2017GO_vsNaoDevils_TestgameG2A_Megamind_00142420_L.png;1497518731820;FalseGenerator;NoBall
2017GO_vsNaoDevils_TestgameG2A_Megamind_00144203_L.png;1497518732005;FalseGenerator;NoBall
2017GO_vsNaoDevils_TestgameG2A_Megamind_00149355_L.png;1497518731838;FalseGenerator;NoBall
2017GO_vsNaoDevils_TestgameG2A_Megamind_00153591_L.png;1497518731826;FalseGenerator;NoBall
2017GO_vsNaoDevils_TestgameG2A_Megamind_00156412_L.png;1497518731791;FalseGenerator;NoBall
2017GO_vsNaoDevils_TestgameG2A_Megamind_00158846_L.png;1497518731972;FalseGenerator;NoBall
2017GO_vsNaoDevils_TestgameG2A_Megamind_00161059_L.png;1497518731807;FalseGenerator;NoBall
2017GO_vsNaoDevils_TestgameG2A_Megamind_00162724_L.png;1497518731895;FalseGenerator;NoBall
2017GO_vsNaoDevils_TestgameG2A_Megamind_00165679_L.png;1497518731967;FalseGenerator;NoBall
2017GO_vsNaoDevils_TestgameG2A_Megamind_00167551_L.png;1497518731783;FalseGenerator;NoBall
2017GO_vsNaoDevils_TestgameG2A_Megamind_00169631_L.png;1497518732012;FalseGenerator;NoBall
2017GO_vsNaoDevils_TestgameG2A_Megamind_00172735_L.png;1497518731867;FalseGenerator;NoBall
2017GO_vsNaoDevils_TestgameG2A_Megamind_00175792_L.png;1497518731799;FalseGenerator;NoBall
2017GO_vsNaoDevils_TestgameG2A_Megamind_00177442_L.png;1497518731814;FalseGenerator;NoBall
2017GO_vsNaoDevils_TestgameG2A_Megamind_00178419_L.png;1497518731981;FalseGenerator;NoBall
2017GO_vsNaoDevils_TestgameG2A_Megamind_00180487_L.png;1497518731892;FalseGenerator;NoBall
2017GO_vsNaoDevils_TestgameG2A_Megamind_00183367_L.png;1497518731956;FalseGenerator;NoBall
2017GO_vsNaoDevils_TestgameG2A_Megamind_00184981_L.png;1497518731812;FalseGenerator;NoBall
2017GO_vsNaoDevils_TestgameG2A_Megamind_00187351_L.png;1497518731848;FalseGenerator;NoBall
2017GO_vsNaoDevils_TestgameG2A_Megamind_00189611_L.png;1497518731802;FalseGenerator;NoBall
2017GO_vsNaoDevils_TestgameG2A_Megamind_00191488_L.png;1497518731929;FalseGenerator;NoBall
2017GO_vsNaoDevils_TestgameG2A_Megamind_00193737_L.png;1497518731888;FalseGenerator;NoBall
2017GO_vsNaoDevils_TestgameG2A_Megamind_00196135_L.png;1497518731806;FalseGenerator;NoBall
2017GO_vsNaoDevils_TestgameG2A_Megamind_00200068_L.png;1497518731783;FalseGenerator;NoBall
2017GO_vsNaoDevils_TestgameG2A_Megamind_00202265_L.png;1497518731872;FalseGenerator;NoBall
2017GO_vsNaoDevils_TestgameG2A_Megamind_00204120_L.png;1497518731952;FalseGenerator;NoBall
2017GO_vsNaoDevils_TestgameG2A_Megamind_00206010_L.png;1497518732007;FalseGenerator;NoBall
2017GO_vsNaoDevils_TestgameG2A_Megamind_00208533_L.png;1497518731785;FalseGenerator;NoBall
2017GO_vsNaoDevils_TestgameG2A_Megamind_00212354_L.png;1497518731780;FalseGenerator;NoBall
2017GO_vsNaoDevils_TestgameG2A_Megamind_00214663_L.png;1497518731919;FalseGenerator;NoBall
2017GO_vsNaoDevils_TestgameG2A_Megamind_00218285_L.png;1497518731802;FalseGenerator;NoBall
2017GO_vsNaoDevils_TestgameG2A_Megamind_00222472_L.png;1497518731821;FalseGenerator;NoBall
2017GO_vsNaoDevils_TestgameG2A_Megamind_00224142_L.png;1497518731801;FalseGenerator;NoBall
2017GO_vsNaoDevils_TestgameG2A_Megamind_00228998_L.png;1497518731917;FalseGenerator;NoBall
2017GO_vsNaoDevils_TestgameG2A_Megamind_00231185_L.png;1497518731828;FalseGenerator;NoBall
2017GO_vsNaoDevils_TestgameG2A_Megamind_00233273_L.png;1497518731789;FalseGenerator;NoBall
2017GO_vsNaoDevils_TestgameG2A_Megamind_00237889_L.png;1497518731832;FalseGenerator;NoBall
2017GO_vsNaoDevils_TestgameG2A_Megamind_00248579_L.png;1497518731854;FalseGenerator;NoBall
2017GO_vsNaoDevils_TestgameG2A_Megamind_00250865_L.png;1497518731893;FalseGenerator;NoBall
2017GO_vsNaoDevils_TestgameG2A_Megamind_00253007_L.png;1497518732013;FalseGenerator;NoBall
2017GO_vsNaoDevils_TestgameG2A_Megamind_00259954_L.png;1497518731963;FalseGenerator;NoBall
2017GO_vsNaoDevils_TestgameG2A_Megamind_00262405_L.png;1497518731913;FalseGenerator;NoBall
2017GO_vsNaoDevils_TestgameG2A_Megamind_00266979_L.png;1497518731959;FalseGenerator;NoBall
2017GO_vsNaoDevils_TestgameG2A_Megamind_00269650_L.png;1497518731798;FalseGenerator;NoBall
2017GO_vsNaoDevils_TestgameG2A_Megamind_00272198_L.png;1497518731831;FalseGenerator;NoBall
2017GO_vsNaoDevils_TestgameG2A_Megamind_00275032_L.png;1497518731855;FalseGenerator;NoBall
2017GO_vsNaoDevils_TestgameG2A_Megamind_00277996_L.png;1497518731898;FalseGenerator;NoBall
2017GO_vsNaoDevils_TestgameG2A_Megamind_00280413_L.png;1497518731954;FalseGenerator;NoBall
2017GO_vsNaoDevils_TestgameG2A_Megamind_00282627_L.png;1497518731800;FalseGenerator;NoBall
2017GO_vsNaoDevils_TestgameG2A_Megamind_00285583_L.png;1497518731786;FalseGenerator;NoBall
2017GO_vsNaoDevils_TestgameG2A_Megamind_00286576_L.png;1497518731815;FalseGenerator;NoBall
2017GO_vsNaoDevils_TestgameG2A_Megamind_00288593_L.png;1497518731796;FalseGenerator;NoBall
2017GO_vsNaoDevils_TestgameG2A_Megamind_00291532_L.png;1497518731822;FalseGenerator;NoBall
2017GO_vsNaoDevils_TestgameG2A_Megamind_00293653_L.png;1497518731787;FalseGenerator;NoBall
2017GO_vsNaoDevils_TestgameG2A_Megamind_00296255_L.png;1497518731984;FalseGenerator;NoBall
2017GO_vsNaoDevils_TestgameG2A_Megamind_00300940_L.png;1497518731874;FalseGenerator;NoBall
2017GO_vsNaoDevils_TestgameG2A_Megamind_00303372_L.png;1497518731802;FalseGenerator;NoBall
2017GO_vsNaoDevils_TestgameG2A_Megamind_00306374_L.png;1497518731881;FalseGenerator;NoBall
2017GO_vsNaoDevils_TestgameG2A_Megamind_00308675_L.png;1497518731846;FalseGenerator;NoBall
2017GO_vsNaoDevils_TestgameG2A_Megamind_00309992_L.png;1497518731824;FalseGenerator;NoBall
2017GO_vsNaoDevils_TestgameG2A_Megamind_00312235_L.png;1497518731823;FalseGenerator;NoBall
2017GO_vsNaoDevils_TestgameG2A_Megamind_00314655_L.png;1497518731962;FalseGenerator;NoBall
2017GO_vsNaoDevils_TestgameG2A_Megamind_00316982_L.png;1497518731995;FalseGenerator;NoBall
2017GO_vsNaoDevils_TestgameG2A_Megamind_00319888_L.png;1497518731821;FalseGenerator;NoBall
2017GO_vsNaoDevils_TestgameG2A_Megamind_00322310_L.png;1497518731862;FalseGenerator;NoBall
2017GO_vsNaoDevils_TestgameG2A_Megamind_00324548_L.png;1497518731938;FalseGenerator;NoBall
2017GO_vsNaoDevils_TestgameG2A_Megamind_00327199_L.png;1497518731776;FalseGenerator;NoBall
2017GO_vsNaoDevils_TestgameG2A_Megamind_00329306_L.png;1497518731916;FalseGenerator;NoBall
2017GO_vsNaoDevils_TestgameG2A_Megamind_00331963_L.png;1497518731813;FalseGenerator;NoBall
2017GO_vsNaoDevils_TestgameG2A_Megamind_00333665_L.png;1497518731845;FalseGenerator;NoBall
2017GO_vsNaoDevils_TestgameG2A_Megamind_00335545_L.png;1497518731836;FalseGenerator;NoBall
2017GO_vsNaoDevils_TestgameG2B_Megamind_00037624_L.png;1497518731805;FalseGenerator;NoBall
2017GO_vsNaoDevils_TestgameG2B_Megamind_00039613_L.png;1497518731960;FalseGenerator;NoBall
2017GO_vsNaoDevils_TestgameG2B_Megamind_00043427_L.png;1497518731811;FalseGenerator;NoBall
2017GO_vsNaoDevils_TestgameG2B_Megamind_00045161_L.png;1497518731931;FalseGenerator;NoBall
2017GO_vsNaoDevils_TestgameG2B_Megamind_00049196_L.png;1497518731991;FalseGenerator;NoBall
2017GO_vsNaoDevils_TestgameG2B_Megamind_00051351_L.png;1497518731873;FalseGenerator;NoBall
2017GO_vsNaoDevils_TestgameG2B_Megamind_00053691_L.png;1497518731910;FalseGenerator;NoBall
2017GO_vsNaoDevils_TestgameG2B_Megamind_00055382_L.png;1497518731860;FalseGenerator;NoBall
2017GO_vsNaoDevils_TestgameG2B_Megamind_00057997_L.png;1497518731788;FalseGenerator;NoBall
2017GO_vsNaoDevils_TestgameG2B_Megamind_00060556_L.png;1497518731827;FalseGenerator;NoBall
2017GO_vsNaoDevils_TestgameG2B_Megamind_00063278_L.png;1497518731922;FalseGenerator;NoBall
2017GO_vsNaoDevils_TestgameG2B_Megamind_00068748_L.png;1497518731934;FalseGenerator;NoBall
2017GO_vsNaoDevils_TestgameG2B_Megamind_00070922_L.png;1497518731837;FalseGenerator;NoBall
2017GO_vsNaoDevils_TestgameG2B_Megamind_00072838_L.png;1497518731958;FalseGenerator;NoBall
2017GO_vsNaoDevils_TestgameG2B_Megamind_00075711_L.png;1497518731799;FalseGenerator;NoBall
2017GO_vsNaoDevils_TestgameG2B_Megamind_00077704_L.png;1497518731798;FalseGenerator;NoBall
2017GO_vsNaoDevils_TestgameG2B_Megamind_00081235_L.png;1497518731791;FalseGenerator;NoBall
2017GO_vsNaoDevils_TestgameG2B_Megamind_00081417_L.png;1497518731826;FalseGenerator;NoBall
2017GO_vsNaoDevils_TestgameG2B_Megamind_00083096_L.png;1497518732001;FalseGenerator;NoBall
2017GO_vsNaoDevils_TestgameG2B_Megamind_00088272_L.png;1497518731904;FalseGenerator;NoBall
2017GO_vsNaoDevils_TestgameG2B_Megamind_00091946_L.png;1497518731998;FalseGenerator;NoBall
2017GO_vsNaoDevils_TestgameG2B_Megamind_00107962_L.png;1497518731955;FalseGenerator;NoBall
2017GO_vsNaoDevils_TestgameG2B_Megamind_00109422_L.png;1497518731948;FalseGenerator;NoBall
2017GO_vsNaoDevils_TestgameG2B_Megamind_00116433_L.png;1497518731836;FalseGenerator;NoBall
2017GO_vsNaoDevils_TestgameG2B_Megamind_00118635_L.png;1497518731882;FalseGenerator;NoBall
2017GO_vsNaoDevils_TestgameG2B_Megamind_00124267_L.png;1497518731834;FalseGenerator;NoBall
2017GO_vsNaoDevils_TestgameG2B_Megamind_00124398_L.png;1497518731880;FalseGenerator;NoBall
2017GO_vsNaoDevils_TestgameG2B_Megamind_00166154_L.png;1497518731909;FalseGenerator;NoBall
2017GO_vsNaoDevils_TestgameG2B_Megamind_00173086_L.png;1497518732003;FalseGenerator;NoBall
2017GO_vsNaoDevils_TestgameG2B_Megamind_00176087_L.png;1497518731988;FalseGenerator;NoBall
2017GO_vsNaoDevils_TestgameG2B_Megamind_00178507_L.png;1497518731774;FalseGenerator;NoBall
2017GO_vsNaoDevils_TestgameG2B_Megamind_00180838_L.png;1497518731897;FalseGenerator;NoBall
2017GO_vsNaoDevils_TestgameG2B_Megamind_00182611_L.png;1497518731781;FalseGenerator;NoBall
2017GO_vsNaoDevils_TestgameG2B_Megamind_00185295_L.png;1497518731871;FalseGenerator;NoBall
2017GO_vsNaoDevils_TestgameG2B_Megamind_00187266_L.png;1497518731817;FalseGenerator;NoBall
2017GO_vsNaoDevils_TestgameG2B_Megamind_00189341_L.png;1497518731871;FalseGenerator;NoBall
2017GO_vsNaoDevils_TestgameG2B_Megamind_00191712_L.png;1497518731923;FalseGenerator;NoBall
2017GO_vsNaoDevils_TestgameG2B_Megamind_00194234_L.png;1497518731858;FalseGenerator;NoBall
2017GO_vsNaoDevils_TestgameG2B_Megamind_00196747_L.png;1497518731935;FalseGenerator;NoBall
2017GO_vsNaoDevils_TestgameG2B_Megamind_00198624_L.png;1497518731786;FalseGenerator;NoBall
2017GO_vsNaoDevils_TestgameG2B_Megamind_00200767_L.png;1497518731825;FalseGenerator;NoBall
2017GO_vsNaoDevils_TestgameG2B_Megamind_00202955_L.png;1497518731805;FalseGenerator;NoBall
2017GO_vsNaoDevils_TestgameG2B_Megamind_00205088_L.png;1497518731859;FalseGenerator;NoBall
2017GO_vsNaoDevils_TestgameG2B_Megamind_00207349_L.png;1497518731852;FalseGenerator;NoBall
2017GO_vsNaoDevils_TestgameG2B_Megamind_00209461_L.png;1497518731801;FalseGenerator;NoBall
2017GO_vsNaoDevils_TestgameG2B_Megamind_00211930_L.png;1497518731953;FalseGenerator;NoBall
2017GO_vsNaoDevils_TestgameG2B_Megamind_00213987_L.png;1497518731947;FalseGenerator;NoBall
2017GO_vsNaoDevils_TestgameG2B_Megamind_00215950_L.png;1497518731784;FalseGenerator;NoBall
2017GO_vsNaoDevils_TestgameG2B_Megamind_00218547_L.png;1497518731914;FalseGenerator;NoBall
2017GO_vsNaoDevils_TestgameG2B_Megamind_00220640_L.png;1497518731804;FalseGenerator;NoBall
2017GO_vsNaoDevils_TestgameG2B_Megamind_00223032_L.png;1497518731785;FalseGenerator;NoBall
2017GO_vsNaoDevils_TestgameG2B_Megamind_00225507_L.png;1497518731870;FalseGenerator;NoBall
2017GO_vsNaoDevils_TestgameG2B_Megamind_00228351_L.png;1497518731854;FalseGenerator;NoBall
2017GO_vsNaoDevils_TestgameG2B_Megamind_00235803_L.png;1497518731807;FalseGenerator;NoBall
2017GO_vsNaoDevils_TestgameG2B_Megamind_00244015_L.png;1497518731970;FalseGenerator;NoBall
2017GO_vsNaoDevils_TestgameG2B_Megamind_00248791_L.png;1497518731867;FalseGenerator;NoBall
2017GO_vsNaoDevils_TestgameG2B_Megamind_00251273_L.png;1497518731792;FalseGenerator;NoBall
2017GO_vsNaoDevils_TestgameG2B_Megamind_00257310_L.png;1497518731973;FalseGenerator;NoBall
2017GO_vsNaoDevils_TestgameG2B_Megamind_00262039_L.png;1497518731790;FalseGenerator;NoBall
2017GO_vsNaoDevils_TestgameG2B_Megamind_00268845_L.png;1497518731792;FalseGenerator;NoBall
2017GO_vsNaoDevils_TestgameG2B_Megamind_00272793_L.png;1497518731856;FalseGenerator;NoBall
2017GO_vsNaoDevils_TestgameG2B_Megamind_00275522_L.png;1497518731990;FalseGenerator;NoBall
2017GO_vsNaoDevils_TestgameG2B_Megamind_00277793_L.png;1497518731841;FalseGenerator;NoBall
2017GO_vsNaoDevils_TestgameG2B_Megamind_00280756_L.png;1497518731847;FalseGenerator;NoBall
2017GO_vsNaoDevils_TestgameG2B_Megamind_00283443_L.png;1497518731936;FalseGenerator;NoBall
2017GO_vsNaoDevils_TestgameG2B_Megamind_00285906_L.png;1497518731945;FalseGenerator;NoBall
2017GO_vsNaoDevils_TestgameG2B_Megamind_00288729_L.png;1497518731971;FalseGenerator;NoBall
2017GO_vsNaoDevils_TestgameG2B_Megamind_00291088_L.png;1497518731775;FalseGenerator;NoBall
2017GO_vsNaoDevils_TestgameG2B_Megamind_00293514_L.png;1497518731883;FalseGenerator;NoBall
2017GO_vsNaoDevils_TestgameG2B_Megamind_00295688_L.png;1497518731925;FalseGenerator;NoBall
2017GO_vsNaoDevils_TestgameG2B_Megamind_00298311_L.png;1497518731822;FalseGenerator;NoBall
2017GO_vsNaoDevils_TestgameG2B_Megamind_00301117_L.png;1497518731986;FalseGenerator;NoBall
2017GO_vsNaoDevils_TestgameG2B_Megamind_00303555_L.png;1497518731857;FalseGenerator;NoBall
2017GO_vsNaoDevils_TestgameG2B_Megamind_00305855_L.png;1497518731943;FalseGenerator;NoBall
2017GO_vsNaoDevils_TestgameG2B_Megamind_00307833_L.png;1497518731804;FalseGenerator;NoBall
2017GO_vsNaoDevils_TestgameG2B_Megamind_00309736_L.png;1497518731777;FalseGenerator;NoBall
2017GO_vsNaoDevils_TestgameG2B_Megamind_00314789_L.png;1497518731859;FalseGenerator;NoBall
2017GO_vsNaoDevils_TestgameG2B_Megamind_00316810_L.png;1497518731824;FalseGenerator;NoBall
2017GO_vsNaoDevils_TestgameG2B_Megamind_00318724_L.png;1497518731907;FalseGenerator;NoBall
2017GO_vsNaoDevils_TestgameG2B_Megamind_00320711_L.png;1497518731957;FalseGenerator;NoBall
2017GO_vsNaoDevils_TestgameG2B_Megamind_00322971_L.png;1497518731778;FalseGenerator;NoBall
2017GO_vsNaoDevils_TestgameG2B_Megamind_00328674_L.png;1497518731873;FalseGenerator;NoBall
2017GO_vsNaoDevils_TestgameG2B_Megamind_00330948_L.png;1497518732006;FalseGenerator;NoBall
2017GO_vsNaoDevils_TestgameG2B_Megamind_00341745_L.png;1497518731782;FalseGenerator;NoBall
2017GO_vsNaoDevils_TestgameG2B_Megamind_00346696_L.png;1497518731786;FalseGenerator;NoBall
2017GO_vsNaoDevils_TestgameG2B_Megamind_00348815_L.png;1497518731795;FalseGenerator;NoBall
2017GO_vsNaoDevils_TestgameG2B_Megamind_00351763_L.png;1497518731793;FalseGenerator;NoBall
2017GO_vsNaoDevils_TestgameG2B_Megamind_00354190_L.png;1497518731908;FalseGenerator;NoBall
2017GO_vsNaoDevils_TestgameG2B_Megamind_00356865_L.png;1497518731853;FalseGenerator;NoBall
2017GO_vsNaoDevils_TestgameG2B_Megamind_00358430_L.png;1497518731830;FalseGenerator;NoBall
2017GO_vsNaoDevils_TestgameG2B_Megamind_00361112_L.png;1497518731773;FalseGenerator;NoBall
2017GO_vsNaoDevils_TestgameG2B_Megamind_00365103_L.png;1497518731819;FalseGenerator;NoBall
2017GO_vsNaoDevils_TestgameG2B_Megamind_00366835_L.png;1497518731816;FalseGenerator;NoBall
2017GO_vsNaoDevils_TestgameG2B_Megamind_00369499_L.png;1497518731926;FalseGenerator;NoBall
2017GO_vsNaoDevils_TestgameG2B_Megamind_00371333_L.png;1497518731842;FalseGenerator;NoBall
2017GO_vsNaoDevils_TestgameG2B_Megamind_00373117_L.png;1497518731993;FalseGenerator;NoBall
2017GO_vsNaoDevils_TestgameG2B_Megamind_00375270_L.png;1497518731932;FalseGenerator;NoBall
2017GO_vsNaoDevils_TestgameG2B_Megamind_00377410_L.png;1497518731889;FalseGenerator;NoBall
2017GO_vsNaoDevils_TestgameG2B_Megamind_00379498_L.png;1497518731789;FalseGenerator;NoBall
2017GO_vsNaoDevils_TestgameG2B_Megamind_00381734_L.png;1497518731911;FalseGenerator;NoBall
2017GO_vsNaoDevils_TestgameG2B_Megamind_00383874_L.png;1497518731779;FalseGenerator;NoBall
2017GO_vsNaoDevils_TestgameG2B_Megamind_00386022_L.png;1497518731927;FalseGenerator;NoBall
2017GO_vsNaoDevils_TestgameG2B_Megamind_00388742_L.png;1497518731884;FalseGenerator;NoBall
2017GO_vsNaoDevils_TestgameG2B_Megamind_00391131_L.png;1497518731812;FalseGenerator;NoBall
2017GO_vsNaoDevils_TestgameG2B_Megamind_00429614_L.png;1497518731924;FalseGenerator;NoBall
2017GO_vsNaoDevils_TestgameG2B_Megamind_00435957_L.png;1497518731793;FalseGenerator;NoBall
2017GO_vsNaoDevils_TestgameG2B_Megamind_00456253_L.png;1497518731864;FalseGenerator;NoBall
2017GO_vsNaoDevils_TestgameG2B_Megamind_00461153_L.png;1497518731844;FalseGenerator;NoBall
2017GO_vsNaoDevils_TestgameG2B_Megamind_00466693_L.png;1497518731784;FalseGenerator;NoBall
2017GO_vsNaoDevils_TestgameG2B_Megamind_00468671_L.png;1497518731891;FalseGenerator;NoBall
2017GO_vsNaoDevils_TestgameG2B_Megamind_00470501_L.png;1497518731816;FalseGenerator;NoBall
2017GO_vsNaoDevils_TestgameG2B_Megamind_00472749_L.png;1497518732016;FalseGenerator;NoBall
2017GO_vsNaoDevils_TestgameG2B_Megamind_00474564_L.png;1497518731797;FalseGenerator;NoBall
2017GO_vsNaoDevils_TestgameG2B_Megamind_00477414_L.png;1497518731890;FalseGenerator;NoBall
2017GO_vsNaoDevils_TestgameG2B_Megamind_00479358_L.png;1497518731778;FalseGenerator;NoBall
2017GO_vsNaoDevils_TestgameG2B_Megamind_00481492_L.png;1497518731996;FalseGenerator;NoBall
2017GO_vsNaoDevils_TestgameG2B_Megamind_00483637_L.png;1497518731949;FalseGenerator;NoBall
2017GO_vsNaoDevils_TestgameG2B_Megamind_00486551_L.png;1497518731779;FalseGenerator;NoBall
2017GO_vsNaoDevils_TestgameG2B_Megamind_00489090_L.png;1497518731863;FalseGenerator;NoBall
2017GO_vsNaoDevils_TestgameG2B_Megamind_00491918_L.png;1497518731980;FalseGenerator;NoBall
2017GO_vsNaoDevils_TestgameG2B_Megamind_00494212_L.png;1497518731830;FalseGenerator;NoBall
2017GO_vsNaoDevils_TestgameG2B_Megamind_00496577_L.png;1497518731818;FalseGenerator;NoBall
2017GO_vsNaoDevils_TestgameG2B_Megamind_00499365_L.png;1497518731937;FalseGenerator;NoBall
2017GO_vsNaoDevils_TestgameG2B_Megamind_00501377_L.png;1497518731965;FalseGenerator;NoBall
2017GO_vsNaoDevils_TestgameG2B_Megamind_00503557_L.png;1497518731869;FalseGenerator;NoBall
2017GO_vsNaoDevils_TestgameG2B_Megamind_00505921_L.png;1497518731788;FalseGenerator;NoBall
2017GO_vsNaoDevils_TestgameG2B_Megamind_00508424_L.png;1497518731876;FalseGenerator;NoBall
2017GO_vsNaoDevils_TestgameG2B_Megamind_00510881_L.png;1497518731820;FalseGenerator;NoBall
2017GO_vsNaoDevils_TestgameG2B_Megamind_00512133_L.png;1497518731946;FalseGenerator;NoBall
2017GO_vsNaoDevils_TestgameG2B_Megamind_00514664_L.png;1497518731803;FalseGenerator;NoBall
2017GO_vsNaoDevils_TestgameG2B_Megamind_00516536_L.png;1497518731780;FalseGenerator;NoBall
2017GO_vsNaoDevils_TestgameG2B_Megamind_00518745_L.png;1497518731979;FalseGenerator;NoBall
2017GO_vsNaoDevils_TestgameG2B_Megamind_00520254_L.png;1497518731845;FalseGenerator;NoBall
2017GO_vsNaoDevils_TestgameG2B_Megamind_00522233_L.png;1497518731781;FalseGenerator;NoBall
2017GO_vsNaoDevils_TestgameG2B_Megamind_00524499_L.png;1497518731899;FalseGenerator;NoBall
2017GO_vsNaoDevils_TestgameG2B_Megamind_00526872_L.png;1497518731774;FalseGenerator;NoBall
2017GO_vsNaoDevils_TestgameG2B_Megamind_00528670_L.png;1497518731868;FalseGenerator;NoBall
2017GO_vsNaoDevils_TestgameG2B_Megamind_00531057_L.png;1497518731891;FalseGenerator;NoBall
2017GO_vsNaoDevils_TestgameG2B_Megamind_00532252_L.png;1497518731851;FalseGenerator;NoBall
2017GO_vsNaoDevils_TestgameG2B_Megamind_00534304_L.png;1497518731808;FalseGenerator;NoBall
2017GO_vsNaoDevils_TestgameG2B_Megamind_00540853_L.png;1497518731905;FalseGenerator;NoBall
2017GO_vsNaoDevils_TestgameG2B_Megamind_00543460_L.png;1497518731950;FalseGenerator;NoBall
2017GO_vsNaoDevils_TestgameG2B_Megamind_00546738_L.png;1497518731944;FalseGenerator;NoBall
2017GO_vsNaoDevils_TestgameG2B_Megamind_00549137_L.png;1497518732011;FalseGenerator;NoBall
2017GO_vsNaoDevils_TestgameG2B_Megamind_00550815_L.png;1497518731803;FalseGenerator;NoBall
2017GO_vsNaoDevils_TestgameG2B_Megamind_00554494_L.png;1497518731835;FalseGenerator;NoBall
2017GO_vsNaoDevils_TestgameG2B_Megamind_00559156_L.png;1497518731790;FalseGenerator;NoBall
2017GO_vsNaoDevils_TestgameG2B_Megamind_00561380_L.png;1497518731782;FalseGenerator;NoBall
2017GO_vsNaoDevils_TestgameG2B_Megamind_00568277_L.png;1497518731851;FalseGenerator;NoBall
2017GO_vsNaoDevils_TestgameG2B_Megamind_00570725_L.png;1497518731975;FalseGenerator;NoBall
2017GO_vsNaoDevils_TestgameG2B_Megamind_00574885_L.png;1497518731839;FalseGenerator;NoBall
2017GO_vsNaoDevils_TestgameG2B_Megamind_00609578_L.png;1497518731794;FalseGenerator;NoBall
2017GO_vsNaoDevils_TestgameG2B_Megamind_00623816_L.png;1497518731920;FalseGenerator;NoBall
2017GO_vsNaoDevils_TestgameG2B_Megamind_00627758_L.png;1497518732015;FalseGenerator;NoBall
2017GO_vsNaoDevils_TestgameG2B_Megamind_00629668_L.png;1497518731866;FalseGenerator;NoBall
2017GO_vsNaoDevils_TestgameG2B_Megamind_00632215_L.png;1497518731819;FalseGenerator;NoBall
2017GO_vsNaoDevils_TestgameG2B_Megamind_00634638_L.png;1497518731869;FalseGenerator;NoBall
2017GO_vsNaoDevils_TestgameG2B_Megamind_00636766_L.png;1497518731811;FalseGenerator;NoBall
2017GO_vsNaoDevils_TestgameG2B_Megamind_00639829_L.png;1497518731912;FalseGenerator;NoBall
2017GO_vsNaoDevils_TestgameG2B_Megamind_00645339_L.png;1497518731886;FalseGenerator;NoBall
2017GO_vsNaoDevils_TestgameG2B_Megamind_00647097_L.png;1497518731810;FalseGenerator;NoBall
2017GO_vsNaoDevils_TestgameG2B_Megamind_00653564_L.png;1497518731810;FalseGenerator;NoBall
2017GO_vsNaoDevils_TestgameG2B_Megamind_00660490_L.png;1497518731833;FalseGenerator;NoBall
2017GO_vsNaoDevils_TestgameG2B_Megamind_00662380_L.png;1497518731779;FalseGenerator;NoBall
2017GO_vsNaoDevils_TestgameG2B_Megamind_00666553_L.png;1497518731777;FalseGenerator;NoBall
2017GO_vsNaoDevils_TestgameG2B_Megamind_00668760_L.png;1497518731850;FalseGenerator;NoBall
2017GO_vsNaoDevils_TestgameG2B_Megamind_00670923_L.png;1497518731840;FalseGenerator;NoBall
2017GO_vsNaoDevils_TestgameG2B_Megamind_00672830_L.png;1497518731804;FalseGenerator;NoBall
2017GO_vsNaoDevils_TestgameG2B_Megamind_00675029_L.png;1497518731840;FalseGenerator;NoBall
2017GO_vsNaoDevils_TestgameG2B_Megamind_00677124_L.png;1497518731940;FalseGenerator;NoBall
2017GO_vsNaoDevils_TestgameG2B_Megamind_00679768_L.png;1497518731933;FalseGenerator;NoBall
2017GO_vsNaoDevils_TestgameG2B_Megamind_00681390_L.png;1497518731782;FalseGenerator;NoBall
2017GO_vsNaoDevils_TestgameG2A_Megamind_00162724_L.png;1652374561536;tkalbitz;NoCenterCirclePoints
2017GO_vsNaoDevils_TestgameG2A_Megamind_00172735_L.png;1652361705936;tkalbitz;NoCenterCirclePoints
2017GO_vsNaoDevils_TestgameG2A_Megamind_00177442_L.png;1652361707544;tkalbitz;NoCenterCirclePoints
2017GO_vsNaoDevils_TestgameG2B_Megamind_00037624_L.png;1652891249511;tkalbitz;NoCenterCirclePoints
2017GO_vsNaoDevils_TestgameG2B_Megamind_00081235_L.png;1652361712720;tkalbitz;NoCenterCirclePoints
2017GO_vsNaoDevils_TestgameG2B_Megamind_00099010_L.png;1652361722272;tkalbitz;NoCenterCirclePoints
2017GO_vsNaoDevils_TestgameG2B_Megamind_00127293_L.png;1652735618172;tkalbitz;NoCenterCirclePoints
2017GO_vsNaoDevils_TestgameG2B_Megamind_00139527_L.png;1652517859417;tkalbitz;NoCenterCirclePoints
2017GO_vsNaoDevils_TestgameG2B_Megamind_00166154_L.png;1652570243160;tkalbitz;NoCenterCirclePoints
2017GO_vsNaoDevils_TestgameG2B_Megamind_00275522_L.png;1652772528469;FalseGenerator;NoCenterCirclePoints
2017GO_vsNaoDevils_TestgameG2B_Megamind_00305855_L.png;1652570244076;tkalbitz;NoCenterCirclePoints
2017GO_vsNaoDevils_TestgameG2B_Megamind_00358430_L.png;1652366930060;tkalbitz;NoCenterCirclePoints
2017GO_vsNaoDevils_TestgameG2B_Megamind_00405783_L.png;1652371603793;tkalbitz;NoCenterCirclePoints
2017GO_vsNaoDevils_TestgameG2B_Megamind_00410183_L.png;1652480101335;tkalbitz;NoCenterCirclePoints
2017GO_vsNaoDevils_TestgameG2B_Megamind_00466693_L.png;1652361723125;tkalbitz;NoCenterCirclePoints
2017GO_vsNaoDevils_TestgameG2B_Megamind_00468671_L.png;1652807428187;tkalbitz;NoCenterCirclePoints
2017GO_vsNaoDevils_TestgameG2B_Megamind_00468671_L.png;1652807541055;tkalbitz;NoCenterCirclePoints
2017GO_vsNaoDevils_TestgameG2B_Megamind_00470501_L.png;1652807429995;tkalbitz;NoCenterCirclePoints
2017GO_vsNaoDevils_TestgameG2B_Megamind_00470501_L.png;1652807541804;tkalbitz;NoCenterCirclePoints
2017GO_vsNaoDevils_TestgameG2B_Megamind_00477414_L.png;1652891250089;tkalbitz;NoCenterCirclePoints
2017GO_vsNaoDevils_TestgameG2B_Megamind_00618408_L.png;1652361731718;tkalbitz;NoCenterCirclePoints
2017GO_vsNaoDevils_TestgameG2B_Megamind_00629668_L.png;1652361732559;tkalbitz;NoCenterCirclePoints
2017GO_vsNaoDevils_TestgameG2B_Megamind_00634638_L.png;1652366930968;tkalbitz;NoCenterCirclePoints
2017GO_vsNaoDevils_TestgameG2B_Megamind_00653564_L.png;1652579114820;tkalbitz;NoCenterCirclePoints
2017GO_vsNaoDevils_TestgameG2B_Megamind_00662380_L.png;1652891250741;tkalbitz;NoCenterCirclePoints
2017GO_vsNaoDevils_TestgameG2A_Megamind_00130013_L.png;1497518808218;FalseGenerator;NoFeet
2017GO_vsNaoDevils_TestgameG2A_Megamind_00132132_L.png;1497518808178;FalseGenerator;NoFeet
2017GO_vsNaoDevils_TestgameG2A_Megamind_00136555_L.png;1497518807938;FalseGenerator;NoFeet
2017GO_vsNaoDevils_TestgameG2A_Megamind_00138579_L.png;1497518808147;FalseGenerator;NoFeet
2017GO_vsNaoDevils_TestgameG2A_Megamind_00140464_L.png;1497518808077;FalseGenerator;NoFeet
2017GO_vsNaoDevils_TestgameG2A_Megamind_00142420_L.png;1497518807964;FalseGenerator;NoFeet
2017GO_vsNaoDevils_TestgameG2A_Megamind_00144203_L.png;1497518808223;FalseGenerator;NoFeet
2017GO_vsNaoDevils_TestgameG2A_Megamind_00149355_L.png;1497518808002;FalseGenerator;NoFeet
2017GO_vsNaoDevils_TestgameG2A_Megamind_00153591_L.png;1497518807980;FalseGenerator;NoFeet
2017GO_vsNaoDevils_TestgameG2A_Megamind_00156412_L.png;1497518807902;FalseGenerator;NoFeet
2017GO_vsNaoDevils_TestgameG2A_Megamind_00158846_L.png;1497518808183;FalseGenerator;NoFeet
2017GO_vsNaoDevils_TestgameG2A_Megamind_00161059_L.png;1497518807944;FalseGenerator;NoFeet
2017GO_vsNaoDevils_TestgameG2A_Megamind_00162724_L.png;1497518808095;FalseGenerator;NoFeet
2017GO_vsNaoDevils_TestgameG2A_Megamind_00165679_L.png;1497518808180;FalseGenerator;NoFeet
2017GO_vsNaoDevils_TestgameG2A_Megamind_00167551_L.png;1497518807879;FalseGenerator;NoFeet
2017GO_vsNaoDevils_TestgameG2A_Megamind_00169631_L.png;1497518808233;FalseGenerator;NoFeet
2017GO_vsNaoDevils_TestgameG2A_Megamind_00172735_L.png;1497518808057;FalseGenerator;NoFeet
2017GO_vsNaoDevils_TestgameG2A_Megamind_00175792_L.png;1497518807919;FalseGenerator;NoFeet
2017GO_vsNaoDevils_TestgameG2A_Megamind_00177442_L.png;1497518807952;FalseGenerator;NoFeet
2017GO_vsNaoDevils_TestgameG2A_Megamind_00178419_L.png;1497518808197;FalseGenerator;NoFeet
2017GO_vsNaoDevils_TestgameG2A_Megamind_00180487_L.png;1497518808092;FalseGenerator;NoFeet
2017GO_vsNaoDevils_TestgameG2A_Megamind_00183367_L.png;1497518808164;FalseGenerator;NoFeet
2017GO_vsNaoDevils_TestgameG2A_Megamind_00184981_L.png;1497518807948;FalseGenerator;NoFeet
2017GO_vsNaoDevils_TestgameG2A_Megamind_00187351_L.png;1497518808026;FalseGenerator;NoFeet
2017GO_vsNaoDevils_TestgameG2A_Megamind_00189611_L.png;1497518807929;FalseGenerator;NoFeet
2017GO_vsNaoDevils_TestgameG2A_Megamind_00191488_L.png;1497518808132;FalseGenerator;NoFeet
2017GO_vsNaoDevils_TestgameG2A_Megamind_00193737_L.png;1497518808084;FalseGenerator;NoFeet
2017GO_vsNaoDevils_TestgameG2A_Megamind_00196135_L.png;1497518807941;FalseGenerator;NoFeet
2017GO_vsNaoDevils_TestgameG2A_Megamind_00200068_L.png;1497518807878;FalseGenerator;NoFeet
2017GO_vsNaoDevils_TestgameG2A_Megamind_00202265_L.png;1497518808067;FalseGenerator;NoFeet
2017GO_vsNaoDevils_TestgameG2A_Megamind_00204120_L.png;1497518808158;FalseGenerator;NoFeet
2017GO_vsNaoDevils_TestgameG2A_Megamind_00206010_L.png;1497518808227;FalseGenerator;NoFeet
2017GO_vsNaoDevils_TestgameG2A_Megamind_00208533_L.png;1497518807884;FalseGenerator;NoFeet
2017GO_vsNaoDevils_TestgameG2A_Megamind_00212354_L.png;1497518807866;FalseGenerator;NoFeet
2017GO_vsNaoDevils_TestgameG2A_Megamind_00214663_L.png;1497518808119;FalseGenerator;NoFeet
2017GO_vsNaoDevils_TestgameG2A_Megamind_00218285_L.png;1497518807926;FalseGenerator;NoFeet
2017GO_vsNaoDevils_TestgameG2A_Megamind_00222472_L.png;1497518807966;FalseGenerator;NoFeet
2017GO_vsNaoDevils_TestgameG2A_Megamind_00224142_L.png;1497518807925;FalseGenerator;NoFeet
2017GO_vsNaoDevils_TestgameG2A_Megamind_00228998_L.png;1497518808118;FalseGenerator;NoFeet
2017GO_vsNaoDevils_TestgameG2A_Megamind_00231185_L.png;1497518807986;FalseGenerator;NoFeet
2017GO_vsNaoDevils_TestgameG2A_Megamind_00233273_L.png;1497518807897;FalseGenerator;NoFeet
2017GO_vsNaoDevils_TestgameG2A_Megamind_00237889_L.png;1497518807992;FalseGenerator;NoFeet
2017GO_vsNaoDevils_TestgameG2A_Megamind_00248579_L.png;1497518808037;FalseGenerator;NoFeet
2017GO_vsNaoDevils_TestgameG2A_Megamind_00250865_L.png;1497518808094;FalseGenerator;NoFeet
2017GO_vsNaoDevils_TestgameG2A_Megamind_00253007_L.png;1497518808235;FalseGenerator;NoFeet
2017GO_vsNaoDevils_TestgameG2A_Megamind_00259954_L.png;1497518808176;FalseGenerator;NoFeet
2017GO_vsNaoDevils_TestgameG2A_Megamind_00262405_L.png;1497518808112;FalseGenerator;NoFeet
2017GO_vsNaoDevils_TestgameG2A_Megamind_00266979_L.png;1497518808168;FalseGenerator;NoFeet
2017GO_vsNaoDevils_TestgameG2A_Megamind_00269650_L.png;1497518807916;FalseGenerator;NoFeet
2017GO_vsNaoDevils_TestgameG2A_Megamind_00272198_L.png;1497518807990;FalseGenerator;NoFeet
2017GO_vsNaoDevils_TestgameG2A_Megamind_00275032_L.png;1497518808041;FalseGenerator;NoFeet
2017GO_vsNaoDevils_TestgameG2A_Megamind_00277996_L.png;1497518808098;FalseGenerator;NoFeet
2017GO_vsNaoDevils_TestgameG2A_Megamind_00280413_L.png;1497518808162;FalseGenerator;NoFeet
2017GO_vsNaoDevils_TestgameG2A_Megamind_00282627_L.png;1497518807923;FalseGenerator;NoFeet
2017GO_vsNaoDevils_TestgameG2A_Megamind_00285583_L.png;1497518807888;FalseGenerator;NoFeet
2017GO_vsNaoDevils_TestgameG2A_Megamind_00286576_L.png;1497518807955;FalseGenerator;NoFeet
2017GO_vsNaoDevils_TestgameG2A_Megamind_00288593_L.png;1497518807914;FalseGenerator;NoFeet
2017GO_vsNaoDevils_TestgameG2A_Megamind_00291532_L.png;1497518807975;FalseGenerator;NoFeet
2017GO_vsNaoDevils_TestgameG2A_Megamind_00293653_L.png;1497518807890;FalseGenerator;NoFeet
2017GO_vsNaoDevils_TestgameG2A_Megamind_00296255_L.png;1497518808198;FalseGenerator;NoFeet
2017GO_vsNaoDevils_TestgameG2A_Megamind_00300940_L.png;1497518808074;FalseGenerator;NoFeet
2017GO_vsNaoDevils_TestgameG2A_Megamind_00303372_L.png;1497518807928;FalseGenerator;NoFeet
2017GO_vsNaoDevils_TestgameG2A_Megamind_00306374_L.png;1497518808078;FalseGenerator;NoFeet
2017GO_vsNaoDevils_TestgameG2A_Megamind_00308675_L.png;1497518808023;FalseGenerator;NoFeet
2017GO_vsNaoDevils_TestgameG2A_Megamind_00309992_L.png;1497518807978;FalseGenerator;NoFeet
2017GO_vsNaoDevils_TestgameG2A_Megamind_00312235_L.png;1497518807977;FalseGenerator;NoFeet
2017GO_vsNaoDevils_TestgameG2A_Megamind_00314655_L.png;1497518808171;FalseGenerator;NoFeet
2017GO_vsNaoDevils_TestgameG2A_Megamind_00316982_L.png;1497518808212;FalseGenerator;NoFeet
2017GO_vsNaoDevils_TestgameG2A_Megamind_00319888_L.png;1497518807970;FalseGenerator;NoFeet
2017GO_vsNaoDevils_TestgameG2A_Megamind_00322310_L.png;1497518808051;FalseGenerator;NoFeet
2017GO_vsNaoDevils_TestgameG2A_Megamind_00324548_L.png;1497518808145;FalseGenerator;NoFeet
2017GO_vsNaoDevils_TestgameG2A_Megamind_00327199_L.png;1497518807858;FalseGenerator;NoFeet
2017GO_vsNaoDevils_TestgameG2A_Megamind_00329306_L.png;1497518808115;FalseGenerator;NoFeet
2017GO_vsNaoDevils_TestgameG2A_Megamind_00331963_L.png;1497518807951;FalseGenerator;NoFeet
2017GO_vsNaoDevils_TestgameG2A_Megamind_00333665_L.png;1497518808021;FalseGenerator;NoFeet
2017GO_vsNaoDevils_TestgameG2A_Megamind_00335545_L.png;1497518807999;FalseGenerator;NoFeet
2017GO_vsNaoDevils_TestgameG2B_Megamind_00037624_L.png;1497518807936;FalseGenerator;NoFeet
2017GO_vsNaoDevils_TestgameG2B_Megamind_00039613_L.png;1497518808170;FalseGenerator;NoFeet
2017GO_vsNaoDevils_TestgameG2B_Megamind_00043427_L.png;1497518807947;FalseGenerator;NoFeet
2017GO_vsNaoDevils_TestgameG2B_Megamind_00045161_L.png;1497518808134;FalseGenerator;NoFeet
2017GO_vsNaoDevils_TestgameG2B_Megamind_00049196_L.png;1497518808205;FalseGenerator;NoFeet
2017GO_vsNaoDevils_TestgameG2B_Megamind_00051351_L.png;1497518808070;FalseGenerator;NoFeet
2017GO_vsNaoDevils_TestgameG2B_Megamind_00053691_L.png;1497518808108;FalseGenerator;NoFeet
2017GO_vsNaoDevils_TestgameG2B_Megamind_00055382_L.png;1497518808050;FalseGenerator;NoFeet
2017GO_vsNaoDevils_TestgameG2B_Megamind_00057997_L.png;1497518807893;FalseGenerator;NoFeet
2017GO_vsNaoDevils_TestgameG2B_Megamind_00060556_L.png;1497518807985;FalseGenerator;NoFeet
2017GO_vsNaoDevils_TestgameG2B_Megamind_00063278_L.png;1497518808123;FalseGenerator;NoFeet
2017GO_vsNaoDevils_TestgameG2B_Megamind_00070922_L.png;1497518808000;FalseGenerator;NoFeet
2017GO_vsNaoDevils_TestgameG2B_Megamind_00072838_L.png;1497518808167;FalseGenerator;NoFeet
2017GO_vsNaoDevils_TestgameG2B_Megamind_00075711_L.png;1497518807921;FalseGenerator;NoFeet
2017GO_vsNaoDevils_TestgameG2B_Megamind_00077704_L.png;1497518807917;FalseGenerator;NoFeet
2017GO_vsNaoDevils_TestgameG2B_Megamind_00081235_L.png;1497518807901;FalseGenerator;NoFeet
2017GO_vsNaoDevils_TestgameG2B_Megamind_00081417_L.png;1497518807981;FalseGenerator;NoFeet
2017GO_vsNaoDevils_TestgameG2B_Megamind_00083096_L.png;1497518808217;FalseGenerator;NoFeet
2017GO_vsNaoDevils_TestgameG2B_Megamind_00084811_L.png;1497518808009;FalseGenerator;NoFeet
2017GO_vsNaoDevils_TestgameG2B_Megamind_00088272_L.png;1497518808100;FalseGenerator;NoFeet
2017GO_vsNaoDevils_TestgameG2B_Megamind_00091946_L.png;1497518808215;FalseGenerator;NoFeet
2017GO_vsNaoDevils_TestgameG2B_Megamind_00094417_L.png;1497518807982;FalseGenerator;NoFeet
2017GO_vsNaoDevils_TestgameG2B_Megamind_00096479_L.png;1497518808230;FalseGenerator;NoFeet
2017GO_vsNaoDevils_TestgameG2B_Megamind_00109422_L.png;1497518808154;FalseGenerator;NoFeet
2017GO_vsNaoDevils_TestgameG2B_Megamind_00116433_L.png;1497518807997;FalseGenerator;NoFeet
2017GO_vsNaoDevils_TestgameG2B_Megamind_00118635_L.png;1497518808079;FalseGenerator;NoFeet
2017GO_vsNaoDevils_TestgameG2B_Megamind_00124267_L.png;1497518807994;FalseGenerator;NoFeet
2017GO_vsNaoDevils_TestgameG2B_Megamind_00124722_L.png;1497518807852;FalseGenerator;NoFeet
2017GO_vsNaoDevils_TestgameG2B_Megamind_00127293_L.png;1497518807874;FalseGenerator;NoFeet
2017GO_vsNaoDevils_TestgameG2B_Megamind_00138341_L.png;1497518808122;FalseGenerator;NoFeet
2017GO_vsNaoDevils_TestgameG2B_Megamind_00141340_L.png;1497518808102;FalseGenerator;NoFeet
2017GO_vsNaoDevils_TestgameG2B_Megamind_00143238_L.png;1497518808117;FalseGenerator;NoFeet
2017GO_vsNaoDevils_TestgameG2B_Megamind_00145811_L.png;1497518808137;FalseGenerator;NoFeet
2017GO_vsNaoDevils_TestgameG2B_Megamind_00173086_L.png;1497518808221;FalseGenerator;NoFeet
2017GO_vsNaoDevils_TestgameG2B_Megamind_00176087_L.png;1497518808201;FalseGenerator;NoFeet
2017GO_vsNaoDevils_TestgameG2B_Megamind_00178507_L.png;1497518807856;FalseGenerator;NoFeet
2017GO_vsNaoDevils_TestgameG2B_Megamind_00180838_L.png;1497518808096;FalseGenerator;NoFeet
2017GO_vsNaoDevils_TestgameG2B_Megamind_00182611_L.png;1497518807868;FalseGenerator;NoFeet
2017GO_vsNaoDevils_TestgameG2B_Megamind_00185295_L.png;1497518808064;FalseGenerator;NoFeet
2017GO_vsNaoDevils_TestgameG2B_Megamind_00187266_L.png;1497518807958;FalseGenerator;NoFeet
2017GO_vsNaoDevils_TestgameG2B_Megamind_00189341_L.png;1497518808066;FalseGenerator;NoFeet
2017GO_vsNaoDevils_TestgameG2B_Megamind_00191712_L.png;1497518808125;FalseGenerator;NoFeet
2017GO_vsNaoDevils_TestgameG2B_Megamind_00194234_L.png;1497518808045;FalseGenerator;NoFeet
2017GO_vsNaoDevils_TestgameG2B_Megamind_00196747_L.png;1497518808139;FalseGenerator;NoFeet
2017GO_vsNaoDevils_TestgameG2B_Megamind_00198624_L.png;1497518807889;FalseGenerator;NoFeet
2017GO_vsNaoDevils_TestgameG2B_Megamind_00200767_L.png;1497518807979;FalseGenerator;NoFeet
2017GO_vsNaoDevils_TestgameG2B_Megamind_00202955_L.png;1497518807935;FalseGenerator;NoFeet
2017GO_vsNaoDevils_TestgameG2B_Megamind_00205088_L.png;1497518808047;FalseGenerator;NoFeet
2017GO_vsNaoDevils_TestgameG2B_Megamind_00207349_L.png;1497518808032;FalseGenerator;NoFeet
2017GO_vsNaoDevils_TestgameG2B_Megamind_00209461_L.png;1497518807924;FalseGenerator;NoFeet
2017GO_vsNaoDevils_TestgameG2B_Megamind_00211930_L.png;1497518808159;FalseGenerator;NoFeet
2017GO_vsNaoDevils_TestgameG2B_Megamind_00213987_L.png;1497518808152;FalseGenerator;NoFeet
2017GO_vsNaoDevils_TestgameG2B_Megamind_00215950_L.png;1497518807880;FalseGenerator;NoFeet
2017GO_vsNaoDevils_TestgameG2B_Megamind_00218547_L.png;1497518808113;FalseGenerator;NoFeet
2017GO_vsNaoDevils_TestgameG2B_Megamind_00220640_L.png;1497518807933;FalseGenerator;NoFeet
2017GO_vsNaoDevils_TestgameG2B_Megamind_00223032_L.png;1497518807882;FalseGenerator;NoFeet
2017GO_vsNaoDevils_TestgameG2B_Megamind_00225507_L.png;1497518808063;FalseGenerator;NoFeet
2017GO_vsNaoDevils_TestgameG2B_Megamind_00228351_L.png;1497518808038;FalseGenerator;NoFeet
2017GO_vsNaoDevils_TestgameG2B_Megamind_00235803_L.png;1497518807943;FalseGenerator;NoFeet
2017GO_vsNaoDevils_TestgameG2B_Megamind_00244015_L.png;1497518808181;FalseGenerator;NoFeet
2017GO_vsNaoDevils_TestgameG2B_Megamind_00248791_L.png;1497518808058;FalseGenerator;NoFeet
2017GO_vsNaoDevils_TestgameG2B_Megamind_00251273_L.png;1497518807906;FalseGenerator;NoFeet
2017GO_vsNaoDevils_TestgameG2B_Megamind_00257310_L.png;1497518808191;FalseGenerator;NoFeet
2017GO_vsNaoDevils_TestgameG2B_Megamind_00262039_L.png;1497518807899;FalseGenerator;NoFeet
2017GO_vsNaoDevils_TestgameG2B_Megamind_00268845_L.png;1497518807903;FalseGenerator;NoFeet
2017GO_vsNaoDevils_TestgameG2B_Megamind_00272793_L.png;1497518808042;FalseGenerator;NoFeet
2017GO_vsNaoDevils_TestgameG2B_Megamind_00275522_L.png;1497518808203;FalseGenerator;NoFeet
2017GO_vsNaoDevils_TestgameG2B_Megamind_00277793_L.png;1497518808011;FalseGenerator;NoFeet
2017GO_vsNaoDevils_TestgameG2B_Megamind_00280756_L.png;1497518808024;FalseGenerator;NoFeet
2017GO_vsNaoDevils_TestgameG2B_Megamind_00283443_L.png;1497518808141;FalseGenerator;NoFeet
2017GO_vsNaoDevils_TestgameG2B_Megamind_00285906_L.png;1497518808149;FalseGenerator;NoFeet
2017GO_vsNaoDevils_TestgameG2B_Megamind_00288729_L.png;1497518808182;FalseGenerator;NoFeet
2017GO_vsNaoDevils_TestgameG2B_Megamind_00293514_L.png;1497518808080;FalseGenerator;NoFeet
2017GO_vsNaoDevils_TestgameG2B_Megamind_00295688_L.png;1497518808128;FalseGenerator;NoFeet
2017GO_vsNaoDevils_TestgameG2B_Megamind_00298311_L.png;1497518807972;FalseGenerator;NoFeet
2017GO_vsNaoDevils_TestgameG2B_Megamind_00301117_L.png;1497518808200;FalseGenerator;NoFeet
2017GO_vsNaoDevils_TestgameG2B_Megamind_00303555_L.png;1497518808044;FalseGenerator;NoFeet
2017GO_vsNaoDevils_TestgameG2B_Megamind_00305855_L.png;1497518808148;FalseGenerator;NoFeet
2017GO_vsNaoDevils_TestgameG2B_Megamind_00307833_L.png;1497518807934;FalseGenerator;NoFeet
2017GO_vsNaoDevils_TestgameG2B_Megamind_00309736_L.png;1497518807862;FalseGenerator;NoFeet
2017GO_vsNaoDevils_TestgameG2B_Megamind_00314789_L.png;1497518808048;FalseGenerator;NoFeet
2017GO_vsNaoDevils_TestgameG2B_Megamind_00320711_L.png;1497518808165;FalseGenerator;NoFeet
2017GO_vsNaoDevils_TestgameG2B_Megamind_00328674_L.png;1497518808072;FalseGenerator;NoFeet
2017GO_vsNaoDevils_TestgameG2B_Megamind_00330948_L.png;1497518808225;FalseGenerator;NoFeet
2017GO_vsNaoDevils_TestgameG2B_Megamind_00341745_L.png;1497518807877;FalseGenerator;NoFeet
2017GO_vsNaoDevils_TestgameG2B_Megamind_00346696_L.png;1497518807885;FalseGenerator;NoFeet
2017GO_vsNaoDevils_TestgameG2B_Megamind_00348815_L.png;1497518807911;FalseGenerator;NoFeet
2017GO_vsNaoDevils_TestgameG2B_Megamind_00351763_L.png;1497518807909;FalseGenerator;NoFeet
2017GO_vsNaoDevils_TestgameG2B_Megamind_00354190_L.png;1497518808106;FalseGenerator;NoFeet
2017GO_vsNaoDevils_TestgameG2B_Megamind_00356865_L.png;1497518808035;FalseGenerator;NoFeet
2017GO_vsNaoDevils_TestgameG2B_Megamind_00361112_L.png;1497518807855;FalseGenerator;NoFeet
2017GO_vsNaoDevils_TestgameG2B_Megamind_00365103_L.png;1497518807961;FalseGenerator;NoFeet
2017GO_vsNaoDevils_TestgameG2B_Megamind_00366835_L.png;1497518807956;FalseGenerator;NoFeet
2017GO_vsNaoDevils_TestgameG2B_Megamind_00369499_L.png;1497518808130;FalseGenerator;NoFeet
2017GO_vsNaoDevils_TestgameG2B_Megamind_00371333_L.png;1497518808012;FalseGenerator;NoFeet
2017GO_vsNaoDevils_TestgameG2B_Megamind_00373117_L.png;1497518808207;FalseGenerator;NoFeet
2017GO_vsNaoDevils_TestgameG2B_Megamind_00375270_L.png;1497518808135;FalseGenerator;NoFeet
2017GO_vsNaoDevils_TestgameG2B_Megamind_00377410_L.png;1497518808085;FalseGenerator;NoFeet
2017GO_vsNaoDevils_TestgameG2B_Megamind_00379498_L.png;1497518807896;FalseGenerator;NoFeet
2017GO_vsNaoDevils_TestgameG2B_Megamind_00381734_L.png;1497518808109;FalseGenerator;NoFeet
2017GO_vsNaoDevils_TestgameG2B_Megamind_00386022_L.png;1497518808131;FalseGenerator;NoFeet
2017GO_vsNaoDevils_TestgameG2B_Megamind_00388742_L.png;1497518808082;FalseGenerator;NoFeet
2017GO_vsNaoDevils_TestgameG2B_Megamind_00391131_L.png;1497518807949;FalseGenerator;NoFeet
2017GO_vsNaoDevils_TestgameG2B_Megamind_00393535_L.png;1497518807869;FalseGenerator;NoFeet
2017GO_vsNaoDevils_TestgameG2B_Megamind_00396079_L.png;1497518808232;FalseGenerator;NoFeet
2017GO_vsNaoDevils_TestgameG2B_Megamind_00407607_L.png;1497518808174;FalseGenerator;NoFeet
2017GO_vsNaoDevils_TestgameG2B_Megamind_00412841_L.png;1497518808003;FalseGenerator;NoFeet
2017GO_vsNaoDevils_TestgameG2B_Megamind_00418878_L.png;1497518808210;FalseGenerator;NoFeet
2017GO_vsNaoDevils_TestgameG2B_Megamind_00427834_L.png;1497518807894;FalseGenerator;NoFeet
2017GO_vsNaoDevils_TestgameG2B_Megamind_00431601_L.png;1497518807984;FalseGenerator;NoFeet
2017GO_vsNaoDevils_TestgameG2B_Megamind_00435957_L.png;1497518807908;FalseGenerator;NoFeet
2017GO_vsNaoDevils_TestgameG2B_Megamind_00441242_L.png;1497518807965;FalseGenerator;NoFeet
2017GO_vsNaoDevils_TestgameG2B_Megamind_00443409_L.png;1497518807967;FalseGenerator;NoFeet
2017GO_vsNaoDevils_TestgameG2B_Megamind_00445378_L.png;1497518807991;FalseGenerator;NoFeet
2017GO_vsNaoDevils_TestgameG2B_Megamind_00447155_L.png;1497518808189;FalseGenerator;NoFeet
2017GO_vsNaoDevils_TestgameG2B_Megamind_00449334_L.png;1497518808185;FalseGenerator;NoFeet
2017GO_vsNaoDevils_TestgameG2B_Megamind_00452075_L.png;1497518808187;FalseGenerator;NoFeet
2017GO_vsNaoDevils_TestgameG2B_Megamind_00453991_L.png;1497518807945;FalseGenerator;NoFeet
2017GO_vsNaoDevils_TestgameG2B_Megamind_00456253_L.png;1497518808055;FalseGenerator;NoFeet
2017GO_vsNaoDevils_TestgameG2B_Megamind_00459393_L.png;1497518807860;FalseGenerator;NoFeet
2017GO_vsNaoDevils_TestgameG2B_Megamind_00461153_L.png;1497518808014;FalseGenerator;NoFeet
2017GO_vsNaoDevils_TestgameG2B_Megamind_00466693_L.png;1497518807881;FalseGenerator;NoFeet
2017GO_vsNaoDevils_TestgameG2B_Megamind_00468671_L.png;1497518808090;FalseGenerator;NoFeet
2017GO_vsNaoDevils_TestgameG2B_Megamind_00470501_L.png;1497518807957;FalseGenerator;NoFeet
2017GO_vsNaoDevils_TestgameG2B_Megamind_00472749_L.png;1497518808236;FalseGenerator;NoFeet
2017GO_vsNaoDevils_TestgameG2B_Megamind_00474564_L.png;1497518807915;FalseGenerator;NoFeet
2017GO_vsNaoDevils_TestgameG2B_Megamind_00477414_L.png;1497518808088;FalseGenerator;NoFeet
2017GO_vsNaoDevils_TestgameG2B_Megamind_00479358_L.png;1497518807863;FalseGenerator;NoFeet
2017GO_vsNaoDevils_TestgameG2B_Megamind_00481492_L.png;1497518808213;FalseGenerator;NoFeet
2017GO_vsNaoDevils_TestgameG2B_Megamind_00483637_L.png;1497518808156;FalseGenerator;NoFeet
2017GO_vsNaoDevils_TestgameG2B_Megamind_00486551_L.png;1497518807864;FalseGenerator;NoFeet
2017GO_vsNaoDevils_TestgameG2B_Megamind_00489090_L.png;1497518808053;FalseGenerator;NoFeet
2017GO_vsNaoDevils_TestgameG2B_Megamind_00491918_L.png;1497518808196;FalseGenerator;NoFeet
2017GO_vsNaoDevils_TestgameG2B_Megamind_00494212_L.png;1497518807989;FalseGenerator;NoFeet
2017GO_vsNaoDevils_TestgameG2B_Megamind_00496577_L.png;1497518807960;FalseGenerator;NoFeet
2017GO_vsNaoDevils_TestgameG2B_Megamind_00499365_L.png;1497518808144;FalseGenerator;NoFeet
2017GO_vsNaoDevils_TestgameG2B_Megamind_00501377_L.png;1497518808177;FalseGenerator;NoFeet
2017GO_vsNaoDevils_TestgameG2B_Megamind_00503557_L.png;1497518808062;FalseGenerator;NoFeet
2017GO_vsNaoDevils_TestgameG2B_Megamind_00505921_L.png;1497518807891;FalseGenerator;NoFeet
2017GO_vsNaoDevils_TestgameG2B_Megamind_00508424_L.png;1497518808075;FalseGenerator;NoFeet
2017GO_vsNaoDevils_TestgameG2B_Megamind_00510881_L.png;1497518807962;FalseGenerator;NoFeet
2017GO_vsNaoDevils_TestgameG2B_Megamind_00512133_L.png;1497518808150;FalseGenerator;NoFeet
2017GO_vsNaoDevils_TestgameG2B_Megamind_00514664_L.png;1497518807931;FalseGenerator;NoFeet
2017GO_vsNaoDevils_TestgameG2B_Megamind_00516536_L.png;1497518807865;FalseGenerator;NoFeet
2017GO_vsNaoDevils_TestgameG2B_Megamind_00518745_L.png;1497518808194;FalseGenerator;NoFeet
2017GO_vsNaoDevils_TestgameG2B_Megamind_00520254_L.png;1497518808019;FalseGenerator;NoFeet
2017GO_vsNaoDevils_TestgameG2B_Megamind_00522233_L.png;1497518807870;FalseGenerator;NoFeet
2017GO_vsNaoDevils_TestgameG2B_Megamind_00524499_L.png;1497518808099;FalseGenerator;NoFeet
2017GO_vsNaoDevils_TestgameG2B_Megamind_00526872_L.png;1497518807857;FalseGenerator;NoFeet
2017GO_vsNaoDevils_TestgameG2B_Megamind_00528670_L.png;1497518808059;FalseGenerator;NoFeet
2017GO_vsNaoDevils_TestgameG2B_Megamind_00531057_L.png;1497518808091;FalseGenerator;NoFeet
2017GO_vsNaoDevils_TestgameG2B_Megamind_00532252_L.png;1497518808030;FalseGenerator;NoFeet
2017GO_vsNaoDevils_TestgameG2B_Megamind_00540853_L.png;1497518808103;FalseGenerator;NoFeet
2017GO_vsNaoDevils_TestgameG2B_Megamind_00549137_L.png;1497518808229;FalseGenerator;NoFeet
2017GO_vsNaoDevils_TestgameG2B_Megamind_00550815_L.png;1497518807930;FalseGenerator;NoFeet
2017GO_vsNaoDevils_TestgameG2B_Megamind_00554494_L.png;1497518807995;FalseGenerator;NoFeet
2017GO_vsNaoDevils_TestgameG2B_Megamind_00559156_L.png;1497518807898;FalseGenerator;NoFeet
2017GO_vsNaoDevils_TestgameG2B_Megamind_00561380_L.png;1497518807876;FalseGenerator;NoFeet
2017GO_vsNaoDevils_TestgameG2B_Megamind_00568277_L.png;1497518808031;FalseGenerator;NoFeet
2017GO_vsNaoDevils_TestgameG2B_Megamind_00570725_L.png;1497518808192;FalseGenerator;NoFeet
2017GO_vsNaoDevils_TestgameG2B_Megamind_00584048_L.png;1497518808126;FalseGenerator;NoFeet
2017GO_vsNaoDevils_TestgameG2B_Megamind_00593759_L.png;1497518808142;FalseGenerator;NoFeet
2017GO_vsNaoDevils_TestgameG2B_Megamind_00596091_L.png;1497518807913;FalseGenerator;NoFeet
2017GO_vsNaoDevils_TestgameG2B_Megamind_00603066_L.png;1497518807974;FalseGenerator;NoFeet
2017GO_vsNaoDevils_TestgameG2B_Megamind_00605118_L.png;1497518807998;FalseGenerator;NoFeet
2017GO_vsNaoDevils_TestgameG2B_Megamind_00607150_L.png;1497518808114;FalseGenerator;NoFeet
2017GO_vsNaoDevils_TestgameG2B_Megamind_00609578_L.png;1497518807910;FalseGenerator;NoFeet
2017GO_vsNaoDevils_TestgameG2B_Megamind_00613255_L.png;1497518808068;FalseGenerator;NoFeet
2017GO_vsNaoDevils_TestgameG2B_Megamind_00614164_L.png;1497518808161;FalseGenerator;NoFeet
2017GO_vsNaoDevils_TestgameG2B_Megamind_00616535_L.png;1497518807969;FalseGenerator;NoFeet
2017GO_vsNaoDevils_TestgameG2B_Megamind_00618408_L.png;1497518807940;FalseGenerator;NoFeet
2017GO_vsNaoDevils_TestgameG2B_Megamind_00634638_L.png;1497518808061;FalseGenerator;NoFeet
2017GO_vsNaoDevils_TestgameG2B_Megamind_00639829_L.png;1497518808110;FalseGenerator;NoFeet
2017GO_vsNaoDevils_TestgameG2B_Megamind_00645339_L.png;1497518808083;FalseGenerator;NoFeet
2017GO_vsNaoDevils_TestgameG2B_Megamind_00647097_L.png;1497518807946;FalseGenerator;NoFeet
2017GO_vsNaoDevils_TestgameG2B_Megamind_00666553_L.png;1497518807861;FalseGenerator;NoFeet
2017GO_vsNaoDevils_TestgameG2B_Megamind_00668760_L.png;1497518808028;FalseGenerator;NoFeet
2017GO_vsNaoDevils_TestgameG2B_Megamind_00670923_L.png;1497518808008;FalseGenerator;NoFeet
2017GO_vsNaoDevils_TestgameG2B_Megamind_00675029_L.png;1497518808006;FalseGenerator;NoFeet
2017GO_vsNaoDevils_TestgameG2B_Megamind_00681390_L.png;1497518807873;FalseGenerator;NoFeet
2017GO_vsNaoDevils_TestgameG2A_Megamind_00130013_L.png;1497518790162;FalseGenerator;NoPenaltySpot
2017GO_vsNaoDevils_TestgameG2A_Megamind_00132132_L.png;1497518790128;FalseGenerator;NoPenaltySpot
2017GO_vsNaoDevils_TestgameG2A_Megamind_00136555_L.png;1497518789935;FalseGenerator;NoPenaltySpot
2017GO_vsNaoDevils_TestgameG2A_Megamind_00138579_L.png;1497518790097;FalseGenerator;NoPenaltySpot
2017GO_vsNaoDevils_TestgameG2A_Megamind_00140464_L.png;1497518790034;FalseGenerator;NoPenaltySpot
2017GO_vsNaoDevils_TestgameG2A_Megamind_00142420_L.png;1497518789959;FalseGenerator;NoPenaltySpot
2017GO_vsNaoDevils_TestgameG2A_Megamind_00144203_L.png;1497518790165;FalseGenerator;NoPenaltySpot
2017GO_vsNaoDevils_TestgameG2A_Megamind_00149355_L.png;1497518789986;FalseGenerator;NoPenaltySpot
2017GO_vsNaoDevils_TestgameG2A_Megamind_00153591_L.png;1497518789971;FalseGenerator;NoPenaltySpot
2017GO_vsNaoDevils_TestgameG2A_Megamind_00156412_L.png;1497518789913;FalseGenerator;NoPenaltySpot
2017GO_vsNaoDevils_TestgameG2A_Megamind_00158846_L.png;1497518790132;FalseGenerator;NoPenaltySpot
2017GO_vsNaoDevils_TestgameG2A_Megamind_00161059_L.png;1497518789940;FalseGenerator;NoPenaltySpot
2017GO_vsNaoDevils_TestgameG2A_Megamind_00162724_L.png;1497518790049;FalseGenerator;NoPenaltySpot
2017GO_vsNaoDevils_TestgameG2A_Megamind_00165679_L.png;1497518790129;FalseGenerator;NoPenaltySpot
2017GO_vsNaoDevils_TestgameG2A_Megamind_00167551_L.png;1497518789898;FalseGenerator;NoPenaltySpot
2017GO_vsNaoDevils_TestgameG2A_Megamind_00169631_L.png;1497518790174;FalseGenerator;NoPenaltySpot
2017GO_vsNaoDevils_TestgameG2A_Megamind_00172735_L.png;1497518790018;FalseGenerator;NoPenaltySpot
2017GO_vsNaoDevils_TestgameG2A_Megamind_00175792_L.png;1497518789924;FalseGenerator;NoPenaltySpot
2017GO_vsNaoDevils_TestgameG2A_Megamind_00177442_L.png;1497518789949;FalseGenerator;NoPenaltySpot
2017GO_vsNaoDevils_TestgameG2A_Megamind_00178419_L.png;1497518790142;FalseGenerator;NoPenaltySpot
2017GO_vsNaoDevils_TestgameG2A_Megamind_00180487_L.png;1497518790047;FalseGenerator;NoPenaltySpot
2017GO_vsNaoDevils_TestgameG2A_Megamind_00183367_L.png;1497518790115;FalseGenerator;NoPenaltySpot
2017GO_vsNaoDevils_TestgameG2A_Megamind_00184981_L.png;1497518789946;FalseGenerator;NoPenaltySpot
2017GO_vsNaoDevils_TestgameG2A_Megamind_00187351_L.png;1497518789999;FalseGenerator;NoPenaltySpot
2017GO_vsNaoDevils_TestgameG2A_Megamind_00189611_L.png;1497518789930;FalseGenerator;NoPenaltySpot
2017GO_vsNaoDevils_TestgameG2A_Megamind_00191488_L.png;1497518790083;FalseGenerator;NoPenaltySpot
2017GO_vsNaoDevils_TestgameG2A_Megamind_00193737_L.png;1497518790042;FalseGenerator;NoPenaltySpot
2017GO_vsNaoDevils_TestgameG2A_Megamind_00196135_L.png;1497518789938;FalseGenerator;NoPenaltySpot
2017GO_vsNaoDevils_TestgameG2A_Megamind_00200068_L.png;1497518789898;FalseGenerator;NoPenaltySpot
2017GO_vsNaoDevils_TestgameG2A_Megamind_00202265_L.png;1497518790028;FalseGenerator;NoPenaltySpot
2017GO_vsNaoDevils_TestgameG2A_Megamind_00204120_L.png;1497518790108;FalseGenerator;NoPenaltySpot
2017GO_vsNaoDevils_TestgameG2A_Megamind_00206010_L.png;1497518790167;FalseGenerator;NoPenaltySpot
2017GO_vsNaoDevils_TestgameG2A_Megamind_00208533_L.png;1497518789903;FalseGenerator;NoPenaltySpot
2017GO_vsNaoDevils_TestgameG2A_Megamind_00212354_L.png;1497518789893;FalseGenerator;NoPenaltySpot
2017GO_vsNaoDevils_TestgameG2A_Megamind_00214663_L.png;1497518790069;FalseGenerator;NoPenaltySpot
2017GO_vsNaoDevils_TestgameG2A_Megamind_00218285_L.png;1497518789928;FalseGenerator;NoPenaltySpot
2017GO_vsNaoDevils_TestgameG2A_Megamind_00222472_L.png;1497518789961;FalseGenerator;NoPenaltySpot
2017GO_vsNaoDevils_TestgameG2A_Megamind_00224142_L.png;1497518789928;FalseGenerator;NoPenaltySpot
2017GO_vsNaoDevils_TestgameG2A_Megamind_00228998_L.png;1497518790068;FalseGenerator;NoPenaltySpot
2017GO_vsNaoDevils_TestgameG2A_Megamind_00231185_L.png;1497518789975;FalseGenerator;NoPenaltySpot
2017GO_vsNaoDevils_TestgameG2A_Megamind_00233273_L.png;1497518789910;FalseGenerator;NoPenaltySpot
2017GO_vsNaoDevils_TestgameG2A_Megamind_00237889_L.png;1497518789980;FalseGenerator;NoPenaltySpot
2017GO_vsNaoDevils_TestgameG2A_Megamind_00248579_L.png;1497518790006;FalseGenerator;NoPenaltySpot
2017GO_vsNaoDevils_TestgameG2A_Megamind_00250865_L.png;1497518790048;FalseGenerator;NoPenaltySpot
2017GO_vsNaoDevils_TestgameG2A_Megamind_00253007_L.png;1497518790175;FalseGenerator;NoPenaltySpot
2017GO_vsNaoDevils_TestgameG2A_Megamind_00259954_L.png;1497518790125;FalseGenerator;NoPenaltySpot
2017GO_vsNaoDevils_TestgameG2A_Megamind_00262405_L.png;1497518790064;FalseGenerator;NoPenaltySpot
2017GO_vsNaoDevils_TestgameG2A_Megamind_00266979_L.png;1497518790118;FalseGenerator;NoPenaltySpot
2017GO_vsNaoDevils_TestgameG2A_Megamind_00269650_L.png;1497518789921;FalseGenerator;NoPenaltySpot
2017GO_vsNaoDevils_TestgameG2A_Megamind_00272198_L.png;1497518789978;FalseGenerator;NoPenaltySpot
2017GO_vsNaoDevils_TestgameG2A_Megamind_00275032_L.png;1497518790007;FalseGenerator;NoPenaltySpot
2017GO_vsNaoDevils_TestgameG2A_Megamind_00277996_L.png;1497518790051;FalseGenerator;NoPenaltySpot
2017GO_vsNaoDevils_TestgameG2A_Megamind_00280413_L.png;1497518790113;FalseGenerator;NoPenaltySpot
2017GO_vsNaoDevils_TestgameG2A_Megamind_00282627_L.png;1497518789926;FalseGenerator;NoPenaltySpot
2017GO_vsNaoDevils_TestgameG2A_Megamind_00285583_L.png;1497518789905;FalseGenerator;NoPenaltySpot
2017GO_vsNaoDevils_TestgameG2A_Megamind_00286576_L.png;1497518789950;FalseGenerator;NoPenaltySpot
2017GO_vsNaoDevils_TestgameG2A_Megamind_00288593_L.png;1497518789919;FalseGenerator;NoPenaltySpot
2017GO_vsNaoDevils_TestgameG2A_Megamind_00291532_L.png;1497518789965;FalseGenerator;NoPenaltySpot
2017GO_vsNaoDevils_TestgameG2A_Megamind_00293653_L.png;1497518789906;FalseGenerator;NoPenaltySpot
2017GO_vsNaoDevils_TestgameG2A_Megamind_00296255_L.png;1497518790144;FalseGenerator;NoPenaltySpot
2017GO_vsNaoDevils_TestgameG2A_Megamind_00300940_L.png;1497518790031;FalseGenerator;NoPenaltySpot
2017GO_vsNaoDevils_TestgameG2A_Megamind_00303372_L.png;1497518789929;FalseGenerator;NoPenaltySpot
2017GO_vsNaoDevils_TestgameG2A_Megamind_00306374_L.png;1497518790036;FalseGenerator;NoPenaltySpot
2017GO_vsNaoDevils_TestgameG2A_Megamind_00308675_L.png;1497518789998;FalseGenerator;NoPenaltySpot
2017GO_vsNaoDevils_TestgameG2A_Megamind_00309992_L.png;1497518789968;FalseGenerator;NoPenaltySpot
2017GO_vsNaoDevils_TestgameG2A_Megamind_00312235_L.png;1497518789967;FalseGenerator;NoPenaltySpot
2017GO_vsNaoDevils_TestgameG2A_Megamind_00314655_L.png;1497518790121;FalseGenerator;NoPenaltySpot
2017GO_vsNaoDevils_TestgameG2A_Megamind_00316982_L.png;1497518790151;FalseGenerator;NoPenaltySpot
2017GO_vsNaoDevils_TestgameG2A_Megamind_00319888_L.png;1497518789963;FalseGenerator;NoPenaltySpot
2017GO_vsNaoDevils_TestgameG2A_Megamind_00322310_L.png;1497518790014;FalseGenerator;NoPenaltySpot
2017GO_vsNaoDevils_TestgameG2A_Megamind_00324548_L.png;1497518790095;FalseGenerator;NoPenaltySpot
2017GO_vsNaoDevils_TestgameG2A_Megamind_00327199_L.png;1497518789884;FalseGenerator;NoPenaltySpot
2017GO_vsNaoDevils_TestgameG2A_Megamind_00329306_L.png;1497518790066;FalseGenerator;NoPenaltySpot
2017GO_vsNaoDevils_TestgameG2A_Megamind_00331963_L.png;1497518789949;FalseGenerator;NoPenaltySpot
2017GO_vsNaoDevils_TestgameG2A_Megamind_00333665_L.png;1497518789997;FalseGenerator;NoPenaltySpot
2017GO_vsNaoDevils_TestgameG2A_Megamind_00335545_L.png;1497518789984;FalseGenerator;NoPenaltySpot
2017GO_vsNaoDevils_TestgameG2B_Megamind_00037624_L.png;1497518789934;FalseGenerator;NoPenaltySpot
2017GO_vsNaoDevils_TestgameG2B_Megamind_00039613_L.png;1497518790119;FalseGenerator;NoPenaltySpot
2017GO_vsNaoDevils_TestgameG2B_Megamind_00043427_L.png;1497518789944;FalseGenerator;NoPenaltySpot
2017GO_vsNaoDevils_TestgameG2B_Megamind_00045161_L.png;1497518790084;FalseGenerator;NoPenaltySpot
2017GO_vsNaoDevils_TestgameG2B_Megamind_00049196_L.png;1497518790148;FalseGenerator;NoPenaltySpot
2017GO_vsNaoDevils_TestgameG2B_Megamind_00051351_L.png;1497518790030;FalseGenerator;NoPenaltySpot
2017GO_vsNaoDevils_TestgameG2B_Megamind_00053691_L.png;1497518790061;FalseGenerator;NoPenaltySpot
2017GO_vsNaoDevils_TestgameG2B_Megamind_00055382_L.png;1497518790014;FalseGenerator;NoPenaltySpot
2017GO_vsNaoDevils_TestgameG2B_Megamind_00057997_L.png;1497518789908;FalseGenerator;NoPenaltySpot
2017GO_vsNaoDevils_TestgameG2B_Megamind_00060556_L.png;1497518789974;FalseGenerator;NoPenaltySpot
2017GO_vsNaoDevils_TestgameG2B_Megamind_00063278_L.png;1497518790074;FalseGenerator;NoPenaltySpot
2017GO_vsNaoDevils_TestgameG2B_Megamind_00068748_L.png;1497518790090;FalseGenerator;NoPenaltySpot
2017GO_vsNaoDevils_TestgameG2B_Megamind_00070922_L.png;1497518789985;FalseGenerator;NoPenaltySpot
2017GO_vsNaoDevils_TestgameG2B_Megamind_00072838_L.png;1497518790117;FalseGenerator;NoPenaltySpot
2017GO_vsNaoDevils_TestgameG2B_Megamind_00075711_L.png;1497518789925;FalseGenerator;NoPenaltySpot
2017GO_vsNaoDevils_TestgameG2B_Megamind_00077704_L.png;1497518789923;FalseGenerator;NoPenaltySpot
2017GO_vsNaoDevils_TestgameG2B_Megamind_00081235_L.png;1497518789912;FalseGenerator;NoPenaltySpot
2017GO_vsNaoDevils_TestgameG2B_Megamind_00081417_L.png;1497518789972;FalseGenerator;NoPenaltySpot
2017GO_vsNaoDevils_TestgameG2B_Megamind_00083096_L.png;1497518790157;FalseGenerator;NoPenaltySpot
2017GO_vsNaoDevils_TestgameG2B_Megamind_00084811_L.png;1497518789993;FalseGenerator;NoPenaltySpot
2017GO_vsNaoDevils_TestgameG2B_Megamind_00086567_L.png;1497518790024;FalseGenerator;NoPenaltySpot
2017GO_vsNaoDevils_TestgameG2B_Megamind_00088272_L.png;1497518790053;FalseGenerator;NoPenaltySpot
2017GO_vsNaoDevils_TestgameG2B_Megamind_00090130_L.png;1497518790159;FalseGenerator;NoPenaltySpot
2017GO_vsNaoDevils_TestgameG2B_Megamind_00091946_L.png;1497518790154;FalseGenerator;NoPenaltySpot
2017GO_vsNaoDevils_TestgameG2B_Megamind_00094417_L.png;1497518789973;FalseGenerator;NoPenaltySpot
2017GO_vsNaoDevils_TestgameG2B_Megamind_00096479_L.png;1497518790170;FalseGenerator;NoPenaltySpot
2017GO_vsNaoDevils_TestgameG2B_Megamind_00099010_L.png;1497518790029;FalseGenerator;NoPenaltySpot
2017GO_vsNaoDevils_TestgameG2B_Megamind_00101250_L.png;1497518790111;FalseGenerator;NoPenaltySpot
2017GO_vsNaoDevils_TestgameG2B_Megamind_00107962_L.png;1497518790114;FalseGenerator;NoPenaltySpot
2017GO_vsNaoDevils_TestgameG2B_Megamind_00109422_L.png;1497518790103;FalseGenerator;NoPenaltySpot
2017GO_vsNaoDevils_TestgameG2B_Megamind_00111481_L.png;1497518789991;FalseGenerator;NoPenaltySpot
2017GO_vsNaoDevils_TestgameG2B_Megamind_00116433_L.png;1497518789983;FalseGenerator;NoPenaltySpot
2017GO_vsNaoDevils_TestgameG2B_Megamind_00118635_L.png;1497518790038;FalseGenerator;NoPenaltySpot
2017GO_vsNaoDevils_TestgameG2B_Megamind_00124267_L.png;1497518789981;FalseGenerator;NoPenaltySpot
2017GO_vsNaoDevils_TestgameG2B_Megamind_00124398_L.png;1497518790034;FalseGenerator;NoPenaltySpot
2017GO_vsNaoDevils_TestgameG2B_Megamind_00124722_L.png;1497518789879;FalseGenerator;NoPenaltySpot
2017GO_vsNaoDevils_TestgameG2B_Megamind_00127293_L.png;1497518789896;FalseGenerator;NoPenaltySpot
2017GO_vsNaoDevils_TestgameG2B_Megamind_00138341_L.png;1497518790074;FalseGenerator;NoPenaltySpot
2017GO_vsNaoDevils_TestgameG2B_Megamind_00139527_L.png;1497518790063;FalseGenerator;NoPenaltySpot
2017GO_vsNaoDevils_TestgameG2B_Megamind_00141340_L.png;1497518790054;FalseGenerator;NoPenaltySpot
2017GO_vsNaoDevils_TestgameG2B_Megamind_00143238_L.png;1497518790067;FalseGenerator;NoPenaltySpot
2017GO_vsNaoDevils_TestgameG2B_Megamind_00145811_L.png;1497518790087;FalseGenerator;NoPenaltySpot
2017GO_vsNaoDevils_TestgameG2B_Megamind_00147525_L.png;1497518790077;FalseGenerator;NoPenaltySpot
2017GO_vsNaoDevils_TestgameG2B_Megamind_00153905_L.png;1497518790132;FalseGenerator;NoPenaltySpot
2017GO_vsNaoDevils_TestgameG2B_Megamind_00155976_L.png;1497518790033;FalseGenerator;NoPenaltySpot
2017GO_vsNaoDevils_TestgameG2B_Megamind_00158735_L.png;1497518789966;FalseGenerator;NoPenaltySpot
2017GO_vsNaoDevils_TestgameG2B_Megamind_00160770_L.png;1497518789963;FalseGenerator;NoPenaltySpot
2017GO_vsNaoDevils_TestgameG2B_Megamind_00166154_L.png;1497518790060;FalseGenerator;NoPenaltySpot
2017GO_vsNaoDevils_TestgameG2B_Megamind_00173086_L.png;1497518790163;FalseGenerator;NoPenaltySpot
2017GO_vsNaoDevils_TestgameG2B_Megamind_00176087_L.png;1497518790147;FalseGenerator;NoPenaltySpot
2017GO_vsNaoDevils_TestgameG2B_Megamind_00178507_L.png;1497518789881;FalseGenerator;NoPenaltySpot
2017GO_vsNaoDevils_TestgameG2B_Megamind_00180838_L.png;1497518790050;FalseGenerator;NoPenaltySpot
2017GO_vsNaoDevils_TestgameG2B_Megamind_00182611_L.png;1497518789893;FalseGenerator;NoPenaltySpot
2017GO_vsNaoDevils_TestgameG2B_Megamind_00185295_L.png;1497518790026;FalseGenerator;NoPenaltySpot
2017GO_vsNaoDevils_TestgameG2B_Megamind_00187266_L.png;1497518789953;FalseGenerator;NoPenaltySpot
2017GO_vsNaoDevils_TestgameG2B_Megamind_00189341_L.png;1497518790027;FalseGenerator;NoPenaltySpot
2017GO_vsNaoDevils_TestgameG2B_Megamind_00191712_L.png;1497518790075;FalseGenerator;NoPenaltySpot
2017GO_vsNaoDevils_TestgameG2B_Megamind_00194234_L.png;1497518790011;FalseGenerator;NoPenaltySpot
2017GO_vsNaoDevils_TestgameG2B_Megamind_00196747_L.png;1497518790091;FalseGenerator;NoPenaltySpot
2017GO_vsNaoDevils_TestgameG2B_Megamind_00198624_L.png;1497518789906;FalseGenerator;NoPenaltySpot
2017GO_vsNaoDevils_TestgameG2B_Megamind_00200767_L.png;1497518789969;FalseGenerator;NoPenaltySpot
2017GO_vsNaoDevils_TestgameG2B_Megamind_00202955_L.png;1497518789933;FalseGenerator;NoPenaltySpot
2017GO_vsNaoDevils_TestgameG2B_Megamind_00205088_L.png;1497518790012;FalseGenerator;NoPenaltySpot
2017GO_vsNaoDevils_TestgameG2B_Megamind_00207349_L.png;1497518790002;FalseGenerator;NoPenaltySpot
2017GO_vsNaoDevils_TestgameG2B_Megamind_00209461_L.png;1497518789927;FalseGenerator;NoPenaltySpot
2017GO_vsNaoDevils_TestgameG2B_Megamind_00211930_L.png;1497518790109;FalseGenerator;NoPenaltySpot
2017GO_vsNaoDevils_TestgameG2B_Megamind_00213987_L.png;1497518790102;FalseGenerator;NoPenaltySpot
2017GO_vsNaoDevils_TestgameG2B_Megamind_00215950_L.png;1497518789899;FalseGenerator;NoPenaltySpot
2017GO_vsNaoDevils_TestgameG2B_Megamind_00218547_L.png;1497518790065;FalseGenerator;NoPenaltySpot
2017GO_vsNaoDevils_TestgameG2B_Megamind_00220640_L.png;1497518789932;FalseGenerator;NoPenaltySpot
2017GO_vsNaoDevils_TestgameG2B_Megamind_00223032_L.png;1497518789901;FalseGenerator;NoPenaltySpot
2017GO_vsNaoDevils_TestgameG2B_Megamind_00225507_L.png;1497518790025;FalseGenerator;NoPenaltySpot
2017GO_vsNaoDevils_TestgameG2B_Megamind_00228351_L.png;1497518790007;FalseGenerator;NoPenaltySpot
2017GO_vsNaoDevils_TestgameG2B_Megamind_00235803_L.png;1497518789939;FalseGenerator;NoPenaltySpot
2017GO_vsNaoDevils_TestgameG2B_Megamind_00244015_L.png;1497518790130;FalseGenerator;NoPenaltySpot
2017GO_vsNaoDevils_TestgameG2B_Megamind_00248791_L.png;1497518790019;FalseGenerator;NoPenaltySpot
2017GO_vsNaoDevils_TestgameG2B_Megamind_00251273_L.png;1497518789914;FalseGenerator;NoPenaltySpot
2017GO_vsNaoDevils_TestgameG2B_Megamind_00257310_L.png;1497518790137;FalseGenerator;NoPenaltySpot
2017GO_vsNaoDevils_TestgameG2B_Megamind_00262039_L.png;1497518789912;FalseGenerator;NoPenaltySpot
2017GO_vsNaoDevils_TestgameG2B_Megamind_00268845_L.png;1497518789914;FalseGenerator;NoPenaltySpot
2017GO_vsNaoDevils_TestgameG2B_Megamind_00272793_L.png;1497518790008;FalseGenerator;NoPenaltySpot
2017GO_vsNaoDevils_TestgameG2B_Megamind_00277793_L.png;1497518789994;FalseGenerator;NoPenaltySpot
2017GO_vsNaoDevils_TestgameG2B_Megamind_00280756_L.png;1497518789999;FalseGenerator;NoPenaltySpot
2017GO_vsNaoDevils_TestgameG2B_Megamind_00283443_L.png;1497518790092;FalseGenerator;NoPenaltySpot
2017GO_vsNaoDevils_TestgameG2B_Megamind_00285906_L.png;1497518790100;FalseGenerator;NoPenaltySpot
2017GO_vsNaoDevils_TestgameG2B_Megamind_00288729_L.png;1497518790131;FalseGenerator;NoPenaltySpot
2017GO_vsNaoDevils_TestgameG2B_Megamind_00291088_L.png;1497518789883;FalseGenerator;NoPenaltySpot
2017GO_vsNaoDevils_TestgameG2B_Megamind_00293514_L.png;1497518790039;FalseGenerator;NoPenaltySpot
2017GO_vsNaoDevils_TestgameG2B_Megamind_00295688_L.png;1497518790080;FalseGenerator;NoPenaltySpot
2017GO_vsNaoDevils_TestgameG2B_Megamind_00298311_L.png;1497518789964;FalseGenerator;NoPenaltySpot
2017GO_vsNaoDevils_TestgameG2B_Megamind_00301117_L.png;1497518790145;FalseGenerator;NoPenaltySpot
2017GO_vsNaoDevils_TestgameG2B_Megamind_00303555_L.png;1497518790010;FalseGenerator;NoPenaltySpot
2017GO_vsNaoDevils_TestgameG2B_Megamind_00305855_L.png;1497518790098;FalseGenerator;NoPenaltySpot
2017GO_vsNaoDevils_TestgameG2B_Megamind_00307833_L.png;1497518789933;FalseGenerator;NoPenaltySpot
2017GO_vsNaoDevils_TestgameG2B_Megamind_00309736_L.png;1497518789886;FalseGenerator;NoPenaltySpot
2017GO_vsNaoDevils_TestgameG2B_Megamind_00314789_L.png;1497518790013;FalseGenerator;NoPenaltySpot
2017GO_vsNaoDevils_TestgameG2B_Megamind_00316810_L.png;1497518789967;FalseGenerator;NoPenaltySpot
2017GO_vsNaoDevils_TestgameG2B_Megamind_00318724_L.png;1497518790058;FalseGenerator;NoPenaltySpot
2017GO_vsNaoDevils_TestgameG2B_Megamind_00320711_L.png;1497518790116;FalseGenerator;NoPenaltySpot
2017GO_vsNaoDevils_TestgameG2B_Megamind_00322971_L.png;1497518789886;FalseGenerator;NoPenaltySpot
2017GO_vsNaoDevils_TestgameG2B_Megamind_00328674_L.png;1497518790031;FalseGenerator;NoPenaltySpot
2017GO_vsNaoDevils_TestgameG2B_Megamind_00330948_L.png;1497518790166;FalseGenerator;NoPenaltySpot
2017GO_vsNaoDevils_TestgameG2B_Megamind_00341745_L.png;1497518789897;FalseGenerator;NoPenaltySpot
2017GO_vsNaoDevils_TestgameG2B_Megamind_00346696_L.png;1497518789904;FalseGenerator;NoPenaltySpot
2017GO_vsNaoDevils_TestgameG2B_Megamind_00348815_L.png;1497518789918;FalseGenerator;NoPenaltySpot
2017GO_vsNaoDevils_TestgameG2B_Megamind_00351763_L.png;1497518789916;FalseGenerator;NoPenaltySpot
2017GO_vsNaoDevils_TestgameG2B_Megamind_00354190_L.png;1497518790059;FalseGenerator;NoPenaltySpot
2017GO_vsNaoDevils_TestgameG2B_Megamind_00356865_L.png;1497518790005;FalseGenerator;NoPenaltySpot
2017GO_vsNaoDevils_TestgameG2B_Megamind_00358430_L.png;1497518789976;FalseGenerator;NoPenaltySpot
2017GO_vsNaoDevils_TestgameG2B_Megamind_00361112_L.png;1497518789880;FalseGenerator;NoPenaltySpot
2017GO_vsNaoDevils_TestgameG2B_Megamind_00365103_L.png;1497518789956;FalseGenerator;NoPenaltySpot
2017GO_vsNaoDevils_TestgameG2B_Megamind_00366835_L.png;1497518789951;FalseGenerator;NoPenaltySpot
2017GO_vsNaoDevils_TestgameG2B_Megamind_00369499_L.png;1497518790081;FalseGenerator;NoPenaltySpot
2017GO_vsNaoDevils_TestgameG2B_Megamind_00371333_L.png;1497518789995;FalseGenerator;NoPenaltySpot
2017GO_vsNaoDevils_TestgameG2B_Megamind_00373117_L.png;1497518790149;FalseGenerator;NoPenaltySpot
2017GO_vsNaoDevils_TestgameG2B_Megamind_00375270_L.png;1497518790086;FalseGenerator;NoPenaltySpot
2017GO_vsNaoDevils_TestgameG2B_Megamind_00377410_L.png;1497518790043;FalseGenerator;NoPenaltySpot
2017GO_vsNaoDevils_TestgameG2B_Megamind_00379498_L.png;1497518789910;FalseGenerator;NoPenaltySpot
2017GO_vsNaoDevils_TestgameG2B_Megamind_00381734_L.png;1497518790061;FalseGenerator;NoPenaltySpot
2017GO_vsNaoDevils_TestgameG2B_Megamind_00383874_L.png;1497518789891;FalseGenerator;NoPenaltySpot
2017GO_vsNaoDevils_TestgameG2B_Megamind_00386022_L.png;1497518790082;FalseGenerator;NoPenaltySpot
2017GO_vsNaoDevils_TestgameG2B_Megamind_00388742_L.png;1497518790040;FalseGenerator;NoPenaltySpot
2017GO_vsNaoDevils_TestgameG2B_Megamind_00391131_L.png;1497518789948;FalseGenerator;NoPenaltySpot
2017GO_vsNaoDevils_TestgameG2B_Megamind_00393535_L.png;1497518789894;FalseGenerator;NoPenaltySpot
2017GO_vsNaoDevils_TestgameG2B_Megamind_00396079_L.png;1497518790173;FalseGenerator;NoPenaltySpot
2017GO_vsNaoDevils_TestgameG2B_Megamind_00397951_L.png;1497518790009;FalseGenerator;NoPenaltySpot
2017GO_vsNaoDevils_TestgameG2B_Megamind_00403169_L.png;1497518790160;FalseGenerator;NoPenaltySpot
2017GO_vsNaoDevils_TestgameG2B_Megamind_00405783_L.png;1497518789882;FalseGenerator;NoPenaltySpot
2017GO_vsNaoDevils_TestgameG2B_Megamind_00407607_L.png;1497518790124;FalseGenerator;NoPenaltySpot
2017GO_vsNaoDevils_TestgameG2B_Megamind_00410183_L.png;1497518790049;FalseGenerator;NoPenaltySpot
2017GO_vsNaoDevils_TestgameG2B_Megamind_00412841_L.png;1497518789987;FalseGenerator;NoPenaltySpot
2017GO_vsNaoDevils_TestgameG2B_Megamind_00414631_L.png;1497518789883;FalseGenerator;NoPenaltySpot
2017GO_vsNaoDevils_TestgameG2B_Megamind_00417119_L.png;1497518790161;FalseGenerator;NoPenaltySpot
2017GO_vsNaoDevils_TestgameG2B_Megamind_00418878_L.png;1497518790150;FalseGenerator;NoPenaltySpot
2017GO_vsNaoDevils_TestgameG2B_Megamind_00420857_L.png;1497518790146;FalseGenerator;NoPenaltySpot
2017GO_vsNaoDevils_TestgameG2B_Megamind_00423034_L.png;1497518789899;FalseGenerator;NoPenaltySpot
2017GO_vsNaoDevils_TestgameG2B_Megamind_00427834_L.png;1497518789909;FalseGenerator;NoPenaltySpot
2017GO_vsNaoDevils_TestgameG2B_Megamind_00429614_L.png;1497518790079;FalseGenerator;NoPenaltySpot
2017GO_vsNaoDevils_TestgameG2B_Megamind_00431601_L.png;1497518789974;FalseGenerator;NoPenaltySpot
2017GO_vsNaoDevils_TestgameG2B_Megamind_00433644_L.png;1497518789947;FalseGenerator;NoPenaltySpot
2017GO_vsNaoDevils_TestgameG2B_Megamind_00435957_L.png;1497518789915;FalseGenerator;NoPenaltySpot
2017GO_vsNaoDevils_TestgameG2B_Megamind_00441242_L.png;1497518789960;FalseGenerator;NoPenaltySpot
2017GO_vsNaoDevils_TestgameG2B_Megamind_00443409_L.png;1497518789961;FalseGenerator;NoPenaltySpot
2017GO_vsNaoDevils_TestgameG2B_Megamind_00445378_L.png;1497518789979;FalseGenerator;NoPenaltySpot
2017GO_vsNaoDevils_TestgameG2B_Megamind_00447155_L.png;1497518790135;FalseGenerator;NoPenaltySpot
2017GO_vsNaoDevils_TestgameG2B_Megamind_00449334_L.png;1497518790133;FalseGenerator;NoPenaltySpot
2017GO_vsNaoDevils_TestgameG2B_Megamind_00452075_L.png;1497518790134;FalseGenerator;NoPenaltySpot
2017GO_vsNaoDevils_TestgameG2B_Megamind_00453991_L.png;1497518789942;FalseGenerator;NoPenaltySpot
2017GO_vsNaoDevils_TestgameG2B_Megamind_00456253_L.png;1497518790016;FalseGenerator;NoPenaltySpot
2017GO_vsNaoDevils_TestgameG2B_Megamind_00459393_L.png;1497518789884;FalseGenerator;NoPenaltySpot
2017GO_vsNaoDevils_TestgameG2B_Megamind_00461153_L.png;1497518789996;FalseGenerator;NoPenaltySpot
2017GO_vsNaoDevils_TestgameG2B_Megamind_00466693_L.png;1497518789900;FalseGenerator;NoPenaltySpot
2017GO_vsNaoDevils_TestgameG2B_Megamind_00468671_L.png;1497518790045;FalseGenerator;NoPenaltySpot
2017GO_vsNaoDevils_TestgameG2B_Megamind_00470501_L.png;1497518789952;FalseGenerator;NoPenaltySpot
2017GO_vsNaoDevils_TestgameG2B_Megamind_00472749_L.png;1497518790178;FalseGenerator;NoPenaltySpot
2017GO_vsNaoDevils_TestgameG2B_Megamind_00474564_L.png;1497518789920;FalseGenerator;NoPenaltySpot
2017GO_vsNaoDevils_TestgameG2B_Megamind_00477414_L.png;1497518790044;FalseGenerator;NoPenaltySpot
2017GO_vsNaoDevils_TestgameG2B_Megamind_00479358_L.png;1497518789887;FalseGenerator;NoPenaltySpot
2017GO_vsNaoDevils_TestgameG2B_Megamind_00481492_L.png;1497518790153;FalseGenerator;NoPenaltySpot
2017GO_vsNaoDevils_TestgameG2B_Megamind_00483637_L.png;1497518790106;FalseGenerator;NoPenaltySpot
2017GO_vsNaoDevils_TestgameG2B_Megamind_00486551_L.png;1497518789889;FalseGenerator;NoPenaltySpot
2017GO_vsNaoDevils_TestgameG2B_Megamind_00489090_L.png;1497518790015;FalseGenerator;NoPenaltySpot
2017GO_vsNaoDevils_TestgameG2B_Megamind_00491918_L.png;1497518790141;FalseGenerator;NoPenaltySpot
2017GO_vsNaoDevils_TestgameG2B_Megamind_00494212_L.png;1497518789977;FalseGenerator;NoPenaltySpot
2017GO_vsNaoDevils_TestgameG2B_Megamind_00496577_L.png;1497518789954;FalseGenerator;NoPenaltySpot
2017GO_vsNaoDevils_TestgameG2B_Megamind_00499365_L.png;1497518790094;FalseGenerator;NoPenaltySpot
2017GO_vsNaoDevils_TestgameG2B_Megamind_00501377_L.png;1497518790126;FalseGenerator;NoPenaltySpot
2017GO_vsNaoDevils_TestgameG2B_Megamind_00503557_L.png;1497518790023;FalseGenerator;NoPenaltySpot
2017GO_vsNaoDevils_TestgameG2B_Megamind_00505921_L.png;1497518789907;FalseGenerator;NoPenaltySpot
2017GO_vsNaoDevils_TestgameG2B_Megamind_00508424_L.png;1497518790032;FalseGenerator;NoPenaltySpot
2017GO_vsNaoDevils_TestgameG2B_Megamind_00510881_L.png;1497518789958;FalseGenerator;NoPenaltySpot
2017GO_vsNaoDevils_TestgameG2B_Megamind_00512133_L.png;1497518790101;FalseGenerator;NoPenaltySpot
2017GO_vsNaoDevils_TestgameG2B_Megamind_00514664_L.png;1497518789931;FalseGenerator;NoPenaltySpot
2017GO_vsNaoDevils_TestgameG2B_Megamind_00516536_L.png;1497518789892;FalseGenerator;NoPenaltySpot
2017GO_vsNaoDevils_TestgameG2B_Megamind_00518745_L.png;1497518790141;FalseGenerator;NoPenaltySpot
2017GO_vsNaoDevils_TestgameG2B_Megamind_00520254_L.png;1497518789996;FalseGenerator;NoPenaltySpot
2017GO_vsNaoDevils_TestgameG2B_Megamind_00522233_L.png;1497518789894;FalseGenerator;NoPenaltySpot
2017GO_vsNaoDevils_TestgameG2B_Megamind_00524499_L.png;1497518790052;FalseGenerator;NoPenaltySpot
2017GO_vsNaoDevils_TestgameG2B_Megamind_00526872_L.png;1497518789881;FalseGenerator;NoPenaltySpot
2017GO_vsNaoDevils_TestgameG2B_Megamind_00528670_L.png;1497518790020;FalseGenerator;NoPenaltySpot
2017GO_vsNaoDevils_TestgameG2B_Megamind_00531057_L.png;1497518790046;FalseGenerator;NoPenaltySpot
2017GO_vsNaoDevils_TestgameG2B_Megamind_00532252_L.png;1497518790001;FalseGenerator;NoPenaltySpot
2017GO_vsNaoDevils_TestgameG2B_Megamind_00534304_L.png;1497518789941;FalseGenerator;NoPenaltySpot
2017GO_vsNaoDevils_TestgameG2B_Megamind_00540853_L.png;1497518790056;FalseGenerator;NoPenaltySpot
2017GO_vsNaoDevils_TestgameG2B_Megamind_00543460_L.png;1497518790107;FalseGenerator;NoPenaltySpot
2017GO_vsNaoDevils_TestgameG2B_Megamind_00546738_L.png;1497518790099;FalseGenerator;NoPenaltySpot
2017GO_vsNaoDevils_TestgameG2B_Megamind_00549137_L.png;1497518790168;FalseGenerator;NoPenaltySpot
2017GO_vsNaoDevils_TestgameG2B_Megamind_00550815_L.png;1497518789930;FalseGenerator;NoPenaltySpot
2017GO_vsNaoDevils_TestgameG2B_Megamind_00554494_L.png;1497518789982;FalseGenerator;NoPenaltySpot
2017GO_vsNaoDevils_TestgameG2B_Megamind_00559156_L.png;1497518789911;FalseGenerator;NoPenaltySpot
2017GO_vsNaoDevils_TestgameG2B_Megamind_00561380_L.png;1497518789896;FalseGenerator;NoPenaltySpot
2017GO_vsNaoDevils_TestgameG2B_Megamind_00568277_L.png;1497518790001;FalseGenerator;NoPenaltySpot
2017GO_vsNaoDevils_TestgameG2B_Megamind_00570725_L.png;1497518790139;FalseGenerator;NoPenaltySpot
2017GO_vsNaoDevils_TestgameG2B_Megamind_00573399_L.png;1497518790164;FalseGenerator;NoPenaltySpot
2017GO_vsNaoDevils_TestgameG2B_Megamind_00574885_L.png;1497518789990;FalseGenerator;NoPenaltySpot
2017GO_vsNaoDevils_TestgameG2B_Megamind_00577101_L.png;1497518789901;FalseGenerator;NoPenaltySpot
2017GO_vsNaoDevils_TestgameG2B_Megamind_00578890_L.png;1497518789897;FalseGenerator;NoPenaltySpot
2017GO_vsNaoDevils_TestgameG2B_Megamind_00584048_L.png;1497518790078;FalseGenerator;NoPenaltySpot
2017GO_vsNaoDevils_TestgameG2B_Megamind_00586717_L.png;1497518789925;FalseGenerator;NoPenaltySpot
2017GO_vsNaoDevils_TestgameG2B_Megamind_00589266_L.png;1497518789916;FalseGenerator;NoPenaltySpot
2017GO_vsNaoDevils_TestgameG2B_Megamind_00591394_L.png;1497518790072;FalseGenerator;NoPenaltySpot
2017GO_vsNaoDevils_TestgameG2B_Megamind_00593759_L.png;1497518790093;FalseGenerator;NoPenaltySpot
2017GO_vsNaoDevils_TestgameG2B_Megamind_00596091_L.png;1497518789918;FalseGenerator;NoPenaltySpot
2017GO_vsNaoDevils_TestgameG2B_Megamind_00600991_L.png;1497518789939;FalseGenerator;NoPenaltySpot
2017GO_vsNaoDevils_TestgameG2B_Megamind_00603066_L.png;1497518789965;FalseGenerator;NoPenaltySpot
2017GO_vsNaoDevils_TestgameG2B_Megamind_00605118_L.png;1497518789984;FalseGenerator;NoPenaltySpot
2017GO_vsNaoDevils_TestgameG2B_Megamind_00607150_L.png;1497518790066;FalseGenerator;NoPenaltySpot
2017GO_vsNaoDevils_TestgameG2B_Megamind_00609578_L.png;1497518789917;FalseGenerator;NoPenaltySpot
2017GO_vsNaoDevils_TestgameG2B_Megamind_00613255_L.png;1497518790028;FalseGenerator;NoPenaltySpot
2017GO_vsNaoDevils_TestgameG2B_Megamind_00614164_L.png;1497518790112;FalseGenerator;NoPenaltySpot
2017GO_vsNaoDevils_TestgameG2B_Megamind_00616535_L.png;1497518789962;FalseGenerator;NoPenaltySpot
2017GO_vsNaoDevils_TestgameG2B_Megamind_00618408_L.png;1497518789935;FalseGenerator;NoPenaltySpot
2017GO_vsNaoDevils_TestgameG2B_Megamind_00621650_L.png;1497518789988;FalseGenerator;NoPenaltySpot
2017GO_vsNaoDevils_TestgameG2B_Megamind_00623816_L.png;1497518790073;FalseGenerator;NoPenaltySpot
2017GO_vsNaoDevils_TestgameG2B_Megamind_00627758_L.png;1497518790176;FalseGenerator;NoPenaltySpot
2017GO_vsNaoDevils_TestgameG2B_Megamind_00629668_L.png;1497518790017;FalseGenerator;NoPenaltySpot
2017GO_vsNaoDevils_TestgameG2B_Megamind_00632215_L.png;1497518789957;FalseGenerator;NoPenaltySpot
2017GO_vsNaoDevils_TestgameG2B_Megamind_00634638_L.png;1497518790021;FalseGenerator;NoPenaltySpot
2017GO_vsNaoDevils_TestgameG2B_Megamind_00636766_L.png;1497518789945;FalseGenerator;NoPenaltySpot
2017GO_vsNaoDevils_TestgameG2B_Megamind_00639829_L.png;1497518790062;FalseGenerator;NoPenaltySpot
2017GO_vsNaoDevils_TestgameG2B_Megamind_00645339_L.png;1497518790041;FalseGenerator;NoPenaltySpot
2017GO_vsNaoDevils_TestgameG2B_Megamind_00647097_L.png;1497518789943;FalseGenerator;NoPenaltySpot
2017GO_vsNaoDevils_TestgameG2B_Megamind_00653564_L.png;1497518789944;FalseGenerator;NoPenaltySpot
2017GO_vsNaoDevils_TestgameG2B_Megamind_00660490_L.png;1497518789981;FalseGenerator;NoPenaltySpot
2017GO_vsNaoDevils_TestgameG2B_Megamind_00662380_L.png;1497518789888;FalseGenerator;NoPenaltySpot
2017GO_vsNaoDevils_TestgameG2B_Megamind_00666553_L.png;1497518789885;FalseGenerator;NoPenaltySpot
2017GO_vsNaoDevils_TestgameG2B_Megamind_00668760_L.png;1497518790000;FalseGenerator;NoPenaltySpot
2017GO_vsNaoDevils_TestgameG2B_Megamind_00670923_L.png;1497518789993;FalseGenerator;NoPenaltySpot
2017GO_vsNaoDevils_TestgameG2B_Megamind_00672830_L.png;1497518789931;FalseGenerator;NoPenaltySpot
2017GO_vsNaoDevils_TestgameG2B_Megamind_00675029_L.png;1497518789992;FalseGenerator;NoPenaltySpot
2017GO_vsNaoDevils_TestgameG2B_Megamind_00677124_L.png;1497518790096;FalseGenerator;NoPenaltySpot
2017GO_vsNaoDevils_TestgameG2B_Megamind_00679768_L.png;1497518790088;FalseGenerator;NoPenaltySpot
2017GO_vsNaoDevils_TestgameG2B_Megamind_00681390_L.png;1497518789895;FalseGenerator;NoPenaltySpot
2017GO_vsNaoDevils_TestgameG2B_Megamind_00133482_L.png;1497514154208;tkalbitz;PenaltySpot;272;142;292;149;PenaltySpot
2017GO_vsNaoDevils_TestgameG2B_Megamind_00275522_L.png;1497514155864;tkalbitz;PenaltySpot;0;35;40;87;PenaltySpot
2017GO_vsNaoDevils_TestgameG2B_Megamind_00084811_L.png;1497516233276;tkalbitz;SkipBall
2017GO_vsNaoDevils_TestgameG2B_Megamind_00577101_L.png;1497516481291;tkalbitz;SkipBall
2017GO_vsNaoDevils_TestgameG2B_Megamind_00084811_L.png;1652366928355;tkalbitz;SkipCenterCirclePoints
2017GO_vsNaoDevils_TestgameG2B_Megamind_00124267_L.png;1652527034573;tkalbitz;SkipCenterCirclePoints
2017GO_vsNaoDevils_TestgameG2B_Megamind_00133482_L.png;1652374564157;tkalbitz;SkipCenterCirclePoints
